<?xml version="1.0" encoding="utf-8"  standalone="no"?>
<!DOCTYPE svg PUBLIC "-//W3C//DTD SVG 1.1//EN" 
 "http://www.w3.org/Graphics/SVG/1.1/DTD/svg11.dtd">
<svg 
 width="600" height="480" 
 viewBox="0 0 600 480"
 xmlns="http://www.w3.org/2000/svg"
 xmlns:xlink="http://www.w3.org/1999/xlink"
>

<title>Gnuplot</title>
<desc>Produced by GNUPLOT 4.6 patchlevel 1 </desc>

<g id="gnuplot_canvas">

<rect x="0" y="0" width="600" height="480" fill="none"/>
<defs>

	<circle id='gpDot' r='0.5' stroke-width='0.5'/>
	<path id='gpPt0' stroke-width='0.222' stroke='currentColor' d='M-1,0 h2 M0,-1 v2'/>
	<path id='gpPt1' stroke-width='0.222' stroke='currentColor' d='M-1,-1 L1,1 M1,-1 L-1,1'/>
	<path id='gpPt2' stroke-width='0.222' stroke='currentColor' d='M-1,0 L1,0 M0,-1 L0,1 M-1,-1 L1,1 M-1,1 L1,-1'/>
	<rect id='gpPt3' stroke-width='0.222' stroke='currentColor' x='-1' y='-1' width='2' height='2'/>
	<rect id='gpPt4' stroke-width='0.222' stroke='currentColor' fill='currentColor' x='-1' y='-1' width='2' height='2'/>
	<circle id='gpPt5' stroke-width='0.222' stroke='currentColor' cx='0' cy='0' r='1'/>
	<use xlink:href='#gpPt5' id='gpPt6' fill='currentColor' stroke='none'/>
	<path id='gpPt7' stroke-width='0.222' stroke='currentColor' d='M0,-1.33 L-1.33,0.67 L1.33,0.67 z'/>
	<use xlink:href='#gpPt7' id='gpPt8' fill='currentColor' stroke='none'/>
	<use xlink:href='#gpPt7' id='gpPt9' stroke='currentColor' transform='rotate(180)'/>
	<use xlink:href='#gpPt9' id='gpPt10' fill='currentColor' stroke='none'/>
	<use xlink:href='#gpPt3' id='gpPt11' stroke='currentColor' transform='rotate(45)'/>
	<use xlink:href='#gpPt11' id='gpPt12' fill='currentColor' stroke='none'/>
</defs>
<g style="fill:none; color:white; stroke:currentColor; stroke-width:1.00; stroke-linecap:butt; stroke-linejoin:miter">
</g>
<g style="fill:none; color:black; stroke:currentColor; stroke-width:1.00; stroke-linecap:butt; stroke-linejoin:miter">
	<path  d='M80.2,422.4 L89.2,422.4 M507.2,422.4 L498.2,422.4  h0.01'/>	<g transform="translate(71.9,426.9)" style="stroke:none; fill:black; font-family:Arial; font-size:12.00pt; text-anchor:end">
		<text> 0</text>
	</g>
	<path  d='M80.2,369.8 L89.2,369.8 M507.2,369.8 L498.2,369.8  h0.01'/>	<g transform="translate(71.9,374.3)" style="stroke:none; fill:black; font-family:Arial; font-size:12.00pt; text-anchor:end">
		<text> 1000</text>
	</g>
	<path  d='M80.2,317.2 L89.2,317.2 M507.2,317.2 L498.2,317.2  h0.01'/>	<g transform="translate(71.9,321.7)" style="stroke:none; fill:black; font-family:Arial; font-size:12.00pt; text-anchor:end">
		<text> 2000</text>
	</g>
	<path  d='M80.2,264.6 L89.2,264.6 M507.2,264.6 L498.2,264.6  h0.01'/>	<g transform="translate(71.9,269.1)" style="stroke:none; fill:black; font-family:Arial; font-size:12.00pt; text-anchor:end">
		<text> 3000</text>
	</g>
	<path  d='M80.2,211.9 L89.2,211.9 M507.2,211.9 L498.2,211.9  h0.01'/>	<g transform="translate(71.9,216.4)" style="stroke:none; fill:black; font-family:Arial; font-size:12.00pt; text-anchor:end">
		<text> 4000</text>
	</g>
	<path  d='M80.2,159.3 L89.2,159.3 M507.2,159.3 L498.2,159.3  h0.01'/>	<g transform="translate(71.9,163.8)" style="stroke:none; fill:black; font-family:Arial; font-size:12.00pt; text-anchor:end">
		<text> 5000</text>
	</g>
	<path  d='M80.2,106.7 L89.2,106.7 M507.2,106.7 L498.2,106.7  h0.01'/>	<g transform="translate(71.9,111.2)" style="stroke:none; fill:black; font-family:Arial; font-size:12.00pt; text-anchor:end">
		<text> 6000</text>
	</g>
	<path  d='M80.2,54.1 L89.2,54.1 M507.2,54.1 L498.2,54.1  h0.01'/>	<g transform="translate(71.9,58.6)" style="stroke:none; fill:black; font-family:Arial; font-size:12.00pt; text-anchor:end">
		<text> 7000</text>
	</g>
	<path  d='M80.2,422.4 L80.2,413.4 M80.2,54.1 L80.2,63.1  h0.01'/>	<g transform="translate(80.2,444.9)" style="stroke:none; fill:black; font-family:Arial; font-size:12.00pt; text-anchor:middle">
		<text> 0</text>
	</g>
	<path  d='M122.9,422.4 L122.9,413.4 M122.9,54.1 L122.9,63.1  h0.01'/>	<g transform="translate(122.9,444.9)" style="stroke:none; fill:black; font-family:Arial; font-size:12.00pt; text-anchor:middle">
		<text> 10</text>
	</g>
	<path  d='M165.6,422.4 L165.6,413.4 M165.6,54.1 L165.6,63.1  h0.01'/>	<g transform="translate(165.6,444.9)" style="stroke:none; fill:black; font-family:Arial; font-size:12.00pt; text-anchor:middle">
		<text> 20</text>
	</g>
	<path  d='M208.3,422.4 L208.3,413.4 M208.3,54.1 L208.3,63.1  h0.01'/>	<g transform="translate(208.3,444.9)" style="stroke:none; fill:black; font-family:Arial; font-size:12.00pt; text-anchor:middle">
		<text> 30</text>
	</g>
	<path  d='M251.0,422.4 L251.0,413.4 M251.0,54.1 L251.0,63.1  h0.01'/>	<g transform="translate(251.0,444.9)" style="stroke:none; fill:black; font-family:Arial; font-size:12.00pt; text-anchor:middle">
		<text> 40</text>
	</g>
	<path  d='M293.7,422.4 L293.7,413.4 M293.7,54.1 L293.7,63.1  h0.01'/>	<g transform="translate(293.7,444.9)" style="stroke:none; fill:black; font-family:Arial; font-size:12.00pt; text-anchor:middle">
		<text> 50</text>
	</g>
	<path  d='M336.4,422.4 L336.4,413.4 M336.4,54.1 L336.4,63.1  h0.01'/>	<g transform="translate(336.4,444.9)" style="stroke:none; fill:black; font-family:Arial; font-size:12.00pt; text-anchor:middle">
		<text> 60</text>
	</g>
	<path  d='M379.1,422.4 L379.1,413.4 M379.1,54.1 L379.1,63.1  h0.01'/>	<g transform="translate(379.1,444.9)" style="stroke:none; fill:black; font-family:Arial; font-size:12.00pt; text-anchor:middle">
		<text> 70</text>
	</g>
	<path  d='M421.8,422.4 L421.8,413.4 M421.8,54.1 L421.8,63.1  h0.01'/>	<g transform="translate(421.8,444.9)" style="stroke:none; fill:black; font-family:Arial; font-size:12.00pt; text-anchor:middle">
		<text> 80</text>
	</g>
	<path  d='M464.5,422.4 L464.5,413.4 M464.5,54.1 L464.5,63.1  h0.01'/>	<g transform="translate(464.5,444.9)" style="stroke:none; fill:black; font-family:Arial; font-size:12.00pt; text-anchor:middle">
		<text> 90</text>
	</g>
	<path  d='M507.2,422.4 L507.2,413.4 M507.2,54.1 L507.2,63.1  h0.01'/>	<g transform="translate(507.2,444.9)" style="stroke:none; fill:black; font-family:Arial; font-size:12.00pt; text-anchor:middle">
		<text> 100</text>
	</g>
	<path  d='M507.2,422.4 L498.2,422.4  h0.01'/>	<g transform="translate(515.5,426.9)" style="stroke:none; fill:blue; font-family:Arial; font-size:12.00pt; text-anchor:start">
		<text> 0</text>
	</g>
	<path  d='M507.2,385.6 L498.2,385.6  h0.01'/>	<g transform="translate(515.5,390.1)" style="stroke:none; fill:blue; font-family:Arial; font-size:12.00pt; text-anchor:start">
		<text> 50</text>
	</g>
	<path  d='M507.2,348.7 L498.2,348.7  h0.01'/>	<g transform="translate(515.5,353.2)" style="stroke:none; fill:blue; font-family:Arial; font-size:12.00pt; text-anchor:start">
		<text> 100</text>
	</g>
	<path  d='M507.2,311.9 L498.2,311.9  h0.01'/>	<g transform="translate(515.5,316.4)" style="stroke:none; fill:blue; font-family:Arial; font-size:12.00pt; text-anchor:start">
		<text> 150</text>
	</g>
	<path  d='M507.2,275.1 L498.2,275.1  h0.01'/>	<g transform="translate(515.5,279.6)" style="stroke:none; fill:blue; font-family:Arial; font-size:12.00pt; text-anchor:start">
		<text> 200</text>
	</g>
	<path  d='M507.2,238.2 L498.2,238.2  h0.01'/>	<g transform="translate(515.5,242.7)" style="stroke:none; fill:blue; font-family:Arial; font-size:12.00pt; text-anchor:start">
		<text> 250</text>
	</g>
	<path  d='M507.2,201.4 L498.2,201.4  h0.01'/>	<g transform="translate(515.5,205.9)" style="stroke:none; fill:blue; font-family:Arial; font-size:12.00pt; text-anchor:start">
		<text> 300</text>
	</g>
	<path  d='M507.2,164.6 L498.2,164.6  h0.01'/>	<g transform="translate(515.5,169.1)" style="stroke:none; fill:blue; font-family:Arial; font-size:12.00pt; text-anchor:start">
		<text> 350</text>
	</g>
	<path  d='M507.2,127.8 L498.2,127.8  h0.01'/>	<g transform="translate(515.5,132.3)" style="stroke:none; fill:blue; font-family:Arial; font-size:12.00pt; text-anchor:start">
		<text> 400</text>
	</g>
	<path  d='M507.2,90.9 L498.2,90.9  h0.01'/>	<g transform="translate(515.5,95.4)" style="stroke:none; fill:blue; font-family:Arial; font-size:12.00pt; text-anchor:start">
		<text> 450</text>
	</g>
	<path  d='M507.2,54.1 L498.2,54.1  h0.01'/>	<g transform="translate(515.5,58.6)" style="stroke:none; fill:blue; font-family:Arial; font-size:12.00pt; text-anchor:start">
		<text> 500</text>
	</g>
	<path  d='M80.2,54.1 L80.2,422.4 L507.2,422.4 L507.2,54.1 L80.2,54.1 Z  h0.01'/>	<g transform="translate(17.6,238.3) rotate(270)" style="stroke:none; fill:black; font-family:Arial; font-size:12.00pt; text-anchor:middle">
		<text>TCP throughput (Kbps)</text>
	</g>
	<g transform="translate(570.4,238.3) rotate(270)" style="stroke:none; fill:black; font-family:Arial; font-size:12.00pt; text-anchor:middle">
		<text>TCP UL Delay (ms)</text>
	</g>
	<g transform="translate(293.7,471.9)" style="stroke:none; fill:black; font-family:Arial; font-size:12.00pt; text-anchor:middle">
		<text>Time (s)</text>
	</g>
	<g transform="translate(293.7,31.6)" style="stroke:none; fill:black; font-family:Arial; font-size:12.00pt; text-anchor:middle">
		<text>Distance 700m, 3kmph: TCP throughput vs link capacity Uplink 100RBs PfffScheduler #x1</text>
	</g>
	<path  d='M257.5,413.4 L257.5,359.4 L498.9,359.4 L498.9,413.4 L257.5,413.4 Z  h0.01'/></g>
	<g id="gnuplot_plot_1" ><title>gnuplot_plot_1</title>
<g style="fill:none; color:red; stroke:currentColor; stroke-width:1.00; stroke-linecap:butt; stroke-linejoin:miter">
	<g transform="translate(440.1,372.9)" style="stroke:none; fill:black; font-family:Arial; font-size:12.00pt; text-anchor:end">
		<text>TCP Throughput</text>
	</g>
	<path  d='M448.4,368.4 L490.6,368.4 M83.0,409.4 L83.2,409.4 L83.4,415.4 L83.6,412.3 L83.8,412.3 L84.0,414.8 
		L84.3,414.8 L84.5,412.7 L84.7,412.7 L84.9,412.7 L85.1,412.7 L85.3,412.5 L85.5,411.6 L85.8,408.9 
		L86.0,408.9 L86.2,401.7 L86.4,400.6 L86.6,400.6 L86.8,400.6 L87.0,385.5 L87.2,367.2 L87.5,368.1 
		L87.7,360.6 L87.9,360.6 L88.1,358.6 L88.3,358.6 L88.5,359.1 L88.7,352.7 L89.0,352.7 L89.2,352.7 
		L89.4,352.7 L89.6,352.7 L89.8,352.7 L90.0,352.7 L90.2,352.7 L90.4,352.7 L90.7,352.7 L90.9,370.4 
		L91.1,370.3 L91.3,370.4 L91.5,370.4 L91.7,370.4 L91.9,370.4 L92.2,369.8 L92.4,369.2 L92.6,369.2 
		L92.8,369.2 L93.0,369.2 L93.2,369.2 L93.4,369.2 L93.6,369.2 L93.9,369.2 L94.1,369.2 L94.3,378.5 
		L94.5,378.5 L94.7,375.8 L94.9,368.2 L95.1,368.2 L95.4,369.0 L95.6,369.0 L95.8,365.6 L96.0,363.5 
		L96.2,363.5 L96.4,363.5 L96.6,365.2 L96.8,365.2 L97.1,365.4 L97.3,364.3 L97.5,364.3 L97.7,364.3 
		L97.9,364.3 L98.1,364.3 L98.3,368.1 L98.6,368.7 L98.8,361.6 L99.0,360.7 L99.2,360.7 L99.4,360.7 
		L99.6,361.6 L99.8,357.9 L100.1,357.7 L100.3,357.7 L100.5,357.7 L100.7,357.7 L100.9,357.7 L101.1,357.7 
		L101.3,362.5 L101.5,362.5 L101.8,362.5 L102.0,363.8 L102.2,363.0 L102.4,362.0 L102.6,363.0 L102.8,359.8 
		L103.0,359.8 L103.3,359.2 L103.5,358.9 L103.7,358.9 L103.9,358.9 L104.1,358.9 L104.3,358.9 L104.5,358.9 
		L104.7,362.8 L105.0,362.8 L105.2,363.4 L105.4,363.4 L105.6,363.4 L105.8,363.4 L106.0,363.5 L106.2,362.9 
		L106.5,362.9 L106.7,363.8 L106.9,363.8 L107.1,364.8 L107.3,364.8 L107.5,364.8 L107.7,364.8 L108.0,366.4 
		L108.2,366.4 L108.4,366.4 L108.6,366.8 L108.8,366.8 L109.0,366.8 L109.2,366.8 L109.4,368.6 L109.7,367.8 
		L109.9,368.2 L110.1,368.2 L110.3,368.2 L110.5,368.2 L110.7,368.2 L110.9,370.0 L111.2,370.5 L111.4,369.8 
		L111.6,369.5 L111.8,365.3 L112.0,362.5 L112.2,362.5 L112.4,362.5 L112.6,362.5 L112.9,362.5 L113.1,362.5 
		L113.3,362.5 L113.5,362.5 L113.7,364.8 L113.9,364.8 L114.1,364.4 L114.4,364.4 L114.6,364.4 L114.8,365.1 
		L115.0,365.1 L115.2,365.1 L115.4,365.1 L115.6,365.1 L115.9,365.1 L116.1,365.1 L116.3,367.3 L116.5,367.3 
		L116.7,367.3 L116.9,367.3 L117.1,367.3 L117.3,369.0 L117.6,369.0 L117.8,368.6 L118.0,368.5 L118.2,368.9 
		L118.4,368.9 L118.6,368.9 L118.8,369.7 L119.1,369.1 L119.3,369.1 L119.5,369.1 L119.7,369.1 L119.9,369.1 
		L120.1,369.1 L120.3,369.1 L120.5,370.3 L120.8,369.9 L121.0,370.0 L121.2,370.0 L121.4,370.6 L121.6,370.6 
		L121.8,370.6 L122.0,370.6 L122.3,371.1 L122.5,371.1 L122.7,371.1 L122.9,371.1 L123.1,372.3 L123.3,371.9 
		L123.5,371.9 L123.8,371.9 L124.0,371.9 L124.2,371.9 L124.4,371.9 L124.6,373.3 L124.8,372.9 L125.0,372.9 
		L125.2,372.9 L125.5,372.9 L125.7,373.7 L125.9,373.7 L126.1,373.7 L126.3,373.7 L126.5,373.7 L126.7,373.7 
		L127.0,373.7 L127.2,374.7 L127.4,374.6 L127.6,374.6 L127.8,375.0 L128.0,375.0 L128.2,375.0 L128.5,375.0 
		L128.7,375.0 L128.9,375.7 L129.1,375.7 L129.3,376.1 L129.5,376.1 L129.7,376.0 L129.9,376.2 L130.2,376.2 
		L130.4,376.2 L130.6,376.4 L130.8,376.4 L131.0,376.4 L131.2,376.4 L131.4,376.4 L131.7,377.4 L131.9,376.8 
		L132.1,376.8 L132.3,376.8 L132.5,376.7 L132.7,375.9 L132.9,375.4 L133.1,375.4 L133.4,375.4 L133.6,375.9 
		L133.8,375.5 L134.0,374.9 L134.2,374.9 L134.4,374.9 L134.6,374.9 L134.9,374.9 L135.1,374.9 L135.3,374.9 
		L135.5,374.9 L135.7,374.9 L135.9,374.9 L136.1,374.9 L136.4,374.9 L136.6,374.9 L136.8,377.2 L137.0,377.4 
		L137.2,377.3 L137.4,377.2 L137.6,377.5 L137.8,377.4 L138.1,377.4 L138.3,377.4 L138.5,377.4 L138.7,378.0 
		L138.9,377.4 L139.1,377.2 L139.3,377.4 L139.6,377.3 L139.8,377.3 L140.0,377.4 L140.2,377.3 L140.4,377.3 
		L140.6,377.3 L140.8,377.3 L141.0,377.3 L141.3,377.3 L141.5,377.3 L141.7,377.3 L141.9,377.3 L142.1,377.3 
		L142.3,377.3 L142.5,377.3 L142.8,379.4 L143.0,379.0 L143.2,379.0 L143.4,379.0 L143.6,379.0 L143.8,379.5 
		L144.0,379.5 L144.3,379.5 L144.5,379.5 L144.7,379.5 L144.9,379.5 L145.1,379.5 L145.3,379.5 L145.5,380.5 
		L145.7,380.5 L146.0,380.6 L146.2,380.6 L146.4,380.6 L146.6,380.6 L146.8,380.6 L147.0,380.6 L147.2,380.6 
		L147.5,381.5 L147.7,381.5 L147.9,381.5 L148.1,381.7 L148.3,381.7 L148.5,381.7 L148.7,381.7 L148.9,381.7 
		L149.2,382.2 L149.4,382.2 L149.6,382.3 L149.8,382.2 L150.0,382.2 L150.2,382.4 L150.4,382.4 L150.7,382.4 
		L150.9,382.4 L151.1,382.4 L151.3,383.1 L151.5,383.0 L151.7,382.9 L151.9,382.8 L152.1,382.8 L152.4,382.8 
		L152.6,383.0 L152.8,383.0 L153.0,383.0 L153.2,383.3 L153.4,383.0 L153.6,382.9 L153.9,382.9 L154.1,382.9 
		L154.3,382.9 L154.5,382.9 L154.7,383.5 L154.9,383.2 L155.1,383.1 L155.4,383.0 L155.6,383.0 L155.8,383.0 
		L156.0,383.3 L156.2,383.2 L156.4,383.2 L156.6,383.2 L156.8,383.2 L157.1,383.2 L157.3,383.4 L157.5,383.4 
		L157.7,383.4 L157.9,383.4 L158.1,383.9 L158.3,383.8 L158.6,383.8 L158.8,383.8 L159.0,383.9 L159.2,383.9 
		L159.4,383.9 L159.6,383.9 L159.8,384.1 L160.0,384.1 L160.3,384.1 L160.5,384.1 L160.7,384.1 L160.9,384.1 
		L161.1,384.1 L161.3,384.1 L161.5,384.1 L161.8,384.5 L162.0,384.5 L162.2,384.5 L162.4,384.5 L162.6,384.5 
		L162.8,384.5 L163.0,384.5 L163.3,385.2 L163.5,385.1 L163.7,385.1 L163.9,385.1 L164.1,385.5 L164.3,385.2 
		L164.5,385.2 L164.7,385.2 L165.0,385.2 L165.2,385.2 L165.4,385.2 L165.6,385.2 L165.8,385.2 L166.0,385.2 
		L166.2,385.2 L166.5,385.2 L166.7,385.2 L166.9,385.2 L167.1,386.3 L167.3,386.2 L167.5,385.9 L167.7,385.8 
		L167.9,385.7 L168.2,385.4 L168.4,385.5 L168.6,385.1 L168.8,385.0 L169.0,384.5 L169.2,384.6 L169.4,384.1 
		L169.7,384.1 L169.9,384.1 L170.1,384.1 L170.3,384.4 L170.5,384.2 L170.7,384.2 L170.9,384.4 L171.2,384.1 
		L171.4,384.0 L171.6,384.0 L171.8,384.2 L172.0,384.1 L172.2,384.1 L172.4,384.1 L172.6,384.1 L172.9,384.5 
		L173.1,384.5 L173.3,384.5 L173.5,384.5 L173.7,384.5 L173.9,384.5 L174.1,384.9 L174.4,384.9 L174.6,385.1 
		L174.8,385.0 L175.0,385.0 L175.2,385.0 L175.4,385.0 L175.6,385.0 L175.8,385.0 L176.1,385.0 L176.3,385.0 
		L176.5,385.0 L176.7,385.0 L176.9,385.0 L177.1,385.0 L177.3,386.0 L177.6,386.0 L177.8,386.1 L178.0,386.1 
		L178.2,386.0 L178.4,385.8 L178.6,385.6 L178.8,385.7 L179.1,385.7 L179.3,385.5 L179.5,385.3 L179.7,385.2 
		L179.9,385.2 L180.1,385.2 L180.3,385.2 L180.5,385.2 L180.8,385.1 L181.0,385.1 L181.2,385.1 L181.4,385.3 
		L181.6,385.3 L181.8,385.3 L182.0,385.3 L182.3,385.3 L182.5,385.2 L182.7,385.0 L182.9,384.9 L183.1,384.9 
		L183.3,384.3 L183.5,384.3 L183.7,384.3 L184.0,384.4 L184.2,383.8 L184.4,383.7 L184.6,383.5 L184.8,383.5 
		L185.0,383.5 L185.2,383.5 L185.5,383.8 L185.7,383.0 L185.9,383.0 L186.1,383.0 L186.3,383.0 L186.5,383.3 
		L186.7,383.2 L187.0,383.2 L187.2,383.2 L187.4,383.2 L187.6,383.2 L187.8,383.2 L188.0,383.6 L188.2,383.6 
		L188.4,383.8 L188.7,383.8 L188.9,383.8 L189.1,383.9 L189.3,383.9 L189.5,383.9 L189.7,384.0 L189.9,384.0 
		L190.2,384.1 L190.4,384.1 L190.6,384.1 L190.8,384.1 L191.0,384.1 L191.2,384.5 L191.4,384.5 L191.6,384.6 
		L191.9,384.6 L192.1,384.6 L192.3,384.6 L192.5,384.6 L192.7,384.7 L192.9,384.7 L193.1,384.7 L193.4,384.7 
		L193.6,384.7 L193.8,384.8 L194.0,384.8 L194.2,384.9 L194.4,384.8 L194.6,384.8 L194.8,384.8 L195.1,384.8 
		L195.3,384.8 L195.5,385.0 L195.7,384.8 L195.9,384.8 L196.1,384.8 L196.3,384.7 L196.6,384.6 L196.8,384.5 
		L197.0,384.5 L197.2,384.5 L197.4,384.5 L197.6,384.5 L197.8,384.5 L198.1,384.5 L198.3,384.5 L198.5,384.7 
		L198.7,384.7 L198.9,384.7 L199.1,384.7 L199.3,384.7 L199.5,384.7 L199.8,384.7 L200.0,384.7 L200.2,384.7 
		L200.4,384.7 L200.6,384.7 L200.8,385.2 L201.0,385.2 L201.3,385.2 L201.5,385.1 L201.7,384.9 L201.9,384.9 
		L202.1,384.9 L202.3,384.9 L202.5,384.9 L202.7,384.9 L203.0,384.9 L203.2,385.0 L203.4,384.9 L203.6,384.8 
		L203.8,384.8 L204.0,384.8 L204.2,385.1 L204.5,385.0 L204.7,385.0 L204.9,385.0 L205.1,385.0 L205.3,385.3 
		L205.5,385.2 L205.7,385.2 L206.0,385.2 L206.2,385.4 L206.4,385.4 L206.6,385.4 L206.8,385.5 L207.0,385.5 
		L207.2,385.4 L207.4,385.4 L207.7,385.5 L207.9,385.3 L208.1,385.3 L208.3,385.0 L208.5,384.7 L208.7,384.7 
		L208.9,384.7 L209.2,384.7 L209.4,384.9 L209.6,384.9 L209.8,384.9 L210.0,384.8 L210.2,384.8 L210.4,384.9 
		L210.6,384.9 L210.9,384.9 L211.1,385.0 L211.3,385.0 L211.5,385.0 L211.7,385.0 L211.9,385.3 L212.1,384.9 
		L212.4,384.8 L212.6,384.5 L212.8,384.6 L213.0,384.6 L213.2,384.6 L213.4,384.6 L213.6,384.6 L213.9,384.6 
		L214.1,384.7 L214.3,384.6 L214.5,384.6 L214.7,384.7 L214.9,384.7 L215.1,384.8 L215.3,384.8 L215.6,384.8 
		L215.8,384.4 L216.0,384.4 L216.2,384.4 L216.4,384.4 L216.6,384.4 L216.8,384.4 L217.1,384.4 L217.3,384.4 
		L217.5,384.6 L217.7,384.6 L217.9,384.6 L218.1,384.6 L218.3,384.6 L218.5,384.6 L218.8,384.6 L219.0,384.5 
		L219.2,384.5 L219.4,384.5 L219.6,384.5 L219.8,384.5 L220.0,384.5 L220.3,384.7 L220.5,384.7 L220.7,384.7 
		L220.9,384.8 L221.1,384.8 L221.3,384.8 L221.5,385.0 L221.8,385.0 L222.0,385.0 L222.2,385.0 L222.4,385.0 
		L222.6,385.0 L222.8,385.0 L223.0,385.0 L223.2,385.2 L223.5,385.2 L223.7,385.2 L223.9,385.2 L224.1,385.2 
		L224.3,385.4 L224.5,385.4 L224.7,385.5 L225.0,385.4 L225.2,385.4 L225.4,385.5 L225.6,385.5 L225.8,385.5 
		L226.0,385.5 L226.2,385.5 L226.4,385.6 L226.7,385.6 L226.9,385.6 L227.1,385.6 L227.3,385.8 L227.5,385.7 
		L227.7,385.7 L227.9,385.7 L228.2,385.7 L228.4,385.9 L228.6,385.8 L228.8,385.8 L229.0,385.8 L229.2,385.8 
		L229.4,385.8 L229.7,385.8 L229.9,385.8 L230.1,385.8 L230.3,385.8 L230.5,385.8 L230.7,385.8 L230.9,385.8 
		L231.1,386.4 L231.4,386.4 L231.6,386.4 L231.8,386.4 L232.0,386.5 L232.2,386.5 L232.4,386.5 L232.6,386.5 
		L232.9,386.5 L233.1,386.6 L233.3,386.6 L233.5,386.6 L233.7,386.6 L233.9,386.5 L234.1,386.5 L234.3,386.5 
		L234.6,386.4 L234.8,386.3 L235.0,386.3 L235.2,386.3 L235.4,386.3 L235.6,386.3 L235.8,386.5 L236.1,386.4 
		L236.3,386.3 L236.5,386.3 L236.7,386.2 L236.9,386.3 L237.1,386.3 L237.3,386.3 L237.5,386.3 L237.8,386.3 
		L238.0,386.3 L238.2,386.3 L238.4,386.5 L238.6,386.6 L238.8,386.6 L239.0,386.6 L239.3,386.6 L239.5,386.6 
		L239.7,386.6 L239.9,386.6 L240.1,386.8 L240.3,386.8 L240.5,386.8 L240.8,386.8 L241.0,386.8 L241.2,386.8 
		L241.4,386.8 L241.6,386.8 L241.8,387.0 L242.0,386.9 L242.2,386.9 L242.5,386.8 L242.7,386.8 L242.9,386.9 
		L243.1,386.9 L243.3,386.9 L243.5,386.9 L243.7,386.8 L244.0,386.8 L244.2,386.7 L244.4,386.7 L244.6,386.8 
		L244.8,386.8 L245.0,386.8 L245.2,386.8 L245.4,386.8 L245.7,386.8 L245.9,386.8 L246.1,386.8 L246.3,386.8 
		L246.5,387.0 L246.7,386.9 L246.9,386.9 L247.2,386.9 L247.4,386.9 L247.6,386.9 L247.8,387.0 L248.0,386.7 
		L248.2,386.5 L248.4,386.5 L248.6,386.5 L248.9,386.5 L249.1,386.7 L249.3,386.7 L249.5,386.7 L249.7,386.7 
		L249.9,386.7 L250.1,386.7 L250.4,387.0 L250.6,386.9 L250.8,386.9 L251.0,386.9 L251.2,387.0 L251.4,386.7 
		L251.6,386.6 L251.8,386.6 L252.1,386.6 L252.3,386.8 L252.5,386.7 L252.7,386.7 L252.9,386.7 L253.1,386.7 
		L253.3,386.7 L253.6,386.8 L253.8,386.8 L254.0,386.8 L254.2,386.8 L254.4,386.6 L254.6,386.6 L254.8,386.6 
		L255.1,386.4 L255.3,386.3 L255.5,386.3 L255.7,386.3 L255.9,386.3 L256.1,386.3 L256.3,386.3 L256.5,386.5 
		L256.8,386.4 L257.0,386.5 L257.2,386.5 L257.4,386.5 L257.6,386.4 L257.8,386.3 L258.0,386.3 L258.3,386.3 
		L258.5,386.3 L258.7,386.5 L258.9,386.5 L259.1,386.4 L259.3,386.4 L259.5,386.4 L259.7,386.4 L260.0,386.6 
		L260.2,386.6 L260.4,386.6 L260.6,386.6 L260.8,386.6 L261.0,386.6 L261.2,386.6 L261.5,386.8 L261.7,386.8 
		L261.9,386.8 L262.1,386.8 L262.3,386.9 L262.5,387.0 L262.7,386.9 L263.0,386.9 L263.2,386.9 L263.4,386.9 
		L263.6,387.1 L263.8,387.0 L264.0,387.0 L264.2,387.0 L264.4,387.0 L264.7,387.0 L264.9,387.0 L265.1,387.0 
		L265.3,387.0 L265.5,387.3 L265.7,387.3 L265.9,387.4 L266.2,387.4 L266.4,387.4 L266.6,387.5 L266.8,387.5 
		L267.0,387.5 L267.2,387.5 L267.4,387.5 L267.6,387.6 L267.9,387.6 L268.1,387.6 L268.3,387.7 L268.5,387.6 
		L268.7,387.6 L268.9,387.6 L269.1,387.6 L269.4,387.6 L269.6,387.6 L269.8,387.6 L270.0,387.8 L270.2,387.6 
		L270.4,387.6 L270.6,387.6 L270.9,387.6 L271.1,387.6 L271.3,387.6 L271.5,387.7 L271.7,387.7 L271.9,387.7 
		L272.1,387.7 L272.3,387.6 L272.6,387.6 L272.8,387.6 L273.0,387.6 L273.2,387.7 L273.4,387.7 L273.6,387.7 
		L273.8,387.7 L274.1,387.6 L274.3,387.5 L274.5,387.5 L274.7,387.5 L274.9,387.5 L275.1,387.5 L275.3,387.7 
		L275.5,387.7 L275.8,387.7 L276.0,387.7 L276.2,387.8 L276.4,387.6 L276.6,387.6 L276.8,387.7 L277.0,387.6 
		L277.3,387.6 L277.5,387.6 L277.7,387.6 L277.9,387.8 L278.1,387.8 L278.3,387.8 L278.5,387.8 L278.8,387.8 
		L279.0,387.9 L279.2,387.9 L279.4,387.9 L279.6,387.9 L279.8,387.9 L280.0,387.9 L280.2,388.0 L280.5,388.0 
		L280.7,388.0 L280.9,388.0 L281.1,388.1 L281.3,388.1 L281.5,388.1 L281.7,388.1 L282.0,388.1 L282.2,388.1 
		L282.4,388.1 L282.6,388.1 L282.8,388.1 L283.0,388.4 L283.2,388.4 L283.4,388.4 L283.7,388.5 L283.9,388.5 
		L284.1,388.5 L284.3,388.5 L284.5,388.5 L284.7,388.5 L284.9,388.5 L285.2,388.7 L285.4,388.7 L285.6,388.7 
		L285.8,388.7 L286.0,388.7 L286.2,388.7 L286.4,388.8 L286.7,388.8 L286.9,388.8 L287.1,388.8 L287.3,388.8 
		L287.5,388.9 L287.7,388.9 L287.9,388.9 L288.1,388.9 L288.4,388.9 L288.6,388.9 L288.8,388.9 L289.0,388.9 
		L289.2,389.1 L289.4,389.0 L289.6,389.0 L289.9,389.0 L290.1,389.0 L290.3,389.0 L290.5,389.0 L290.7,389.0 
		L290.9,389.0 L291.1,389.0 L291.3,389.0 L291.6,389.0 L291.8,389.3 L292.0,389.3 L292.2,389.2 L292.4,389.2 
		L292.6,389.2 L292.8,389.2 L293.1,389.2 L293.3,389.2 L293.5,389.3 L293.7,389.3 L293.9,389.3 L294.1,389.3 
		L294.3,389.3 L294.5,389.4 L294.8,389.4 L295.0,389.4 L295.2,389.4 L295.4,389.4 L295.6,389.4 L295.8,389.4 
		L296.0,389.4 L296.3,389.4 L296.5,389.7 L296.7,389.6 L296.9,389.6 L297.1,389.6 L297.3,389.6 L297.5,389.6 
		L297.8,389.6 L298.0,389.6 L298.2,389.6 L298.4,389.6 L298.6,389.6 L298.8,389.6 L299.0,389.6 L299.2,389.6 
		L299.5,389.6 L299.7,389.6 L299.9,389.8 L300.1,389.8 L300.3,389.8 L300.5,389.8 L300.7,389.8 L301.0,389.9 
		L301.2,389.8 L301.4,389.8 L301.6,389.8 L301.8,389.8 L302.0,389.9 L302.2,389.9 L302.4,389.9 L302.7,389.9 
		L302.9,390.0 L303.1,390.0 L303.3,390.0 L303.5,389.9 L303.7,389.9 L303.9,389.9 L304.2,390.0 L304.4,390.0 
		L304.6,390.0 L304.8,390.0 L305.0,390.1 L305.2,390.1 L305.4,390.1 L305.7,390.1 L305.9,390.2 L306.1,390.2 
		L306.3,390.2 L306.5,390.2 L306.7,390.2 L306.9,390.2 L307.1,390.2 L307.4,390.3 L307.6,390.3 L307.8,390.3 
		L308.0,390.3 L308.2,390.3 L308.4,390.3 L308.6,390.3 L308.9,390.2 L309.1,390.2 L309.3,390.3 L309.5,390.3 
		L309.7,390.3 L309.9,390.3 L310.1,390.4 L310.3,390.4 L310.6,390.3 L310.8,390.3 L311.0,390.3 L311.2,390.2 
		L311.4,390.2 L311.6,390.2 L311.8,390.2 L312.1,390.1 L312.3,390.0 L312.5,390.0 L312.7,390.0 L312.9,390.1 
		L313.1,390.1 L313.3,390.1 L313.6,390.1 L313.8,390.1 L314.0,390.1 L314.2,390.1 L314.4,390.2 L314.6,390.2 
		L314.8,390.2 L315.0,390.2 L315.3,390.2 L315.5,390.2 L315.7,390.1 L315.9,390.1 L316.1,390.1 L316.3,390.1 
		L316.5,390.1 L316.8,390.1 L317.0,390.3 L317.2,390.3 L317.4,390.3 L317.6,390.3 L317.8,390.3 L318.0,390.3 
		L318.2,390.3 L318.5,390.3 L318.7,390.2 L318.9,390.2 L319.1,390.2 L319.3,390.2 L319.5,390.2 L319.7,390.2 
		L320.0,390.2 L320.2,390.2 L320.4,390.2 L320.6,390.4 L320.8,390.3 L321.0,390.3 L321.2,390.3 L321.5,390.3 
		L321.7,390.3 L321.9,390.3 L322.1,390.3 L322.3,390.3 L322.5,390.4 L322.7,390.4 L322.9,390.2 L323.2,390.2 
		L323.4,390.2 L323.6,390.2 L323.8,390.2 L324.0,390.2 L324.2,390.2 L324.4,390.2 L324.7,390.2 L324.9,390.2 
		L325.1,390.3 L325.3,390.3 L325.5,390.3 L325.7,390.3 L325.9,390.3 L326.1,390.3 L326.4,390.4 L326.6,390.4 
		L326.8,390.4 L327.0,390.4 L327.2,390.4 L327.4,390.5 L327.6,390.5 L327.9,390.5 L328.1,390.6 L328.3,390.6 
		L328.5,390.6 L328.7,390.6 L328.9,390.6 L329.1,390.6 L329.4,390.6 L329.6,390.6 L329.8,390.6 L330.0,390.6 
		L330.2,390.6 L330.4,390.6 L330.6,390.6 L330.8,390.6 L331.1,390.9 L331.3,390.9 L331.5,390.9 L331.7,390.9 
		L331.9,390.9 L332.1,390.9 L332.3,390.9 L332.6,390.9 L332.8,390.9 L333.0,390.9 L333.2,390.9 L333.4,391.1 
		L333.6,391.1 L333.8,391.1 L334.0,391.1 L334.3,391.1 L334.5,391.1 L334.7,391.1 L334.9,391.3 L335.1,391.3 
		L335.3,391.3 L335.5,391.3 L335.8,391.3 L336.0,391.3 L336.2,391.3 L336.4,391.3 L336.6,391.3 L336.8,391.5 
		L337.0,391.5 L337.2,391.5 L337.5,391.5 L337.7,391.5 L337.9,391.5 L338.1,391.5 L338.3,391.5 L338.5,391.7 
		L338.7,391.7 L339.0,391.7 L339.2,391.7 L339.4,391.7 L339.6,391.7 L339.8,391.7 L340.0,391.7 L340.2,391.7 
		L340.5,391.7 L340.7,391.7 L340.9,391.8 L341.1,391.8 L341.3,391.8 L341.5,391.8 L341.7,391.9 L341.9,391.9 
		L342.2,391.9 L342.4,391.9 L342.6,392.0 L342.8,391.9 L343.0,391.9 L343.2,391.9 L343.4,391.9 L343.7,392.0 
		L343.9,392.0 L344.1,392.0 L344.3,392.0 L344.5,392.0 L344.7,392.0 L344.9,392.0 L345.1,392.0 L345.4,392.0 
		L345.6,392.0 L345.8,392.0 L346.0,392.0 L346.2,392.0 L346.4,392.0 L346.6,392.0 L346.9,392.2 L347.1,392.1 
		L347.3,392.1 L347.5,392.1 L347.7,392.1 L347.9,392.1 L348.1,392.1 L348.4,392.1 L348.6,392.1 L348.8,392.2 
		L349.0,392.1 L349.2,392.1 L349.4,392.1 L349.6,392.1 L349.8,392.1 L350.1,392.1 L350.3,392.3 L350.5,392.3 
		L350.7,392.2 L350.9,392.1 L351.1,392.1 L351.3,392.1 L351.6,392.1 L351.8,392.1 L352.0,392.1 L352.2,392.2 
		L352.4,392.1 L352.6,392.1 L352.8,392.1 L353.0,392.1 L353.3,392.1 L353.5,392.1 L353.7,392.1 L353.9,392.1 
		L354.1,392.1 L354.3,392.1 L354.5,392.1 L354.8,392.1 L355.0,392.2 L355.2,392.2 L355.4,392.3 L355.6,392.3 
		L355.8,392.3 L356.0,392.3 L356.3,392.3 L356.5,392.3 L356.7,392.3 L356.9,392.3 L357.1,392.3 L357.3,392.4 
		L357.5,392.4 L357.7,392.4 L358.0,392.4 L358.2,392.4 L358.4,392.4 L358.6,392.4 L358.8,392.4 L359.0,392.5 
		L359.2,392.4 L359.5,392.4 L359.7,392.4 L359.9,392.4 L360.1,392.4 L360.3,392.4 L360.5,392.4 L360.7,392.4 
		L360.9,392.6 L361.2,392.6 L361.4,392.6 L361.6,392.6 L361.8,392.6 L362.0,392.7 L362.2,392.7 L362.4,392.7 
		L362.7,392.7 L362.9,392.7 L363.1,392.7 L363.3,392.7 L363.5,392.7 L363.7,392.7 L363.9,392.7 L364.2,392.7 
		L364.4,392.8 L364.6,392.8 L364.8,392.8 L365.0,392.8 L365.2,392.8 L365.4,392.8 L365.6,392.8 L365.9,392.9 
		L366.1,392.9 L366.3,392.9 L366.5,392.9 L366.7,392.9 L366.9,392.9 L367.1,392.9 L367.4,392.9 L367.6,392.9 
		L367.8,392.9 L368.0,392.9 L368.2,392.9 L368.4,392.9 L368.6,392.9 L368.8,392.9 L369.1,393.0 L369.3,393.0 
		L369.5,393.0 L369.7,393.0 L369.9,392.9 L370.1,392.9 L370.3,392.9 L370.6,392.9 L370.8,392.9 L371.0,392.9 
		L371.2,392.9 L371.4,392.9 L371.6,392.9 L371.8,392.9 L372.1,393.0 L372.3,393.0 L372.5,393.0 L372.7,393.0 
		L372.9,393.0 L373.1,393.0 L373.3,393.0 L373.5,393.0 L373.8,393.0 L374.0,393.0 L374.2,393.0 L374.4,393.0 
		L374.6,393.0 L374.8,393.0 L375.0,393.2 L375.3,393.2 L375.5,393.2 L375.7,393.2 L375.9,393.2 L376.1,393.2 
		L376.3,393.2 L376.5,393.2 L376.7,393.2 L377.0,393.2 L377.2,393.2 L377.4,393.1 L377.6,393.1 L377.8,393.1 
		L378.0,393.1 L378.2,393.1 L378.5,393.1 L378.7,393.1 L378.9,393.1 L379.1,393.1 L379.3,393.1 L379.5,393.1 
		L379.7,393.1 L379.9,393.1 L380.2,393.2 L380.4,393.2 L380.6,393.2 L380.8,393.2 L381.0,393.3 L381.2,393.3 
		L381.4,393.3 L381.7,393.3 L381.9,393.3 L382.1,393.3 L382.3,393.3 L382.5,393.3 L382.7,393.3 L382.9,393.3 
		L383.2,393.3 L383.4,393.3 L383.6,393.3 L383.8,393.2 L384.0,393.2 L384.2,393.2 L384.4,393.2 L384.6,393.2 
		L384.9,393.2 L385.1,393.2 L385.3,393.2 L385.5,393.2 L385.7,393.2 L385.9,393.2 L386.1,393.2 L386.4,393.2 
		L386.6,393.2 L386.8,393.2 L387.0,393.2 L387.2,393.3 L387.4,393.3 L387.6,393.3 L387.8,393.3 L388.1,393.3 
		L388.3,393.3 L388.5,393.3 L388.7,393.3 L388.9,393.3 L389.1,393.4 L389.3,393.4 L389.6,393.4 L389.8,393.4 
		L390.0,393.3 L390.2,393.2 L390.4,393.2 L390.6,393.2 L390.8,393.2 L391.1,393.2 L391.3,393.2 L391.5,393.2 
		L391.7,393.2 L391.9,393.2 L392.1,393.3 L392.3,393.3 L392.5,393.3 L392.8,393.3 L393.0,393.3 L393.2,393.3 
		L393.4,393.4 L393.6,393.2 L393.8,393.1 L394.0,393.1 L394.3,393.0 L394.5,393.0 L394.7,393.0 L394.9,393.1 
		L395.1,393.0 L395.3,393.0 L395.5,393.0 L395.7,393.0 L396.0,393.0 L396.2,392.8 L396.4,392.8 L396.6,392.8 
		L396.8,392.8 L397.0,392.8 L397.2,392.8 L397.5,392.8 L397.7,392.7 L397.9,392.7 L398.1,392.7 L398.3,392.7 
		L398.5,392.7 L398.7,392.7 L399.0,392.7 L399.2,392.7 L399.4,392.7 L399.6,392.8 L399.8,392.8 L400.0,392.8 
		L400.2,392.8 L400.4,392.8 L400.7,392.8 L400.9,392.8 L401.1,392.8 L401.3,392.8 L401.5,392.8 L401.7,392.8 
		L401.9,393.0 L402.2,393.0 L402.4,393.0 L402.6,393.0 L402.8,393.0 L403.0,393.0 L403.2,393.0 L403.4,393.0 
		L403.6,393.0 L403.9,393.1 L404.1,393.1 L404.3,393.1 L404.5,393.1 L404.7,393.1 L404.9,393.1 L405.1,393.1 
		L405.4,393.2 L405.6,393.2 L405.8,393.2 L406.0,393.2 L406.2,393.2 L406.4,393.2 L406.6,393.2 L406.9,393.2 
		L407.1,393.3 L407.3,393.3 L407.5,393.3 L407.7,393.3 L407.9,393.3 L408.1,393.3 L408.3,393.3 L408.6,393.3 
		L408.8,393.3 L409.0,393.3 L409.2,393.3 L409.4,393.3 L409.6,393.3 L409.8,393.3 L410.1,393.3 L410.3,393.3 
		L410.5,393.3 L410.7,393.3 L410.9,393.3 L411.1,393.3 L411.3,393.3 L411.5,393.3 L411.8,393.7 L412.0,393.6 
		L412.2,393.6 L412.4,393.6 L412.6,393.7 L412.8,393.7 L413.0,393.7 L413.3,393.7 L413.5,393.7 L413.7,393.7 
		L413.9,393.7 L414.1,393.7 L414.3,393.7 L414.5,393.7 L414.8,393.9 L415.0,393.8 L415.2,393.8 L415.4,393.8 
		L415.6,393.9 L415.8,393.9 L416.0,393.9 L416.2,393.9 L416.5,393.9 L416.7,393.9 L416.9,393.9 L417.1,393.9 
		L417.3,394.0 L417.5,394.0 L417.7,394.0 L418.0,394.0 L418.2,394.0 L418.4,394.0 L418.6,394.0 L418.8,394.0 
		L419.0,394.1 L419.2,394.1 L419.4,394.1 L419.7,394.1 L419.9,394.1 L420.1,394.1 L420.3,394.1 L420.5,394.1 
		L420.7,394.1 L420.9,394.1 L421.2,394.1 L421.4,394.1 L421.6,394.1 L421.8,394.1 L422.0,394.1 L422.2,394.1 
		L422.4,394.4 L422.6,394.3 L422.9,394.4 L423.1,394.3 L423.3,394.3 L423.5,394.3 L423.7,394.3 L423.9,394.4 
		L424.1,394.4 L424.4,394.4 L424.6,394.4 L424.8,394.4 L425.0,394.4 L425.2,394.4 L425.4,394.4 L425.6,394.4 
		L425.9,394.4 L426.1,394.4 L426.3,394.4 L426.5,394.5 L426.7,394.5 L426.9,394.5 L427.1,394.5 L427.3,394.5 
		L427.6,394.5 L427.8,394.5 L428.0,394.5 L428.2,394.5 L428.4,394.6 L428.6,394.6 L428.8,394.6 L429.1,394.6 
		L429.3,394.6 L429.5,394.6 L429.7,394.6 L429.9,394.7 L430.1,394.7 L430.3,394.7 L430.5,394.7 L430.8,394.7 
		L431.0,394.7 L431.2,394.7 L431.4,394.8 L431.6,394.8 L431.8,394.7 L432.0,394.7 L432.3,394.6 L432.5,394.6 
		L432.7,394.6 L432.9,394.6 L433.1,394.6 L433.3,394.7 L433.5,394.7 L433.8,394.7 L434.0,394.7 L434.2,394.7 
		L434.4,394.7 L434.6,394.7 L434.8,394.7 L435.0,394.7 L435.2,394.7 L435.5,394.7 L435.7,394.7 L435.9,394.7 
		L436.1,394.7 L436.3,394.8 L436.5,394.8 L436.7,394.8 L437.0,394.8 L437.2,394.8 L437.4,394.8 L437.6,394.8 
		L437.8,394.8 L438.0,394.8 L438.2,394.8 L438.4,394.8 L438.7,394.8 L438.9,394.9 L439.1,394.9 L439.3,394.9 
		L439.5,394.9 L439.7,394.9 L439.9,394.9 L440.2,395.0 L440.4,395.0 L440.6,395.0 L440.8,395.0 L441.0,395.1 
		L441.2,395.1 L441.4,395.1 L441.7,395.1 L441.9,395.1 L442.1,395.1 L442.3,395.1 L442.5,395.1 L442.7,395.1 
		L442.9,395.1 L443.1,395.1 L443.4,395.1 L443.6,395.1 L443.8,395.1 L444.0,395.1 L444.2,395.3 L444.4,395.3 
		L444.6,395.3 L444.9,395.3 L445.1,395.3 L445.3,395.4 L445.5,395.3 L445.7,395.3 L445.9,395.3 L446.1,395.3 
		L446.3,395.3 L446.6,395.3 L446.8,395.3 L447.0,395.3 L447.2,395.3 L447.4,395.3 L447.6,395.3 L447.8,395.5 
		L448.1,395.5 L448.3,395.5 L448.5,395.5 L448.7,395.5 L448.9,395.5 L449.1,395.5 L449.3,395.5 L449.6,395.5 
		L449.8,395.5 L450.0,395.5 L450.2,395.5 L450.4,395.5 L450.6,395.6 L450.8,395.6 L451.0,395.5 L451.3,395.5 
		L451.5,395.5 L451.7,395.5 L451.9,395.5 L452.1,395.5 L452.3,395.5 L452.5,395.6 L452.8,395.6 L453.0,395.6 
		L453.2,395.6 L453.4,395.6 L453.6,395.6 L453.8,395.6 L454.0,395.6 L454.2,395.6 L454.5,395.6 L454.7,395.6 
		L454.9,395.6 L455.1,395.7 L455.3,395.6 L455.5,395.6 L455.7,395.6 L456.0,395.6 L456.2,395.6 L456.4,395.6 
		L456.6,395.6 L456.8,395.6 L457.0,395.6 L457.2,395.6 L457.5,395.6 L457.7,395.6 L457.9,395.6 L458.1,395.6 
		L458.3,395.6 L458.5,395.6 L458.7,395.6 L458.9,395.6 L459.2,395.8 L459.4,395.8 L459.6,395.8 L459.8,395.8 
		L460.0,395.7 L460.2,395.7 L460.4,395.8 L460.7,395.7 L460.9,395.7 L461.1,395.7 L461.3,395.7 L461.5,395.6 
		L461.7,395.6 L461.9,395.5 L462.1,395.5 L462.4,395.5 L462.6,395.5 L462.8,395.4 L463.0,395.4 L463.2,395.4 
		L463.4,395.4 L463.6,395.4 L463.9,395.4 L464.1,395.5 L464.3,395.5 L464.5,395.5 L464.7,395.5 L464.9,395.5 
		L465.1,395.5 L465.3,395.5 L465.6,395.4 L465.8,395.4 L466.0,395.4 L466.2,395.4 L466.4,395.5 L466.6,395.5 
		L466.8,395.5 L467.1,395.5 L467.3,395.5 L467.5,395.5 L467.7,395.5 L467.9,395.5 L468.1,395.5 L468.3,395.5 
		L468.6,395.5 L468.8,395.5 L469.0,395.5 L469.2,395.5 L469.4,395.5 L469.6,395.5 L469.8,395.5 L470.0,395.5 
		L470.3,395.6 L470.5,395.6 L470.7,395.6 L470.9,395.6 L471.1,395.5 L471.3,395.5 L471.5,395.6 L471.8,395.6 
		L472.0,395.6 L472.2,395.6 L472.4,395.5 L472.6,395.5 L472.8,395.5 L473.0,395.5 L473.2,395.5 L473.5,395.5 
		L473.7,395.5 L473.9,395.6 L474.1,395.6 L474.3,395.6 L474.5,395.6 L474.7,395.6 L475.0,395.6 L475.2,395.6 
		L475.4,395.6 L475.6,395.6 L475.8,395.6 L476.0,395.6 L476.2,395.6 L476.5,395.6 L476.7,395.7 L476.9,395.6 
		L477.1,395.6 L477.3,395.6 L477.5,395.6 L477.7,395.5 L477.9,395.4 L478.2,395.4 L478.4,395.4 L478.6,395.4 
		L478.8,395.4 L479.0,395.4 L479.2,395.4 L479.4,395.4 L479.7,395.4 L479.9,395.4 L480.1,395.4 L480.3,395.4 
		L480.5,395.4 L480.7,395.4 L480.9,395.5 L481.1,395.5 L481.4,395.5 L481.6,395.5 L481.8,395.5 L482.0,395.5 
		L482.2,395.4 L482.4,395.4 L482.6,395.2 L482.9,395.2 L483.1,395.2 L483.3,395.2 L483.5,395.2 L483.7,395.2 
		L483.9,395.2 L484.1,395.0 L484.4,394.8 L484.6,394.8 L484.8,394.8 L485.0,394.8 L485.2,394.7 L485.4,394.6 
		L485.6,394.6 L485.8,394.6 L486.1,394.6 L486.3,394.6 L486.5,394.6 L486.7,394.6 L486.9,394.6 L487.1,394.6 
		L487.3,394.6 L487.6,394.6 L487.8,394.7 L488.0,394.7 L488.2,394.7 L488.4,394.7 L488.6,394.7 L488.8,394.7 
		L489.0,394.7 L489.3,394.7 L489.5,394.7 L489.7,394.7 L489.9,394.7 L490.1,394.7 L490.3,394.7 L490.5,394.8 
		L490.8,394.8 L491.0,394.8 L491.2,394.7 L491.4,394.6 L491.6,394.6 L491.8,394.5 L492.0,394.5 L492.3,394.5 
		L492.5,394.5 L492.7,394.5 L492.9,394.5 L493.1,394.5 L493.3,394.5 L493.5,394.5 L493.7,394.5 L494.0,394.5 
		L494.2,394.5 L494.4,394.5 L494.6,394.5 L494.8,394.5 L495.0,394.5 L495.2,394.5 L495.5,394.5 L495.7,394.5 
		L495.9,394.5 L496.1,394.5 L496.3,394.6 L496.5,394.6 L496.7,394.6 L496.9,394.6 L497.2,394.6 L497.4,394.6 
		L497.6,394.6 L497.8,394.6 L498.0,394.6 L498.2,394.6 L498.4,394.6 L498.7,394.6 L498.9,394.6 L499.1,394.6 
		L499.3,394.6 L499.5,394.6 L499.7,394.6 L499.9,394.6 L500.2,394.6 L500.4,394.6 L500.6,394.7 L500.8,394.7 
		L501.0,394.7 L501.2,394.7 L501.4,394.7 L501.6,394.8 L501.9,394.8 L502.1,394.8 L502.3,394.8 L502.5,394.8 
		L502.7,394.8 L502.9,394.8 L503.1,394.8 L503.4,394.8 L503.6,394.8 L503.8,394.8 L504.0,394.8 L504.2,394.8 
		L504.4,394.8 L504.6,394.8 L504.8,394.8 L505.1,394.8 L505.3,394.8 L505.5,394.8 L505.7,394.8 L505.9,394.9 
		L506.1,394.9 L506.3,394.9 L506.6,394.9 L506.8,394.9 L507.0,394.9 L507.2,394.9  h0.01'/></g>
	</g>
	<g id="gnuplot_plot_2" ><title>gnuplot_plot_2</title>
<g style="fill:none; color:green; stroke:currentColor; stroke-width:1.00; stroke-linecap:butt; stroke-linejoin:miter">
	<g transform="translate(440.1,390.9)" style="stroke:none; fill:black; font-family:Arial; font-size:12.00pt; text-anchor:end">
		<text>Radio maximum capacity</text>
	</g>
	<path  d='M448.4,386.4 L490.6,386.4 M83.0,102.5 L83.2,102.5 L83.4,328.6 L83.6,328.6 L83.8,328.6 L84.0,375.6 
		L84.3,375.6 L84.5,381.3 L84.7,381.3 L84.9,381.3 L85.1,381.3 L85.3,391.8 L85.5,392.6 L85.8,390.5 
		L86.0,390.5 L86.2,386.1 L86.4,385.4 L86.6,385.4 L86.8,385.4 L87.0,369.9 L87.2,351.9 L87.5,353.7 
		L87.7,346.6 L87.9,346.6 L88.1,345.8 L88.3,345.8 L88.5,347.5 L88.7,341.3 L89.0,341.3 L89.2,341.3 
		L89.4,341.3 L89.6,341.3 L89.8,341.3 L90.0,341.3 L90.2,341.3 L90.4,341.3 L90.7,341.3 L90.9,362.0 
		L91.1,362.0 L91.3,362.4 L91.5,362.4 L91.7,362.4 L91.9,362.4 L92.2,362.6 L92.4,362.0 L92.6,362.0 
		L92.8,362.0 L93.0,362.0 L93.2,362.0 L93.4,362.0 L93.6,362.0 L93.9,362.0 L94.1,362.0 L94.3,372.6 
		L94.5,372.6 L94.7,370.2 L94.9,362.6 L95.1,362.6 L95.4,363.6 L95.6,363.6 L95.8,360.4 L96.0,358.4 
		L96.2,358.4 L96.4,358.4 L96.6,360.3 L96.8,360.3 L97.1,360.7 L97.3,359.6 L97.5,359.6 L97.7,359.6 
		L97.9,359.6 L98.1,359.6 L98.3,363.7 L98.6,364.4 L98.8,357.3 L99.0,356.4 L99.2,356.4 L99.4,356.4 
		L99.6,357.6 L99.8,353.9 L100.1,353.7 L100.3,353.7 L100.5,353.7 L100.7,353.7 L100.9,353.7 L101.1,353.7 
		L101.3,358.8 L101.5,358.8 L101.8,360.4 L102.0,360.3 L102.2,359.5 L102.4,358.5 L102.6,358.5 L102.8,356.4 
		L103.0,356.4 L103.3,355.8 L103.5,355.6 L103.7,355.6 L103.9,355.6 L104.1,355.6 L104.3,355.6 L104.5,355.6 
		L104.7,359.6 L105.0,359.6 L105.2,360.3 L105.4,360.3 L105.6,360.3 L105.8,360.3 L106.0,360.5 L106.2,360.0 
		L106.5,360.0 L106.7,360.9 L106.9,360.9 L107.1,362.0 L107.3,362.0 L107.5,362.0 L107.7,362.0 L108.0,363.6 
		L108.2,363.6 L108.4,363.6 L108.6,364.1 L108.8,364.1 L109.0,364.1 L109.2,364.1 L109.4,366.0 L109.7,365.2 
		L109.9,365.6 L110.1,365.6 L110.3,365.6 L110.5,365.6 L110.7,365.6 L110.9,367.5 L111.2,368.1 L111.4,367.4 
		L111.6,367.1 L111.8,362.9 L112.0,360.1 L112.2,360.1 L112.4,360.1 L112.6,360.1 L112.9,360.1 L113.1,360.1 
		L113.3,360.1 L113.5,360.1 L113.7,362.6 L113.9,362.6 L114.1,362.2 L114.4,362.2 L114.6,363.2 L114.8,362.9 
		L115.0,362.9 L115.2,362.9 L115.4,362.9 L115.6,362.9 L115.9,362.9 L116.1,362.9 L116.3,365.2 L116.5,365.2 
		L116.7,365.2 L116.9,365.2 L117.1,365.2 L117.3,367.0 L117.6,367.0 L117.8,366.4 L118.0,366.2 L118.2,366.6 
		L118.4,366.6 L118.6,366.6 L118.8,367.4 L119.1,365.8 L119.3,365.8 L119.5,365.8 L119.7,365.8 L119.9,365.8 
		L120.1,365.8 L120.3,365.8 L120.5,366.4 L120.8,365.8 L121.0,365.9 L121.2,365.9 L121.4,366.6 L121.6,366.6 
		L121.8,366.6 L122.0,366.6 L122.3,367.1 L122.5,367.1 L122.7,367.1 L122.9,367.1 L123.1,368.4 L123.3,367.7 
		L123.5,367.7 L123.8,367.7 L124.0,367.7 L124.2,367.7 L124.4,367.7 L124.6,369.3 L124.8,368.7 L125.0,368.7 
		L125.2,368.7 L125.5,368.7 L125.7,369.6 L125.9,369.6 L126.1,369.6 L126.3,369.6 L126.5,369.6 L126.7,369.6 
		L127.0,369.6 L127.2,370.2 L127.4,369.7 L127.6,369.7 L127.8,370.1 L128.0,370.1 L128.2,370.1 L128.5,370.1 
		L128.7,370.1 L128.9,371.0 L129.1,371.0 L129.3,371.4 L129.5,371.4 L129.7,371.3 L129.9,371.5 L130.2,371.5 
		L130.4,371.5 L130.6,371.8 L130.8,371.8 L131.0,371.8 L131.2,371.8 L131.4,371.8 L131.7,372.9 L131.9,372.3 
		L132.1,372.3 L132.3,372.3 L132.5,372.2 L132.7,371.5 L132.9,371.0 L133.1,371.0 L133.4,371.0 L133.6,371.6 
		L133.8,371.2 L134.0,370.6 L134.2,370.6 L134.4,370.6 L134.6,370.6 L134.9,370.6 L135.1,370.6 L135.3,370.6 
		L135.5,370.6 L135.7,370.6 L135.9,370.6 L136.1,370.6 L136.4,370.6 L136.6,370.6 L136.8,373.2 L137.0,373.3 
		L137.2,373.2 L137.4,373.2 L137.6,373.4 L137.8,373.3 L138.1,373.3 L138.3,373.3 L138.5,373.3 L138.7,374.1 
		L138.9,373.4 L139.1,373.0 L139.3,373.3 L139.6,373.2 L139.8,373.2 L140.0,373.2 L140.2,373.1 L140.4,373.1 
		L140.6,373.1 L140.8,373.1 L141.0,373.1 L141.3,373.1 L141.5,373.1 L141.7,373.1 L141.9,373.1 L142.1,373.1 
		L142.3,373.1 L142.5,373.1 L142.8,375.3 L143.0,375.0 L143.2,374.9 L143.4,374.9 L143.6,374.9 L143.8,375.5 
		L144.0,375.4 L144.3,375.4 L144.5,375.4 L144.7,375.4 L144.9,375.4 L145.1,375.4 L145.3,375.4 L145.5,376.6 
		L145.7,376.1 L146.0,376.0 L146.2,376.0 L146.4,376.0 L146.6,376.0 L146.8,376.0 L147.0,376.0 L147.2,376.0 
		L147.5,376.9 L147.7,376.9 L147.9,376.9 L148.1,377.2 L148.3,376.9 L148.5,376.9 L148.7,376.9 L148.9,376.9 
		L149.2,377.4 L149.4,377.3 L149.6,377.5 L149.8,377.4 L150.0,377.4 L150.2,377.6 L150.4,377.6 L150.7,377.6 
		L150.9,377.6 L151.1,377.6 L151.3,378.4 L151.5,378.0 L151.7,377.7 L151.9,377.3 L152.1,377.3 L152.4,377.3 
		L152.6,377.6 L152.8,377.6 L153.0,377.6 L153.2,377.9 L153.4,377.6 L153.6,377.5 L153.9,377.5 L154.1,377.5 
		L154.3,377.5 L154.5,377.5 L154.7,378.2 L154.9,377.8 L155.1,377.6 L155.4,377.0 L155.6,377.0 L155.8,377.0 
		L156.0,377.0 L156.2,376.6 L156.4,376.6 L156.6,376.1 L156.8,376.1 L157.1,376.1 L157.3,376.3 L157.5,376.3 
		L157.7,376.3 L157.9,376.3 L158.1,376.9 L158.3,376.6 L158.6,376.6 L158.8,376.6 L159.0,376.6 L159.2,376.6 
		L159.4,376.6 L159.6,376.6 L159.8,376.4 L160.0,376.4 L160.3,376.4 L160.5,376.1 L160.7,376.0 L160.9,376.0 
		L161.1,376.0 L161.3,376.0 L161.5,376.0 L161.8,376.5 L162.0,376.5 L162.2,376.5 L162.4,376.5 L162.6,376.5 
		L162.8,376.5 L163.0,376.5 L163.3,376.5 L163.5,377.3 L163.7,377.3 L163.9,377.3 L164.1,377.7 L164.3,377.3 
		L164.5,377.3 L164.7,377.3 L165.0,377.3 L165.2,377.3 L165.4,377.3 L165.6,377.3 L165.8,377.3 L166.0,377.3 
		L166.2,377.3 L166.5,377.3 L166.7,377.3 L166.9,377.3 L167.1,378.6 L167.3,378.5 L167.5,377.8 L167.7,377.7 
		L167.9,377.0 L168.2,376.4 L168.4,376.5 L168.6,375.4 L168.8,375.3 L169.0,374.8 L169.2,374.9 L169.4,374.1 
		L169.7,374.1 L169.9,374.1 L170.1,374.1 L170.3,374.5 L170.5,374.3 L170.7,374.3 L170.9,374.6 L171.2,374.3 
		L171.4,374.2 L171.6,374.2 L171.8,374.2 L172.0,374.0 L172.2,374.0 L172.4,374.0 L172.6,374.0 L172.9,374.5 
		L173.1,374.5 L173.3,374.5 L173.5,374.5 L173.7,374.5 L173.9,374.5 L174.1,375.0 L174.4,375.0 L174.6,375.1 
		L174.8,375.1 L175.0,375.1 L175.2,375.1 L175.4,375.1 L175.6,375.1 L175.8,375.1 L176.1,375.1 L176.3,375.1 
		L176.5,375.1 L176.7,375.1 L176.9,375.1 L177.1,375.1 L177.3,376.4 L177.6,376.4 L177.8,376.5 L178.0,376.4 
		L178.2,375.8 L178.4,375.2 L178.6,374.6 L178.8,374.7 L179.1,374.7 L179.3,374.0 L179.5,373.0 L179.7,373.0 
		L179.9,373.0 L180.1,373.0 L180.3,373.0 L180.5,373.1 L180.8,373.0 L181.0,373.0 L181.2,373.0 L181.4,373.3 
		L181.6,373.3 L181.8,373.3 L182.0,373.2 L182.3,373.2 L182.5,373.3 L182.7,373.0 L182.9,372.9 L183.1,372.9 
		L183.3,372.1 L183.5,372.1 L183.7,372.1 L184.0,372.3 L184.2,371.6 L184.4,371.6 L184.6,371.4 L184.8,371.4 
		L185.0,371.4 L185.2,371.4 L185.5,371.8 L185.7,371.0 L185.9,371.0 L186.1,371.0 L186.3,371.0 L186.5,371.2 
		L186.7,371.0 L187.0,371.0 L187.2,371.0 L187.4,371.0 L187.6,371.0 L187.8,371.0 L188.0,371.5 L188.2,371.5 
		L188.4,371.7 L188.7,371.7 L188.9,371.7 L189.1,371.9 L189.3,371.9 L189.5,371.9 L189.7,372.0 L189.9,372.0 
		L190.2,372.2 L190.4,372.2 L190.6,372.2 L190.8,372.2 L191.0,372.2 L191.2,372.5 L191.4,372.5 L191.6,372.6 
		L191.9,372.4 L192.1,372.4 L192.3,371.8 L192.5,371.6 L192.7,371.7 L192.9,371.7 L193.1,371.8 L193.4,371.8 
		L193.6,371.8 L193.8,371.9 L194.0,371.9 L194.2,371.9 L194.4,371.5 L194.6,371.5 L194.8,371.5 L195.1,371.5 
		L195.3,371.5 L195.5,371.5 L195.7,370.4 L195.9,370.3 L196.1,370.3 L196.3,370.2 L196.6,369.7 L196.8,369.7 
		L197.0,369.7 L197.2,369.6 L197.4,369.6 L197.6,369.7 L197.8,369.7 L198.1,369.7 L198.3,369.7 L198.5,370.0 
		L198.7,370.0 L198.9,370.0 L199.1,370.0 L199.3,370.0 L199.5,370.0 L199.8,370.0 L200.0,370.0 L200.2,370.0 
		L200.4,370.0 L200.6,370.0 L200.8,370.5 L201.0,370.5 L201.3,370.5 L201.5,370.5 L201.7,370.2 L201.9,370.2 
		L202.1,370.2 L202.3,370.2 L202.5,370.2 L202.7,370.2 L203.0,370.2 L203.2,370.4 L203.4,370.4 L203.6,370.3 
		L203.8,370.3 L204.0,370.3 L204.2,370.6 L204.5,370.6 L204.7,370.6 L204.9,370.6 L205.1,370.6 L205.3,370.8 
		L205.5,370.8 L205.7,370.8 L206.0,370.8 L206.2,371.1 L206.4,371.0 L206.6,371.0 L206.8,371.0 L207.0,371.1 
		L207.2,371.0 L207.4,371.0 L207.7,371.1 L207.9,370.9 L208.1,370.8 L208.3,370.2 L208.5,369.5 L208.7,369.5 
		L208.9,369.5 L209.2,369.5 L209.4,369.5 L209.6,369.8 L209.8,369.8 L210.0,369.7 L210.2,369.8 L210.4,369.8 
		L210.6,369.8 L210.9,369.8 L211.1,370.0 L211.3,370.0 L211.5,370.0 L211.7,370.0 L211.9,370.4 L212.1,369.6 
		L212.4,369.4 L212.6,369.2 L212.8,369.3 L213.0,369.3 L213.2,369.3 L213.4,369.3 L213.6,369.4 L213.9,369.4 
		L214.1,369.5 L214.3,369.4 L214.5,369.4 L214.7,369.6 L214.9,369.6 L215.1,369.7 L215.3,369.7 L215.6,369.8 
		L215.8,369.4 L216.0,369.3 L216.2,369.3 L216.4,369.3 L216.6,369.3 L216.8,369.3 L217.1,369.3 L217.3,369.3 
		L217.5,369.8 L217.7,369.8 L217.9,369.8 L218.1,369.8 L218.3,369.8 L218.5,369.8 L218.8,369.4 L219.0,369.3 
		L219.2,369.3 L219.4,369.3 L219.6,369.3 L219.8,369.3 L220.0,369.3 L220.3,369.6 L220.5,369.6 L220.7,369.6 
		L220.9,369.8 L221.1,369.8 L221.3,369.8 L221.5,370.0 L221.8,370.0 L222.0,370.0 L222.2,369.9 L222.4,369.8 
		L222.6,369.7 L222.8,369.7 L223.0,369.7 L223.2,369.9 L223.5,369.9 L223.7,369.9 L223.9,369.9 L224.1,369.9 
		L224.3,370.2 L224.5,370.2 L224.7,370.4 L225.0,370.2 L225.2,370.2 L225.4,370.1 L225.6,370.1 L225.8,370.1 
		L226.0,370.1 L226.2,370.1 L226.4,370.2 L226.7,370.2 L226.9,370.2 L227.1,370.2 L227.3,370.2 L227.5,370.4 
		L227.7,370.4 L227.9,370.4 L228.2,370.4 L228.4,370.6 L228.6,370.5 L228.8,370.4 L229.0,370.4 L229.2,370.4 
		L229.4,370.4 L229.7,370.4 L229.9,370.4 L230.1,370.4 L230.3,370.4 L230.5,370.4 L230.7,370.4 L230.9,370.4 
		L231.1,371.3 L231.4,371.3 L231.6,371.3 L231.8,371.3 L232.0,371.5 L232.2,371.5 L232.4,371.5 L232.6,371.5 
		L232.9,371.5 L233.1,371.6 L233.3,371.6 L233.5,371.6 L233.7,371.7 L233.9,371.5 L234.1,371.5 L234.3,371.6 
		L234.6,371.5 L234.8,371.4 L235.0,371.4 L235.2,371.4 L235.4,371.4 L235.6,371.4 L235.8,371.8 L236.1,371.6 
		L236.3,371.6 L236.5,371.2 L236.7,371.0 L236.9,371.0 L237.1,371.0 L237.3,371.0 L237.5,371.0 L237.8,371.0 
		L238.0,371.0 L238.2,371.0 L238.4,371.4 L238.6,371.5 L238.8,371.5 L239.0,371.5 L239.3,371.4 L239.5,371.4 
		L239.7,371.4 L239.9,371.4 L240.1,371.7 L240.3,371.0 L240.5,370.8 L240.8,370.8 L241.0,370.8 L241.2,370.8 
		L241.4,370.8 L241.6,370.8 L241.8,371.0 L242.0,370.9 L242.2,370.9 L242.5,370.4 L242.7,370.2 L242.9,370.2 
		L243.1,370.2 L243.3,370.2 L243.5,370.3 L243.7,370.1 L244.0,370.0 L244.2,369.9 L244.4,369.9 L244.6,370.0 
		L244.8,370.0 L245.0,369.9 L245.2,369.9 L245.4,369.9 L245.7,369.9 L245.9,369.9 L246.1,369.9 L246.3,369.9 
		L246.5,370.2 L246.7,370.1 L246.9,370.1 L247.2,370.2 L247.4,370.2 L247.6,370.2 L247.8,370.3 L248.0,369.6 
		L248.2,369.2 L248.4,369.2 L248.6,369.2 L248.9,369.2 L249.1,369.4 L249.3,369.4 L249.5,369.4 L249.7,369.4 
		L249.9,369.4 L250.1,369.4 L250.4,369.4 L250.6,369.8 L250.8,369.8 L251.0,369.9 L251.2,369.9 L251.4,369.6 
		L251.6,369.6 L251.8,369.6 L252.1,369.6 L252.3,369.8 L252.5,369.7 L252.7,369.7 L252.9,369.7 L253.1,369.7 
		L253.3,369.7 L253.6,370.0 L253.8,370.0 L254.0,370.0 L254.2,370.1 L254.4,369.8 L254.6,369.8 L254.8,369.8 
		L255.1,369.6 L255.3,369.5 L255.5,369.5 L255.7,369.5 L255.9,369.5 L256.1,369.5 L256.3,369.8 L256.5,369.8 
		L256.8,369.8 L257.0,369.8 L257.2,369.8 L257.4,369.9 L257.6,369.8 L257.8,369.8 L258.0,369.8 L258.3,369.8 
		L258.5,369.8 L258.7,370.0 L258.9,370.0 L259.1,370.0 L259.3,370.0 L259.5,370.0 L259.7,370.0 L260.0,370.2 
		L260.2,370.2 L260.4,370.3 L260.6,370.3 L260.8,370.3 L261.0,370.3 L261.2,370.3 L261.5,370.5 L261.7,370.5 
		L261.9,370.5 L262.1,370.5 L262.3,370.6 L262.5,370.6 L262.7,370.4 L263.0,370.4 L263.2,370.4 L263.4,370.4 
		L263.6,370.5 L263.8,370.5 L264.0,370.5 L264.2,370.5 L264.4,370.5 L264.7,370.5 L264.9,370.5 L265.1,370.5 
		L265.3,370.5 L265.5,370.9 L265.7,370.9 L265.9,371.0 L266.2,371.0 L266.4,371.0 L266.6,371.2 L266.8,371.2 
		L267.0,371.1 L267.2,371.1 L267.4,371.1 L267.6,371.3 L267.9,371.3 L268.1,371.3 L268.3,371.3 L268.5,371.2 
		L268.7,371.2 L268.9,371.2 L269.1,371.2 L269.4,371.2 L269.6,371.2 L269.8,371.2 L270.0,371.5 L270.2,370.7 
		L270.4,370.5 L270.6,370.5 L270.9,370.5 L271.1,370.5 L271.3,370.5 L271.5,370.7 L271.7,370.7 L271.9,370.7 
		L272.1,370.7 L272.3,370.6 L272.6,370.6 L272.8,370.6 L273.0,370.6 L273.2,370.7 L273.4,370.7 L273.6,370.7 
		L273.8,370.7 L274.1,370.6 L274.3,370.4 L274.5,370.4 L274.7,370.4 L274.9,370.4 L275.1,370.4 L275.3,370.7 
		L275.5,370.7 L275.8,370.7 L276.0,370.7 L276.2,370.9 L276.4,370.7 L276.6,370.7 L276.8,370.8 L277.0,370.8 
		L277.3,370.8 L277.5,370.8 L277.7,370.8 L277.9,371.0 L278.1,371.0 L278.3,370.8 L278.5,370.8 L278.8,370.8 
		L279.0,370.9 L279.2,370.9 L279.4,370.9 L279.6,370.9 L279.8,370.9 L280.0,370.9 L280.2,371.1 L280.5,370.8 
		L280.7,370.8 L280.9,370.8 L281.1,371.0 L281.3,371.0 L281.5,371.0 L281.7,371.0 L282.0,371.0 L282.2,371.0 
		L282.4,371.0 L282.6,371.0 L282.8,371.0 L283.0,371.4 L283.2,371.4 L283.4,371.4 L283.7,371.4 L283.9,371.3 
		L284.1,371.3 L284.3,371.3 L284.5,371.3 L284.7,371.3 L284.9,371.3 L285.2,371.5 L285.4,371.5 L285.6,371.5 
		L285.8,371.5 L286.0,371.5 L286.2,371.5 L286.4,371.8 L286.7,371.7 L286.9,371.7 L287.1,371.7 L287.3,371.7 
		L287.5,371.8 L287.7,371.7 L287.9,371.7 L288.1,371.7 L288.4,371.7 L288.6,371.7 L288.8,371.7 L289.0,371.7 
		L289.2,372.0 L289.4,371.9 L289.6,371.9 L289.9,371.8 L290.1,371.8 L290.3,371.8 L290.5,371.8 L290.7,371.8 
		L290.9,371.8 L291.1,371.8 L291.3,371.8 L291.6,371.8 L291.8,372.2 L292.0,372.2 L292.2,372.1 L292.4,372.1 
		L292.6,372.1 L292.8,372.1 L293.1,372.1 L293.3,372.1 L293.5,372.3 L293.7,372.3 L293.9,372.3 L294.1,372.3 
		L294.3,372.3 L294.5,372.4 L294.8,372.4 L295.0,372.4 L295.2,372.4 L295.4,372.4 L295.6,372.4 L295.8,372.4 
		L296.0,372.4 L296.3,372.4 L296.5,372.9 L296.7,372.7 L296.9,372.7 L297.1,372.7 L297.3,372.8 L297.5,372.8 
		L297.8,372.8 L298.0,372.8 L298.2,372.8 L298.4,372.8 L298.6,372.8 L298.8,372.8 L299.0,372.8 L299.2,372.8 
		L299.5,372.8 L299.7,372.8 L299.9,372.8 L300.1,373.2 L300.3,373.2 L300.5,373.2 L300.7,373.2 L301.0,373.4 
		L301.2,373.3 L301.4,373.3 L301.6,373.3 L301.8,373.3 L302.0,373.5 L302.2,373.5 L302.4,373.5 L302.7,373.5 
		L302.9,373.6 L303.1,373.5 L303.3,373.6 L303.5,373.4 L303.7,373.4 L303.9,373.4 L304.2,373.5 L304.4,373.5 
		L304.6,373.5 L304.8,373.5 L305.0,373.6 L305.2,373.6 L305.4,373.7 L305.7,373.7 L305.9,373.8 L306.1,373.8 
		L306.3,373.8 L306.5,373.8 L306.7,373.8 L306.9,373.8 L307.1,373.8 L307.4,374.0 L307.6,374.0 L307.8,374.0 
		L308.0,374.0 L308.2,374.0 L308.4,374.0 L308.6,374.0 L308.9,373.8 L309.1,373.8 L309.3,373.9 L309.5,373.9 
		L309.7,373.9 L309.9,373.9 L310.1,373.9 L310.3,374.1 L310.6,374.0 L310.8,373.8 L311.0,373.6 L311.2,373.3 
		L311.4,373.3 L311.6,373.2 L311.8,373.1 L312.1,372.8 L312.3,372.5 L312.5,372.5 L312.7,372.5 L312.9,372.6 
		L313.1,372.6 L313.3,372.7 L313.6,372.6 L313.8,372.6 L314.0,372.6 L314.2,372.6 L314.4,372.8 L314.6,372.8 
		L314.8,372.9 L315.0,372.9 L315.3,372.9 L315.5,372.9 L315.7,372.9 L315.9,372.9 L316.1,372.9 L316.3,372.9 
		L316.5,372.9 L316.8,372.9 L317.0,372.9 L317.2,373.1 L317.4,373.1 L317.6,373.1 L317.8,373.1 L318.0,373.1 
		L318.2,373.2 L318.5,373.2 L318.7,373.1 L318.9,373.1 L319.1,373.1 L319.3,373.1 L319.5,373.1 L319.7,373.1 
		L320.0,373.1 L320.2,373.1 L320.4,373.1 L320.6,373.4 L320.8,373.2 L321.0,373.2 L321.2,373.1 L321.5,373.1 
		L321.7,373.1 L321.9,373.1 L322.1,373.1 L322.3,373.1 L322.5,373.4 L322.7,373.4 L322.9,373.2 L323.2,373.0 
		L323.4,373.0 L323.6,372.9 L323.8,372.8 L324.0,372.8 L324.2,372.8 L324.4,372.8 L324.7,372.8 L324.9,372.8 
		L325.1,373.1 L325.3,373.0 L325.5,373.0 L325.7,373.0 L325.9,373.0 L326.1,373.0 L326.4,373.0 L326.6,373.1 
		L326.8,373.1 L327.0,373.1 L327.2,373.1 L327.4,373.2 L327.6,373.2 L327.9,373.2 L328.1,373.3 L328.3,373.3 
		L328.5,373.2 L328.7,373.2 L328.9,373.2 L329.1,373.2 L329.4,373.2 L329.6,373.2 L329.8,373.2 L330.0,373.2 
		L330.2,373.2 L330.4,373.2 L330.6,373.2 L330.8,373.2 L331.1,373.5 L331.3,373.5 L331.5,373.5 L331.7,373.5 
		L331.9,373.5 L332.1,373.5 L332.3,373.5 L332.6,373.5 L332.8,373.5 L333.0,373.5 L333.2,373.5 L333.4,373.9 
		L333.6,373.9 L333.8,373.9 L334.0,373.9 L334.3,373.9 L334.5,373.9 L334.7,373.9 L334.9,374.0 L335.1,374.0 
		L335.3,374.0 L335.5,374.0 L335.8,374.0 L336.0,374.0 L336.2,374.0 L336.4,374.0 L336.6,374.0 L336.8,374.0 
		L337.0,374.0 L337.2,374.0 L337.5,374.0 L337.7,374.0 L337.9,374.0 L338.1,374.0 L338.3,374.2 L338.5,374.2 
		L338.7,374.2 L339.0,374.1 L339.2,374.1 L339.4,374.1 L339.6,374.1 L339.8,374.0 L340.0,374.0 L340.2,374.0 
		L340.5,374.0 L340.7,374.0 L340.9,374.2 L341.1,374.2 L341.3,374.2 L341.5,374.2 L341.7,374.3 L341.9,374.3 
		L342.2,374.3 L342.4,374.3 L342.6,374.4 L342.8,374.4 L343.0,374.4 L343.2,374.4 L343.4,374.4 L343.7,374.5 
		L343.9,374.4 L344.1,374.4 L344.3,374.4 L344.5,374.4 L344.7,374.4 L344.9,374.3 L345.1,374.3 L345.4,374.4 
		L345.6,374.4 L345.8,374.4 L346.0,374.4 L346.2,374.4 L346.4,374.4 L346.6,374.4 L346.9,374.7 L347.1,374.4 
		L347.3,374.4 L347.5,374.4 L347.7,374.4 L347.9,374.4 L348.1,374.4 L348.4,374.4 L348.6,374.4 L348.8,374.7 
		L349.0,374.6 L349.2,374.6 L349.4,374.6 L349.6,374.6 L349.8,374.6 L350.1,374.6 L350.3,374.9 L350.5,374.8 
		L350.7,374.7 L350.9,374.4 L351.1,374.4 L351.3,374.4 L351.6,374.4 L351.8,374.4 L352.0,374.4 L352.2,374.6 
		L352.4,374.5 L352.6,374.5 L352.8,374.5 L353.0,374.5 L353.3,374.5 L353.5,374.5 L353.7,374.6 L353.9,374.6 
		L354.1,374.6 L354.3,374.6 L354.5,374.6 L354.8,374.6 L355.0,374.7 L355.2,374.7 L355.4,374.7 L355.6,374.6 
		L355.8,374.6 L356.0,374.6 L356.3,374.7 L356.5,374.5 L356.7,374.4 L356.9,374.4 L357.1,374.4 L357.3,374.5 
		L357.5,374.5 L357.7,374.5 L358.0,374.5 L358.2,374.6 L358.4,374.6 L358.6,374.6 L358.8,374.7 L359.0,374.6 
		L359.2,374.6 L359.5,374.6 L359.7,374.6 L359.9,374.6 L360.1,374.6 L360.3,374.6 L360.5,374.6 L360.7,374.6 
		L360.9,374.9 L361.2,374.9 L361.4,374.9 L361.6,374.9 L361.8,374.9 L362.0,375.0 L362.2,375.0 L362.4,375.0 
		L362.7,375.0 L362.9,375.0 L363.1,375.0 L363.3,374.9 L363.5,374.9 L363.7,374.9 L363.9,374.9 L364.2,374.9 
		L364.4,375.1 L364.6,375.1 L364.8,375.1 L365.0,375.1 L365.2,375.1 L365.4,375.1 L365.6,375.1 L365.9,375.3 
		L366.1,375.3 L366.3,375.3 L366.5,375.4 L366.7,375.2 L366.9,375.2 L367.1,375.2 L367.4,375.3 L367.6,375.3 
		L367.8,375.3 L368.0,375.3 L368.2,375.3 L368.4,375.3 L368.6,375.3 L368.8,375.3 L369.1,375.5 L369.3,375.5 
		L369.5,375.5 L369.7,375.5 L369.9,375.4 L370.1,375.4 L370.3,375.4 L370.6,375.4 L370.8,375.4 L371.0,375.4 
		L371.2,375.4 L371.4,375.4 L371.6,375.4 L371.8,375.4 L372.1,375.6 L372.3,375.6 L372.5,375.6 L372.7,375.7 
		L372.9,375.7 L373.1,375.7 L373.3,375.7 L373.5,375.7 L373.8,375.7 L374.0,375.7 L374.2,375.7 L374.4,375.7 
		L374.6,375.7 L374.8,375.7 L375.0,376.0 L375.3,376.0 L375.5,375.9 L375.7,375.5 L375.9,375.5 L376.1,375.5 
		L376.3,375.5 L376.5,375.5 L376.7,375.7 L377.0,375.6 L377.2,375.5 L377.4,375.2 L377.6,375.1 L377.8,375.1 
		L378.0,375.1 L378.2,375.1 L378.5,375.1 L378.7,375.1 L378.9,375.1 L379.1,375.1 L379.3,375.1 L379.5,375.1 
		L379.7,375.1 L379.9,375.1 L380.2,375.5 L380.4,375.5 L380.6,375.5 L380.8,375.5 L381.0,375.4 L381.2,375.4 
		L381.4,375.4 L381.7,375.4 L381.9,375.5 L382.1,375.3 L382.3,375.3 L382.5,375.3 L382.7,375.3 L382.9,375.3 
		L383.2,375.3 L383.4,375.3 L383.6,375.3 L383.8,375.0 L384.0,375.0 L384.2,375.0 L384.4,375.0 L384.6,375.0 
		L384.9,375.0 L385.1,375.0 L385.3,375.0 L385.5,375.0 L385.7,375.0 L385.9,374.9 L386.1,374.9 L386.4,374.9 
		L386.6,374.9 L386.8,374.9 L387.0,374.9 L387.2,375.1 L387.4,375.1 L387.6,375.1 L387.8,375.1 L388.1,375.1 
		L388.3,375.1 L388.5,375.1 L388.7,375.1 L388.9,375.1 L389.1,375.3 L389.3,375.3 L389.6,375.3 L389.8,375.3 
		L390.0,375.2 L390.2,375.1 L390.4,375.1 L390.6,375.1 L390.8,375.1 L391.1,375.1 L391.3,375.1 L391.5,375.1 
		L391.7,375.1 L391.9,375.1 L392.1,375.2 L392.3,375.2 L392.5,375.2 L392.8,375.2 L393.0,375.2 L393.2,375.2 
		L393.4,375.4 L393.6,375.2 L393.8,375.1 L394.0,375.1 L394.3,375.1 L394.5,375.1 L394.7,375.1 L394.9,375.2 
		L395.1,375.1 L395.3,375.1 L395.5,375.1 L395.7,375.1 L396.0,375.2 L396.2,374.9 L396.4,374.8 L396.6,374.8 
		L396.8,374.8 L397.0,374.8 L397.2,374.8 L397.5,375.0 L397.7,374.8 L397.9,374.8 L398.1,374.8 L398.3,374.8 
		L398.5,374.8 L398.7,374.8 L399.0,374.8 L399.2,374.8 L399.4,374.8 L399.6,375.0 L399.8,375.0 L400.0,375.0 
		L400.2,375.0 L400.4,375.0 L400.7,375.0 L400.9,375.0 L401.1,375.0 L401.3,375.0 L401.5,375.0 L401.7,375.0 
		L401.9,375.3 L402.2,375.3 L402.4,375.3 L402.6,375.3 L402.8,375.3 L403.0,375.3 L403.2,375.3 L403.4,375.3 
		L403.6,375.3 L403.9,375.4 L404.1,375.4 L404.3,375.4 L404.5,375.4 L404.7,375.4 L404.9,375.4 L405.1,375.4 
		L405.4,375.5 L405.6,375.5 L405.8,375.5 L406.0,375.5 L406.2,375.5 L406.4,375.5 L406.6,375.5 L406.9,375.5 
		L407.1,375.5 L407.3,375.5 L407.5,375.5 L407.7,375.5 L407.9,375.5 L408.1,375.5 L408.3,375.5 L408.6,375.5 
		L408.8,375.5 L409.0,375.5 L409.2,375.5 L409.4,375.5 L409.6,375.5 L409.8,375.5 L410.1,375.5 L410.3,375.5 
		L410.5,375.5 L410.7,375.5 L410.9,375.5 L411.1,375.5 L411.3,375.5 L411.5,375.5 L411.8,375.5 L412.0,375.9 
		L412.2,375.9 L412.4,375.9 L412.6,376.0 L412.8,376.0 L413.0,376.0 L413.3,376.0 L413.5,376.0 L413.7,376.0 
		L413.9,376.0 L414.1,376.0 L414.3,376.0 L414.5,376.0 L414.8,376.2 L415.0,376.2 L415.2,376.2 L415.4,376.2 
		L415.6,376.2 L415.8,376.1 L416.0,376.2 L416.2,376.1 L416.5,376.1 L416.7,376.1 L416.9,376.1 L417.1,376.1 
		L417.3,376.2 L417.5,375.7 L417.7,375.6 L418.0,375.6 L418.2,375.6 L418.4,375.7 L418.6,375.6 L418.8,375.6 
		L419.0,375.6 L419.2,375.6 L419.4,375.7 L419.7,375.7 L419.9,375.7 L420.1,375.7 L420.3,375.6 L420.5,375.6 
		L420.7,375.6 L420.9,375.6 L421.2,375.6 L421.4,375.6 L421.6,375.6 L421.8,375.6 L422.0,375.6 L422.2,375.6 
		L422.4,375.7 L422.6,375.5 L422.9,375.5 L423.1,375.5 L423.3,375.5 L423.5,375.5 L423.7,375.5 L423.9,375.6 
		L424.1,375.6 L424.4,375.4 L424.6,375.4 L424.8,375.4 L425.0,375.4 L425.2,375.4 L425.4,375.4 L425.6,375.4 
		L425.9,375.4 L426.1,375.4 L426.3,375.4 L426.5,375.6 L426.7,375.6 L426.9,375.6 L427.1,375.6 L427.3,375.6 
		L427.6,375.6 L427.8,375.6 L428.0,375.6 L428.2,375.6 L428.4,375.8 L428.6,375.7 L428.8,375.7 L429.1,375.7 
		L429.3,375.7 L429.5,375.7 L429.7,375.7 L429.9,375.9 L430.1,375.9 L430.3,375.9 L430.5,375.9 L430.8,375.9 
		L431.0,375.9 L431.2,375.9 L431.4,376.1 L431.6,376.0 L431.8,376.0 L432.0,375.7 L432.3,375.7 L432.5,375.7 
		L432.7,375.7 L432.9,375.7 L433.1,375.7 L433.3,375.8 L433.5,375.8 L433.8,375.8 L434.0,375.8 L434.2,375.8 
		L434.4,375.8 L434.6,375.8 L434.8,375.8 L435.0,375.8 L435.2,375.8 L435.5,375.9 L435.7,375.9 L435.9,375.9 
		L436.1,375.9 L436.3,375.9 L436.5,375.9 L436.7,375.9 L437.0,375.9 L437.2,375.9 L437.4,375.9 L437.6,375.9 
		L437.8,375.9 L438.0,375.9 L438.2,375.9 L438.4,375.9 L438.7,375.9 L438.9,376.2 L439.1,376.2 L439.3,376.2 
		L439.5,376.2 L439.7,376.2 L439.9,376.2 L440.2,376.3 L440.4,376.3 L440.6,376.3 L440.8,376.3 L441.0,376.4 
		L441.2,376.4 L441.4,376.4 L441.7,376.4 L441.9,376.5 L442.1,376.5 L442.3,376.5 L442.5,376.5 L442.7,376.5 
		L442.9,376.5 L443.1,376.5 L443.4,376.5 L443.6,376.5 L443.8,376.5 L444.0,376.5 L444.2,376.7 L444.4,376.7 
		L444.6,376.7 L444.9,376.7 L445.1,376.7 L445.3,376.8 L445.5,376.8 L445.7,376.6 L445.9,376.6 L446.1,376.6 
		L446.3,376.6 L446.6,376.6 L446.8,376.6 L447.0,376.6 L447.2,376.6 L447.4,376.6 L447.6,376.6 L447.8,376.8 
		L448.1,376.8 L448.3,376.8 L448.5,376.8 L448.7,376.8 L448.9,376.8 L449.1,376.8 L449.3,376.9 L449.6,376.9 
		L449.8,376.9 L450.0,376.9 L450.2,376.9 L450.4,376.9 L450.6,377.0 L450.8,377.0 L451.0,377.0 L451.3,377.0 
		L451.5,377.0 L451.7,377.0 L451.9,377.0 L452.1,377.0 L452.3,377.0 L452.5,377.1 L452.8,377.1 L453.0,377.2 
		L453.2,377.2 L453.4,377.2 L453.6,377.2 L453.8,377.2 L454.0,377.2 L454.2,377.2 L454.5,377.2 L454.7,377.2 
		L454.9,377.2 L455.1,377.3 L455.3,377.2 L455.5,377.1 L455.7,377.1 L456.0,377.1 L456.2,377.1 L456.4,377.1 
		L456.6,377.1 L456.8,377.1 L457.0,377.1 L457.2,377.1 L457.5,377.1 L457.7,377.1 L457.9,377.1 L458.1,377.1 
		L458.3,377.1 L458.5,377.1 L458.7,377.1 L458.9,377.1 L459.2,377.5 L459.4,377.5 L459.6,377.5 L459.8,377.4 
		L460.0,377.4 L460.2,377.4 L460.4,377.4 L460.7,377.3 L460.9,377.3 L461.1,377.1 L461.3,376.9 L461.5,376.8 
		L461.7,376.7 L461.9,376.6 L462.1,376.6 L462.4,376.6 L462.6,376.6 L462.8,376.5 L463.0,376.5 L463.2,376.5 
		L463.4,376.5 L463.6,376.5 L463.9,376.5 L464.1,376.6 L464.3,376.6 L464.5,376.6 L464.7,376.6 L464.9,376.6 
		L465.1,376.6 L465.3,376.5 L465.6,376.5 L465.8,376.5 L466.0,376.5 L466.2,376.5 L466.4,376.5 L466.6,376.6 
		L466.8,376.6 L467.1,376.6 L467.3,376.6 L467.5,376.6 L467.7,376.6 L467.9,376.6 L468.1,376.6 L468.3,376.7 
		L468.6,376.6 L468.8,376.6 L469.0,376.6 L469.2,376.6 L469.4,376.6 L469.6,376.6 L469.8,376.6 L470.0,376.6 
		L470.3,376.7 L470.5,376.7 L470.7,376.7 L470.9,376.7 L471.1,376.7 L471.3,376.7 L471.5,376.7 L471.8,376.7 
		L472.0,376.7 L472.2,376.7 L472.4,376.6 L472.6,376.6 L472.8,376.6 L473.0,376.6 L473.2,376.6 L473.5,376.6 
		L473.7,376.6 L473.9,376.8 L474.1,376.8 L474.3,376.8 L474.5,376.8 L474.7,376.8 L475.0,376.8 L475.2,376.8 
		L475.4,376.8 L475.6,376.8 L475.8,376.8 L476.0,376.8 L476.2,376.8 L476.5,376.8 L476.7,376.8 L476.9,376.9 
		L477.1,376.9 L477.3,376.9 L477.5,376.9 L477.7,376.8 L477.9,376.7 L478.2,376.7 L478.4,376.7 L478.6,376.7 
		L478.8,376.7 L479.0,376.7 L479.2,376.7 L479.4,376.7 L479.7,376.7 L479.9,376.8 L480.1,376.8 L480.3,376.8 
		L480.5,376.8 L480.7,376.8 L480.9,376.9 L481.1,376.9 L481.4,376.9 L481.6,376.9 L481.8,376.9 L482.0,376.9 
		L482.2,376.8 L482.4,376.8 L482.6,376.7 L482.9,376.7 L483.1,376.7 L483.3,376.7 L483.5,376.7 L483.7,376.7 
		L483.9,376.7 L484.1,376.5 L484.4,376.3 L484.6,376.3 L484.8,376.3 L485.0,376.3 L485.2,376.2 L485.4,376.2 
		L485.6,376.2 L485.8,376.2 L486.1,376.2 L486.3,376.2 L486.5,376.2 L486.7,376.2 L486.9,376.2 L487.1,376.2 
		L487.3,376.2 L487.6,376.2 L487.8,376.4 L488.0,376.4 L488.2,376.4 L488.4,376.4 L488.6,376.4 L488.8,376.4 
		L489.0,376.4 L489.3,376.5 L489.5,376.5 L489.7,376.5 L489.9,376.5 L490.1,376.5 L490.3,376.5 L490.5,376.6 
		L490.8,376.6 L491.0,376.6 L491.2,376.4 L491.4,376.4 L491.6,376.2 L491.8,376.2 L492.0,376.2 L492.3,376.2 
		L492.5,376.1 L492.7,376.1 L492.9,376.1 L493.1,376.1 L493.3,376.1 L493.5,376.1 L493.7,376.1 L494.0,376.1 
		L494.2,376.1 L494.4,376.1 L494.6,376.2 L494.8,376.0 L495.0,376.0 L495.2,376.0 L495.5,376.0 L495.7,376.0 
		L495.9,376.0 L496.1,376.0 L496.3,376.1 L496.5,376.0 L496.7,375.9 L496.9,375.9 L497.2,375.9 L497.4,375.9 
		L497.6,376.0 L497.8,376.0 L498.0,376.0 L498.2,376.0 L498.4,376.0 L498.7,376.0 L498.9,376.0 L499.1,376.0 
		L499.3,376.0 L499.5,376.0 L499.7,376.0 L499.9,376.0 L500.2,376.0 L500.4,376.0 L500.6,376.2 L500.8,376.2 
		L501.0,376.2 L501.2,376.2 L501.4,376.2 L501.6,376.3 L501.9,376.2 L502.1,376.2 L502.3,376.2 L502.5,376.2 
		L502.7,376.3 L502.9,376.3 L503.1,376.3 L503.4,376.3 L503.6,376.3 L503.8,376.3 L504.0,376.3 L504.2,376.3 
		L504.4,376.3 L504.6,376.3 L504.8,376.3 L505.1,376.2 L505.3,376.2 L505.5,376.2 L505.7,376.2 L505.9,376.3 
		L506.1,376.3 L506.3,376.3 L506.6,376.3 L506.8,376.3 L507.0,376.3 L507.2,376.3  h0.01'/></g>
	</g>
	<g id="gnuplot_plot_3" ><title>gnuplot_plot_3</title>
<g style="fill:none; color:blue; stroke:currentColor; stroke-width:1.00; stroke-linecap:butt; stroke-linejoin:miter">
	<g transform="translate(440.1,408.9)" style="stroke:none; fill:black; font-family:Arial; font-size:12.00pt; text-anchor:end">
		<text>TCP UL Delay</text>
	</g>
	<path  d='M448.4,404.4 L490.6,404.4 M80.2,394.3 L80.4,394.3 L80.6,390.0 L80.8,394.8 L81.1,394.8 L81.3,375.2 
		L81.5,375.2 L81.7,371.5 L81.9,371.5 L82.1,371.5 L82.3,371.5 L82.6,339.0 L82.8,347.6 L83.0,353.1 
		L83.2,353.1 L83.4,355.5 L83.6,358.3 L83.9,358.3 L84.1,358.3 L84.3,356.6 L84.5,375.5 L84.7,374.8 
		L84.9,370.6 L85.1,370.6 L85.4,360.4 L85.6,360.4 L85.8,347.1 L86.0,333.8 L86.2,333.8 L86.4,333.8 
		L86.6,333.8 L86.9,333.8 L87.1,333.8 L87.3,333.8 L87.5,333.8 L87.7,333.8 L87.9,333.8 L88.1,323.6 
		L88.4,322.6 L88.6,302.6 L88.8,302.6 L89.0,302.6 L89.2,302.6 L89.4,247.8 L89.7,240.6 L89.9,240.6 
		L90.1,240.6 L90.3,240.6 L90.5,240.6 L90.7,240.6 L90.9,240.6 L91.2,240.6 L91.4,240.6 L91.6,234.3 
		L91.8,234.3 L92.0,171.7 L92.2,159.4 L92.4,159.4 L92.7,162.8 L92.9,162.8 L93.1,171.7 L93.3,175.3 
		L93.5,175.3 L93.7,175.3 L93.9,175.4 L94.2,175.4 L94.4,175.5 L94.6,175.7 L94.8,175.7 L95.0,175.7 
		L95.2,175.7 L95.5,175.7 L95.7,174.9 L95.9,172.2 L96.1,161.1 L96.3,165.1 L96.5,165.1 L96.7,165.1 
		L97.0,168.3 L97.2,174.0 L97.4,174.3 L97.6,174.3 L97.8,174.3 L98.0,174.3 L98.2,174.3 L98.5,174.3 
		L98.7,173.7 L98.9,173.7 L99.1,173.7 L99.3,171.1 L99.5,166.8 L99.8,162.9 L100.0,162.7 L100.2,154.9 
		L100.4,154.9 L100.6,157.7 L100.8,158.2 L101.0,158.2 L101.3,158.2 L101.5,158.2 L101.7,158.2 L101.9,158.2 
		L102.1,157.7 L102.3,157.7 L102.5,156.3 L102.8,156.3 L103.0,156.3 L103.2,156.3 L103.4,143.2 L103.6,139.8 
		L103.8,139.8 L104.0,137.3 L104.3,137.3 L104.5,136.0 L104.7,136.0 L104.9,136.0 L105.1,136.0 L105.3,131.7 
		L105.6,131.7 L105.8,131.7 L106.0,121.0 L106.2,121.0 L106.4,121.0 L106.6,121.0 L106.8,120.4 L107.1,106.6 
		L107.3,105.2 L107.5,105.2 L107.7,105.2 L107.9,105.2 L108.1,105.2 L108.3,103.4 L108.6,103.0 L108.8,92.2 
		L109.0,83.0 L109.2,71.7 L109.4,88.4 L109.6,88.4 L109.9,88.4 L110.1,88.4 L110.3,88.4 L110.5,88.4 
		L110.7,88.4 L110.9,88.4 L111.1,88.7 L111.4,88.5 L111.6,90.8 L111.8,90.8 L112.0,90.8 L112.2,92.5 
		L112.4,92.5 L112.6,92.5 L112.9,92.5 L113.1,92.5 L113.3,92.5 L113.5,92.5 L113.7,92.1 L113.9,92.1 
		L114.1,92.1 L114.4,92.1 L114.6,92.1 L114.8,91.3 L115.0,91.3 L115.2,91.0 L115.4,92.1 L115.7,92.9 
		L115.9,92.9 L116.1,92.9 L116.3,93.4 L116.5,98.6 L116.7,98.6 L116.9,98.6 L117.2,98.6 L117.4,98.6 
		L117.6,98.6 L117.8,98.6 L118.0,102.6 L118.2,106.0 L118.5,107.4 L118.7,107.4 L118.9,107.5 L119.1,108.6 
		L119.3,108.8 L119.5,108.8 L119.7,109.4 L120.0,109.4 L120.2,109.4 L120.4,109.4 L120.6,109.4 L120.8,111.5 
		L121.0,111.5 L121.2,111.5 L121.5,111.5 L121.7,111.5 L121.9,111.5 L122.1,111.8 L122.3,114.5 L122.5,114.5 
		L122.8,114.5 L123.0,114.5 L123.2,114.9 L123.4,114.9 L123.6,114.9 L123.8,114.9 L124.0,114.9 L124.3,114.9 
		L124.5,114.9 L124.7,117.2 L124.9,118.0 L125.1,118.0 L125.3,119.1 L125.5,119.1 L125.8,119.1 L126.0,119.1 
		L126.2,119.1 L126.4,119.7 L126.6,119.7 L126.8,119.7 L127.0,119.7 L127.3,122.1 L127.5,122.2 L127.7,122.6 
		L127.9,122.6 L128.1,123.7 L128.3,123.7 L128.6,123.7 L128.8,123.7 L129.0,123.7 L129.2,123.7 L129.4,126.9 
		L129.6,126.9 L129.8,126.9 L130.1,130.9 L130.3,136.9 L130.5,140.1 L130.7,140.1 L130.9,140.1 L131.1,140.7 
		L131.3,143.4 L131.6,147.2 L131.8,147.2 L132.0,147.2 L132.2,147.2 L132.4,147.2 L132.6,147.2 L132.9,147.2 
		L133.1,147.2 L133.3,147.2 L133.5,147.2 L133.7,147.2 L133.9,147.2 L134.1,147.2 L134.4,146.9 L134.6,145.8 
		L134.8,145.3 L135.0,145.2 L135.2,145.2 L135.4,145.7 L135.6,145.7 L135.9,145.7 L136.1,145.7 L136.3,145.6 
		L136.5,148.7 L136.7,150.3 L136.9,150.3 L137.1,151.3 L137.4,151.3 L137.6,153.0 L137.8,153.6 L138.0,153.6 
		L138.2,153.6 L138.4,153.6 L138.7,153.6 L138.9,153.6 L139.1,153.6 L139.3,153.6 L139.5,153.6 L139.7,153.6 
		L139.9,153.6 L140.2,153.6 L140.4,153.5 L140.6,154.7 L140.8,155.2 L141.0,155.2 L141.2,155.2 L141.4,155.4 
		L141.7,155.6 L141.9,155.6 L142.1,155.6 L142.3,155.6 L142.5,155.6 L142.7,155.6 L143.0,155.6 L143.2,155.6 
		L143.4,156.4 L143.6,156.5 L143.8,156.5 L144.0,156.5 L144.2,156.5 L144.5,156.5 L144.7,156.5 L144.9,156.5 
		L145.1,156.5 L145.3,157.1 L145.5,157.1 L145.7,157.5 L146.0,158.1 L146.2,158.1 L146.4,158.1 L146.6,158.1 
		L146.8,158.2 L147.0,159.2 L147.2,159.2 L147.5,159.9 L147.7,159.9 L147.9,160.2 L148.1,160.2 L148.3,160.2 
		L148.5,160.2 L148.8,160.2 L149.0,160.1 L149.2,161.1 L149.4,162.0 L149.6,163.8 L149.8,163.8 L150.0,163.8 
		L150.3,164.2 L150.5,164.2 L150.7,164.2 L150.9,164.3 L151.1,166.9 L151.3,167.8 L151.5,167.8 L151.8,167.8 
		L152.0,167.8 L152.2,167.8 L152.4,167.9 L152.6,169.4 L152.8,170.8 L153.1,171.8 L153.3,171.8 L153.5,171.8 
		L153.7,172.3 L153.9,173.2 L154.1,173.2 L154.3,174.7 L154.6,174.7 L154.8,174.7 L155.0,175.0 L155.2,175.0 
		L155.4,175.0 L155.6,175.0 L155.8,175.0 L156.1,175.7 L156.3,175.7 L156.5,175.7 L156.7,176.9 L156.9,176.9 
		L157.1,176.9 L157.3,176.9 L157.6,178.2 L157.8,178.2 L158.0,178.2 L158.2,179.5 L158.4,179.9 L158.6,179.9 
		L158.9,179.9 L159.1,179.9 L159.3,179.9 L159.5,180.1 L159.7,180.4 L159.9,180.4 L160.1,180.4 L160.4,180.4 
		L160.6,180.4 L160.8,180.4 L161.0,180.4 L161.2,180.4 L161.4,180.4 L161.6,180.4 L161.9,180.3 L162.1,181.3 
		L162.3,181.3 L162.5,181.3 L162.7,181.3 L162.9,181.3 L163.2,181.3 L163.4,181.3 L163.6,181.3 L163.8,181.3 
		L164.0,181.3 L164.2,181.3 L164.4,181.3 L164.7,181.3 L164.9,180.5 L165.1,181.4 L165.3,184.0 L165.5,185.0 
		L165.7,186.4 L165.9,188.3 L166.2,188.5 L166.4,190.9 L166.6,192.3 L166.8,195.6 L167.0,195.7 L167.2,198.4 
		L167.4,198.4 L167.7,198.4 L167.9,198.4 L168.1,198.6 L168.3,199.5 L168.5,199.5 L168.7,199.6 L169.0,200.9 
		L169.2,201.6 L169.4,201.6 L169.6,201.6 L169.8,202.3 L170.0,202.3 L170.2,202.3 L170.5,202.3 L170.7,202.4 
		L170.9,202.4 L171.1,202.4 L171.3,202.4 L171.5,202.4 L171.7,202.4 L172.0,202.3 L172.2,202.3 L172.4,202.4 
		L172.6,202.6 L172.8,202.6 L173.0,202.6 L173.3,202.6 L173.5,202.6 L173.7,202.6 L173.9,202.6 L174.1,202.6 
		L174.3,202.6 L174.5,202.6 L174.8,202.6 L175.0,202.6 L175.2,202.4 L175.4,202.4 L175.6,202.1 L175.8,202.6 
		L176.0,203.8 L176.3,205.1 L176.5,206.7 L176.7,206.9 L176.9,206.9 L177.1,208.2 L177.3,210.2 L177.5,210.7 
		L177.8,210.8 L178.0,210.8 L178.2,210.8 L178.4,212.0 L178.6,212.8 L178.8,212.8 L179.1,212.8 L179.3,213.0 
		L179.5,213.1 L179.7,213.1 L179.9,213.9 L180.1,213.9 L180.3,214.5 L180.6,216.2 L180.8,216.7 L181.0,217.4 
		L181.2,220.6 L181.4,220.9 L181.6,220.9 L181.8,221.2 L182.1,224.4 L182.3,225.0 L182.5,226.4 L182.7,226.4 
		L182.9,226.4 L183.1,226.4 L183.4,226.4 L183.6,229.7 L183.8,229.8 L184.0,229.8 L184.2,229.8 L184.4,229.9 
		L184.6,230.2 L184.9,230.2 L185.1,230.2 L185.3,230.2 L185.5,230.2 L185.7,230.2 L185.9,230.2 L186.1,230.2 
		L186.4,230.2 L186.6,230.2 L186.8,230.2 L187.0,230.3 L187.2,230.6 L187.4,230.6 L187.6,230.7 L187.9,230.7 
		L188.1,230.8 L188.3,230.8 L188.5,230.8 L188.7,230.8 L188.9,230.8 L189.2,230.9 L189.4,230.9 L189.6,231.0 
		L189.8,231.2 L190.0,231.2 L190.2,231.8 L190.4,232.1 L190.7,232.2 L190.9,232.2 L191.1,232.6 L191.3,232.8 
		L191.5,232.8 L191.7,233.1 L191.9,233.1 L192.2,233.4 L192.4,234.0 L192.6,234.0 L192.8,234.0 L193.0,234.0 
		L193.2,234.0 L193.5,234.5 L193.7,235.8 L193.9,235.8 L194.1,236.2 L194.3,236.6 L194.5,237.9 L194.7,238.0 
		L195.0,238.0 L195.2,238.9 L195.4,239.2 L195.6,239.3 L195.8,239.3 L196.0,239.3 L196.2,239.3 L196.5,239.3 
		L196.7,239.3 L196.9,239.3 L197.1,239.3 L197.3,239.3 L197.5,239.3 L197.7,239.3 L198.0,239.3 L198.2,239.3 
		L198.4,239.3 L198.6,239.3 L198.8,239.1 L199.0,239.1 L199.3,239.5 L199.5,239.7 L199.7,241.3 L199.9,241.5 
		L200.1,241.5 L200.3,241.5 L200.5,241.5 L200.8,241.5 L201.0,241.5 L201.2,242.2 L201.4,242.8 L201.6,243.0 
		L201.8,243.0 L202.0,243.0 L202.3,243.0 L202.5,243.2 L202.7,243.2 L202.9,243.2 L203.1,243.2 L203.3,243.3 
		L203.6,243.5 L203.8,243.5 L204.0,243.5 L204.2,243.6 L204.4,243.8 L204.6,244.1 L204.8,244.1 L205.1,244.4 
		L205.3,244.7 L205.5,244.9 L205.7,244.9 L205.9,245.9 L206.1,246.4 L206.3,247.9 L206.6,249.5 L206.8,249.6 
		L207.0,249.6 L207.2,249.6 L207.4,249.6 L207.6,249.7 L207.9,249.7 L208.1,250.3 L208.3,250.3 L208.5,250.4 
		L208.7,250.4 L208.9,250.4 L209.1,250.4 L209.4,250.4 L209.6,250.4 L209.8,250.4 L210.0,250.3 L210.2,251.4 
		L210.4,252.3 L210.6,253.6 L210.9,253.6 L211.1,253.8 L211.3,253.8 L211.5,253.8 L211.7,253.8 L211.9,253.8 
		L212.1,253.9 L212.4,254.2 L212.6,254.2 L212.8,254.3 L213.0,254.3 L213.2,254.3 L213.4,254.3 L213.7,254.0 
		L213.9,256.0 L214.1,256.1 L214.3,256.1 L214.5,256.1 L214.7,256.1 L214.9,256.1 L215.2,256.1 L215.4,256.1 
		L215.6,255.7 L215.8,255.8 L216.0,255.8 L216.2,255.8 L216.4,255.8 L216.7,255.8 L216.9,256.5 L217.1,256.7 
		L217.3,256.9 L217.5,257.2 L217.7,257.2 L218.0,257.2 L218.2,257.2 L218.4,257.3 L218.6,257.3 L218.8,257.3 
		L219.0,257.2 L219.2,257.2 L219.5,257.2 L219.7,257.2 L219.9,257.3 L220.1,257.3 L220.3,257.5 L220.5,257.7 
		L220.7,257.9 L221.0,257.9 L221.2,257.9 L221.4,257.9 L221.6,257.9 L221.8,257.9 L222.0,257.9 L222.2,257.9 
		L222.5,257.9 L222.7,258.0 L222.9,258.0 L223.1,258.3 L223.3,258.3 L223.5,258.6 L223.8,258.9 L224.0,258.9 
		L224.2,258.9 L224.4,258.9 L224.6,259.2 L224.8,259.2 L225.0,259.2 L225.3,259.2 L225.5,259.2 L225.7,259.5 
		L225.9,259.6 L226.1,259.6 L226.3,259.6 L226.5,259.6 L226.8,259.8 L227.0,260.0 L227.2,260.0 L227.4,260.0 
		L227.6,260.0 L227.8,260.0 L228.1,260.0 L228.3,260.0 L228.5,260.0 L228.7,260.0 L228.9,260.0 L229.1,260.0 
		L229.3,259.7 L229.6,259.7 L229.8,259.7 L230.0,259.7 L230.2,259.4 L230.4,259.4 L230.6,259.5 L230.8,259.5 
		L231.1,259.5 L231.3,259.7 L231.5,259.7 L231.7,259.7 L231.9,259.8 L232.1,260.7 L232.3,260.7 L232.6,260.9 
		L232.8,261.2 L233.0,261.9 L233.2,262.1 L233.4,262.1 L233.6,262.1 L233.9,262.1 L234.1,262.0 L234.3,262.3 
		L234.5,262.5 L234.7,263.1 L234.9,263.3 L235.1,263.4 L235.4,263.4 L235.6,263.4 L235.8,263.4 L236.0,263.4 
		L236.2,263.4 L236.4,263.4 L236.6,263.4 L236.9,263.5 L237.1,263.5 L237.3,263.5 L237.5,263.7 L237.7,263.8 
		L237.9,263.8 L238.2,263.8 L238.4,263.8 L238.6,264.0 L238.8,264.1 L239.0,264.1 L239.2,264.3 L239.4,264.4 
		L239.7,264.5 L239.9,264.5 L240.1,264.5 L240.3,264.8 L240.5,264.9 L240.7,265.6 L240.9,265.6 L241.2,265.6 
		L241.4,265.6 L241.6,265.6 L241.8,265.9 L242.0,266.5 L242.2,266.8 L242.4,267.0 L242.7,267.0 L242.9,267.1 
		L243.1,267.1 L243.3,267.6 L243.5,267.6 L243.7,267.6 L243.9,267.6 L244.2,267.6 L244.4,267.6 L244.6,267.6 
		L244.8,267.5 L245.0,268.0 L245.2,268.0 L245.5,268.1 L245.7,268.4 L245.9,268.4 L246.1,268.4 L246.3,269.4 
		L246.5,270.2 L246.7,270.2 L247.0,270.2 L247.2,270.2 L247.4,270.2 L247.6,270.2 L247.8,270.2 L248.0,270.2 
		L248.2,270.2 L248.5,270.2 L248.7,270.2 L248.9,269.9 L249.1,269.9 L249.3,269.8 L249.5,269.8 L249.8,271.1 
		L250.0,271.2 L250.2,271.2 L250.4,271.2 L250.6,271.2 L250.8,271.3 L251.0,271.3 L251.3,271.3 L251.5,271.3 
		L251.7,271.3 L251.9,271.1 L252.1,271.1 L252.3,271.1 L252.5,271.2 L252.8,272.3 L253.0,272.3 L253.2,272.6 
		L253.4,273.3 L253.6,273.8 L253.8,273.8 L254.0,273.8 L254.3,273.8 L254.5,273.8 L254.7,273.8 L254.9,273.6 
		L255.1,273.5 L255.3,273.5 L255.6,273.5 L255.8,273.5 L256.0,273.6 L256.2,273.9 L256.4,273.9 L256.6,273.9 
		L256.8,273.9 L257.1,273.9 L257.3,273.9 L257.5,274.0 L257.7,274.0 L257.9,274.0 L258.1,274.0 L258.3,274.0 
		L258.6,274.0 L258.8,274.0 L259.0,274.0 L259.2,274.0 L259.4,274.0 L259.6,274.0 L259.9,274.1 L260.1,274.1 
		L260.3,274.1 L260.5,274.1 L260.7,274.2 L260.9,274.3 L261.1,274.5 L261.4,274.5 L261.6,274.5 L261.8,274.5 
		L262.0,274.6 L262.2,274.8 L262.4,274.8 L262.6,274.8 L262.9,274.8 L263.1,274.8 L263.3,274.8 L263.5,274.8 
		L263.7,274.8 L263.9,274.7 L264.1,274.7 L264.4,274.6 L264.6,274.6 L264.8,274.6 L265.0,274.6 L265.2,274.8 
		L265.4,274.9 L265.7,274.9 L265.9,274.9 L266.1,274.9 L266.3,274.9 L266.5,274.9 L266.7,274.9 L266.9,275.2 
		L267.2,275.2 L267.4,275.5 L267.6,275.5 L267.8,275.5 L268.0,275.5 L268.2,275.5 L268.4,275.5 L268.7,276.0 
		L268.9,276.2 L269.1,276.2 L269.3,276.2 L269.5,276.2 L269.7,276.2 L270.0,276.3 L270.2,276.3 L270.4,276.3 
		L270.6,276.5 L270.8,276.8 L271.0,276.8 L271.2,276.8 L271.5,276.8 L271.7,277.0 L271.9,277.1 L272.1,277.1 
		L272.3,277.1 L272.5,277.5 L272.7,278.0 L273.0,278.0 L273.2,278.0 L273.4,278.0 L273.6,278.0 L273.8,278.0 
		L274.0,278.0 L274.2,278.0 L274.5,278.0 L274.7,277.6 L274.9,278.1 L275.1,278.3 L275.3,278.3 L275.5,278.3 
		L275.8,278.3 L276.0,278.3 L276.2,278.3 L276.4,278.3 L276.6,278.3 L276.8,278.5 L277.0,278.6 L277.3,278.6 
		L277.5,278.6 L277.7,278.7 L277.9,278.7 L278.1,278.7 L278.3,278.7 L278.5,278.7 L278.8,278.8 L279.0,278.9 
		L279.2,278.9 L279.4,278.9 L279.6,278.9 L279.8,278.9 L280.1,278.9 L280.3,278.9 L280.5,278.9 L280.7,278.9 
		L280.9,278.9 L281.1,278.9 L281.3,278.9 L281.6,278.9 L281.8,278.9 L282.0,278.9 L282.2,279.0 L282.4,279.1 
		L282.6,279.1 L282.8,279.1 L283.1,279.1 L283.3,279.1 L283.5,279.1 L283.7,279.2 L283.9,279.2 L284.1,279.2 
		L284.3,279.2 L284.6,279.2 L284.8,279.2 L285.0,279.1 L285.2,279.3 L285.4,279.3 L285.6,279.3 L285.9,279.3 
		L286.1,279.3 L286.3,279.5 L286.5,279.5 L286.7,279.5 L286.9,279.5 L287.1,279.5 L287.4,279.5 L287.6,279.5 
		L287.8,279.4 L288.0,279.8 L288.2,279.8 L288.4,280.3 L288.6,280.3 L288.9,280.3 L289.1,280.3 L289.3,280.3 
		L289.5,280.3 L289.7,280.3 L289.9,280.3 L290.2,280.3 L290.4,280.1 L290.6,280.1 L290.8,280.3 L291.0,280.3 
		L291.2,280.3 L291.4,280.3 L291.7,280.3 L291.9,280.3 L292.1,280.2 L292.3,280.3 L292.5,280.3 L292.7,280.3 
		L292.9,280.3 L293.2,280.4 L293.4,280.4 L293.6,280.4 L293.8,280.4 L294.0,280.4 L294.2,280.4 L294.4,280.4 
		L294.7,280.4 L294.9,280.4 L295.1,280.3 L295.3,280.2 L295.5,280.2 L295.7,280.2 L296.0,280.2 L296.2,280.3 
		L296.4,280.5 L296.6,280.7 L296.8,280.7 L297.0,280.8 L297.2,280.8 L297.5,280.8 L297.7,280.8 L297.9,280.8 
		L298.1,280.8 L298.3,280.8 L298.5,280.8 L298.7,280.7 L299.0,280.7 L299.2,280.7 L299.4,280.7 L299.6,280.2 
		L299.8,280.3 L300.0,280.3 L300.3,280.3 L300.5,280.3 L300.7,280.3 L300.9,280.3 L301.1,280.3 L301.3,280.3 
		L301.5,280.2 L301.8,280.1 L302.0,280.1 L302.2,280.4 L302.4,280.4 L302.6,280.4 L302.8,280.4 L303.0,280.4 
		L303.3,280.4 L303.5,280.4 L303.7,280.4 L303.9,280.4 L304.1,280.4 L304.3,280.4 L304.6,280.4 L304.8,280.4 
		L305.0,280.4 L305.2,280.5 L305.4,280.5 L305.6,280.5 L305.8,280.5 L306.1,280.5 L306.3,280.6 L306.5,280.6 
		L306.7,280.6 L306.9,280.8 L307.1,280.8 L307.3,281.0 L307.6,281.4 L307.8,281.4 L308.0,281.5 L308.2,281.5 
		L308.4,281.5 L308.6,281.5 L308.8,281.5 L309.1,281.4 L309.3,281.6 L309.5,281.9 L309.7,282.1 L309.9,282.3 
		L310.1,282.4 L310.4,282.6 L310.6,282.9 L310.8,283.3 L311.0,283.6 L311.2,283.6 L311.4,283.6 L311.6,283.6 
		L311.9,283.6 L312.1,283.8 L312.3,283.9 L312.5,283.9 L312.7,283.9 L312.9,283.9 L313.1,283.8 L313.4,283.8 
		L313.6,283.8 L313.8,283.9 L314.0,283.9 L314.2,284.2 L314.4,284.4 L314.7,284.4 L314.9,284.4 L315.1,284.4 
		L315.3,284.4 L315.5,284.4 L315.7,284.4 L315.9,284.3 L316.2,284.3 L316.4,284.3 L316.6,284.3 L316.8,284.3 
		L317.0,284.4 L317.2,284.5 L317.4,284.8 L317.7,284.8 L317.9,284.8 L318.1,284.8 L318.3,284.8 L318.5,284.8 
		L318.7,284.8 L318.9,284.8 L319.2,284.8 L319.4,284.4 L319.6,285.0 L319.8,285.0 L320.0,285.3 L320.2,285.3 
		L320.5,285.3 L320.7,285.3 L320.9,285.3 L321.1,285.3 L321.3,285.3 L321.5,285.1 L321.7,285.8 L322.0,286.0 
		L322.2,286.0 L322.4,286.2 L322.6,286.2 L322.8,286.2 L323.0,286.2 L323.2,286.2 L323.5,286.2 L323.7,286.2 
		L323.9,286.1 L324.1,286.4 L324.3,286.4 L324.5,286.4 L324.8,286.4 L325.0,286.4 L325.2,286.5 L325.4,286.5 
		L325.6,286.5 L325.8,286.5 L326.0,286.5 L326.3,286.5 L326.5,286.5 L326.7,286.5 L326.9,286.5 L327.1,286.5 
		L327.3,286.6 L327.5,286.7 L327.8,286.7 L328.0,286.8 L328.2,286.8 L328.4,286.8 L328.6,286.8 L328.8,286.8 
		L329.0,286.8 L329.3,286.8 L329.5,286.8 L329.7,286.8 L329.9,286.6 L330.1,286.7 L330.3,286.7 L330.6,286.7 
		L330.8,286.7 L331.0,286.7 L331.2,286.7 L331.4,286.7 L331.6,286.7 L331.8,286.7 L332.1,286.7 L332.3,286.6 
		L332.5,286.6 L332.7,286.6 L332.9,286.6 L333.1,286.6 L333.3,286.6 L333.6,286.6 L333.8,286.6 L334.0,286.6 
		L334.2,286.6 L334.4,286.6 L334.6,286.6 L334.9,286.6 L335.1,286.6 L335.3,286.6 L335.5,286.6 L335.7,286.6 
		L335.9,286.7 L336.1,286.7 L336.4,286.7 L336.6,286.7 L336.8,286.7 L337.0,286.7 L337.2,286.7 L337.4,286.8 
		L337.6,286.8 L337.9,286.9 L338.1,286.9 L338.3,286.9 L338.5,286.9 L338.7,287.1 L338.9,287.1 L339.1,287.1 
		L339.4,287.1 L339.6,287.1 L339.8,287.1 L340.0,287.1 L340.2,287.1 L340.4,287.1 L340.7,287.1 L340.9,287.1 
		L341.1,287.2 L341.3,287.2 L341.5,287.2 L341.7,287.2 L341.9,287.2 L342.2,287.2 L342.4,287.2 L342.6,287.2 
		L342.8,287.5 L343.0,287.5 L343.2,287.5 L343.4,287.5 L343.7,287.6 L343.9,287.7 L344.1,287.7 L344.3,287.8 
		L344.5,287.8 L344.7,287.8 L345.0,287.8 L345.2,287.8 L345.4,287.8 L345.6,287.8 L345.8,287.8 L346.0,288.0 
		L346.2,288.1 L346.5,288.1 L346.7,288.1 L346.9,288.1 L347.1,288.1 L347.3,288.1 L347.5,288.1 L347.7,287.9 
		L348.0,288.1 L348.2,288.1 L348.4,288.1 L348.6,288.1 L348.8,288.1 L349.0,288.1 L349.2,288.1 L349.5,287.9 
		L349.7,288.1 L349.9,288.9 L350.1,288.9 L350.3,288.9 L350.5,288.9 L350.8,288.9 L351.0,288.9 L351.2,288.8 
		L351.4,288.7 L351.6,288.7 L351.8,288.7 L352.0,288.7 L352.3,288.7 L352.5,288.7 L352.7,288.8 L352.9,288.8 
		L353.1,288.8 L353.3,288.8 L353.5,288.8 L353.8,288.8 L354.0,288.8 L354.2,288.8 L354.4,288.8 L354.6,288.9 
		L354.8,289.0 L355.1,289.0 L355.3,289.0 L355.5,289.1 L355.7,289.2 L355.9,289.2 L356.1,289.2 L356.3,289.2 
		L356.6,289.2 L356.8,289.2 L357.0,289.2 L357.2,289.2 L357.4,289.3 L357.6,289.3 L357.8,289.3 L358.1,289.4 
		L358.3,289.5 L358.5,289.5 L358.7,289.5 L358.9,289.5 L359.1,289.5 L359.3,289.5 L359.6,289.5 L359.8,289.5 
		L360.0,289.3 L360.2,289.4 L360.4,289.4 L360.6,289.4 L360.9,289.4 L361.1,289.4 L361.3,289.4 L361.5,289.4 
		L361.7,289.4 L361.9,289.4 L362.1,289.4 L362.4,289.6 L362.6,289.6 L362.8,289.6 L363.0,289.6 L363.2,289.6 
		L363.4,289.6 L363.6,289.6 L363.9,289.6 L364.1,289.6 L364.3,289.6 L364.5,289.6 L364.7,289.6 L364.9,289.5 
		L365.2,289.5 L365.4,289.5 L365.6,289.5 L365.8,289.7 L366.0,289.7 L366.2,289.7 L366.4,289.7 L366.7,289.8 
		L366.9,289.8 L367.1,289.8 L367.3,289.8 L367.5,289.8 L367.7,289.8 L367.9,289.8 L368.2,289.8 L368.4,289.6 
		L368.6,289.6 L368.8,289.8 L369.0,290.2 L369.2,290.2 L369.4,290.2 L369.7,290.2 L369.9,290.2 L370.1,290.2 
		L370.3,290.2 L370.5,290.2 L370.7,290.2 L371.0,290.2 L371.2,289.9 L371.4,290.1 L371.6,290.1 L371.8,290.1 
		L372.0,290.1 L372.2,290.1 L372.5,290.0 L372.7,290.0 L372.9,290.0 L373.1,290.0 L373.3,290.0 L373.5,290.0 
		L373.7,290.0 L374.0,290.0 L374.2,290.0 L374.4,289.9 L374.6,290.0 L374.8,290.2 L375.0,290.3 L375.3,290.3 
		L375.5,290.3 L375.7,290.3 L375.9,290.3 L376.1,290.3 L376.3,290.5 L376.5,290.9 L376.8,291.3 L377.0,291.3 
		L377.2,291.3 L377.4,291.3 L377.6,291.3 L377.8,291.3 L378.0,291.3 L378.3,291.3 L378.5,291.3 L378.7,291.3 
		L378.9,291.3 L379.1,291.3 L379.3,290.9 L379.5,290.9 L379.8,290.9 L380.0,290.9 L380.2,291.0 L380.4,291.1 
		L380.6,291.1 L380.8,291.1 L381.1,291.2 L381.3,291.4 L381.5,291.4 L381.7,291.4 L381.9,291.4 L382.1,291.5 
		L382.3,291.5 L382.6,291.6 L382.8,291.7 L383.0,292.0 L383.2,292.0 L383.4,292.2 L383.6,292.2 L383.8,292.3 
		L384.1,292.3 L384.3,292.5 L384.5,292.5 L384.7,292.5 L384.9,292.5 L385.1,292.6 L385.4,292.7 L385.6,292.8 
		L385.8,292.8 L386.0,292.8 L386.2,292.8 L386.4,292.7 L386.6,292.7 L386.9,292.7 L387.1,292.7 L387.3,292.7 
		L387.5,292.7 L387.7,292.7 L387.9,292.7 L388.1,292.7 L388.4,292.4 L388.6,292.5 L388.8,292.6 L389.0,292.6 
		L389.2,292.7 L389.4,293.4 L389.7,293.4 L389.9,293.4 L390.1,293.4 L390.3,293.4 L390.5,293.4 L390.7,293.4 
		L390.9,293.4 L391.2,293.4 L391.4,293.3 L391.6,293.3 L391.8,293.3 L392.0,293.3 L392.2,293.3 L392.4,293.3 
		L392.7,293.2 L392.9,293.9 L393.1,294.2 L393.3,294.4 L393.5,294.5 L393.7,294.5 L393.9,294.5 L394.2,294.5 
		L394.4,294.6 L394.6,294.6 L394.8,294.6 L395.0,294.6 L395.2,294.6 L395.5,295.7 L395.7,295.7 L395.9,295.7 
		L396.1,295.7 L396.3,295.7 L396.5,295.7 L396.7,295.6 L397.0,296.2 L397.2,296.2 L397.4,296.2 L397.6,296.2 
		L397.8,296.2 L398.0,296.2 L398.2,296.2 L398.5,296.2 L398.7,296.2 L398.9,295.9 L399.1,295.9 L399.3,295.9 
		L399.5,295.9 L399.8,295.9 L400.0,295.9 L400.2,295.9 L400.4,295.9 L400.6,295.9 L400.8,295.9 L401.0,295.9 
		L401.3,295.7 L401.5,295.8 L401.7,295.8 L401.9,295.9 L402.1,295.9 L402.3,295.9 L402.5,295.9 L402.8,295.9 
		L403.0,295.9 L403.2,295.9 L403.4,296.0 L403.6,296.0 L403.8,296.0 L404.0,296.0 L404.3,296.0 L404.5,296.0 
		L404.7,296.0 L404.9,296.0 L405.1,296.0 L405.3,296.0 L405.6,296.0 L405.8,296.1 L406.0,296.1 L406.2,296.1 
		L406.4,296.1 L406.6,296.1 L406.8,296.1 L407.1,296.1 L407.3,296.1 L407.5,296.2 L407.7,296.2 L407.9,296.2 
		L408.1,296.2 L408.3,296.2 L408.6,296.2 L408.8,296.2 L409.0,296.2 L409.2,296.2 L409.4,296.2 L409.6,296.2 
		L409.9,296.2 L410.1,296.2 L410.3,296.2 L410.5,296.2 L410.7,296.2 L410.9,296.2 L411.1,296.1 L411.4,296.0 
		L411.6,296.0 L411.8,296.0 L412.0,296.0 L412.2,296.0 L412.4,296.0 L412.6,296.0 L412.9,296.0 L413.1,296.0 
		L413.3,296.0 L413.5,296.0 L413.7,296.0 L413.9,296.0 L414.1,296.0 L414.4,296.0 L414.6,296.0 L414.8,296.0 
		L415.0,296.0 L415.2,296.1 L415.4,296.1 L415.7,296.1 L415.9,296.1 L416.1,296.1 L416.3,296.1 L416.5,296.1 
		L416.7,296.1 L416.9,296.3 L417.2,296.3 L417.4,296.3 L417.6,296.3 L417.8,296.3 L418.0,296.3 L418.2,296.3 
		L418.4,296.4 L418.7,296.4 L418.9,296.4 L419.1,296.4 L419.3,296.4 L419.5,296.4 L419.7,296.4 L420.0,296.4 
		L420.2,296.4 L420.4,296.4 L420.6,296.4 L420.8,296.4 L421.0,296.4 L421.2,296.4 L421.5,296.4 L421.7,296.4 
		L421.9,296.4 L422.1,296.5 L422.3,296.5 L422.5,296.5 L422.7,296.5 L423.0,296.5 L423.2,296.5 L423.4,296.5 
		L423.6,296.6 L423.8,296.7 L424.0,296.8 L424.2,296.9 L424.5,296.9 L424.7,296.9 L424.9,296.9 L425.1,296.9 
		L425.3,296.9 L425.5,296.9 L425.8,296.9 L426.0,296.8 L426.2,296.8 L426.4,296.8 L426.6,296.8 L426.8,296.8 
		L427.0,296.8 L427.3,296.8 L427.5,296.8 L427.7,296.8 L427.9,296.7 L428.1,296.8 L428.3,296.8 L428.5,296.8 
		L428.8,296.8 L429.0,296.8 L429.2,296.8 L429.4,296.8 L429.6,296.8 L429.8,296.8 L430.1,296.8 L430.3,296.8 
		L430.5,296.8 L430.7,296.8 L430.9,296.7 L431.1,296.6 L431.3,296.7 L431.6,297.2 L431.8,297.3 L432.0,297.3 
		L432.2,297.3 L432.4,297.3 L432.6,297.3 L432.8,297.2 L433.1,297.2 L433.3,297.2 L433.5,297.2 L433.7,297.3 
		L433.9,297.3 L434.1,297.3 L434.3,297.3 L434.6,297.3 L434.8,297.3 L435.0,297.3 L435.2,297.3 L435.4,297.3 
		L435.6,297.3 L435.9,297.4 L436.1,297.4 L436.3,297.4 L436.5,297.4 L436.7,297.4 L436.9,297.4 L437.1,297.4 
		L437.4,297.4 L437.6,297.4 L437.8,297.4 L438.0,297.4 L438.2,297.4 L438.4,297.3 L438.6,297.4 L438.9,297.4 
		L439.1,297.4 L439.3,297.4 L439.5,297.4 L439.7,297.4 L439.9,297.4 L440.2,297.4 L440.4,297.4 L440.6,297.3 
		L440.8,297.3 L441.0,297.3 L441.2,297.3 L441.4,297.3 L441.7,297.4 L441.9,297.4 L442.1,297.4 L442.3,297.4 
		L442.5,297.4 L442.7,297.4 L442.9,297.4 L443.2,297.4 L443.4,297.4 L443.6,297.4 L443.8,297.3 L444.0,297.3 
		L444.2,297.3 L444.4,297.3 L444.7,297.3 L444.9,297.3 L445.1,297.4 L445.3,297.6 L445.5,297.6 L445.7,297.6 
		L446.0,297.6 L446.2,297.6 L446.4,297.6 L446.6,297.6 L446.8,297.6 L447.0,297.6 L447.2,297.6 L447.5,297.5 
		L447.7,297.5 L447.9,297.5 L448.1,297.5 L448.3,297.5 L448.5,297.5 L448.7,297.5 L449.0,297.6 L449.2,297.6 
		L449.4,297.6 L449.6,297.6 L449.8,297.6 L450.0,297.6 L450.3,297.6 L450.5,297.6 L450.7,297.7 L450.9,297.8 
		L451.1,297.8 L451.3,297.8 L451.5,297.8 L451.8,297.8 L452.0,297.8 L452.2,297.7 L452.4,297.7 L452.6,297.7 
		L452.8,297.7 L453.0,297.7 L453.3,297.7 L453.5,297.7 L453.7,297.7 L453.9,297.7 L454.1,297.7 L454.3,297.7 
		L454.5,297.7 L454.8,297.4 L455.0,297.9 L455.2,298.1 L455.4,298.2 L455.6,298.2 L455.8,298.2 L456.1,298.2 
		L456.3,298.2 L456.5,298.2 L456.7,298.2 L456.9,298.2 L457.1,298.2 L457.3,298.2 L457.6,298.2 L457.8,298.2 
		L458.0,298.2 L458.2,298.2 L458.4,298.2 L458.6,298.2 L458.8,298.0 L459.1,298.0 L459.3,297.5 L459.5,297.6 
		L459.7,297.8 L459.9,297.8 L460.1,297.8 L460.4,297.9 L460.6,297.9 L460.8,298.0 L461.0,298.2 L461.2,298.6 
		L461.4,298.9 L461.6,299.1 L461.9,299.3 L462.1,299.3 L462.3,299.3 L462.5,299.6 L462.7,299.6 L462.9,299.6 
		L463.1,299.6 L463.4,299.6 L463.6,299.6 L463.8,299.6 L464.0,299.6 L464.2,299.6 L464.4,299.6 L464.6,299.7 
		L464.9,299.8 L465.1,299.8 L465.3,300.0 L465.5,300.0 L465.7,300.0 L465.9,300.0 L466.2,300.0 L466.4,300.0 
		L466.6,300.0 L466.8,300.0 L467.0,300.0 L467.2,300.0 L467.4,300.1 L467.7,300.1 L467.9,300.1 L468.1,300.1 
		L468.3,300.3 L468.5,300.3 L468.7,300.3 L468.9,300.3 L469.2,300.3 L469.4,300.3 L469.6,300.3 L469.8,300.3 
		L470.0,300.3 L470.2,300.3 L470.5,300.3 L470.7,300.4 L470.9,300.5 L471.1,300.5 L471.3,300.5 L471.5,300.6 
		L471.7,300.6 L472.0,300.6 L472.2,300.7 L472.4,300.7 L472.6,300.7 L472.8,300.7 L473.0,300.7 L473.2,300.7 
		L473.5,300.7 L473.7,300.6 L473.9,300.6 L474.1,300.7 L474.3,300.7 L474.5,300.7 L474.8,300.7 L475.0,300.6 
		L475.2,300.7 L475.4,300.7 L475.6,300.7 L475.8,300.7 L476.0,300.7 L476.3,300.7 L476.5,300.7 L476.7,300.7 
		L476.9,300.8 L477.1,300.8 L477.3,300.9 L477.5,301.4 L477.8,301.8 L478.0,301.8 L478.2,301.8 L478.4,301.8 
		L478.6,301.8 L478.8,301.8 L479.0,301.8 L479.3,301.8 L479.5,301.8 L479.7,301.8 L479.9,301.8 L480.1,301.8 
		L480.3,301.8 L480.6,301.8 L480.8,301.5 L481.0,301.5 L481.2,301.5 L481.4,301.5 L481.6,301.4 L481.8,301.5 
		L482.1,301.9 L482.3,301.9 L482.5,302.4 L482.7,302.5 L482.9,302.5 L483.1,302.5 L483.3,302.5 L483.6,302.6 
		L483.8,302.7 L484.0,303.5 L484.2,304.2 L484.4,304.4 L484.6,304.4 L484.9,304.4 L485.1,304.7 L485.3,305.0 
		L485.5,305.0 L485.7,305.0 L485.9,305.0 L486.1,305.0 L486.4,305.0 L486.6,305.0 L486.8,305.0 L487.0,305.0 
		L487.2,305.0 L487.4,305.0 L487.6,304.7 L487.9,304.5 L488.1,304.3 L488.3,304.3 L488.5,304.3 L488.7,304.3 
		L488.9,304.3 L489.1,303.9 L489.4,303.9 L489.6,303.9 L489.8,303.9 L490.0,303.9 L490.2,303.9 L490.4,303.5 
		L490.7,303.4 L490.9,303.4 L491.1,303.2 L491.3,303.5 L491.5,303.9 L491.7,303.9 L491.9,304.0 L492.2,304.0 
		L492.4,304.1 L492.6,304.2 L492.8,304.2 L493.0,304.2 L493.2,304.2 L493.4,304.2 L493.7,304.2 L493.9,304.2 
		L494.1,304.2 L494.3,304.2 L494.5,304.2 L494.7,304.3 L495.0,304.3 L495.2,304.3 L495.4,304.3 L495.6,304.4 
		L495.8,304.4 L496.0,304.4 L496.2,304.4 L496.5,304.5 L496.7,304.5 L496.9,304.5 L497.1,304.5 L497.3,304.5 
		L497.5,304.5 L497.7,304.6 L498.0,304.6 L498.2,304.6 L498.4,304.6 L498.6,304.6 L498.8,304.6 L499.0,304.6 
		L499.2,304.6 L499.5,304.6 L499.7,304.6 L499.9,304.6 L500.1,304.6 L500.3,304.6 L500.5,304.5 L500.8,304.5 
		L501.0,304.5 L501.2,304.5 L501.4,304.5 L501.6,304.3 L501.8,304.4 L502.0,304.4 L502.3,304.4 L502.5,304.4 
		L502.7,304.4 L502.9,304.5 L503.1,304.5 L503.3,304.5 L503.5,304.5 L503.8,304.6 L504.0,304.6 L504.2,304.6 
		L504.4,304.6 L504.6,304.6 L504.8,304.6 L505.1,304.7 L505.3,304.8 L505.5,304.8 L505.7,304.8 L505.9,304.8 
		L506.1,304.8 L506.3,304.8 L506.6,304.8 L506.8,304.8 L507.0,304.8 L507.2,304.8  h0.01'/></g>
	</g>
<g style="fill:none; color:black; stroke:currentColor; stroke-width:1.00; stroke-linecap:butt; stroke-linejoin:miter">
	<path  d='M80.2,54.1 L80.2,422.4 L507.2,422.4 L507.2,54.1 L80.2,54.1 Z  h0.01'/></g>
</g>
</svg>

