<?xml version="1.0" encoding="utf-8"  standalone="no"?>
<!DOCTYPE svg PUBLIC "-//W3C//DTD SVG 1.1//EN" 
 "http://www.w3.org/Graphics/SVG/1.1/DTD/svg11.dtd">
<svg 
 width="600" height="480" 
 viewBox="0 0 600 480"
 xmlns="http://www.w3.org/2000/svg"
 xmlns:xlink="http://www.w3.org/1999/xlink"
>

<title>Gnuplot</title>
<desc>Produced by GNUPLOT 4.6 patchlevel 1 </desc>

<g id="gnuplot_canvas">

<rect x="0" y="0" width="600" height="480" fill="none"/>
<defs>

	<circle id='gpDot' r='0.5' stroke-width='0.5'/>
	<path id='gpPt0' stroke-width='0.222' stroke='currentColor' d='M-1,0 h2 M0,-1 v2'/>
	<path id='gpPt1' stroke-width='0.222' stroke='currentColor' d='M-1,-1 L1,1 M1,-1 L-1,1'/>
	<path id='gpPt2' stroke-width='0.222' stroke='currentColor' d='M-1,0 L1,0 M0,-1 L0,1 M-1,-1 L1,1 M-1,1 L1,-1'/>
	<rect id='gpPt3' stroke-width='0.222' stroke='currentColor' x='-1' y='-1' width='2' height='2'/>
	<rect id='gpPt4' stroke-width='0.222' stroke='currentColor' fill='currentColor' x='-1' y='-1' width='2' height='2'/>
	<circle id='gpPt5' stroke-width='0.222' stroke='currentColor' cx='0' cy='0' r='1'/>
	<use xlink:href='#gpPt5' id='gpPt6' fill='currentColor' stroke='none'/>
	<path id='gpPt7' stroke-width='0.222' stroke='currentColor' d='M0,-1.33 L-1.33,0.67 L1.33,0.67 z'/>
	<use xlink:href='#gpPt7' id='gpPt8' fill='currentColor' stroke='none'/>
	<use xlink:href='#gpPt7' id='gpPt9' stroke='currentColor' transform='rotate(180)'/>
	<use xlink:href='#gpPt9' id='gpPt10' fill='currentColor' stroke='none'/>
	<use xlink:href='#gpPt3' id='gpPt11' stroke='currentColor' transform='rotate(45)'/>
	<use xlink:href='#gpPt11' id='gpPt12' fill='currentColor' stroke='none'/>
</defs>
<g style="fill:none; color:white; stroke:currentColor; stroke-width:1.00; stroke-linecap:butt; stroke-linejoin:miter">
</g>
<g style="fill:none; color:black; stroke:currentColor; stroke-width:1.00; stroke-linecap:butt; stroke-linejoin:miter">
	<path  d='M80.2,422.4 L89.2,422.4 M498.9,422.4 L489.9,422.4  h0.01'/>	<g transform="translate(71.9,426.9)" style="stroke:none; fill:black; font-family:Arial; font-size:12.00pt; text-anchor:end">
		<text> 0</text>
	</g>
	<path  d='M80.2,381.5 L89.2,381.5 M498.9,381.5 L489.9,381.5  h0.01'/>	<g transform="translate(71.9,386.0)" style="stroke:none; fill:black; font-family:Arial; font-size:12.00pt; text-anchor:end">
		<text> 1000</text>
	</g>
	<path  d='M80.2,340.6 L89.2,340.6 M498.9,340.6 L489.9,340.6  h0.01'/>	<g transform="translate(71.9,345.1)" style="stroke:none; fill:black; font-family:Arial; font-size:12.00pt; text-anchor:end">
		<text> 2000</text>
	</g>
	<path  d='M80.2,299.6 L89.2,299.6 M498.9,299.6 L489.9,299.6  h0.01'/>	<g transform="translate(71.9,304.1)" style="stroke:none; fill:black; font-family:Arial; font-size:12.00pt; text-anchor:end">
		<text> 3000</text>
	</g>
	<path  d='M80.2,258.7 L89.2,258.7 M498.9,258.7 L489.9,258.7  h0.01'/>	<g transform="translate(71.9,263.2)" style="stroke:none; fill:black; font-family:Arial; font-size:12.00pt; text-anchor:end">
		<text> 4000</text>
	</g>
	<path  d='M80.2,217.8 L89.2,217.8 M498.9,217.8 L489.9,217.8  h0.01'/>	<g transform="translate(71.9,222.3)" style="stroke:none; fill:black; font-family:Arial; font-size:12.00pt; text-anchor:end">
		<text> 5000</text>
	</g>
	<path  d='M80.2,176.9 L89.2,176.9 M498.9,176.9 L489.9,176.9  h0.01'/>	<g transform="translate(71.9,181.4)" style="stroke:none; fill:black; font-family:Arial; font-size:12.00pt; text-anchor:end">
		<text> 6000</text>
	</g>
	<path  d='M80.2,135.9 L89.2,135.9 M498.9,135.9 L489.9,135.9  h0.01'/>	<g transform="translate(71.9,140.4)" style="stroke:none; fill:black; font-family:Arial; font-size:12.00pt; text-anchor:end">
		<text> 7000</text>
	</g>
	<path  d='M80.2,95.0 L89.2,95.0 M498.9,95.0 L489.9,95.0  h0.01'/>	<g transform="translate(71.9,99.5)" style="stroke:none; fill:black; font-family:Arial; font-size:12.00pt; text-anchor:end">
		<text> 8000</text>
	</g>
	<path  d='M80.2,54.1 L89.2,54.1 M498.9,54.1 L489.9,54.1  h0.01'/>	<g transform="translate(71.9,58.6)" style="stroke:none; fill:black; font-family:Arial; font-size:12.00pt; text-anchor:end">
		<text> 9000</text>
	</g>
	<path  d='M80.2,422.4 L80.2,413.4 M80.2,54.1 L80.2,63.1  h0.01'/>	<g transform="translate(80.2,444.9)" style="stroke:none; fill:black; font-family:Arial; font-size:12.00pt; text-anchor:middle">
		<text> 0</text>
	</g>
	<path  d='M122.1,422.4 L122.1,413.4 M122.1,54.1 L122.1,63.1  h0.01'/>	<g transform="translate(122.1,444.9)" style="stroke:none; fill:black; font-family:Arial; font-size:12.00pt; text-anchor:middle">
		<text> 10</text>
	</g>
	<path  d='M163.9,422.4 L163.9,413.4 M163.9,54.1 L163.9,63.1  h0.01'/>	<g transform="translate(163.9,444.9)" style="stroke:none; fill:black; font-family:Arial; font-size:12.00pt; text-anchor:middle">
		<text> 20</text>
	</g>
	<path  d='M205.8,422.4 L205.8,413.4 M205.8,54.1 L205.8,63.1  h0.01'/>	<g transform="translate(205.8,444.9)" style="stroke:none; fill:black; font-family:Arial; font-size:12.00pt; text-anchor:middle">
		<text> 30</text>
	</g>
	<path  d='M247.7,422.4 L247.7,413.4 M247.7,54.1 L247.7,63.1  h0.01'/>	<g transform="translate(247.7,444.9)" style="stroke:none; fill:black; font-family:Arial; font-size:12.00pt; text-anchor:middle">
		<text> 40</text>
	</g>
	<path  d='M289.6,422.4 L289.6,413.4 M289.6,54.1 L289.6,63.1  h0.01'/>	<g transform="translate(289.6,444.9)" style="stroke:none; fill:black; font-family:Arial; font-size:12.00pt; text-anchor:middle">
		<text> 50</text>
	</g>
	<path  d='M331.4,422.4 L331.4,413.4 M331.4,54.1 L331.4,63.1  h0.01'/>	<g transform="translate(331.4,444.9)" style="stroke:none; fill:black; font-family:Arial; font-size:12.00pt; text-anchor:middle">
		<text> 60</text>
	</g>
	<path  d='M373.3,422.4 L373.3,413.4 M373.3,54.1 L373.3,63.1  h0.01'/>	<g transform="translate(373.3,444.9)" style="stroke:none; fill:black; font-family:Arial; font-size:12.00pt; text-anchor:middle">
		<text> 70</text>
	</g>
	<path  d='M415.2,422.4 L415.2,413.4 M415.2,54.1 L415.2,63.1  h0.01'/>	<g transform="translate(415.2,444.9)" style="stroke:none; fill:black; font-family:Arial; font-size:12.00pt; text-anchor:middle">
		<text> 80</text>
	</g>
	<path  d='M457.0,422.4 L457.0,413.4 M457.0,54.1 L457.0,63.1  h0.01'/>	<g transform="translate(457.0,444.9)" style="stroke:none; fill:black; font-family:Arial; font-size:12.00pt; text-anchor:middle">
		<text> 90</text>
	</g>
	<path  d='M498.9,422.4 L498.9,413.4 M498.9,54.1 L498.9,63.1  h0.01'/>	<g transform="translate(498.9,444.9)" style="stroke:none; fill:black; font-family:Arial; font-size:12.00pt; text-anchor:middle">
		<text> 100</text>
	</g>
	<path  d='M498.9,422.4 L489.9,422.4  h0.01'/>	<g transform="translate(507.2,426.9)" style="stroke:none; fill:blue; font-family:Arial; font-size:12.00pt; text-anchor:start">
		<text> 0</text>
	</g>
	<path  d='M498.9,381.5 L489.9,381.5  h0.01'/>	<g transform="translate(507.2,386.0)" style="stroke:none; fill:blue; font-family:Arial; font-size:12.00pt; text-anchor:start">
		<text> 1000</text>
	</g>
	<path  d='M498.9,340.6 L489.9,340.6  h0.01'/>	<g transform="translate(507.2,345.1)" style="stroke:none; fill:blue; font-family:Arial; font-size:12.00pt; text-anchor:start">
		<text> 2000</text>
	</g>
	<path  d='M498.9,299.6 L489.9,299.6  h0.01'/>	<g transform="translate(507.2,304.1)" style="stroke:none; fill:blue; font-family:Arial; font-size:12.00pt; text-anchor:start">
		<text> 3000</text>
	</g>
	<path  d='M498.9,258.7 L489.9,258.7  h0.01'/>	<g transform="translate(507.2,263.2)" style="stroke:none; fill:blue; font-family:Arial; font-size:12.00pt; text-anchor:start">
		<text> 4000</text>
	</g>
	<path  d='M498.9,217.8 L489.9,217.8  h0.01'/>	<g transform="translate(507.2,222.3)" style="stroke:none; fill:blue; font-family:Arial; font-size:12.00pt; text-anchor:start">
		<text> 5000</text>
	</g>
	<path  d='M498.9,176.9 L489.9,176.9  h0.01'/>	<g transform="translate(507.2,181.4)" style="stroke:none; fill:blue; font-family:Arial; font-size:12.00pt; text-anchor:start">
		<text> 6000</text>
	</g>
	<path  d='M498.9,135.9 L489.9,135.9  h0.01'/>	<g transform="translate(507.2,140.4)" style="stroke:none; fill:blue; font-family:Arial; font-size:12.00pt; text-anchor:start">
		<text> 7000</text>
	</g>
	<path  d='M498.9,95.0 L489.9,95.0  h0.01'/>	<g transform="translate(507.2,99.5)" style="stroke:none; fill:blue; font-family:Arial; font-size:12.00pt; text-anchor:start">
		<text> 8000</text>
	</g>
	<path  d='M498.9,54.1 L489.9,54.1  h0.01'/>	<g transform="translate(507.2,58.6)" style="stroke:none; fill:blue; font-family:Arial; font-size:12.00pt; text-anchor:start">
		<text> 9000</text>
	</g>
	<path  d='M80.2,54.1 L80.2,422.4 L498.9,422.4 L498.9,54.1 L80.2,54.1 Z  h0.01'/>	<g transform="translate(17.6,238.3) rotate(270)" style="stroke:none; fill:black; font-family:Arial; font-size:12.00pt; text-anchor:middle">
		<text>TCP throughput (kbps)</text>
	</g>
	<g transform="translate(570.4,238.3) rotate(270)" style="stroke:none; fill:black; font-family:Arial; font-size:12.00pt; text-anchor:middle">
		<text>TCP Uplink Delay(ms)</text>
	</g>
	<g transform="translate(289.5,471.9)" style="stroke:none; fill:black; font-family:Arial; font-size:12.00pt; text-anchor:middle">
		<text>Time (s)</text>
	</g>
	<g transform="translate(289.5,31.6)" style="stroke:none; fill:black; font-family:Arial; font-size:12.00pt; text-anchor:middle">
		<text>Distance 1000m, 4kmph: TCP throughput vs link capacity Uplink 100RBs PfffScheduler</text>
	</g>
	<path  d='M249.2,413.4 L249.2,377.4 L490.6,377.4 L490.6,413.4 L249.2,413.4 Z  h0.01'/></g>
	<g id="gnuplot_plot_1" ><title>gnuplot_plot_1</title>
<g style="fill:none; color:red; stroke:currentColor; stroke-width:1.00; stroke-linecap:butt; stroke-linejoin:miter">
	<g transform="translate(431.8,390.9)" style="stroke:none; fill:black; font-family:Arial; font-size:12.00pt; text-anchor:end">
		<text>TCP Throughput</text>
	</g>
	<path  d='M440.1,386.4 L482.3,386.4 M83.1,421.2 L83.3,417.2 L83.5,412.4 L83.8,412.4 L84.0,410.2 L84.2,410.2 
		L84.4,404.0 L84.6,404.0 L84.8,405.0 L85.0,403.5 L85.2,403.5 L85.4,403.5 L85.6,403.5 L85.9,403.5 
		L86.1,403.5 L86.3,403.5 L86.5,403.5 L86.7,403.5 L86.9,403.5 L87.1,403.5 L87.3,411.8 L87.5,411.8 
		L87.7,411.8 L87.9,411.8 L88.2,411.8 L88.4,411.8 L88.6,411.8 L88.8,411.8 L89.0,411.8 L89.2,411.8 
		L89.4,411.8 L89.6,411.8 L89.8,414.5 L90.0,414.0 L90.2,414.0 L90.5,414.0 L90.7,414.0 L90.9,414.0 
		L91.1,414.0 L91.3,415.1 L91.5,411.1 L91.7,411.1 L91.9,411.1 L92.1,411.1 L92.3,411.1 L92.5,411.1 
		L92.8,411.1 L93.0,412.7 L93.2,409.7 L93.4,409.7 L93.6,409.7 L93.8,409.7 L94.0,409.7 L94.2,409.7 
		L94.4,410.7 L94.6,410.7 L94.9,410.7 L95.1,410.7 L95.3,410.7 L95.5,410.7 L95.7,410.7 L95.9,410.7 
		L96.1,410.7 L96.3,410.7 L96.5,410.7 L96.7,411.7 L96.9,411.7 L97.2,411.7 L97.4,411.7 L97.6,411.7 
		L97.8,411.7 L98.0,411.7 L98.2,412.5 L98.4,412.5 L98.6,412.5 L98.8,412.5 L99.0,412.5 L99.2,412.5 
		L99.5,412.5 L99.7,413.1 L99.9,413.1 L100.1,413.1 L100.3,413.1 L100.5,413.6 L100.7,412.8 L100.9,412.8 
		L101.1,412.8 L101.3,412.8 L101.5,412.8 L101.8,412.8 L102.0,412.8 L102.2,412.9 L102.4,412.8 L102.6,412.8 
		L102.8,412.8 L103.0,412.8 L103.2,412.8 L103.4,412.8 L103.6,412.8 L103.9,412.8 L104.1,412.8 L104.3,413.1 
		L104.5,412.9 L104.7,412.9 L104.9,412.9 L105.1,412.9 L105.3,412.9 L105.5,412.9 L105.7,412.9 L105.9,412.9 
		L106.2,412.9 L106.4,412.9 L106.6,412.9 L106.8,412.9 L107.0,413.2 L107.2,413.2 L107.4,413.0 L107.6,413.0 
		L107.8,413.0 L108.0,413.0 L108.2,413.0 L108.5,413.3 L108.7,413.3 L108.9,413.3 L109.1,413.3 L109.3,413.3 
		L109.5,413.3 L109.7,413.3 L109.9,413.3 L110.1,413.3 L110.3,413.3 L110.6,413.3 L110.8,413.3 L111.0,413.3 
		L111.2,413.3 L111.4,413.3 L111.6,413.3 L111.8,413.3 L112.0,413.3 L112.2,413.3 L112.4,414.4 L112.6,414.4 
		L112.9,414.4 L113.1,414.4 L113.3,414.4 L113.5,414.4 L113.7,414.5 L113.9,414.5 L114.1,414.4 L114.3,414.1 
		L114.5,414.1 L114.7,414.2 L114.9,413.6 L115.2,413.6 L115.4,413.6 L115.6,413.6 L115.8,413.6 L116.0,413.6 
		L116.2,413.6 L116.4,413.6 L116.6,413.6 L116.8,413.6 L117.0,413.6 L117.3,413.6 L117.5,413.6 L117.7,413.6 
		L117.9,413.6 L118.1,413.6 L118.3,414.4 L118.5,414.4 L118.7,414.1 L118.9,414.1 L119.1,414.1 L119.3,414.1 
		L119.6,414.1 L119.8,414.1 L120.0,414.1 L120.2,414.1 L120.4,414.1 L120.6,414.5 L120.8,414.1 L121.0,414.1 
		L121.2,414.1 L121.4,414.1 L121.7,413.9 L121.9,413.8 L122.1,413.8 L122.3,413.8 L122.5,413.8 L122.7,413.8 
		L122.9,413.8 L123.1,413.8 L123.3,413.8 L123.5,413.8 L123.7,413.8 L124.0,413.8 L124.2,414.1 L124.4,414.0 
		L124.6,414.0 L124.8,414.0 L125.0,414.0 L125.2,414.0 L125.4,413.7 L125.6,413.7 L125.8,413.7 L126.0,413.7 
		L126.3,413.7 L126.5,413.5 L126.7,413.5 L126.9,413.5 L127.1,413.5 L127.3,413.5 L127.5,413.5 L127.7,413.5 
		L127.9,413.5 L128.1,413.5 L128.4,413.5 L128.6,413.5 L128.8,413.5 L129.0,413.5 L129.2,413.5 L129.4,413.5 
		L129.6,413.5 L129.8,413.5 L130.0,413.5 L130.2,413.5 L130.4,413.5 L130.7,414.2 L130.9,414.0 L131.1,414.0 
		L131.3,414.0 L131.5,414.1 L131.7,414.0 L131.9,414.0 L132.1,414.0 L132.3,414.0 L132.5,414.0 L132.7,414.0 
		L133.0,414.0 L133.2,414.2 L133.4,414.1 L133.6,414.1 L133.8,414.1 L134.0,414.1 L134.2,414.1 L134.4,414.1 
		L134.6,414.1 L134.8,414.1 L135.0,414.1 L135.3,414.1 L135.5,414.1 L135.7,414.1 L135.9,414.1 L136.1,414.1 
		L136.3,414.1 L136.5,414.1 L136.7,414.1 L136.9,414.1 L137.1,414.1 L137.4,414.1 L137.6,414.1 L137.8,414.5 
		L138.0,414.5 L138.2,414.5 L138.4,414.5 L138.6,414.4 L138.8,414.4 L139.0,414.4 L139.2,414.4 L139.4,414.5 
		L139.7,414.5 L139.9,414.5 L140.1,414.5 L140.3,414.5 L140.5,414.5 L140.7,414.6 L140.9,414.6 L141.1,414.6 
		L141.3,414.6 L141.5,414.6 L141.7,414.6 L142.0,414.6 L142.2,414.6 L142.4,414.6 L142.6,414.6 L142.8,414.6 
		L143.0,414.6 L143.2,414.7 L143.4,414.7 L143.6,414.7 L143.8,414.7 L144.1,414.7 L144.3,414.7 L144.5,414.7 
		L144.7,414.7 L144.9,414.7 L145.1,414.8 L145.3,414.7 L145.5,414.7 L145.7,414.5 L145.9,414.5 L146.1,414.5 
		L146.4,414.5 L146.6,414.5 L146.8,414.6 L147.0,414.5 L147.2,414.5 L147.4,414.5 L147.6,414.5 L147.8,414.5 
		L148.0,414.5 L148.2,414.5 L148.4,414.5 L148.7,414.5 L148.9,414.5 L149.1,414.5 L149.3,414.5 L149.5,414.5 
		L149.7,414.5 L149.9,414.5 L150.1,414.5 L150.3,414.5 L150.5,414.5 L150.8,414.1 L151.0,414.1 L151.2,414.1 
		L151.4,414.1 L151.6,414.1 L151.8,414.1 L152.0,414.1 L152.2,414.2 L152.4,414.2 L152.6,414.2 L152.8,414.2 
		L153.1,414.2 L153.3,414.2 L153.5,414.2 L153.7,414.2 L153.9,414.2 L154.1,414.2 L154.3,414.2 L154.5,413.9 
		L154.7,413.8 L154.9,413.4 L155.1,413.4 L155.4,413.4 L155.6,413.4 L155.8,413.4 L156.0,413.5 L156.2,413.5 
		L156.4,413.5 L156.6,413.5 L156.8,413.5 L157.0,413.5 L157.2,413.5 L157.5,413.6 L157.7,413.6 L157.9,413.6 
		L158.1,413.6 L158.3,413.6 L158.5,413.6 L158.7,413.6 L158.9,413.6 L159.1,413.6 L159.3,413.6 L159.5,413.4 
		L159.8,413.2 L160.0,413.2 L160.2,413.2 L160.4,413.2 L160.6,413.2 L160.8,413.2 L161.0,413.2 L161.2,413.2 
		L161.4,413.2 L161.6,413.2 L161.8,413.4 L162.1,413.0 L162.3,413.0 L162.5,413.0 L162.7,413.0 L162.9,413.0 
		L163.1,413.0 L163.3,413.0 L163.5,413.0 L163.7,413.0 L163.9,413.0 L164.1,413.2 L164.4,412.7 L164.6,412.7 
		L164.8,412.7 L165.0,412.7 L165.2,412.7 L165.4,412.7 L165.6,412.7 L165.8,412.7 L166.0,412.7 L166.2,412.7 
		L166.5,412.9 L166.7,412.9 L166.9,412.9 L167.1,412.9 L167.3,412.9 L167.5,412.9 L167.7,412.9 L167.9,412.9 
		L168.1,412.9 L168.3,413.1 L168.5,412.8 L168.8,412.8 L169.0,412.8 L169.2,412.8 L169.4,412.8 L169.6,412.8 
		L169.8,412.7 L170.0,412.7 L170.2,412.7 L170.4,412.7 L170.6,412.7 L170.8,412.7 L171.1,412.7 L171.3,412.7 
		L171.5,412.7 L171.7,412.7 L171.9,412.7 L172.1,412.4 L172.3,412.1 L172.5,412.0 L172.7,412.0 L172.9,412.0 
		L173.2,412.0 L173.4,412.0 L173.6,412.0 L173.8,412.0 L174.0,412.0 L174.2,412.0 L174.4,412.0 L174.6,412.0 
		L174.8,412.0 L175.0,412.2 L175.2,412.1 L175.5,412.1 L175.7,412.1 L175.9,412.1 L176.1,412.1 L176.3,412.1 
		L176.5,412.1 L176.7,412.1 L176.9,412.1 L177.1,412.1 L177.3,412.1 L177.5,412.2 L177.8,412.2 L178.0,412.2 
		L178.2,412.2 L178.4,412.2 L178.6,412.2 L178.8,412.2 L179.0,412.2 L179.2,412.2 L179.4,412.2 L179.6,412.2 
		L179.9,412.4 L180.1,412.4 L180.3,412.4 L180.5,412.4 L180.7,412.4 L180.9,412.4 L181.1,412.4 L181.3,412.4 
		L181.5,412.4 L181.7,412.5 L181.9,412.5 L182.2,412.5 L182.4,412.5 L182.6,412.5 L182.8,412.5 L183.0,412.5 
		L183.2,412.5 L183.4,412.5 L183.6,412.5 L183.8,412.5 L184.0,412.5 L184.2,412.5 L184.5,412.6 L184.7,412.6 
		L184.9,412.6 L185.1,412.7 L185.3,412.7 L185.5,412.7 L185.7,412.7 L185.9,412.7 L186.1,412.7 L186.3,412.6 
		L186.5,412.6 L186.8,412.6 L187.0,412.6 L187.2,412.6 L187.4,412.6 L187.6,412.6 L187.8,412.6 L188.0,412.6 
		L188.2,412.6 L188.4,412.6 L188.6,412.6 L188.9,412.6 L189.1,412.6 L189.3,412.7 L189.5,412.7 L189.7,412.7 
		L189.9,412.7 L190.1,412.7 L190.3,412.7 L190.5,412.7 L190.7,412.7 L190.9,412.7 L191.2,412.7 L191.4,412.7 
		L191.6,412.7 L191.8,412.8 L192.0,412.8 L192.2,412.8 L192.4,412.8 L192.6,412.8 L192.8,412.8 L193.0,412.9 
		L193.2,412.9 L193.5,412.9 L193.7,412.9 L193.9,412.9 L194.1,412.9 L194.3,412.9 L194.5,412.9 L194.7,412.9 
		L194.9,412.9 L195.1,412.9 L195.3,412.9 L195.6,412.9 L195.8,412.9 L196.0,412.9 L196.2,412.9 L196.4,412.9 
		L196.6,412.9 L196.8,412.9 L197.0,412.9 L197.2,413.2 L197.4,413.2 L197.6,413.2 L197.9,413.2 L198.1,413.2 
		L198.3,413.2 L198.5,413.2 L198.7,413.2 L198.9,413.2 L199.1,413.2 L199.3,413.2 L199.5,413.2 L199.7,413.1 
		L199.9,413.1 L200.2,413.1 L200.4,413.1 L200.6,412.9 L200.8,412.9 L201.0,413.0 L201.2,412.9 L201.4,412.9 
		L201.6,412.9 L201.8,412.9 L202.0,412.9 L202.3,412.9 L202.5,412.9 L202.7,412.9 L202.9,412.9 L203.1,412.9 
		L203.3,412.9 L203.5,412.9 L203.7,412.9 L203.9,412.9 L204.1,412.9 L204.3,412.9 L204.6,413.1 L204.8,413.1 
		L205.0,413.1 L205.2,413.1 L205.4,413.1 L205.6,413.1 L205.8,413.1 L206.0,413.1 L206.2,413.1 L206.4,413.1 
		L206.6,413.1 L206.9,413.1 L207.1,413.1 L207.3,413.1 L207.5,413.1 L207.7,413.1 L207.9,413.1 L208.1,413.1 
		L208.3,413.1 L208.5,413.1 L208.7,413.1 L209.0,413.1 L209.2,413.1 L209.4,413.1 L209.6,413.4 L209.8,413.4 
		L210.0,413.4 L210.2,413.4 L210.4,413.4 L210.6,413.4 L210.8,413.4 L211.0,413.4 L211.3,413.4 L211.5,413.4 
		L211.7,413.4 L211.9,413.2 L212.1,413.2 L212.3,413.2 L212.5,413.1 L212.7,413.1 L212.9,413.1 L213.1,413.1 
		L213.3,413.1 L213.6,413.1 L213.8,413.1 L214.0,413.1 L214.2,413.1 L214.4,413.1 L214.6,413.1 L214.8,413.1 
		L215.0,413.1 L215.2,413.1 L215.4,413.1 L215.6,413.1 L215.9,413.1 L216.1,413.1 L216.3,413.1 L216.5,413.1 
		L216.7,413.1 L216.9,413.1 L217.1,413.1 L217.3,413.1 L217.5,413.1 L217.7,413.1 L218.0,413.1 L218.2,413.1 
		L218.4,413.1 L218.6,413.1 L218.8,413.1 L219.0,413.1 L219.2,413.1 L219.4,413.1 L219.6,413.1 L219.8,413.1 
		L220.0,413.1 L220.3,413.1 L220.5,413.1 L220.7,413.1 L220.9,413.1 L221.1,413.4 L221.3,413.4 L221.5,413.4 
		L221.7,413.4 L221.9,413.4 L222.1,413.4 L222.3,413.3 L222.6,413.3 L222.8,413.3 L223.0,413.3 L223.2,413.3 
		L223.4,413.3 L223.6,413.3 L223.8,413.3 L224.0,413.3 L224.2,413.3 L224.4,413.3 L224.7,413.3 L224.9,413.3 
		L225.1,413.3 L225.3,413.3 L225.5,413.3 L225.7,413.3 L225.9,413.3 L226.1,413.3 L226.3,413.3 L226.5,413.3 
		L226.7,413.3 L227.0,413.3 L227.2,413.4 L227.4,413.4 L227.6,413.4 L227.8,413.4 L228.0,413.4 L228.2,413.4 
		L228.4,413.4 L228.6,413.4 L228.8,413.4 L229.0,413.3 L229.3,413.3 L229.5,413.3 L229.7,413.3 L229.9,413.3 
		L230.1,413.3 L230.3,413.3 L230.5,413.3 L230.7,413.3 L230.9,413.3 L231.1,413.3 L231.4,413.4 L231.6,413.4 
		L231.8,413.4 L232.0,413.4 L232.2,413.4 L232.4,413.4 L232.6,413.4 L232.8,413.5 L233.0,413.3 L233.2,413.3 
		L233.4,413.2 L233.7,413.2 L233.9,413.2 L234.1,413.2 L234.3,413.2 L234.5,413.2 L234.7,413.2 L234.9,413.2 
		L235.1,413.3 L235.3,413.3 L235.5,413.3 L235.7,413.3 L236.0,413.3 L236.2,413.3 L236.4,413.3 L236.6,413.3 
		L236.8,413.3 L237.0,413.2 L237.2,413.2 L237.4,413.2 L237.6,413.2 L237.8,413.1 L238.0,413.1 L238.3,413.1 
		L238.5,413.1 L238.7,413.1 L238.9,412.9 L239.1,412.9 L239.3,412.9 L239.5,412.9 L239.7,412.9 L239.9,412.9 
		L240.1,412.9 L240.3,412.9 L240.6,412.9 L240.8,412.9 L241.0,412.9 L241.2,412.8 L241.4,412.8 L241.6,412.8 
		L241.8,412.8 L242.0,412.8 L242.2,412.6 L242.4,412.6 L242.7,412.6 L242.9,412.6 L243.1,412.6 L243.3,412.6 
		L243.5,412.6 L243.7,412.6 L243.9,412.6 L244.1,412.6 L244.3,412.6 L244.5,412.7 L244.7,412.7 L245.0,412.7 
		L245.2,412.7 L245.4,412.7 L245.6,412.7 L245.8,412.7 L246.0,412.7 L246.2,412.7 L246.4,412.7 L246.6,412.8 
		L246.8,412.8 L247.0,412.8 L247.3,412.8 L247.5,412.8 L247.7,412.8 L247.9,412.8 L248.1,412.8 L248.3,412.8 
		L248.5,412.8 L248.7,412.8 L248.9,412.8 L249.1,412.8 L249.4,412.8 L249.6,412.8 L249.8,412.8 L250.0,412.8 
		L250.2,412.8 L250.4,412.8 L250.6,412.9 L250.8,412.9 L251.0,412.9 L251.2,412.9 L251.4,412.9 L251.7,412.9 
		L251.9,412.9 L252.1,412.9 L252.3,412.9 L252.5,413.0 L252.7,413.0 L252.9,413.0 L253.1,413.0 L253.3,413.0 
		L253.5,413.0 L253.7,413.0 L254.0,413.0 L254.2,413.0 L254.4,413.0 L254.6,413.0 L254.8,413.0 L255.0,413.0 
		L255.2,413.0 L255.4,413.0 L255.6,413.0 L255.8,413.0 L256.0,413.0 L256.3,413.0 L256.5,412.9 L256.7,412.9 
		L256.9,412.9 L257.1,412.9 L257.3,412.9 L257.5,412.9 L257.7,412.9 L257.9,412.9 L258.1,412.9 L258.4,413.0 
		L258.6,413.0 L258.8,413.0 L259.0,413.0 L259.2,413.0 L259.4,413.0 L259.6,413.0 L259.8,413.0 L260.0,413.0 
		L260.2,413.0 L260.4,413.0 L260.7,413.0 L260.9,413.0 L261.1,413.0 L261.3,412.8 L261.5,412.7 L261.7,412.7 
		L261.9,412.7 L262.1,412.7 L262.3,412.7 L262.5,412.7 L262.7,412.7 L263.0,412.7 L263.2,412.8 L263.4,412.8 
		L263.6,412.8 L263.8,412.8 L264.0,412.8 L264.2,412.7 L264.4,412.7 L264.6,412.7 L264.8,412.7 L265.1,412.6 
		L265.3,412.6 L265.5,412.6 L265.7,412.6 L265.9,412.6 L266.1,412.6 L266.3,412.7 L266.5,412.7 L266.7,412.7 
		L266.9,412.7 L267.1,412.7 L267.4,412.7 L267.6,412.7 L267.8,412.7 L268.0,412.8 L268.2,412.7 L268.4,412.7 
		L268.6,412.7 L268.8,412.7 L269.0,412.7 L269.2,412.7 L269.4,412.7 L269.7,412.7 L269.9,412.7 L270.1,412.7 
		L270.3,412.7 L270.5,412.7 L270.7,412.7 L270.9,412.7 L271.1,412.7 L271.3,412.7 L271.5,412.7 L271.8,412.7 
		L272.0,412.7 L272.2,412.7 L272.4,412.7 L272.6,412.8 L272.8,412.8 L273.0,412.8 L273.2,412.7 L273.4,412.7 
		L273.6,412.7 L273.8,412.7 L274.1,412.7 L274.3,412.7 L274.5,412.7 L274.7,412.5 L274.9,412.5 L275.1,412.5 
		L275.3,412.5 L275.5,412.5 L275.7,412.5 L275.9,412.5 L276.1,412.5 L276.4,412.5 L276.6,412.5 L276.8,412.5 
		L277.0,412.5 L277.2,412.5 L277.4,412.5 L277.6,412.6 L277.8,412.6 L278.0,412.6 L278.2,412.5 L278.5,412.4 
		L278.7,412.4 L278.9,412.4 L279.1,412.4 L279.3,412.4 L279.5,412.4 L279.7,412.4 L279.9,412.4 L280.1,412.3 
		L280.3,412.3 L280.5,412.3 L280.8,412.3 L281.0,412.3 L281.2,412.3 L281.4,412.3 L281.6,412.3 L281.8,412.3 
		L282.0,412.3 L282.2,412.3 L282.4,412.3 L282.6,412.3 L282.8,412.3 L283.1,412.4 L283.3,412.4 L283.5,412.4 
		L283.7,412.4 L283.9,412.4 L284.1,412.4 L284.3,412.4 L284.5,412.4 L284.7,412.4 L284.9,412.4 L285.1,412.4 
		L285.4,412.4 L285.6,412.3 L285.8,412.3 L286.0,412.3 L286.2,412.3 L286.4,412.3 L286.6,412.3 L286.8,412.2 
		L287.0,412.2 L287.2,412.2 L287.5,412.2 L287.7,412.2 L287.9,412.2 L288.1,412.2 L288.3,412.2 L288.5,412.2 
		L288.7,412.2 L288.9,412.2 L289.1,412.2 L289.3,412.3 L289.5,412.3 L289.8,412.3 L290.0,412.3 L290.2,412.3 
		L290.4,412.3 L290.6,412.3 L290.8,412.3 L291.0,412.3 L291.2,412.3 L291.4,412.3 L291.6,412.3 L291.8,412.3 
		L292.1,412.3 L292.3,412.3 L292.5,412.3 L292.7,412.3 L292.9,412.3 L293.1,412.3 L293.3,412.3 L293.5,412.3 
		L293.7,412.3 L293.9,412.3 L294.2,412.3 L294.4,412.3 L294.6,412.3 L294.8,412.3 L295.0,412.3 L295.2,412.3 
		L295.4,412.3 L295.6,412.3 L295.8,412.3 L296.0,412.3 L296.2,412.3 L296.5,412.3 L296.7,412.3 L296.9,412.3 
		L297.1,412.3 L297.3,412.3 L297.5,412.3 L297.7,412.3 L297.9,412.3 L298.1,412.3 L298.3,412.3 L298.5,412.3 
		L298.8,412.3 L299.0,412.3 L299.2,412.3 L299.4,412.3 L299.6,412.3 L299.8,412.3 L300.0,412.3 L300.2,412.3 
		L300.4,412.3 L300.6,412.3 L300.9,412.3 L301.1,412.3 L301.3,412.3 L301.5,412.3 L301.7,412.3 L301.9,412.3 
		L302.1,412.3 L302.3,412.3 L302.5,412.3 L302.7,412.3 L302.9,412.3 L303.2,412.3 L303.4,412.3 L303.6,412.3 
		L303.8,412.3 L304.0,412.3 L304.2,412.3 L304.4,412.3 L304.6,412.3 L304.8,412.4 L305.0,412.3 L305.2,412.3 
		L305.5,412.3 L305.7,412.3 L305.9,412.3 L306.1,412.3 L306.3,412.3 L306.5,412.3 L306.7,412.3 L306.9,412.3 
		L307.1,412.3 L307.3,412.3 L307.5,412.3 L307.8,412.3 L308.0,412.3 L308.2,412.3 L308.4,412.3 L308.6,412.3 
		L308.8,412.3 L309.0,412.3 L309.2,412.3 L309.4,412.3 L309.6,412.3 L309.9,412.3 L310.1,412.3 L310.3,412.3 
		L310.5,412.3 L310.7,412.3 L310.9,412.3 L311.1,412.3 L311.3,412.3 L311.5,412.3 L311.7,412.3 L311.9,412.3 
		L312.2,412.3 L312.4,412.3 L312.6,412.5 L312.8,412.5 L313.0,412.5 L313.2,412.5 L313.4,412.5 L313.6,412.5 
		L313.8,412.5 L314.0,412.5 L314.2,412.5 L314.5,412.5 L314.7,412.5 L314.9,412.5 L315.1,412.5 L315.3,412.5 
		L315.5,412.5 L315.7,412.5 L315.9,412.5 L316.1,412.5 L316.3,412.5 L316.6,412.4 L316.8,412.4 L317.0,412.3 
		L317.2,412.3 L317.4,412.3 L317.6,412.3 L317.8,412.3 L318.0,412.3 L318.2,412.3 L318.4,412.4 L318.6,412.4 
		L318.9,412.4 L319.1,412.4 L319.3,412.4 L319.5,412.4 L319.7,412.4 L319.9,412.4 L320.1,412.4 L320.3,412.4 
		L320.5,412.4 L320.7,412.4 L320.9,412.4 L321.2,412.4 L321.4,412.4 L321.6,412.4 L321.8,412.4 L322.0,412.4 
		L322.2,412.4 L322.4,412.4 L322.6,412.4 L322.8,412.4 L323.0,412.4 L323.3,412.4 L323.5,412.4 L323.7,412.4 
		L323.9,412.4 L324.1,412.4 L324.3,412.4 L324.5,412.4 L324.7,412.4 L324.9,412.4 L325.1,412.4 L325.3,412.4 
		L325.6,412.4 L325.8,412.4 L326.0,412.4 L326.2,412.4 L326.4,412.3 L326.6,412.3 L326.8,412.3 L327.0,412.3 
		L327.2,412.3 L327.4,412.3 L327.6,412.3 L327.9,412.3 L328.1,412.3 L328.3,412.3 L328.5,412.3 L328.7,412.3 
		L328.9,412.3 L329.1,412.3 L329.3,412.3 L329.5,412.3 L329.7,412.3 L330.0,412.3 L330.2,412.3 L330.4,412.4 
		L330.6,412.4 L330.8,412.4 L331.0,412.4 L331.2,412.4 L331.4,412.4 L331.6,412.4 L331.8,412.4 L332.0,412.4 
		L332.3,412.4 L332.5,412.4 L332.7,412.4 L332.9,412.4 L333.1,412.4 L333.3,412.4 L333.5,412.4 L333.7,412.4 
		L333.9,412.5 L334.1,412.5 L334.3,412.5 L334.6,412.5 L334.8,412.5 L335.0,412.5 L335.2,412.5 L335.4,412.5 
		L335.6,412.5 L335.8,412.5 L336.0,412.5 L336.2,412.5 L336.4,412.5 L336.6,412.5 L336.9,412.5 L337.1,412.5 
		L337.3,412.5 L337.5,412.5 L337.7,412.5 L337.9,412.5 L338.1,412.5 L338.3,412.5 L338.5,412.5 L338.7,412.5 
		L339.0,412.5 L339.2,412.5 L339.4,412.5 L339.6,412.6 L339.8,412.6 L340.0,412.6 L340.2,412.6 L340.4,412.5 
		L340.6,412.5 L340.8,412.5 L341.0,412.5 L341.3,412.5 L341.5,412.5 L341.7,412.5 L341.9,412.5 L342.1,412.5 
		L342.3,412.5 L342.5,412.5 L342.7,412.5 L342.9,412.4 L343.1,412.4 L343.3,412.4 L343.6,412.4 L343.8,412.4 
		L344.0,412.4 L344.2,412.4 L344.4,412.4 L344.6,412.4 L344.8,412.4 L345.0,412.4 L345.2,412.4 L345.4,412.4 
		L345.7,412.4 L345.9,412.4 L346.1,412.4 L346.3,412.4 L346.5,412.4 L346.7,412.4 L346.9,412.4 L347.1,412.4 
		L347.3,412.4 L347.5,412.4 L347.7,412.4 L348.0,412.3 L348.2,412.3 L348.4,412.3 L348.6,412.3 L348.8,412.3 
		L349.0,412.3 L349.2,412.3 L349.4,412.3 L349.6,412.3 L349.8,412.4 L350.0,412.4 L350.3,412.4 L350.5,412.4 
		L350.7,412.4 L350.9,412.4 L351.1,412.4 L351.3,412.4 L351.5,412.4 L351.7,412.4 L351.9,412.4 L352.1,412.4 
		L352.4,412.4 L352.6,412.4 L352.8,412.4 L353.0,412.4 L353.2,412.4 L353.4,412.4 L353.6,412.4 L353.8,412.4 
		L354.0,412.4 L354.2,412.4 L354.4,412.4 L354.7,412.3 L354.9,412.3 L355.1,412.3 L355.3,412.3 L355.5,412.3 
		L355.7,412.3 L355.9,412.3 L356.1,412.3 L356.3,412.3 L356.5,412.3 L356.7,412.3 L357.0,412.3 L357.2,412.3 
		L357.4,412.3 L357.6,412.3 L357.8,412.3 L358.0,412.3 L358.2,412.3 L358.4,412.3 L358.6,412.3 L358.8,412.3 
		L359.1,412.5 L359.3,412.5 L359.5,412.5 L359.7,412.5 L359.9,412.5 L360.1,412.5 L360.3,412.5 L360.5,412.5 
		L360.7,412.5 L360.9,412.5 L361.1,412.5 L361.4,412.5 L361.6,412.5 L361.8,412.5 L362.0,412.5 L362.2,412.5 
		L362.4,412.5 L362.6,412.5 L362.8,412.5 L363.0,412.5 L363.2,412.5 L363.4,412.5 L363.7,412.5 L363.9,412.5 
		L364.1,412.5 L364.3,412.5 L364.5,412.5 L364.7,412.4 L364.9,412.4 L365.1,412.4 L365.3,412.4 L365.5,412.4 
		L365.7,412.4 L366.0,412.4 L366.2,412.4 L366.4,412.4 L366.6,412.4 L366.8,412.4 L367.0,412.4 L367.2,412.4 
		L367.4,412.4 L367.6,412.4 L367.8,412.4 L368.1,412.4 L368.3,412.4 L368.5,412.4 L368.7,412.4 L368.9,412.4 
		L369.1,412.4 L369.3,412.4 L369.5,412.4 L369.7,412.4 L369.9,412.4 L370.1,412.4 L370.4,412.4 L370.6,412.4 
		L370.8,412.4 L371.0,412.4 L371.2,412.4 L371.4,412.4 L371.6,412.4 L371.8,412.4 L372.0,412.5 L372.2,412.5 
		L372.4,412.5 L372.7,412.5 L372.9,412.5 L373.1,412.5 L373.3,412.5 L373.5,412.4 L373.7,412.3 L373.9,412.3 
		L374.1,412.3 L374.3,412.3 L374.5,412.3 L374.8,412.3 L375.0,412.3 L375.2,412.3 L375.4,412.4 L375.6,412.4 
		L375.8,412.4 L376.0,412.3 L376.2,412.3 L376.4,412.3 L376.6,412.3 L376.8,412.3 L377.1,412.3 L377.3,412.3 
		L377.5,412.4 L377.7,412.4 L377.9,412.3 L378.1,412.3 L378.3,412.3 L378.5,412.3 L378.7,412.3 L378.9,412.3 
		L379.1,412.3 L379.4,412.3 L379.6,412.3 L379.8,412.3 L380.0,412.3 L380.2,412.2 L380.4,412.2 L380.6,412.2 
		L380.8,412.1 L381.0,412.1 L381.2,412.1 L381.5,412.1 L381.7,412.1 L381.9,412.1 L382.1,412.1 L382.3,412.1 
		L382.5,412.1 L382.7,412.1 L382.9,412.1 L383.1,412.1 L383.3,412.1 L383.5,412.1 L383.8,412.1 L384.0,412.1 
		L384.2,412.1 L384.4,412.1 L384.6,412.1 L384.8,412.1 L385.0,412.1 L385.2,412.1 L385.4,412.1 L385.6,412.1 
		L385.8,412.1 L386.1,412.1 L386.3,412.1 L386.5,412.1 L386.7,412.1 L386.9,412.1 L387.1,412.1 L387.3,412.0 
		L387.5,412.0 L387.7,412.0 L387.9,412.0 L388.1,412.0 L388.4,412.1 L388.6,412.1 L388.8,412.1 L389.0,412.1 
		L389.2,412.0 L389.4,412.0 L389.6,412.0 L389.8,412.0 L390.0,412.0 L390.2,412.0 L390.5,412.0 L390.7,412.0 
		L390.9,412.0 L391.1,412.0 L391.3,412.0 L391.5,412.0 L391.7,412.0 L391.9,412.0 L392.1,412.0 L392.3,411.9 
		L392.5,411.9 L392.8,411.9 L393.0,411.9 L393.2,411.9 L393.4,411.9 L393.6,411.9 L393.8,411.9 L394.0,411.9 
		L394.2,411.9 L394.4,411.9 L394.6,411.9 L394.8,411.9 L395.1,411.9 L395.3,412.0 L395.5,412.0 L395.7,412.0 
		L395.9,411.9 L396.1,411.9 L396.3,411.9 L396.5,411.9 L396.7,411.9 L396.9,411.9 L397.2,411.9 L397.4,411.9 
		L397.6,411.9 L397.8,411.9 L398.0,411.9 L398.2,411.9 L398.4,411.9 L398.6,411.9 L398.8,411.9 L399.0,411.9 
		L399.2,411.9 L399.5,411.9 L399.7,411.9 L399.9,411.9 L400.1,411.9 L400.3,411.9 L400.5,411.9 L400.7,411.9 
		L400.9,411.9 L401.1,412.0 L401.3,412.0 L401.5,412.0 L401.8,412.0 L402.0,412.0 L402.2,412.0 L402.4,412.0 
		L402.6,412.0 L402.8,412.0 L403.0,412.0 L403.2,412.0 L403.4,412.0 L403.6,412.0 L403.9,412.0 L404.1,412.0 
		L404.3,412.0 L404.5,412.0 L404.7,412.0 L404.9,412.0 L405.1,412.0 L405.3,412.0 L405.5,412.0 L405.7,412.0 
		L405.9,412.0 L406.2,412.0 L406.4,412.0 L406.6,412.0 L406.8,412.0 L407.0,412.0 L407.2,412.0 L407.4,412.0 
		L407.6,412.0 L407.8,412.0 L408.0,412.0 L408.2,412.0 L408.5,412.0 L408.7,412.2 L408.9,412.2 L409.1,412.2 
		L409.3,412.1 L409.5,412.1 L409.7,412.1 L409.9,412.1 L410.1,412.1 L410.3,412.1 L410.6,412.1 L410.8,412.1 
		L411.0,412.1 L411.2,412.1 L411.4,412.1 L411.6,412.1 L411.8,412.1 L412.0,412.1 L412.2,412.1 L412.4,412.1 
		L412.6,412.2 L412.9,412.1 L413.1,412.1 L413.3,412.1 L413.5,412.1 L413.7,412.1 L413.9,412.1 L414.1,412.1 
		L414.3,412.1 L414.5,412.1 L414.7,412.1 L414.9,412.1 L415.2,412.1 L415.4,412.1 L415.6,412.1 L415.8,412.1 
		L416.0,412.1 L416.2,412.1 L416.4,412.1 L416.6,412.1 L416.8,412.1 L417.0,412.1 L417.2,412.1 L417.5,412.1 
		L417.7,412.1 L417.9,412.1 L418.1,412.1 L418.3,412.1 L418.5,412.0 L418.7,411.9 L418.9,411.9 L419.1,411.9 
		L419.3,411.9 L419.6,411.9 L419.8,411.9 L420.0,411.9 L420.2,411.9 L420.4,411.9 L420.6,411.9 L420.8,412.0 
		L421.0,412.0 L421.2,412.0 L421.4,412.0 L421.6,412.0 L421.9,412.0 L422.1,412.0 L422.3,412.0 L422.5,412.0 
		L422.7,412.0 L422.9,412.0 L423.1,412.0 L423.3,412.0 L423.5,412.0 L423.7,412.0 L423.9,412.0 L424.2,412.0 
		L424.4,412.0 L424.6,412.0 L424.8,412.0 L425.0,412.0 L425.2,412.0 L425.4,412.0 L425.6,412.0 L425.8,412.0 
		L426.0,412.0 L426.3,412.0 L426.5,412.0 L426.7,411.9 L426.9,411.9 L427.1,411.9 L427.3,411.9 L427.5,411.9 
		L427.7,411.9 L427.9,411.9 L428.1,411.9 L428.3,411.9 L428.6,411.9 L428.8,411.9 L429.0,411.9 L429.2,411.9 
		L429.4,411.9 L429.6,411.9 L429.8,411.9 L430.0,411.9 L430.2,411.9 L430.4,411.9 L430.6,411.9 L430.9,411.9 
		L431.1,411.9 L431.3,411.9 L431.5,411.9 L431.7,411.9 L431.9,411.9 L432.1,411.9 L432.3,411.9 L432.5,411.9 
		L432.7,411.9 L433.0,411.9 L433.2,411.9 L433.4,411.9 L433.6,411.9 L433.8,411.9 L434.0,411.9 L434.2,411.9 
		L434.4,411.9 L434.6,411.9 L434.8,411.9 L435.0,411.9 L435.3,411.9 L435.5,411.9 L435.7,411.9 L435.9,411.9 
		L436.1,411.9 L436.3,411.9 L436.5,411.9 L436.7,411.9 L436.9,411.9 L437.1,412.0 L437.3,411.9 L437.6,411.9 
		L437.8,411.9 L438.0,411.8 L438.2,411.8 L438.4,411.8 L438.6,411.8 L438.8,411.8 L439.0,411.8 L439.2,411.8 
		L439.4,411.8 L439.6,411.8 L439.9,411.8 L440.1,411.8 L440.3,411.8 L440.5,411.8 L440.7,411.8 L440.9,411.8 
		L441.1,411.7 L441.3,411.7 L441.5,411.7 L441.7,411.7 L442.0,411.7 L442.2,411.7 L442.4,411.7 L442.6,411.7 
		L442.8,411.7 L443.0,411.7 L443.2,411.7 L443.4,411.7 L443.6,411.7 L443.8,411.7 L444.0,411.8 L444.3,411.8 
		L444.5,411.8 L444.7,411.8 L444.9,411.8 L445.1,411.8 L445.3,411.8 L445.5,411.8 L445.7,411.8 L445.9,411.8 
		L446.1,411.8 L446.3,411.8 L446.6,411.8 L446.8,411.8 L447.0,411.8 L447.2,411.8 L447.4,411.8 L447.6,411.8 
		L447.8,411.8 L448.0,411.8 L448.2,411.8 L448.4,411.8 L448.7,411.7 L448.9,411.7 L449.1,411.7 L449.3,411.7 
		L449.5,411.7 L449.7,411.8 L449.9,411.7 L450.1,411.7 L450.3,411.7 L450.5,411.7 L450.7,411.7 L451.0,411.7 
		L451.2,411.7 L451.4,411.7 L451.6,411.7 L451.8,411.7 L452.0,411.7 L452.2,411.7 L452.4,411.7 L452.6,411.7 
		L452.8,411.7 L453.0,411.7 L453.3,411.7 L453.5,411.7 L453.7,411.7 L453.9,411.7 L454.1,411.7 L454.3,411.7 
		L454.5,411.7 L454.7,411.7 L454.9,411.7 L455.1,411.7 L455.4,411.7 L455.6,411.7 L455.8,411.7 L456.0,411.7 
		L456.2,411.7 L456.4,411.7 L456.6,411.7 L456.8,411.7 L457.0,411.7 L457.2,411.7 L457.4,411.7 L457.7,411.8 
		L457.9,411.8 L458.1,411.8 L458.3,411.8 L458.5,411.8 L458.7,411.8 L458.9,411.8 L459.1,411.8 L459.3,411.8 
		L459.5,411.7 L459.7,411.7 L460.0,411.7 L460.2,411.7 L460.4,411.7 L460.6,411.7 L460.8,411.7 L461.0,411.7 
		L461.2,411.7 L461.4,411.7 L461.6,411.8 L461.8,411.8 L462.1,411.8 L462.3,411.8 L462.5,411.8 L462.7,411.8 
		L462.9,411.8 L463.1,411.8 L463.3,411.8 L463.5,411.8 L463.7,411.8 L463.9,411.8 L464.1,411.8 L464.4,411.8 
		L464.6,411.8 L464.8,411.8 L465.0,411.8 L465.2,411.8 L465.4,411.8 L465.6,411.8 L465.8,411.8 L466.0,411.8 
		L466.2,411.8 L466.4,411.8 L466.7,411.8 L466.9,411.8 L467.1,411.8 L467.3,411.8 L467.5,411.8 L467.7,411.8 
		L467.9,411.8 L468.1,411.8 L468.3,411.8 L468.5,411.8 L468.7,411.8 L469.0,411.8 L469.2,411.8 L469.4,411.8 
		L469.6,411.8 L469.8,411.8 L470.0,411.8 L470.2,411.8 L470.4,411.8 L470.6,411.8 L470.8,411.8 L471.1,411.8 
		L471.3,411.8 L471.5,411.8 L471.7,411.8 L471.9,411.9 L472.1,411.9 L472.3,411.9 L472.5,411.9 L472.7,411.9 
		L472.9,411.9 L473.1,411.9 L473.4,411.9 L473.6,411.9 L473.8,411.9 L474.0,411.9 L474.2,411.9 L474.4,411.9 
		L474.6,411.9 L474.8,411.9 L475.0,411.9 L475.2,411.9 L475.4,411.9 L475.7,411.9 L475.9,411.9 L476.1,411.9 
		L476.3,411.9 L476.5,411.9 L476.7,411.9 L476.9,411.9 L477.1,411.9 L477.3,411.9 L477.5,411.9 L477.8,411.8 
		L478.0,411.8 L478.2,411.8 L478.4,411.8 L478.6,411.8 L478.8,411.8 L479.0,411.8 L479.2,411.8 L479.4,411.8 
		L479.6,411.8 L479.8,411.8 L480.1,411.8 L480.3,411.8 L480.5,411.8 L480.7,411.8 L480.9,411.8 L481.1,411.8 
		L481.3,411.8 L481.5,411.8 L481.7,411.8 L481.9,411.8 L482.1,411.8 L482.4,411.7 L482.6,411.7 L482.8,411.7 
		L483.0,411.7 L483.2,411.8 L483.4,411.8 L483.6,411.8 L483.8,411.8 L484.0,411.8 L484.2,411.8 L484.5,411.8 
		L484.7,411.8 L484.9,411.7 L485.1,411.7 L485.3,411.7 L485.5,411.7 L485.7,411.7 L485.9,411.7 L486.1,411.7 
		L486.3,411.7 L486.5,411.7 L486.8,411.7 L487.0,411.7 L487.2,411.7 L487.4,411.7 L487.6,411.7 L487.8,411.7 
		L488.0,411.7 L488.2,411.7 L488.4,411.7 L488.6,411.7 L488.8,411.7 L489.1,411.7 L489.3,411.7 L489.5,411.7 
		L489.7,411.7 L489.9,411.7 L490.1,411.7 L490.3,411.7 L490.5,411.7 L490.7,411.7 L490.9,411.7 L491.1,411.7 
		L491.4,411.7 L491.6,411.7 L491.8,411.7 L492.0,411.7 L492.2,411.7 L492.4,411.7 L492.6,411.7 L492.8,411.7 
		L493.0,411.7 L493.2,411.7 L493.5,411.7 L493.7,411.7 L493.9,411.7 L494.1,411.7 L494.3,411.6 L494.5,411.6 
		L494.7,411.6 L494.9,411.6 L495.1,411.6 L495.3,411.6 L495.5,411.6 L495.8,411.6 L496.0,411.6 L496.2,411.6 
		L496.4,411.7 L496.6,411.7 L496.8,411.7 L497.0,411.7 L497.2,411.7 L497.4,411.7 L497.6,411.7 L497.8,411.7 
		L498.1,411.7 L498.3,411.7 L498.5,411.7 L498.7,411.7 L498.9,411.7  h0.01'/></g>
	</g>
	<g id="gnuplot_plot_2" ><title>gnuplot_plot_2</title>
<g style="fill:none; color:green; stroke:currentColor; stroke-width:1.00; stroke-linecap:butt; stroke-linejoin:miter">
	<g transform="translate(431.8,408.9)" style="stroke:none; fill:black; font-family:Arial; font-size:12.00pt; text-anchor:end">
		<text>Radio maximum capacity</text>
	</g>
	<path  d='M440.1,404.4 L482.3,404.4 M82.5,66.4 L82.7,66.4 L82.9,66.4 L83.1,399.8 L83.3,371.8 L83.5,363.7 
		L83.8,373.5 L84.0,371.7 L84.2,371.7 L84.4,370.0 L84.6,370.0 L84.8,376.8 L85.0,377.2 L85.2,377.2 
		L85.4,377.2 L85.6,377.2 L85.9,377.2 L86.1,377.2 L86.3,377.2 L86.5,377.2 L86.7,377.2 L86.9,377.2 
		L87.1,377.2 L87.3,398.0 L87.5,398.0 L87.7,398.0 L87.9,398.0 L88.2,398.0 L88.4,398.0 L88.6,398.0 
		L88.8,398.0 L89.0,398.0 L89.2,398.0 L89.4,398.0 L89.6,398.0 L89.8,405.4 L90.0,405.0 L90.2,405.0 
		L90.5,405.0 L90.7,405.0 L90.9,405.0 L91.1,405.0 L91.3,405.0 L91.5,403.6 L91.7,403.6 L91.9,403.6 
		L92.1,403.6 L92.3,403.6 L92.5,403.6 L92.8,403.6 L93.0,406.1 L93.2,403.3 L93.4,403.3 L93.6,403.3 
		L93.8,403.3 L94.0,403.3 L94.2,403.3 L94.4,405.0 L94.6,405.0 L94.9,405.0 L95.1,405.0 L95.3,405.0 
		L95.5,405.0 L95.7,405.0 L95.9,405.0 L96.1,405.0 L96.3,405.0 L96.5,405.0 L96.7,407.0 L96.9,407.0 
		L97.2,407.0 L97.4,407.0 L97.6,407.0 L97.8,407.0 L98.0,407.0 L98.2,408.2 L98.4,408.2 L98.6,408.2 
		L98.8,408.2 L99.0,408.2 L99.2,408.2 L99.5,408.2 L99.7,409.1 L99.9,409.1 L100.1,409.1 L100.3,409.1 
		L100.5,409.1 L100.7,409.1 L100.9,409.1 L101.1,409.1 L101.3,409.1 L101.5,409.3 L101.8,409.3 L102.0,409.3 
		L102.2,409.5 L102.4,409.4 L102.6,409.4 L102.8,409.4 L103.0,409.4 L103.2,409.4 L103.4,409.4 L103.6,409.4 
		L103.9,409.4 L104.1,409.4 L104.3,410.0 L104.5,409.8 L104.7,409.8 L104.9,409.8 L105.1,409.8 L105.3,409.8 
		L105.5,409.8 L105.7,409.8 L105.9,409.8 L106.2,409.8 L106.4,409.8 L106.6,409.8 L106.8,409.8 L107.0,410.4 
		L107.2,410.4 L107.4,410.3 L107.6,410.3 L107.8,410.3 L108.0,410.3 L108.2,410.3 L108.5,410.7 L108.7,410.7 
		L108.9,410.7 L109.1,410.7 L109.3,410.7 L109.5,410.7 L109.7,410.7 L109.9,410.7 L110.1,410.7 L110.3,410.7 
		L110.6,410.7 L110.8,410.7 L111.0,410.7 L111.2,410.7 L111.4,410.7 L111.6,410.7 L111.8,410.7 L112.0,410.7 
		L112.2,410.7 L112.4,412.1 L112.6,412.1 L112.9,412.1 L113.1,412.1 L113.3,412.1 L113.5,412.1 L113.7,412.3 
		L113.9,412.3 L114.1,412.2 L114.3,411.9 L114.5,411.9 L114.7,412.0 L114.9,411.5 L115.2,411.5 L115.4,411.5 
		L115.6,411.5 L115.8,411.5 L116.0,411.5 L116.2,411.5 L116.4,411.5 L116.6,411.5 L116.8,411.5 L117.0,411.5 
		L117.3,411.5 L117.5,411.5 L117.7,411.5 L117.9,411.5 L118.1,411.5 L118.3,412.4 L118.5,412.4 L118.7,412.2 
		L118.9,412.2 L119.1,412.2 L119.3,412.2 L119.6,412.2 L119.8,412.2 L120.0,412.2 L120.2,412.2 L120.4,412.2 
		L120.6,412.7 L120.8,412.3 L121.0,412.3 L121.2,412.3 L121.4,412.3 L121.7,412.2 L121.9,412.1 L122.1,412.1 
		L122.3,412.1 L122.5,412.1 L122.7,412.1 L122.9,412.1 L123.1,412.1 L123.3,412.1 L123.5,412.1 L123.7,412.1 
		L124.0,412.1 L124.2,412.4 L124.4,412.3 L124.6,412.3 L124.8,412.3 L125.0,412.3 L125.2,412.3 L125.4,412.1 
		L125.6,412.1 L125.8,412.1 L126.0,412.1 L126.3,412.1 L126.5,411.9 L126.7,411.9 L126.9,411.9 L127.1,411.9 
		L127.3,411.9 L127.5,411.9 L127.7,411.9 L127.9,411.9 L128.1,411.9 L128.4,411.9 L128.6,411.9 L128.8,411.9 
		L129.0,411.9 L129.2,411.9 L129.4,411.9 L129.6,411.9 L129.8,411.9 L130.0,411.9 L130.2,411.9 L130.4,411.9 
		L130.7,412.8 L130.9,412.5 L131.1,412.5 L131.3,412.5 L131.5,412.5 L131.7,412.6 L131.9,412.6 L132.1,412.6 
		L132.3,412.6 L132.5,412.6 L132.7,412.6 L133.0,412.6 L133.2,412.6 L133.4,412.7 L133.6,412.7 L133.8,412.7 
		L134.0,412.7 L134.2,412.7 L134.4,412.7 L134.6,412.7 L134.8,412.7 L135.0,412.7 L135.3,412.7 L135.5,412.7 
		L135.7,412.7 L135.9,412.7 L136.1,412.7 L136.3,412.7 L136.5,412.7 L136.7,412.7 L136.9,412.7 L137.1,412.7 
		L137.4,412.7 L137.6,412.7 L137.8,413.3 L138.0,413.3 L138.2,413.3 L138.4,413.2 L138.6,413.2 L138.8,413.2 
		L139.0,413.2 L139.2,413.2 L139.4,413.3 L139.7,413.3 L139.9,413.3 L140.1,413.3 L140.3,413.3 L140.5,413.3 
		L140.7,413.4 L140.9,413.4 L141.1,413.4 L141.3,413.4 L141.5,413.4 L141.7,413.4 L142.0,413.4 L142.2,413.4 
		L142.4,413.4 L142.6,413.4 L142.8,413.4 L143.0,413.4 L143.2,413.6 L143.4,413.6 L143.6,413.6 L143.8,413.6 
		L144.1,413.6 L144.3,413.6 L144.5,413.6 L144.7,413.6 L144.9,413.6 L145.1,413.7 L145.3,413.6 L145.5,413.6 
		L145.7,413.4 L145.9,413.4 L146.1,413.4 L146.4,413.4 L146.6,413.4 L146.8,413.5 L147.0,413.4 L147.2,413.4 
		L147.4,413.4 L147.6,413.4 L147.8,413.5 L148.0,413.5 L148.2,413.5 L148.4,413.5 L148.7,413.5 L148.9,413.4 
		L149.1,413.4 L149.3,413.4 L149.5,413.4 L149.7,413.4 L149.9,413.4 L150.1,413.4 L150.3,413.4 L150.5,413.4 
		L150.8,413.0 L151.0,413.0 L151.2,413.0 L151.4,413.0 L151.6,413.0 L151.8,413.0 L152.0,413.0 L152.2,413.2 
		L152.4,413.2 L152.6,413.2 L152.8,413.2 L153.1,413.2 L153.3,413.2 L153.5,413.2 L153.7,413.2 L153.9,413.2 
		L154.1,413.2 L154.3,413.2 L154.5,412.9 L154.7,412.8 L154.9,412.5 L155.1,412.5 L155.4,412.5 L155.6,412.5 
		L155.8,412.5 L156.0,412.5 L156.2,412.5 L156.4,412.5 L156.6,412.5 L156.8,412.5 L157.0,412.5 L157.2,412.5 
		L157.5,412.6 L157.7,412.6 L157.9,412.6 L158.1,412.6 L158.3,412.6 L158.5,412.6 L158.7,412.7 L158.9,412.7 
		L159.1,412.7 L159.3,412.7 L159.5,412.5 L159.8,412.3 L160.0,412.3 L160.2,412.3 L160.4,412.3 L160.6,412.3 
		L160.8,412.3 L161.0,412.3 L161.2,412.3 L161.4,412.3 L161.6,412.3 L161.8,412.5 L162.1,412.1 L162.3,412.1 
		L162.5,412.1 L162.7,412.1 L162.9,412.1 L163.1,412.1 L163.3,412.1 L163.5,412.1 L163.7,412.1 L163.9,412.1 
		L164.1,412.4 L164.4,411.9 L164.6,411.9 L164.8,411.9 L165.0,411.9 L165.2,411.9 L165.4,411.9 L165.6,411.9 
		L165.8,411.9 L166.0,411.9 L166.2,411.9 L166.5,412.0 L166.7,412.0 L166.9,412.0 L167.1,412.0 L167.3,412.0 
		L167.5,412.0 L167.7,412.0 L167.9,412.0 L168.1,412.0 L168.3,412.0 L168.5,412.0 L168.8,412.0 L169.0,412.0 
		L169.2,412.0 L169.4,412.0 L169.6,412.0 L169.8,411.9 L170.0,411.9 L170.2,411.9 L170.4,411.9 L170.6,411.9 
		L170.8,411.9 L171.1,411.9 L171.3,411.9 L171.5,411.9 L171.7,411.9 L171.9,411.9 L172.1,411.6 L172.3,411.3 
		L172.5,411.2 L172.7,411.2 L172.9,411.2 L173.2,411.2 L173.4,411.2 L173.6,411.2 L173.8,411.2 L174.0,411.2 
		L174.2,411.2 L174.4,411.2 L174.6,411.2 L174.8,411.2 L175.0,411.5 L175.2,411.4 L175.5,411.4 L175.7,411.3 
		L175.9,411.3 L176.1,411.3 L176.3,411.3 L176.5,411.3 L176.7,411.3 L176.9,411.3 L177.1,411.3 L177.3,411.3 
		L177.5,411.5 L177.8,411.5 L178.0,411.5 L178.2,411.5 L178.4,411.5 L178.6,411.5 L178.8,411.5 L179.0,411.5 
		L179.2,411.5 L179.4,411.5 L179.6,411.5 L179.9,411.7 L180.1,411.7 L180.3,411.7 L180.5,411.7 L180.7,411.7 
		L180.9,411.7 L181.1,411.7 L181.3,411.7 L181.5,411.7 L181.7,411.8 L181.9,411.7 L182.2,411.7 L182.4,411.7 
		L182.6,411.8 L182.8,411.8 L183.0,411.8 L183.2,411.8 L183.4,411.8 L183.6,411.8 L183.8,411.8 L184.0,411.8 
		L184.2,411.8 L184.5,411.9 L184.7,411.9 L184.9,411.9 L185.1,411.9 L185.3,412.0 L185.5,412.0 L185.7,412.0 
		L185.9,412.0 L186.1,412.0 L186.3,411.9 L186.5,411.9 L186.8,411.9 L187.0,411.9 L187.2,411.9 L187.4,411.9 
		L187.6,411.9 L187.8,411.9 L188.0,411.9 L188.2,411.9 L188.4,411.9 L188.6,411.9 L188.9,411.9 L189.1,411.9 
		L189.3,412.1 L189.5,412.1 L189.7,412.1 L189.9,412.1 L190.1,412.1 L190.3,412.1 L190.5,412.1 L190.7,412.1 
		L190.9,412.1 L191.2,412.1 L191.4,412.1 L191.6,412.1 L191.8,412.2 L192.0,412.2 L192.2,412.2 L192.4,412.2 
		L192.6,412.2 L192.8,412.2 L193.0,412.3 L193.2,412.3 L193.5,412.3 L193.7,412.3 L193.9,412.3 L194.1,412.3 
		L194.3,412.3 L194.5,412.3 L194.7,412.3 L194.9,412.3 L195.1,412.3 L195.3,412.3 L195.6,412.3 L195.8,412.3 
		L196.0,412.3 L196.2,412.3 L196.4,412.3 L196.6,412.3 L196.8,412.3 L197.0,412.3 L197.2,412.5 L197.4,412.5 
		L197.6,412.5 L197.9,412.5 L198.1,412.5 L198.3,412.6 L198.5,412.6 L198.7,412.6 L198.9,412.6 L199.1,412.6 
		L199.3,412.6 L199.5,412.6 L199.7,412.5 L199.9,412.5 L200.2,412.5 L200.4,412.5 L200.6,412.3 L200.8,412.3 
		L201.0,412.3 L201.2,412.3 L201.4,412.3 L201.6,412.3 L201.8,412.3 L202.0,412.3 L202.3,412.3 L202.5,412.3 
		L202.7,412.3 L202.9,412.3 L203.1,412.3 L203.3,412.3 L203.5,412.3 L203.7,412.3 L203.9,412.3 L204.1,412.3 
		L204.3,412.3 L204.6,412.5 L204.8,412.5 L205.0,412.5 L205.2,412.5 L205.4,412.5 L205.6,412.5 L205.8,412.5 
		L206.0,412.5 L206.2,412.5 L206.4,412.5 L206.6,412.5 L206.9,412.5 L207.1,412.5 L207.3,412.5 L207.5,412.5 
		L207.7,412.5 L207.9,412.5 L208.1,412.5 L208.3,412.5 L208.5,412.5 L208.7,412.5 L209.0,412.5 L209.2,412.5 
		L209.4,412.5 L209.6,412.8 L209.8,412.8 L210.0,412.8 L210.2,412.8 L210.4,412.8 L210.6,412.8 L210.8,412.8 
		L211.0,412.9 L211.3,412.9 L211.5,412.9 L211.7,412.9 L211.9,412.7 L212.1,412.7 L212.3,412.7 L212.5,412.5 
		L212.7,412.5 L212.9,412.5 L213.1,412.5 L213.3,412.5 L213.6,412.5 L213.8,412.5 L214.0,412.5 L214.2,412.5 
		L214.4,412.5 L214.6,412.5 L214.8,412.5 L215.0,412.5 L215.2,412.5 L215.4,412.5 L215.6,412.5 L215.9,412.5 
		L216.1,412.5 L216.3,412.5 L216.5,412.5 L216.7,412.6 L216.9,412.6 L217.1,412.6 L217.3,412.6 L217.5,412.6 
		L217.7,412.6 L218.0,412.6 L218.2,412.6 L218.4,412.6 L218.6,412.6 L218.8,412.6 L219.0,412.6 L219.2,412.6 
		L219.4,412.6 L219.6,412.6 L219.8,412.6 L220.0,412.6 L220.3,412.6 L220.5,412.6 L220.7,412.6 L220.9,412.6 
		L221.1,412.8 L221.3,412.8 L221.5,412.8 L221.7,412.8 L221.9,412.8 L222.1,412.8 L222.3,412.8 L222.6,412.8 
		L222.8,412.8 L223.0,412.8 L223.2,412.8 L223.4,412.8 L223.6,412.8 L223.8,412.8 L224.0,412.8 L224.2,412.8 
		L224.4,412.8 L224.7,412.8 L224.9,412.8 L225.1,412.8 L225.3,412.8 L225.5,412.8 L225.7,412.8 L225.9,412.8 
		L226.1,412.8 L226.3,412.8 L226.5,412.8 L226.7,412.8 L227.0,412.8 L227.2,412.9 L227.4,412.9 L227.6,412.9 
		L227.8,412.9 L228.0,412.9 L228.2,412.9 L228.4,412.9 L228.6,412.9 L228.8,412.9 L229.0,412.8 L229.3,412.8 
		L229.5,412.8 L229.7,412.8 L229.9,412.8 L230.1,412.8 L230.3,412.8 L230.5,412.8 L230.7,412.8 L230.9,412.8 
		L231.1,412.8 L231.4,412.9 L231.6,412.9 L231.8,412.9 L232.0,412.9 L232.2,412.9 L232.4,412.9 L232.6,412.9 
		L232.8,413.0 L233.0,412.9 L233.2,412.8 L233.4,412.8 L233.7,412.8 L233.9,412.8 L234.1,412.8 L234.3,412.8 
		L234.5,412.8 L234.7,412.8 L234.9,412.8 L235.1,412.8 L235.3,412.8 L235.5,412.8 L235.7,412.8 L236.0,412.8 
		L236.2,412.8 L236.4,412.8 L236.6,412.8 L236.8,412.8 L237.0,412.7 L237.2,412.7 L237.4,412.7 L237.6,412.7 
		L237.8,412.7 L238.0,412.7 L238.3,412.7 L238.5,412.6 L238.7,412.6 L238.9,412.5 L239.1,412.5 L239.3,412.5 
		L239.5,412.5 L239.7,412.5 L239.9,412.5 L240.1,412.5 L240.3,412.5 L240.6,412.5 L240.8,412.5 L241.0,412.4 
		L241.2,412.4 L241.4,412.4 L241.6,412.4 L241.8,412.4 L242.0,412.4 L242.2,412.2 L242.4,412.2 L242.7,412.2 
		L242.9,412.2 L243.1,412.2 L243.3,412.2 L243.5,412.2 L243.7,412.2 L243.9,412.2 L244.1,412.2 L244.3,412.2 
		L244.5,412.3 L244.7,412.3 L245.0,412.3 L245.2,412.3 L245.4,412.3 L245.6,412.3 L245.8,412.3 L246.0,412.3 
		L246.2,412.3 L246.4,412.3 L246.6,412.4 L246.8,412.4 L247.0,412.4 L247.3,412.4 L247.5,412.4 L247.7,412.4 
		L247.9,412.4 L248.1,412.4 L248.3,412.4 L248.5,412.4 L248.7,412.4 L248.9,412.4 L249.1,412.4 L249.4,412.4 
		L249.6,412.4 L249.8,412.4 L250.0,412.4 L250.2,412.4 L250.4,412.4 L250.6,412.5 L250.8,412.5 L251.0,412.5 
		L251.2,412.5 L251.4,412.5 L251.7,412.5 L251.9,412.5 L252.1,412.5 L252.3,412.5 L252.5,412.5 L252.7,412.5 
		L252.9,412.5 L253.1,412.5 L253.3,412.5 L253.5,412.5 L253.7,412.5 L254.0,412.5 L254.2,412.6 L254.4,412.6 
		L254.6,412.6 L254.8,412.6 L255.0,412.6 L255.2,412.6 L255.4,412.6 L255.6,412.6 L255.8,412.6 L256.0,412.6 
		L256.3,412.6 L256.5,412.5 L256.7,412.5 L256.9,412.5 L257.1,412.5 L257.3,412.5 L257.5,412.5 L257.7,412.5 
		L257.9,412.5 L258.1,412.5 L258.4,412.5 L258.6,412.5 L258.8,412.5 L259.0,412.5 L259.2,412.5 L259.4,412.5 
		L259.6,412.5 L259.8,412.5 L260.0,412.6 L260.2,412.6 L260.4,412.6 L260.7,412.6 L260.9,412.6 L261.1,412.6 
		L261.3,412.3 L261.5,412.3 L261.7,412.3 L261.9,412.3 L262.1,412.3 L262.3,412.3 L262.5,412.3 L262.7,412.3 
		L263.0,412.3 L263.2,412.4 L263.4,412.4 L263.6,412.4 L263.8,412.4 L264.0,412.4 L264.2,412.3 L264.4,412.3 
		L264.6,412.3 L264.8,412.3 L265.1,412.2 L265.3,412.2 L265.5,412.2 L265.7,412.2 L265.9,412.2 L266.1,412.2 
		L266.3,412.3 L266.5,412.3 L266.7,412.3 L266.9,412.3 L267.1,412.3 L267.4,412.3 L267.6,412.3 L267.8,412.3 
		L268.0,412.4 L268.2,412.3 L268.4,412.3 L268.6,412.3 L268.8,412.3 L269.0,412.3 L269.2,412.3 L269.4,412.3 
		L269.7,412.3 L269.9,412.3 L270.1,412.3 L270.3,412.3 L270.5,412.3 L270.7,412.3 L270.9,412.3 L271.1,412.3 
		L271.3,412.3 L271.5,412.3 L271.8,412.3 L272.0,412.3 L272.2,412.3 L272.4,412.3 L272.6,412.4 L272.8,412.4 
		L273.0,412.4 L273.2,412.3 L273.4,412.3 L273.6,412.3 L273.8,412.3 L274.1,412.3 L274.3,412.3 L274.5,412.3 
		L274.7,412.2 L274.9,412.2 L275.1,412.2 L275.3,412.2 L275.5,412.2 L275.7,412.2 L275.9,412.2 L276.1,412.2 
		L276.4,412.2 L276.6,412.2 L276.8,412.2 L277.0,412.2 L277.2,412.2 L277.4,412.2 L277.6,412.2 L277.8,412.2 
		L278.0,412.2 L278.2,412.1 L278.5,412.0 L278.7,412.0 L278.9,412.0 L279.1,412.0 L279.3,412.0 L279.5,412.0 
		L279.7,412.0 L279.9,412.0 L280.1,411.9 L280.3,411.9 L280.5,411.9 L280.8,411.9 L281.0,411.9 L281.2,411.9 
		L281.4,411.9 L281.6,411.9 L281.8,411.9 L282.0,411.9 L282.2,411.9 L282.4,411.9 L282.6,411.9 L282.8,411.9 
		L283.1,412.0 L283.3,412.0 L283.5,412.0 L283.7,412.0 L283.9,412.0 L284.1,412.0 L284.3,412.0 L284.5,412.0 
		L284.7,412.0 L284.9,412.0 L285.1,412.0 L285.4,412.0 L285.6,412.0 L285.8,412.0 L286.0,412.0 L286.2,412.0 
		L286.4,412.0 L286.6,412.0 L286.8,411.8 L287.0,411.8 L287.2,411.8 L287.5,411.8 L287.7,411.8 L287.9,411.8 
		L288.1,411.8 L288.3,411.8 L288.5,411.8 L288.7,411.8 L288.9,411.8 L289.1,411.8 L289.3,411.9 L289.5,411.9 
		L289.8,411.9 L290.0,411.9 L290.2,411.9 L290.4,411.9 L290.6,411.9 L290.8,411.9 L291.0,411.9 L291.2,411.9 
		L291.4,411.9 L291.6,411.9 L291.8,411.9 L292.1,411.9 L292.3,411.9 L292.5,411.9 L292.7,411.9 L292.9,411.9 
		L293.1,411.9 L293.3,411.9 L293.5,411.9 L293.7,411.9 L293.9,411.9 L294.2,411.9 L294.4,411.9 L294.6,411.9 
		L294.8,411.9 L295.0,411.9 L295.2,411.9 L295.4,411.9 L295.6,411.9 L295.8,411.9 L296.0,411.9 L296.2,411.9 
		L296.5,411.9 L296.7,411.9 L296.9,411.9 L297.1,411.9 L297.3,411.9 L297.5,411.9 L297.7,411.9 L297.9,411.9 
		L298.1,411.9 L298.3,411.9 L298.5,411.9 L298.8,411.9 L299.0,411.9 L299.2,411.9 L299.4,411.9 L299.6,411.9 
		L299.8,412.0 L300.0,412.0 L300.2,412.0 L300.4,412.0 L300.6,412.0 L300.9,412.0 L301.1,412.0 L301.3,411.9 
		L301.5,411.9 L301.7,411.9 L301.9,411.9 L302.1,411.9 L302.3,411.9 L302.5,411.9 L302.7,411.9 L302.9,411.9 
		L303.2,411.9 L303.4,411.9 L303.6,411.9 L303.8,411.9 L304.0,411.9 L304.2,411.9 L304.4,411.9 L304.6,411.9 
		L304.8,412.1 L305.0,412.0 L305.2,412.0 L305.5,412.0 L305.7,412.0 L305.9,412.0 L306.1,412.0 L306.3,412.0 
		L306.5,412.0 L306.7,412.0 L306.9,411.9 L307.1,411.9 L307.3,411.9 L307.5,411.9 L307.8,411.9 L308.0,411.9 
		L308.2,411.9 L308.4,411.9 L308.6,411.9 L308.8,411.9 L309.0,411.9 L309.2,411.9 L309.4,411.9 L309.6,411.9 
		L309.9,411.9 L310.1,411.9 L310.3,411.9 L310.5,411.9 L310.7,411.9 L310.9,411.9 L311.1,411.9 L311.3,411.9 
		L311.5,411.9 L311.7,411.9 L311.9,411.9 L312.2,411.9 L312.4,411.9 L312.6,412.2 L312.8,412.2 L313.0,412.2 
		L313.2,412.2 L313.4,412.2 L313.6,412.2 L313.8,412.2 L314.0,412.2 L314.2,412.2 L314.5,412.2 L314.7,412.2 
		L314.9,412.2 L315.1,412.2 L315.3,412.2 L315.5,412.2 L315.7,412.2 L315.9,412.2 L316.1,412.2 L316.3,412.2 
		L316.6,412.1 L316.8,412.0 L317.0,412.0 L317.2,412.0 L317.4,412.0 L317.6,412.0 L317.8,412.0 L318.0,412.0 
		L318.2,412.0 L318.4,412.0 L318.6,412.0 L318.9,412.0 L319.1,412.0 L319.3,412.0 L319.5,412.0 L319.7,412.0 
		L319.9,412.0 L320.1,412.0 L320.3,412.0 L320.5,412.0 L320.7,412.0 L320.9,412.1 L321.2,412.1 L321.4,412.1 
		L321.6,412.1 L321.8,412.1 L322.0,412.1 L322.2,412.1 L322.4,412.1 L322.6,412.1 L322.8,412.1 L323.0,412.1 
		L323.3,412.1 L323.5,412.1 L323.7,412.1 L323.9,412.1 L324.1,412.1 L324.3,412.1 L324.5,412.1 L324.7,412.1 
		L324.9,412.1 L325.1,412.1 L325.3,412.1 L325.6,412.1 L325.8,412.1 L326.0,412.1 L326.2,412.1 L326.4,412.0 
		L326.6,412.0 L326.8,412.0 L327.0,412.0 L327.2,412.0 L327.4,412.0 L327.6,412.0 L327.9,412.0 L328.1,412.0 
		L328.3,412.0 L328.5,412.0 L328.7,412.0 L328.9,412.0 L329.1,412.0 L329.3,412.0 L329.5,412.0 L329.7,412.0 
		L330.0,412.0 L330.2,412.0 L330.4,412.1 L330.6,412.1 L330.8,412.1 L331.0,412.1 L331.2,412.1 L331.4,412.1 
		L331.6,412.1 L331.8,412.1 L332.0,412.1 L332.3,412.1 L332.5,412.1 L332.7,412.1 L332.9,412.1 L333.1,412.1 
		L333.3,412.1 L333.5,412.1 L333.7,412.1 L333.9,412.2 L334.1,412.2 L334.3,412.2 L334.6,412.2 L334.8,412.2 
		L335.0,412.2 L335.2,412.2 L335.4,412.2 L335.6,412.2 L335.8,412.2 L336.0,412.2 L336.2,412.2 L336.4,412.2 
		L336.6,412.2 L336.9,412.2 L337.1,412.2 L337.3,412.2 L337.5,412.2 L337.7,412.2 L337.9,412.2 L338.1,412.2 
		L338.3,412.2 L338.5,412.2 L338.7,412.2 L339.0,412.2 L339.2,412.2 L339.4,412.2 L339.6,412.3 L339.8,412.3 
		L340.0,412.4 L340.2,412.3 L340.4,412.2 L340.6,412.2 L340.8,412.2 L341.0,412.2 L341.3,412.2 L341.5,412.2 
		L341.7,412.2 L341.9,412.2 L342.1,412.2 L342.3,412.2 L342.5,412.2 L342.7,412.2 L342.9,412.2 L343.1,412.1 
		L343.3,412.1 L343.6,412.1 L343.8,412.1 L344.0,412.1 L344.2,412.1 L344.4,412.1 L344.6,412.1 L344.8,412.1 
		L345.0,412.1 L345.2,412.1 L345.4,412.1 L345.7,412.1 L345.9,412.1 L346.1,412.1 L346.3,412.1 L346.5,412.1 
		L346.7,412.1 L346.9,412.1 L347.1,412.1 L347.3,412.1 L347.5,412.1 L347.7,412.1 L348.0,412.0 L348.2,412.0 
		L348.4,412.0 L348.6,412.0 L348.8,412.0 L349.0,412.0 L349.2,412.0 L349.4,412.0 L349.6,412.0 L349.8,412.1 
		L350.0,412.1 L350.3,412.1 L350.5,412.1 L350.7,412.1 L350.9,412.1 L351.1,412.1 L351.3,412.1 L351.5,412.1 
		L351.7,412.1 L351.9,412.1 L352.1,412.1 L352.4,412.1 L352.6,412.1 L352.8,412.1 L353.0,412.1 L353.2,412.1 
		L353.4,412.1 L353.6,412.1 L353.8,412.1 L354.0,412.1 L354.2,412.1 L354.4,412.1 L354.7,412.1 L354.9,412.1 
		L355.1,412.1 L355.3,412.1 L355.5,412.1 L355.7,412.1 L355.9,412.1 L356.1,412.1 L356.3,412.1 L356.5,412.1 
		L356.7,412.1 L357.0,412.1 L357.2,412.1 L357.4,412.1 L357.6,412.1 L357.8,412.1 L358.0,412.1 L358.2,412.1 
		L358.4,412.1 L358.6,412.1 L358.8,412.1 L359.1,412.2 L359.3,412.2 L359.5,412.2 L359.7,412.2 L359.9,412.2 
		L360.1,412.2 L360.3,412.2 L360.5,412.2 L360.7,412.2 L360.9,412.2 L361.1,412.2 L361.4,412.2 L361.6,412.2 
		L361.8,412.2 L362.0,412.2 L362.2,412.2 L362.4,412.2 L362.6,412.2 L362.8,412.2 L363.0,412.2 L363.2,412.2 
		L363.4,412.2 L363.7,412.2 L363.9,412.3 L364.1,412.3 L364.3,412.3 L364.5,412.3 L364.7,412.2 L364.9,412.2 
		L365.1,412.2 L365.3,412.2 L365.5,412.1 L365.7,412.1 L366.0,412.1 L366.2,412.1 L366.4,412.1 L366.6,412.1 
		L366.8,412.1 L367.0,412.2 L367.2,412.2 L367.4,412.2 L367.6,412.2 L367.8,412.2 L368.1,412.1 L368.3,412.1 
		L368.5,412.1 L368.7,412.1 L368.9,412.1 L369.1,412.1 L369.3,412.1 L369.5,412.1 L369.7,412.1 L369.9,412.1 
		L370.1,412.1 L370.4,412.1 L370.6,412.1 L370.8,412.1 L371.0,412.1 L371.2,412.1 L371.4,412.1 L371.6,412.1 
		L371.8,412.1 L372.0,412.2 L372.2,412.2 L372.4,412.2 L372.7,412.2 L372.9,412.2 L373.1,412.2 L373.3,412.2 
		L373.5,412.1 L373.7,412.1 L373.9,412.1 L374.1,412.1 L374.3,412.1 L374.5,412.1 L374.8,412.1 L375.0,412.1 
		L375.2,412.1 L375.4,412.1 L375.6,412.1 L375.8,412.1 L376.0,412.1 L376.2,412.1 L376.4,412.1 L376.6,412.1 
		L376.8,412.1 L377.1,412.1 L377.3,412.1 L377.5,412.1 L377.7,412.1 L377.9,412.1 L378.1,412.0 L378.3,412.0 
		L378.5,412.0 L378.7,412.0 L378.9,412.0 L379.1,412.0 L379.4,412.0 L379.6,412.0 L379.8,412.0 L380.0,412.0 
		L380.2,412.0 L380.4,412.0 L380.6,412.0 L380.8,411.9 L381.0,411.8 L381.2,411.8 L381.5,411.8 L381.7,411.8 
		L381.9,411.8 L382.1,411.8 L382.3,411.8 L382.5,411.8 L382.7,411.8 L382.9,411.8 L383.1,411.8 L383.3,411.8 
		L383.5,411.8 L383.8,411.8 L384.0,411.8 L384.2,411.8 L384.4,411.8 L384.6,411.8 L384.8,411.8 L385.0,411.8 
		L385.2,411.8 L385.4,411.8 L385.6,411.8 L385.8,411.8 L386.1,411.8 L386.3,411.8 L386.5,411.8 L386.7,411.8 
		L386.9,411.8 L387.1,411.8 L387.3,411.8 L387.5,411.8 L387.7,411.8 L387.9,411.8 L388.1,411.8 L388.4,411.8 
		L388.6,411.8 L388.8,411.8 L389.0,411.8 L389.2,411.8 L389.4,411.7 L389.6,411.7 L389.8,411.7 L390.0,411.7 
		L390.2,411.7 L390.5,411.7 L390.7,411.7 L390.9,411.7 L391.1,411.7 L391.3,411.7 L391.5,411.7 L391.7,411.7 
		L391.9,411.7 L392.1,411.7 L392.3,411.7 L392.5,411.7 L392.8,411.7 L393.0,411.7 L393.2,411.7 L393.4,411.7 
		L393.6,411.7 L393.8,411.7 L394.0,411.7 L394.2,411.7 L394.4,411.7 L394.6,411.7 L394.8,411.7 L395.1,411.7 
		L395.3,411.8 L395.5,411.7 L395.7,411.7 L395.9,411.7 L396.1,411.7 L396.3,411.7 L396.5,411.7 L396.7,411.7 
		L396.9,411.7 L397.2,411.7 L397.4,411.7 L397.6,411.7 L397.8,411.7 L398.0,411.7 L398.2,411.7 L398.4,411.7 
		L398.6,411.7 L398.8,411.7 L399.0,411.7 L399.2,411.7 L399.5,411.7 L399.7,411.7 L399.9,411.7 L400.1,411.7 
		L400.3,411.7 L400.5,411.7 L400.7,411.7 L400.9,411.7 L401.1,411.7 L401.3,411.7 L401.5,411.7 L401.8,411.7 
		L402.0,411.7 L402.2,411.7 L402.4,411.7 L402.6,411.7 L402.8,411.7 L403.0,411.8 L403.2,411.8 L403.4,411.8 
		L403.6,411.8 L403.9,411.8 L404.1,411.8 L404.3,411.8 L404.5,411.8 L404.7,411.8 L404.9,411.8 L405.1,411.8 
		L405.3,411.8 L405.5,411.8 L405.7,411.8 L405.9,411.8 L406.2,411.8 L406.4,411.8 L406.6,411.8 L406.8,411.8 
		L407.0,411.8 L407.2,411.8 L407.4,411.8 L407.6,411.8 L407.8,411.8 L408.0,411.8 L408.2,411.8 L408.5,411.8 
		L408.7,411.8 L408.9,411.9 L409.1,411.9 L409.3,411.9 L409.5,411.9 L409.7,411.9 L409.9,411.9 L410.1,411.9 
		L410.3,411.9 L410.6,411.9 L410.8,411.9 L411.0,411.9 L411.2,411.9 L411.4,411.9 L411.6,411.9 L411.8,411.9 
		L412.0,411.9 L412.2,411.9 L412.4,411.9 L412.6,411.9 L412.9,411.9 L413.1,411.9 L413.3,411.9 L413.5,411.9 
		L413.7,411.9 L413.9,411.9 L414.1,411.9 L414.3,411.9 L414.5,411.9 L414.7,411.9 L414.9,411.9 L415.2,411.9 
		L415.4,411.9 L415.6,411.9 L415.8,411.9 L416.0,411.9 L416.2,411.9 L416.4,411.9 L416.6,411.9 L416.8,411.9 
		L417.0,411.9 L417.2,411.9 L417.5,411.9 L417.7,411.9 L417.9,411.8 L418.1,411.8 L418.3,411.8 L418.5,411.7 
		L418.7,411.7 L418.9,411.7 L419.1,411.7 L419.3,411.7 L419.6,411.7 L419.8,411.7 L420.0,411.7 L420.2,411.7 
		L420.4,411.7 L420.6,411.7 L420.8,411.7 L421.0,411.7 L421.2,411.7 L421.4,411.7 L421.6,411.7 L421.9,411.7 
		L422.1,411.7 L422.3,411.7 L422.5,411.7 L422.7,411.7 L422.9,411.7 L423.1,411.7 L423.3,411.7 L423.5,411.7 
		L423.7,411.7 L423.9,411.7 L424.2,411.7 L424.4,411.7 L424.6,411.7 L424.8,411.7 L425.0,411.7 L425.2,411.7 
		L425.4,411.7 L425.6,411.7 L425.8,411.7 L426.0,411.7 L426.3,411.8 L426.5,411.7 L426.7,411.7 L426.9,411.7 
		L427.1,411.7 L427.3,411.7 L427.5,411.7 L427.7,411.7 L427.9,411.7 L428.1,411.7 L428.3,411.7 L428.6,411.7 
		L428.8,411.7 L429.0,411.7 L429.2,411.7 L429.4,411.7 L429.6,411.7 L429.8,411.7 L430.0,411.7 L430.2,411.7 
		L430.4,411.7 L430.6,411.7 L430.9,411.7 L431.1,411.7 L431.3,411.7 L431.5,411.7 L431.7,411.7 L431.9,411.7 
		L432.1,411.7 L432.3,411.7 L432.5,411.7 L432.7,411.7 L433.0,411.7 L433.2,411.7 L433.4,411.7 L433.6,411.7 
		L433.8,411.7 L434.0,411.7 L434.2,411.7 L434.4,411.7 L434.6,411.7 L434.8,411.7 L435.0,411.7 L435.3,411.7 
		L435.5,411.7 L435.7,411.7 L435.9,411.7 L436.1,411.7 L436.3,411.7 L436.5,411.7 L436.7,411.7 L436.9,411.7 
		L437.1,411.7 L437.3,411.7 L437.6,411.7 L437.8,411.7 L438.0,411.6 L438.2,411.6 L438.4,411.6 L438.6,411.6 
		L438.8,411.6 L439.0,411.6 L439.2,411.6 L439.4,411.6 L439.6,411.6 L439.9,411.6 L440.1,411.6 L440.3,411.6 
		L440.5,411.6 L440.7,411.5 L440.9,411.5 L441.1,411.5 L441.3,411.5 L441.5,411.5 L441.7,411.5 L442.0,411.5 
		L442.2,411.5 L442.4,411.5 L442.6,411.5 L442.8,411.5 L443.0,411.5 L443.2,411.5 L443.4,411.5 L443.6,411.5 
		L443.8,411.5 L444.0,411.5 L444.3,411.5 L444.5,411.5 L444.7,411.5 L444.9,411.5 L445.1,411.5 L445.3,411.5 
		L445.5,411.5 L445.7,411.5 L445.9,411.5 L446.1,411.5 L446.3,411.5 L446.6,411.5 L446.8,411.5 L447.0,411.5 
		L447.2,411.6 L447.4,411.6 L447.6,411.6 L447.8,411.6 L448.0,411.6 L448.2,411.6 L448.4,411.6 L448.7,411.5 
		L448.9,411.5 L449.1,411.5 L449.3,411.5 L449.5,411.5 L449.7,411.5 L449.9,411.5 L450.1,411.5 L450.3,411.5 
		L450.5,411.5 L450.7,411.5 L451.0,411.5 L451.2,411.5 L451.4,411.5 L451.6,411.5 L451.8,411.5 L452.0,411.5 
		L452.2,411.5 L452.4,411.5 L452.6,411.5 L452.8,411.5 L453.0,411.5 L453.3,411.5 L453.5,411.5 L453.7,411.5 
		L453.9,411.5 L454.1,411.5 L454.3,411.5 L454.5,411.5 L454.7,411.5 L454.9,411.5 L455.1,411.5 L455.4,411.5 
		L455.6,411.5 L455.8,411.5 L456.0,411.5 L456.2,411.5 L456.4,411.5 L456.6,411.5 L456.8,411.5 L457.0,411.5 
		L457.2,411.5 L457.4,411.5 L457.7,411.6 L457.9,411.6 L458.1,411.6 L458.3,411.6 L458.5,411.6 L458.7,411.6 
		L458.9,411.6 L459.1,411.6 L459.3,411.6 L459.5,411.5 L459.7,411.5 L460.0,411.5 L460.2,411.5 L460.4,411.5 
		L460.6,411.5 L460.8,411.5 L461.0,411.5 L461.2,411.5 L461.4,411.5 L461.6,411.6 L461.8,411.6 L462.1,411.6 
		L462.3,411.6 L462.5,411.6 L462.7,411.6 L462.9,411.6 L463.1,411.6 L463.3,411.6 L463.5,411.6 L463.7,411.6 
		L463.9,411.6 L464.1,411.6 L464.4,411.6 L464.6,411.6 L464.8,411.6 L465.0,411.6 L465.2,411.6 L465.4,411.6 
		L465.6,411.6 L465.8,411.6 L466.0,411.6 L466.2,411.6 L466.4,411.6 L466.7,411.6 L466.9,411.6 L467.1,411.6 
		L467.3,411.6 L467.5,411.6 L467.7,411.6 L467.9,411.6 L468.1,411.6 L468.3,411.6 L468.5,411.6 L468.7,411.6 
		L469.0,411.6 L469.2,411.6 L469.4,411.6 L469.6,411.6 L469.8,411.6 L470.0,411.6 L470.2,411.6 L470.4,411.6 
		L470.6,411.6 L470.8,411.6 L471.1,411.6 L471.3,411.6 L471.5,411.6 L471.7,411.6 L471.9,411.7 L472.1,411.7 
		L472.3,411.7 L472.5,411.7 L472.7,411.7 L472.9,411.7 L473.1,411.7 L473.4,411.7 L473.6,411.7 L473.8,411.7 
		L474.0,411.7 L474.2,411.7 L474.4,411.7 L474.6,411.7 L474.8,411.7 L475.0,411.7 L475.2,411.7 L475.4,411.7 
		L475.7,411.7 L475.9,411.7 L476.1,411.7 L476.3,411.7 L476.5,411.7 L476.7,411.7 L476.9,411.7 L477.1,411.7 
		L477.3,411.7 L477.5,411.7 L477.8,411.6 L478.0,411.6 L478.2,411.6 L478.4,411.6 L478.6,411.6 L478.8,411.6 
		L479.0,411.6 L479.2,411.6 L479.4,411.6 L479.6,411.6 L479.8,411.6 L480.1,411.6 L480.3,411.6 L480.5,411.6 
		L480.7,411.6 L480.9,411.6 L481.1,411.6 L481.3,411.6 L481.5,411.6 L481.7,411.6 L481.9,411.6 L482.1,411.6 
		L482.4,411.5 L482.6,411.5 L482.8,411.5 L483.0,411.5 L483.2,411.6 L483.4,411.6 L483.6,411.6 L483.8,411.6 
		L484.0,411.6 L484.2,411.6 L484.5,411.6 L484.7,411.6 L484.9,411.5 L485.1,411.5 L485.3,411.5 L485.5,411.5 
		L485.7,411.5 L485.9,411.5 L486.1,411.5 L486.3,411.5 L486.5,411.5 L486.8,411.5 L487.0,411.5 L487.2,411.5 
		L487.4,411.5 L487.6,411.5 L487.8,411.5 L488.0,411.5 L488.2,411.5 L488.4,411.5 L488.6,411.5 L488.8,411.5 
		L489.1,411.5 L489.3,411.5 L489.5,411.5 L489.7,411.5 L489.9,411.5 L490.1,411.5 L490.3,411.5 L490.5,411.5 
		L490.7,411.5 L490.9,411.5 L491.1,411.5 L491.4,411.5 L491.6,411.5 L491.8,411.5 L492.0,411.5 L492.2,411.5 
		L492.4,411.5 L492.6,411.5 L492.8,411.5 L493.0,411.5 L493.2,411.5 L493.5,411.5 L493.7,411.5 L493.9,411.5 
		L494.1,411.5 L494.3,411.4 L494.5,411.4 L494.7,411.4 L494.9,411.4 L495.1,411.4 L495.3,411.4 L495.5,411.4 
		L495.8,411.4 L496.0,411.4 L496.2,411.4 L496.4,411.5 L496.6,411.5 L496.8,411.5 L497.0,411.5 L497.2,411.5 
		L497.4,411.5 L497.6,411.5 L497.8,411.5 L498.1,411.5 L498.3,411.5 L498.5,411.5 L498.7,411.5 L498.9,411.5 
		 h0.01'/></g>
	</g>
<g style="fill:none; color:black; stroke:currentColor; stroke-width:1.00; stroke-linecap:butt; stroke-linejoin:miter">
	<path  d='M80.2,54.1 L80.2,422.4 L498.9,422.4 L498.9,54.1 L80.2,54.1 Z  h0.01'/></g>
</g>
</svg>

