<?xml version="1.0" encoding="utf-8"  standalone="no"?>
<!DOCTYPE svg PUBLIC "-//W3C//DTD SVG 1.1//EN" 
 "http://www.w3.org/Graphics/SVG/1.1/DTD/svg11.dtd">
<svg 
 width="600" height="480" 
 viewBox="0 0 600 480"
 xmlns="http://www.w3.org/2000/svg"
 xmlns:xlink="http://www.w3.org/1999/xlink"
>

<title>Gnuplot</title>
<desc>Produced by GNUPLOT 4.6 patchlevel 1 </desc>

<g id="gnuplot_canvas">

<rect x="0" y="0" width="600" height="480" fill="none"/>
<defs>

	<circle id='gpDot' r='0.5' stroke-width='0.5'/>
	<path id='gpPt0' stroke-width='0.222' stroke='currentColor' d='M-1,0 h2 M0,-1 v2'/>
	<path id='gpPt1' stroke-width='0.222' stroke='currentColor' d='M-1,-1 L1,1 M1,-1 L-1,1'/>
	<path id='gpPt2' stroke-width='0.222' stroke='currentColor' d='M-1,0 L1,0 M0,-1 L0,1 M-1,-1 L1,1 M-1,1 L1,-1'/>
	<rect id='gpPt3' stroke-width='0.222' stroke='currentColor' x='-1' y='-1' width='2' height='2'/>
	<rect id='gpPt4' stroke-width='0.222' stroke='currentColor' fill='currentColor' x='-1' y='-1' width='2' height='2'/>
	<circle id='gpPt5' stroke-width='0.222' stroke='currentColor' cx='0' cy='0' r='1'/>
	<use xlink:href='#gpPt5' id='gpPt6' fill='currentColor' stroke='none'/>
	<path id='gpPt7' stroke-width='0.222' stroke='currentColor' d='M0,-1.33 L-1.33,0.67 L1.33,0.67 z'/>
	<use xlink:href='#gpPt7' id='gpPt8' fill='currentColor' stroke='none'/>
	<use xlink:href='#gpPt7' id='gpPt9' stroke='currentColor' transform='rotate(180)'/>
	<use xlink:href='#gpPt9' id='gpPt10' fill='currentColor' stroke='none'/>
	<use xlink:href='#gpPt3' id='gpPt11' stroke='currentColor' transform='rotate(45)'/>
	<use xlink:href='#gpPt11' id='gpPt12' fill='currentColor' stroke='none'/>
</defs>
<g style="fill:none; color:white; stroke:currentColor; stroke-width:1.00; stroke-linecap:butt; stroke-linejoin:miter">
</g>
<g style="fill:none; color:black; stroke:currentColor; stroke-width:1.00; stroke-linecap:butt; stroke-linejoin:miter">
	<path  d='M88.5,422.4 L97.5,422.4 M490.6,422.4 L481.6,422.4  h0.01'/>	<g transform="translate(80.2,426.9)" style="stroke:none; fill:black; font-family:Arial; font-size:12.00pt; text-anchor:end">
		<text> 0</text>
	</g>
	<path  d='M88.5,385.6 L97.5,385.6 M490.6,385.6 L481.6,385.6  h0.01'/>	<g transform="translate(80.2,390.1)" style="stroke:none; fill:black; font-family:Arial; font-size:12.00pt; text-anchor:end">
		<text> 2000</text>
	</g>
	<path  d='M88.5,348.7 L97.5,348.7 M490.6,348.7 L481.6,348.7  h0.01'/>	<g transform="translate(80.2,353.2)" style="stroke:none; fill:black; font-family:Arial; font-size:12.00pt; text-anchor:end">
		<text> 4000</text>
	</g>
	<path  d='M88.5,311.9 L97.5,311.9 M490.6,311.9 L481.6,311.9  h0.01'/>	<g transform="translate(80.2,316.4)" style="stroke:none; fill:black; font-family:Arial; font-size:12.00pt; text-anchor:end">
		<text> 6000</text>
	</g>
	<path  d='M88.5,275.1 L97.5,275.1 M490.6,275.1 L481.6,275.1  h0.01'/>	<g transform="translate(80.2,279.6)" style="stroke:none; fill:black; font-family:Arial; font-size:12.00pt; text-anchor:end">
		<text> 8000</text>
	</g>
	<path  d='M88.5,238.2 L97.5,238.2 M490.6,238.2 L481.6,238.2  h0.01'/>	<g transform="translate(80.2,242.7)" style="stroke:none; fill:black; font-family:Arial; font-size:12.00pt; text-anchor:end">
		<text> 10000</text>
	</g>
	<path  d='M88.5,201.4 L97.5,201.4 M490.6,201.4 L481.6,201.4  h0.01'/>	<g transform="translate(80.2,205.9)" style="stroke:none; fill:black; font-family:Arial; font-size:12.00pt; text-anchor:end">
		<text> 12000</text>
	</g>
	<path  d='M88.5,164.6 L97.5,164.6 M490.6,164.6 L481.6,164.6  h0.01'/>	<g transform="translate(80.2,169.1)" style="stroke:none; fill:black; font-family:Arial; font-size:12.00pt; text-anchor:end">
		<text> 14000</text>
	</g>
	<path  d='M88.5,127.8 L97.5,127.8 M490.6,127.8 L481.6,127.8  h0.01'/>	<g transform="translate(80.2,132.3)" style="stroke:none; fill:black; font-family:Arial; font-size:12.00pt; text-anchor:end">
		<text> 16000</text>
	</g>
	<path  d='M88.5,90.9 L97.5,90.9 M490.6,90.9 L481.6,90.9  h0.01'/>	<g transform="translate(80.2,95.4)" style="stroke:none; fill:black; font-family:Arial; font-size:12.00pt; text-anchor:end">
		<text> 18000</text>
	</g>
	<path  d='M88.5,54.1 L97.5,54.1 M490.6,54.1 L481.6,54.1  h0.01'/>	<g transform="translate(80.2,58.6)" style="stroke:none; fill:black; font-family:Arial; font-size:12.00pt; text-anchor:end">
		<text> 20000</text>
	</g>
	<path  d='M88.5,422.4 L88.5,413.4 M88.5,54.1 L88.5,63.1  h0.01'/>	<g transform="translate(88.5,444.9)" style="stroke:none; fill:black; font-family:Arial; font-size:12.00pt; text-anchor:middle">
		<text> 0</text>
	</g>
	<path  d='M128.7,422.4 L128.7,413.4 M128.7,54.1 L128.7,63.1  h0.01'/>	<g transform="translate(128.7,444.9)" style="stroke:none; fill:black; font-family:Arial; font-size:12.00pt; text-anchor:middle">
		<text> 10</text>
	</g>
	<path  d='M168.9,422.4 L168.9,413.4 M168.9,54.1 L168.9,63.1  h0.01'/>	<g transform="translate(168.9,444.9)" style="stroke:none; fill:black; font-family:Arial; font-size:12.00pt; text-anchor:middle">
		<text> 20</text>
	</g>
	<path  d='M209.1,422.4 L209.1,413.4 M209.1,54.1 L209.1,63.1  h0.01'/>	<g transform="translate(209.1,444.9)" style="stroke:none; fill:black; font-family:Arial; font-size:12.00pt; text-anchor:middle">
		<text> 30</text>
	</g>
	<path  d='M249.3,422.4 L249.3,413.4 M249.3,54.1 L249.3,63.1  h0.01'/>	<g transform="translate(249.3,444.9)" style="stroke:none; fill:black; font-family:Arial; font-size:12.00pt; text-anchor:middle">
		<text> 40</text>
	</g>
	<path  d='M289.6,422.4 L289.6,413.4 M289.6,54.1 L289.6,63.1  h0.01'/>	<g transform="translate(289.6,444.9)" style="stroke:none; fill:black; font-family:Arial; font-size:12.00pt; text-anchor:middle">
		<text> 50</text>
	</g>
	<path  d='M329.8,422.4 L329.8,413.4 M329.8,54.1 L329.8,63.1  h0.01'/>	<g transform="translate(329.8,444.9)" style="stroke:none; fill:black; font-family:Arial; font-size:12.00pt; text-anchor:middle">
		<text> 60</text>
	</g>
	<path  d='M370.0,422.4 L370.0,413.4 M370.0,54.1 L370.0,63.1  h0.01'/>	<g transform="translate(370.0,444.9)" style="stroke:none; fill:black; font-family:Arial; font-size:12.00pt; text-anchor:middle">
		<text> 70</text>
	</g>
	<path  d='M410.2,422.4 L410.2,413.4 M410.2,54.1 L410.2,63.1  h0.01'/>	<g transform="translate(410.2,444.9)" style="stroke:none; fill:black; font-family:Arial; font-size:12.00pt; text-anchor:middle">
		<text> 80</text>
	</g>
	<path  d='M450.4,422.4 L450.4,413.4 M450.4,54.1 L450.4,63.1  h0.01'/>	<g transform="translate(450.4,444.9)" style="stroke:none; fill:black; font-family:Arial; font-size:12.00pt; text-anchor:middle">
		<text> 90</text>
	</g>
	<path  d='M490.6,422.4 L490.6,413.4 M490.6,54.1 L490.6,63.1  h0.01'/>	<g transform="translate(490.6,444.9)" style="stroke:none; fill:black; font-family:Arial; font-size:12.00pt; text-anchor:middle">
		<text> 100</text>
	</g>
	<path  d='M490.6,422.4 L481.6,422.4  h0.01'/>	<g transform="translate(498.9,426.9)" style="stroke:none; fill:blue; font-family:Arial; font-size:12.00pt; text-anchor:start">
		<text> 0</text>
	</g>
	<path  d='M490.6,385.6 L481.6,385.6  h0.01'/>	<g transform="translate(498.9,390.1)" style="stroke:none; fill:blue; font-family:Arial; font-size:12.00pt; text-anchor:start">
		<text> 2000</text>
	</g>
	<path  d='M490.6,348.7 L481.6,348.7  h0.01'/>	<g transform="translate(498.9,353.2)" style="stroke:none; fill:blue; font-family:Arial; font-size:12.00pt; text-anchor:start">
		<text> 4000</text>
	</g>
	<path  d='M490.6,311.9 L481.6,311.9  h0.01'/>	<g transform="translate(498.9,316.4)" style="stroke:none; fill:blue; font-family:Arial; font-size:12.00pt; text-anchor:start">
		<text> 6000</text>
	</g>
	<path  d='M490.6,275.1 L481.6,275.1  h0.01'/>	<g transform="translate(498.9,279.6)" style="stroke:none; fill:blue; font-family:Arial; font-size:12.00pt; text-anchor:start">
		<text> 8000</text>
	</g>
	<path  d='M490.6,238.2 L481.6,238.2  h0.01'/>	<g transform="translate(498.9,242.7)" style="stroke:none; fill:blue; font-family:Arial; font-size:12.00pt; text-anchor:start">
		<text> 10000</text>
	</g>
	<path  d='M490.6,201.4 L481.6,201.4  h0.01'/>	<g transform="translate(498.9,205.9)" style="stroke:none; fill:blue; font-family:Arial; font-size:12.00pt; text-anchor:start">
		<text> 12000</text>
	</g>
	<path  d='M490.6,164.6 L481.6,164.6  h0.01'/>	<g transform="translate(498.9,169.1)" style="stroke:none; fill:blue; font-family:Arial; font-size:12.00pt; text-anchor:start">
		<text> 14000</text>
	</g>
	<path  d='M490.6,127.8 L481.6,127.8  h0.01'/>	<g transform="translate(498.9,132.3)" style="stroke:none; fill:blue; font-family:Arial; font-size:12.00pt; text-anchor:start">
		<text> 16000</text>
	</g>
	<path  d='M490.6,90.9 L481.6,90.9  h0.01'/>	<g transform="translate(498.9,95.4)" style="stroke:none; fill:blue; font-family:Arial; font-size:12.00pt; text-anchor:start">
		<text> 18000</text>
	</g>
	<path  d='M490.6,54.1 L481.6,54.1  h0.01'/>	<g transform="translate(498.9,58.6)" style="stroke:none; fill:blue; font-family:Arial; font-size:12.00pt; text-anchor:start">
		<text> 20000</text>
	</g>
	<path  d='M88.5,54.1 L88.5,422.4 L490.6,422.4 L490.6,54.1 L88.5,54.1 Z  h0.01'/>	<g transform="translate(17.6,238.3) rotate(270)" style="stroke:none; fill:black; font-family:Arial; font-size:12.00pt; text-anchor:middle">
		<text>TCP throughput (kbps)</text>
	</g>
	<g transform="translate(570.4,238.3) rotate(270)" style="stroke:none; fill:black; font-family:Arial; font-size:12.00pt; text-anchor:middle">
		<text>TCP Uplink Delay(ms)</text>
	</g>
	<g transform="translate(289.5,471.9)" style="stroke:none; fill:black; font-family:Arial; font-size:12.00pt; text-anchor:middle">
		<text>Time (s)</text>
	</g>
	<g transform="translate(289.5,31.6)" style="stroke:none; fill:black; font-family:Arial; font-size:12.00pt; text-anchor:middle">
		<text>Distance 200m, 4kmph: TCP throughput vs link capacity Uplink 100RBs PfffScheduler</text>
	</g>
	<path  d='M240.9,413.4 L240.9,377.4 L482.3,377.4 L482.3,413.4 L240.9,413.4 Z  h0.01'/></g>
	<g id="gnuplot_plot_1" ><title>gnuplot_plot_1</title>
<g style="fill:none; color:red; stroke:currentColor; stroke-width:1.00; stroke-linecap:butt; stroke-linejoin:miter">
	<g transform="translate(423.5,390.9)" style="stroke:none; fill:black; font-family:Arial; font-size:12.00pt; text-anchor:end">
		<text>TCP Throughput</text>
	</g>
	<path  d='M431.8,386.4 L474.0,386.4 M90.7,417.4 L90.9,412.8 L91.1,405.9 L91.3,383.7 L91.5,326.9 L91.7,245.9 
		L91.9,233.2 L92.1,227.7 L92.3,228.5 L92.5,188.1 L92.7,203.8 L92.9,181.1 L93.1,174.7 L93.3,181.9 
		L93.5,175.5 L93.7,188.3 L93.9,191.4 L94.1,191.4 L94.3,213.2 L94.5,218.1 L94.7,224.8 L94.9,231.0 
		L95.1,234.7 L95.3,244.5 L95.5,245.2 L95.7,245.2 L95.9,259.8 L96.1,259.9 L96.3,269.2 L96.5,271.2 
		L96.7,276.8 L96.9,271.2 L97.1,268.4 L97.3,266.3 L97.5,267.5 L97.7,263.9 L97.9,258.8 L98.1,258.8 
		L98.3,263.4 L98.5,263.4 L98.7,270.9 L99.0,270.9 L99.2,276.7 L99.4,277.2 L99.6,275.8 L99.8,275.8 
		L100.0,275.8 L100.2,281.1 L100.4,279.3 L100.6,279.3 L100.8,279.8 L101.0,275.4 L101.2,275.8 L101.4,275.1 
		L101.6,275.3 L101.8,276.7 L102.0,274.7 L102.2,270.1 L102.4,269.8 L102.6,269.8 L102.8,274.1 L103.0,273.9 
		L103.2,276.9 L103.4,277.0 L103.6,278.7 L103.8,277.9 L104.0,276.5 L104.2,274.6 L104.4,270.7 L104.6,270.3 
		L104.8,271.9 L105.0,270.9 L105.2,270.7 L105.4,271.8 L105.6,273.7 L105.8,269.7 L106.0,268.8 L106.2,269.1 
		L106.4,272.4 L106.6,272.2 L106.8,275.2 L107.0,274.6 L107.2,274.1 L107.4,274.1 L107.6,274.1 L107.8,278.0 
		L108.0,276.8 L108.2,274.4 L108.4,273.8 L108.6,272.8 L108.8,273.0 L109.0,274.6 L109.2,273.8 L109.4,273.2 
		L109.6,272.0 L109.8,270.9 L110.0,270.6 L110.2,270.9 L110.4,271.5 L110.6,271.5 L110.8,273.8 L111.0,275.3 
		L111.2,274.6 L111.4,274.3 L111.6,272.3 L111.8,271.5 L112.0,271.0 L112.2,270.0 L112.4,269.2 L112.6,269.3 
		L112.8,269.3 L113.0,269.9 L113.2,270.9 L113.4,270.9 L113.6,270.9 L113.8,274.6 L114.0,274.7 L114.2,274.4 
		L114.4,272.8 L114.6,272.1 L114.8,272.1 L115.0,272.1 L115.2,275.9 L115.4,275.3 L115.6,272.6 L115.8,271.0 
		L116.0,271.2 L116.2,271.6 L116.4,272.4 L116.6,272.3 L116.8,272.8 L117.0,272.9 L117.2,274.0 L117.4,273.5 
		L117.6,274.4 L117.8,274.4 L118.1,274.4 L118.3,276.8 L118.5,276.1 L118.7,276.9 L118.9,276.8 L119.1,276.8 
		L119.3,278.7 L119.5,277.2 L119.7,277.1 L119.9,276.2 L120.1,275.7 L120.3,275.7 L120.5,275.7 L120.7,276.6 
		L120.9,275.6 L121.1,275.8 L121.3,274.9 L121.5,275.2 L121.7,274.6 L121.9,273.5 L122.1,273.5 L122.3,273.7 
		L122.5,274.7 L122.7,274.4 L122.9,275.4 L123.1,275.4 L123.3,276.7 L123.5,276.2 L123.7,276.2 L123.9,276.2 
		L124.1,277.8 L124.3,277.3 L124.5,278.4 L124.7,278.1 L124.9,277.5 L125.1,276.6 L125.3,275.8 L125.5,273.8 
		L125.7,273.7 L125.9,273.5 L126.1,273.2 L126.3,273.1 L126.5,273.0 L126.7,274.2 L126.9,273.3 L127.1,273.2 
		L127.3,274.5 L127.5,273.6 L127.7,274.1 L127.9,274.1 L128.1,275.5 L128.3,273.7 L128.5,273.4 L128.7,273.7 
		L128.9,274.0 L129.1,273.9 L129.3,273.0 L129.5,272.7 L129.7,273.8 L129.9,273.2 L130.1,273.2 L130.3,273.2 
		L130.5,273.2 L130.7,274.1 L130.9,273.8 L131.1,273.9 L131.3,273.9 L131.5,273.9 L131.7,276.2 L131.9,274.7 
		L132.1,274.8 L132.3,274.9 L132.5,274.9 L132.7,276.0 L132.9,275.3 L133.1,275.3 L133.3,275.3 L133.5,276.6 
		L133.7,277.0 L133.9,276.5 L134.1,277.1 L134.3,277.1 L134.5,278.0 L134.7,277.5 L134.9,276.7 L135.1,277.2 
		L135.3,277.9 L135.5,277.7 L135.7,277.9 L135.9,277.7 L136.1,278.1 L136.3,278.8 L136.6,278.9 L136.8,278.4 
		L137.0,277.9 L137.2,277.0 L137.4,276.6 L137.6,276.9 L137.8,275.8 L138.0,275.1 L138.2,275.1 L138.4,274.7 
		L138.6,274.7 L138.8,275.2 L139.0,275.3 L139.2,275.9 L139.4,275.3 L139.6,274.7 L139.8,274.4 L140.0,274.4 
		L140.2,275.4 L140.4,275.5 L140.6,275.5 L140.8,276.5 L141.0,276.6 L141.2,276.9 L141.4,276.8 L141.6,276.8 
		L141.8,276.4 L142.0,276.7 L142.2,276.7 L142.4,277.1 L142.6,277.3 L142.8,277.3 L143.0,276.6 L143.2,276.8 
		L143.4,277.2 L143.6,277.2 L143.8,276.3 L144.0,276.2 L144.2,276.5 L144.4,275.1 L144.6,274.9 L144.8,275.2 
		L145.0,275.1 L145.2,275.2 L145.4,274.6 L145.6,274.5 L145.8,274.8 L146.0,274.8 L146.2,275.7 L146.4,275.9 
		L146.6,275.3 L146.8,275.7 L147.0,275.9 L147.2,275.7 L147.4,276.1 L147.6,276.3 L147.8,275.7 L148.0,275.9 
		L148.2,276.5 L148.4,276.5 L148.6,276.9 L148.8,276.9 L149.0,276.3 L149.2,276.4 L149.4,276.2 L149.6,276.3 
		L149.8,276.4 L150.0,276.3 L150.2,277.0 L150.4,277.1 L150.6,277.6 L150.8,276.9 L151.0,276.2 L151.2,276.0 
		L151.4,275.1 L151.6,275.1 L151.8,275.5 L152.0,275.7 L152.2,275.8 L152.4,275.0 L152.6,274.5 L152.8,274.3 
		L153.0,274.2 L153.2,274.1 L153.4,273.2 L153.6,273.2 L153.8,273.0 L154.0,273.3 L154.2,273.0 L154.4,272.3 
		L154.6,272.2 L154.8,272.3 L155.0,272.6 L155.2,272.5 L155.4,272.7 L155.7,272.2 L155.9,272.1 L156.1,272.3 
		L156.3,271.1 L156.5,271.3 L156.7,271.4 L156.9,271.9 L157.1,272.1 L157.3,272.6 L157.5,272.6 L157.7,272.9 
		L157.9,272.8 L158.1,273.2 L158.3,273.2 L158.5,273.3 L158.7,273.6 L158.9,273.4 L159.1,273.5 L159.3,273.5 
		L159.5,273.6 L159.7,273.9 L159.9,272.6 L160.1,271.8 L160.3,270.7 L160.5,270.4 L160.7,270.3 L160.9,270.3 
		L161.1,271.4 L161.3,271.3 L161.5,271.4 L161.7,271.8 L161.9,272.0 L162.1,272.1 L162.3,272.0 L162.5,271.8 
		L162.7,271.5 L162.9,270.9 L163.1,270.8 L163.3,271.4 L163.5,271.8 L163.7,271.8 L163.9,270.8 L164.1,271.1 
		L164.3,271.1 L164.5,271.6 L164.7,271.3 L164.9,271.0 L165.1,271.1 L165.3,271.1 L165.5,270.8 L165.7,270.7 
		L165.9,270.8 L166.1,270.9 L166.3,271.3 L166.5,271.1 L166.7,271.1 L166.9,271.0 L167.1,270.1 L167.3,270.1 
		L167.5,270.5 L167.7,270.5 L167.9,270.5 L168.1,270.5 L168.3,272.2 L168.5,271.9 L168.7,272.2 L168.9,272.2 
		L169.1,272.5 L169.3,271.3 L169.5,271.2 L169.7,271.4 L169.9,271.5 L170.1,271.5 L170.3,271.4 L170.5,271.7 
		L170.7,272.0 L170.9,271.8 L171.1,272.0 L171.3,271.9 L171.5,271.9 L171.7,272.5 L171.9,272.5 L172.1,272.4 
		L172.3,272.5 L172.5,273.1 L172.7,273.1 L172.9,273.6 L173.1,273.8 L173.3,273.1 L173.5,273.1 L173.7,273.1 
		L173.9,273.1 L174.1,273.2 L174.3,272.6 L174.5,272.3 L174.8,272.8 L175.0,272.6 L175.2,272.1 L175.4,272.1 
		L175.6,272.6 L175.8,272.4 L176.0,272.4 L176.2,272.1 L176.4,272.1 L176.6,271.6 L176.8,271.1 L177.0,270.8 
		L177.2,270.7 L177.4,270.5 L177.6,270.4 L177.8,269.8 L178.0,269.8 L178.2,270.3 L178.4,270.6 L178.6,270.3 
		L178.8,270.0 L179.0,270.0 L179.2,270.3 L179.4,270.5 L179.6,271.0 L179.8,270.6 L180.0,270.8 L180.2,270.4 
		L180.4,270.7 L180.6,270.4 L180.8,270.4 L181.0,270.4 L181.2,270.9 L181.4,271.1 L181.6,270.6 L181.8,270.4 
		L182.0,270.1 L182.2,270.5 L182.4,270.6 L182.6,270.7 L182.8,270.7 L183.0,270.1 L183.2,269.9 L183.4,269.9 
		L183.6,270.1 L183.8,270.2 L184.0,269.9 L184.2,269.2 L184.4,268.9 L184.6,269.1 L184.8,269.0 L185.0,268.9 
		L185.2,268.7 L185.4,269.0 L185.6,269.2 L185.8,269.2 L186.0,269.4 L186.2,268.8 L186.4,268.8 L186.6,268.7 
		L186.8,268.4 L187.0,268.3 L187.2,268.1 L187.4,268.1 L187.6,268.3 L187.8,267.9 L188.0,267.7 L188.2,267.4 
		L188.4,267.3 L188.6,266.9 L188.8,266.9 L189.0,267.4 L189.2,266.9 L189.4,266.8 L189.6,266.9 L189.8,266.8 
		L190.0,266.7 L190.2,266.4 L190.4,266.1 L190.6,265.9 L190.8,266.1 L191.0,265.6 L191.2,265.5 L191.4,265.5 
		L191.6,266.1 L191.8,266.1 L192.0,266.6 L192.2,266.6 L192.4,267.2 L192.6,267.0 L192.8,267.1 L193.0,267.1 
		L193.2,267.4 L193.4,267.5 L193.6,267.5 L193.9,267.2 L194.1,267.2 L194.3,267.2 L194.5,267.2 L194.7,268.0 
		L194.9,267.9 L195.1,267.8 L195.3,267.7 L195.5,267.7 L195.7,268.1 L195.9,268.5 L196.1,268.7 L196.3,269.0 
		L196.5,269.0 L196.7,269.6 L196.9,269.9 L197.1,270.1 L197.3,270.5 L197.5,270.6 L197.7,270.6 L197.9,270.7 
		L198.1,271.0 L198.3,271.0 L198.5,271.8 L198.7,271.9 L198.9,272.1 L199.1,272.0 L199.3,272.2 L199.5,272.2 
		L199.7,272.2 L199.9,272.2 L200.1,273.1 L200.3,273.1 L200.5,273.4 L200.7,273.3 L200.9,273.1 L201.1,273.0 
		L201.3,272.9 L201.5,273.1 L201.7,273.2 L201.9,272.9 L202.1,272.9 L202.3,273.0 L202.5,273.1 L202.7,273.2 
		L202.9,273.1 L203.1,273.3 L203.3,272.8 L203.5,272.7 L203.7,272.6 L203.9,272.4 L204.1,271.7 L204.3,271.8 
		L204.5,271.7 L204.7,271.4 L204.9,271.4 L205.1,271.4 L205.3,271.7 L205.5,271.8 L205.7,271.5 L205.9,271.1 
		L206.1,270.7 L206.3,270.7 L206.5,270.7 L206.7,271.3 L206.9,271.5 L207.1,271.3 L207.3,271.4 L207.5,271.3 
		L207.7,271.0 L207.9,271.1 L208.1,270.6 L208.3,270.6 L208.5,270.6 L208.7,270.7 L208.9,270.9 L209.1,270.8 
		L209.3,270.8 L209.5,270.7 L209.7,270.7 L209.9,270.7 L210.1,271.1 L210.3,271.1 L210.5,271.1 L210.7,271.1 
		L210.9,271.5 L211.1,271.4 L211.3,271.6 L211.5,271.6 L211.7,272.2 L211.9,272.1 L212.1,272.3 L212.3,272.3 
		L212.5,272.5 L212.7,272.3 L212.9,272.4 L213.2,272.1 L213.4,272.0 L213.6,271.9 L213.8,272.0 L214.0,271.8 
		L214.2,271.6 L214.4,271.8 L214.6,271.9 L214.8,271.9 L215.0,271.7 L215.2,271.4 L215.4,271.3 L215.6,270.6 
		L215.8,270.5 L216.0,270.6 L216.2,270.4 L216.4,270.3 L216.6,270.5 L216.8,270.5 L217.0,270.3 L217.2,270.2 
		L217.4,269.8 L217.6,269.9 L217.8,269.9 L218.0,269.7 L218.2,269.7 L218.4,269.8 L218.6,270.0 L218.8,269.9 
		L219.0,270.2 L219.2,270.2 L219.4,270.2 L219.6,270.4 L219.8,270.6 L220.0,270.7 L220.2,270.9 L220.4,270.9 
		L220.6,271.3 L220.8,271.2 L221.0,271.2 L221.2,271.2 L221.4,271.0 L221.6,271.0 L221.8,271.3 L222.0,271.4 
		L222.2,271.7 L222.4,271.9 L222.6,271.9 L222.8,271.9 L223.0,271.9 L223.2,272.7 L223.4,272.9 L223.6,272.9 
		L223.8,272.6 L224.0,272.6 L224.2,273.0 L224.4,273.0 L224.6,273.3 L224.8,273.6 L225.0,273.1 L225.2,272.9 
		L225.4,272.9 L225.6,273.5 L225.8,273.3 L226.0,272.9 L226.2,272.6 L226.4,272.5 L226.6,272.7 L226.8,272.6 
		L227.0,272.8 L227.2,272.8 L227.4,272.9 L227.6,273.1 L227.8,272.6 L228.0,272.7 L228.2,272.7 L228.4,272.5 
		L228.6,272.5 L228.8,272.5 L229.0,272.5 L229.2,272.8 L229.4,272.8 L229.6,272.9 L229.8,272.8 L230.0,272.9 
		L230.2,273.1 L230.4,273.0 L230.6,273.0 L230.8,272.8 L231.0,272.8 L231.2,272.9 L231.4,272.5 L231.6,272.6 
		L231.8,272.5 L232.0,272.7 L232.3,272.6 L232.5,272.3 L232.7,272.5 L232.9,272.6 L233.1,272.6 L233.3,272.9 
		L233.5,272.8 L233.7,272.8 L233.9,273.1 L234.1,273.3 L234.3,273.5 L234.5,273.7 L234.7,273.8 L234.9,274.1 
		L235.1,274.3 L235.3,274.5 L235.5,274.4 L235.7,274.5 L235.9,274.9 L236.1,275.0 L236.3,275.1 L236.5,275.3 
		L236.7,275.3 L236.9,275.7 L237.1,275.6 L237.3,275.7 L237.5,275.6 L237.7,275.8 L237.9,275.8 L238.1,276.0 
		L238.3,275.8 L238.5,275.8 L238.7,276.0 L238.9,276.0 L239.1,275.9 L239.3,275.8 L239.5,275.7 L239.7,275.8 
		L239.9,275.4 L240.1,275.4 L240.3,275.2 L240.5,275.2 L240.7,275.0 L240.9,274.8 L241.1,274.8 L241.3,274.9 
		L241.5,274.7 L241.7,274.8 L241.9,274.7 L242.1,274.7 L242.3,274.7 L242.5,274.7 L242.7,274.7 L242.9,274.7 
		L243.1,274.6 L243.3,274.6 L243.5,274.8 L243.7,274.6 L243.9,274.4 L244.1,274.1 L244.3,274.0 L244.5,274.0 
		L244.7,273.9 L244.9,273.9 L245.1,273.9 L245.3,274.0 L245.5,274.1 L245.7,274.1 L245.9,274.4 L246.1,274.4 
		L246.3,274.6 L246.5,274.3 L246.7,274.3 L246.9,274.2 L247.1,274.2 L247.3,274.5 L247.5,274.5 L247.7,274.5 
		L247.9,274.9 L248.1,275.0 L248.3,275.2 L248.5,275.3 L248.7,275.6 L248.9,275.7 L249.1,276.0 L249.3,276.1 
		L249.5,276.2 L249.7,276.5 L249.9,276.7 L250.1,276.8 L250.3,277.0 L250.5,277.1 L250.7,277.3 L250.9,277.4 
		L251.1,277.7 L251.3,277.8 L251.5,277.9 L251.7,278.0 L251.9,277.9 L252.2,277.8 L252.4,277.8 L252.6,278.0 
		L252.8,277.8 L253.0,277.8 L253.2,277.9 L253.4,277.9 L253.6,278.3 L253.8,278.2 L254.0,277.9 L254.2,278.0 
		L254.4,278.1 L254.6,277.9 L254.8,278.0 L255.0,278.0 L255.2,278.1 L255.4,278.2 L255.6,278.0 L255.8,278.0 
		L256.0,278.3 L256.2,278.2 L256.4,278.2 L256.6,278.4 L256.8,278.4 L257.0,278.6 L257.2,278.3 L257.4,278.2 
		L257.6,278.1 L257.8,278.0 L258.0,278.0 L258.2,278.0 L258.4,277.9 L258.6,278.0 L258.8,278.1 L259.0,278.1 
		L259.2,278.5 L259.4,278.4 L259.6,278.5 L259.8,278.5 L260.0,278.5 L260.2,278.5 L260.4,279.1 L260.6,278.9 
		L260.8,278.9 L261.0,278.8 L261.2,278.6 L261.4,278.5 L261.6,278.8 L261.8,278.6 L262.0,278.6 L262.2,278.9 
		L262.4,278.5 L262.6,278.4 L262.8,278.2 L263.0,278.1 L263.2,278.1 L263.4,278.4 L263.6,278.1 L263.8,278.0 
		L264.0,278.0 L264.2,277.7 L264.4,277.7 L264.6,277.9 L264.8,277.9 L265.0,278.1 L265.2,278.0 L265.4,278.0 
		L265.6,278.4 L265.8,278.4 L266.0,278.3 L266.2,278.2 L266.4,278.1 L266.6,278.0 L266.8,278.1 L267.0,278.2 
		L267.2,278.2 L267.4,278.3 L267.6,278.4 L267.8,278.4 L268.0,278.4 L268.2,278.4 L268.4,278.6 L268.6,278.6 
		L268.8,278.7 L269.0,278.4 L269.2,278.4 L269.4,278.4 L269.6,278.5 L269.8,278.6 L270.0,278.6 L270.2,278.6 
		L270.4,278.7 L270.6,278.8 L270.8,278.8 L271.0,278.7 L271.3,278.7 L271.5,278.7 L271.7,279.0 L271.9,278.7 
		L272.1,278.8 L272.3,278.7 L272.5,278.6 L272.7,278.7 L272.9,278.7 L273.1,278.7 L273.3,279.0 L273.5,278.9 
		L273.7,278.8 L273.9,278.4 L274.1,278.3 L274.3,278.3 L274.5,278.6 L274.7,278.6 L274.9,278.4 L275.1,278.4 
		L275.3,278.2 L275.5,278.2 L275.7,278.3 L275.9,278.3 L276.1,278.4 L276.3,278.4 L276.5,278.1 L276.7,278.0 
		L276.9,278.2 L277.1,278.1 L277.3,278.0 L277.5,277.9 L277.7,277.8 L277.9,278.0 L278.1,277.9 L278.3,277.9 
		L278.5,278.2 L278.7,277.9 L278.9,277.6 L279.1,277.5 L279.3,277.4 L279.5,277.4 L279.7,277.5 L279.9,277.4 
		L280.1,277.1 L280.3,277.0 L280.5,276.7 L280.7,276.8 L280.9,276.8 L281.1,276.8 L281.3,276.8 L281.5,276.8 
		L281.7,276.7 L281.9,277.0 L282.1,277.1 L282.3,277.1 L282.5,277.1 L282.7,277.1 L282.9,277.7 L283.1,277.7 
		L283.3,277.7 L283.5,277.7 L283.7,277.8 L283.9,277.8 L284.1,277.7 L284.3,277.7 L284.5,277.9 L284.7,277.9 
		L284.9,278.0 L285.1,278.2 L285.3,278.3 L285.5,278.3 L285.7,278.2 L285.9,278.1 L286.1,278.1 L286.3,278.1 
		L286.5,278.3 L286.7,278.0 L286.9,277.7 L287.1,277.6 L287.3,277.6 L287.5,277.4 L287.7,277.4 L287.9,277.5 
		L288.1,277.7 L288.3,277.7 L288.5,277.6 L288.7,277.7 L288.9,277.7 L289.1,277.8 L289.3,277.6 L289.5,277.6 
		L289.7,277.8 L289.9,277.8 L290.1,277.7 L290.4,277.7 L290.6,277.7 L290.8,277.9 L291.0,277.8 L291.2,277.5 
		L291.4,277.5 L291.6,277.4 L291.8,277.3 L292.0,277.3 L292.2,277.4 L292.4,277.4 L292.6,277.7 L292.8,277.7 
		L293.0,277.8 L293.2,277.9 L293.4,277.9 L293.6,277.6 L293.8,277.6 L294.0,277.7 L294.2,277.7 L294.4,277.5 
		L294.6,277.5 L294.8,277.5 L295.0,277.6 L295.2,277.7 L295.4,277.8 L295.6,277.9 L295.8,277.9 L296.0,277.9 
		L296.2,277.9 L296.4,277.8 L296.6,277.7 L296.8,277.7 L297.0,277.9 L297.2,278.0 L297.4,278.0 L297.6,278.0 
		L297.8,278.0 L298.0,278.4 L298.2,278.4 L298.4,278.5 L298.6,278.6 L298.8,278.6 L299.0,278.7 L299.2,278.7 
		L299.4,278.3 L299.6,278.3 L299.8,278.4 L300.0,278.2 L300.2,278.2 L300.4,278.5 L300.6,278.5 L300.8,278.6 
		L301.0,278.5 L301.2,278.4 L301.4,278.4 L301.6,278.3 L301.8,278.3 L302.0,278.3 L302.2,278.3 L302.4,278.3 
		L302.6,278.4 L302.8,278.4 L303.0,278.5 L303.2,278.5 L303.4,278.4 L303.6,278.5 L303.8,278.5 L304.0,278.6 
		L304.2,278.5 L304.4,278.2 L304.6,278.3 L304.8,278.3 L305.0,278.5 L305.2,278.3 L305.4,278.3 L305.6,278.2 
		L305.8,278.3 L306.0,278.3 L306.2,278.1 L306.4,278.3 L306.6,278.5 L306.8,278.4 L307.0,278.4 L307.2,278.5 
		L307.4,278.6 L307.6,278.7 L307.8,278.8 L308.0,278.8 L308.2,278.7 L308.4,278.8 L308.6,278.9 L308.8,279.0 
		L309.0,279.1 L309.2,279.1 L309.4,279.1 L309.7,279.1 L309.9,279.2 L310.1,279.2 L310.3,279.0 L310.5,279.1 
		L310.7,279.2 L310.9,279.1 L311.1,279.2 L311.3,279.3 L311.5,279.3 L311.7,279.5 L311.9,279.5 L312.1,279.3 
		L312.3,279.4 L312.5,279.4 L312.7,279.5 L312.9,279.3 L313.1,279.4 L313.3,279.2 L313.5,279.2 L313.7,279.2 
		L313.9,279.2 L314.1,279.5 L314.3,279.6 L314.5,279.7 L314.7,279.6 L314.9,279.5 L315.1,279.6 L315.3,279.4 
		L315.5,279.1 L315.7,279.2 L315.9,279.0 L316.1,279.0 L316.3,279.1 L316.5,279.1 L316.7,279.3 L316.9,279.3 
		L317.1,279.5 L317.3,279.4 L317.5,279.4 L317.7,279.1 L317.9,279.1 L318.1,279.3 L318.3,279.3 L318.5,279.4 
		L318.7,279.5 L318.9,279.5 L319.1,279.7 L319.3,279.5 L319.5,279.5 L319.7,279.6 L319.9,279.5 L320.1,279.5 
		L320.3,279.7 L320.5,279.6 L320.7,279.7 L320.9,279.4 L321.1,279.4 L321.3,279.3 L321.5,279.4 L321.7,279.4 
		L321.9,279.5 L322.1,279.5 L322.3,279.6 L322.5,279.6 L322.7,279.7 L322.9,279.8 L323.1,279.9 L323.3,279.6 
		L323.5,279.5 L323.7,279.4 L323.9,279.4 L324.1,279.4 L324.3,279.6 L324.5,279.6 L324.7,279.8 L324.9,279.8 
		L325.1,279.9 L325.3,280.0 L325.5,280.1 L325.7,280.2 L325.9,280.4 L326.1,280.5 L326.3,280.6 L326.5,280.6 
		L326.7,280.8 L326.9,280.8 L327.1,280.8 L327.3,280.9 L327.5,280.8 L327.7,280.8 L327.9,280.8 L328.1,280.8 
		L328.3,280.8 L328.5,281.3 L328.8,281.1 L329.0,281.1 L329.2,281.1 L329.4,281.1 L329.6,281.1 L329.8,281.1 
		L330.0,281.5 L330.2,281.6 L330.4,281.6 L330.6,281.6 L330.8,281.8 L331.0,281.8 L331.2,281.9 L331.4,281.8 
		L331.6,281.7 L331.8,281.7 L332.0,281.7 L332.2,281.9 L332.4,281.9 L332.6,281.9 L332.8,281.8 L333.0,281.9 
		L333.2,281.9 L333.4,281.9 L333.6,282.0 L333.8,282.0 L334.0,282.0 L334.2,282.0 L334.4,282.0 L334.6,282.4 
		L334.8,282.4 L335.0,282.5 L335.2,282.5 L335.4,282.6 L335.6,282.7 L335.8,282.7 L336.0,282.7 L336.2,282.7 
		L336.4,282.9 L336.6,282.9 L336.8,283.1 L337.0,283.1 L337.2,283.2 L337.4,283.2 L337.6,283.4 L337.8,283.4 
		L338.0,283.5 L338.2,283.4 L338.4,283.4 L338.6,283.4 L338.8,283.4 L339.0,283.4 L339.2,283.8 L339.4,283.8 
		L339.6,283.9 L339.8,284.1 L340.0,284.0 L340.2,284.0 L340.4,284.1 L340.6,284.2 L340.8,284.3 L341.0,284.3 
		L341.2,284.2 L341.4,284.2 L341.6,284.2 L341.8,284.2 L342.0,284.3 L342.2,284.3 L342.4,284.3 L342.6,284.4 
		L342.8,284.4 L343.0,284.7 L343.2,284.7 L343.4,284.7 L343.6,284.9 L343.8,284.9 L344.0,285.0 L344.2,285.1 
		L344.4,285.1 L344.6,285.1 L344.8,285.1 L345.0,285.2 L345.2,285.2 L345.4,285.2 L345.6,285.0 L345.8,285.0 
		L346.0,285.0 L346.2,285.0 L346.4,285.2 L346.6,285.2 L346.8,285.3 L347.0,285.3 L347.2,285.2 L347.4,285.1 
		L347.6,285.2 L347.9,285.2 L348.1,285.4 L348.3,285.3 L348.5,285.2 L348.7,285.1 L348.9,285.1 L349.1,285.1 
		L349.3,285.3 L349.5,285.3 L349.7,285.3 L349.9,285.1 L350.1,285.0 L350.3,284.9 L350.5,284.9 L350.7,285.1 
		L350.9,285.1 L351.1,285.0 L351.3,285.0 L351.5,285.0 L351.7,284.9 L351.9,285.0 L352.1,285.0 L352.3,285.0 
		L352.5,285.2 L352.7,285.2 L352.9,285.4 L353.1,285.4 L353.3,285.5 L353.5,285.5 L353.7,285.6 L353.9,285.5 
		L354.1,285.6 L354.3,285.6 L354.5,285.8 L354.7,285.8 L354.9,285.8 L355.1,286.0 L355.3,286.0 L355.5,286.0 
		L355.7,286.0 L355.9,286.0 L356.1,286.0 L356.3,286.5 L356.5,286.5 L356.7,286.5 L356.9,286.6 L357.1,286.6 
		L357.3,286.7 L357.5,286.7 L357.7,286.8 L357.9,286.9 L358.1,286.9 L358.3,286.9 L358.5,287.0 L358.7,287.1 
		L358.9,287.1 L359.1,287.3 L359.3,287.3 L359.5,287.3 L359.7,287.6 L359.9,287.6 L360.1,287.6 L360.3,287.6 
		L360.5,287.9 L360.7,287.9 L360.9,287.9 L361.1,287.9 L361.3,288.0 L361.5,288.2 L361.7,288.2 L361.9,288.2 
		L362.1,288.4 L362.3,288.5 L362.5,288.6 L362.7,288.6 L362.9,288.8 L363.1,288.8 L363.3,288.9 L363.5,289.0 
		L363.7,289.0 L363.9,289.1 L364.1,289.1 L364.3,289.2 L364.5,289.2 L364.7,289.3 L364.9,289.3 L365.1,289.3 
		L365.3,289.5 L365.5,289.6 L365.7,289.6 L365.9,289.6 L366.1,289.7 L366.3,289.7 L366.5,289.7 L366.7,289.7 
		L367.0,289.8 L367.2,289.8 L367.4,289.8 L367.6,289.9 L367.8,289.9 L368.0,289.9 L368.2,289.9 L368.4,289.9 
		L368.6,289.9 L368.8,289.9 L369.0,289.9 L369.2,289.9 L369.4,289.8 L369.6,289.8 L369.8,289.8 L370.0,289.7 
		L370.2,289.6 L370.4,289.6 L370.6,289.7 L370.8,289.6 L371.0,289.6 L371.2,289.7 L371.4,289.7 L371.6,289.7 
		L371.8,289.8 L372.0,289.8 L372.2,289.8 L372.4,289.7 L372.6,289.6 L372.8,289.6 L373.0,289.7 L373.2,289.7 
		L373.4,289.9 L373.6,289.9 L373.8,289.9 L374.0,289.9 L374.2,289.9 L374.4,290.0 L374.6,290.0 L374.8,289.9 
		L375.0,290.0 L375.2,290.0 L375.4,290.0 L375.6,290.0 L375.8,290.1 L376.0,290.1 L376.2,290.1 L376.4,290.2 
		L376.6,290.0 L376.8,290.0 L377.0,290.0 L377.2,290.0 L377.4,290.0 L377.6,290.0 L377.8,290.0 L378.0,290.0 
		L378.2,290.0 L378.4,290.2 L378.6,290.2 L378.8,290.0 L379.0,290.0 L379.2,290.1 L379.4,290.1 L379.6,290.1 
		L379.8,290.2 L380.0,290.2 L380.2,290.1 L380.4,290.0 L380.6,290.0 L380.8,289.9 L381.0,289.9 L381.2,289.9 
		L381.4,290.2 L381.6,290.2 L381.8,290.3 L382.0,290.3 L382.2,290.3 L382.4,290.2 L382.6,290.1 L382.8,290.1 
		L383.0,290.2 L383.2,290.1 L383.4,290.0 L383.6,290.0 L383.8,290.1 L384.0,290.1 L384.2,290.1 L384.4,290.1 
		L384.6,290.1 L384.8,290.3 L385.0,290.3 L385.2,290.2 L385.4,290.1 L385.6,289.9 L385.8,289.9 L386.0,289.8 
		L386.3,289.9 L386.5,289.8 L386.7,289.8 L386.9,289.8 L387.1,289.7 L387.3,289.7 L387.5,289.7 L387.7,289.7 
		L387.9,289.9 L388.1,289.8 L388.3,289.8 L388.5,289.8 L388.7,290.0 L388.9,289.9 L389.1,289.9 L389.3,290.0 
		L389.5,289.9 L389.7,290.0 L389.9,289.9 L390.1,290.0 L390.3,290.1 L390.5,290.1 L390.7,290.1 L390.9,290.1 
		L391.1,290.1 L391.3,290.0 L391.5,290.0 L391.7,289.8 L391.9,289.9 L392.1,289.8 L392.3,289.8 L392.5,289.8 
		L392.7,290.1 L392.9,290.1 L393.1,290.2 L393.3,290.1 L393.5,289.9 L393.7,289.9 L393.9,290.0 L394.1,289.9 
		L394.3,289.9 L394.5,289.9 L394.7,289.9 L394.9,289.9 L395.1,290.0 L395.3,290.0 L395.5,290.0 L395.7,289.9 
		L395.9,290.1 L396.1,290.1 L396.3,290.1 L396.5,290.0 L396.7,290.0 L396.9,290.0 L397.1,290.0 L397.3,290.2 
		L397.5,290.2 L397.7,290.2 L397.9,290.2 L398.1,290.2 L398.3,290.2 L398.5,290.3 L398.7,290.3 L398.9,290.2 
		L399.1,290.2 L399.3,290.3 L399.5,290.2 L399.7,290.1 L399.9,290.1 L400.1,290.1 L400.3,290.1 L400.5,290.2 
		L400.7,290.2 L400.9,290.2 L401.1,290.3 L401.3,290.3 L401.5,290.3 L401.7,290.4 L401.9,290.4 L402.1,290.5 
		L402.3,290.5 L402.5,290.5 L402.7,290.7 L402.9,290.7 L403.1,290.7 L403.3,290.8 L403.5,290.8 L403.7,290.9 
		L403.9,291.0 L404.1,290.9 L404.3,291.0 L404.5,290.9 L404.7,290.9 L404.9,291.0 L405.1,291.0 L405.4,291.0 
		L405.6,291.1 L405.8,291.1 L406.0,291.1 L406.2,291.2 L406.4,291.3 L406.6,291.3 L406.8,291.3 L407.0,291.3 
		L407.2,291.4 L407.4,291.5 L407.6,291.5 L407.8,291.5 L408.0,291.4 L408.2,291.4 L408.4,291.5 L408.6,291.4 
		L408.8,291.2 L409.0,291.2 L409.2,291.1 L409.4,291.1 L409.6,291.1 L409.8,291.1 L410.0,291.1 L410.2,291.1 
		L410.4,291.3 L410.6,291.2 L410.8,291.1 L411.0,291.1 L411.2,291.2 L411.4,291.2 L411.6,291.3 L411.8,291.3 
		L412.0,291.2 L412.2,291.1 L412.4,291.1 L412.6,291.3 L412.8,291.1 L413.0,291.1 L413.2,291.1 L413.4,291.0 
		L413.6,290.9 L413.8,291.0 L414.0,290.9 L414.2,290.9 L414.4,291.0 L414.6,291.0 L414.8,291.1 L415.0,291.1 
		L415.2,291.2 L415.4,291.2 L415.6,291.2 L415.8,291.2 L416.0,291.1 L416.2,291.2 L416.4,291.2 L416.6,291.2 
		L416.8,291.2 L417.0,291.4 L417.2,291.4 L417.4,291.5 L417.6,291.6 L417.8,291.6 L418.0,291.7 L418.2,291.8 
		L418.4,291.8 L418.6,291.8 L418.8,291.9 L419.0,291.9 L419.2,291.9 L419.4,291.9 L419.6,291.9 L419.8,292.2 
		L420.0,292.2 L420.2,292.4 L420.4,292.5 L420.6,292.4 L420.8,292.2 L421.0,292.1 L421.2,292.0 L421.4,291.9 
		L421.6,292.0 L421.8,291.9 L422.0,291.9 L422.2,291.9 L422.4,291.9 L422.6,292.1 L422.8,292.1 L423.0,292.2 
		L423.2,292.2 L423.4,292.4 L423.6,292.4 L423.8,292.4 L424.0,292.4 L424.2,292.4 L424.5,292.4 L424.7,292.5 
		L424.9,292.3 L425.1,292.4 L425.3,292.4 L425.5,292.4 L425.7,292.5 L425.9,292.4 L426.1,292.2 L426.3,292.2 
		L426.5,292.3 L426.7,292.2 L426.9,292.3 L427.1,292.3 L427.3,292.3 L427.5,292.4 L427.7,292.4 L427.9,292.3 
		L428.1,292.2 L428.3,292.2 L428.5,292.4 L428.7,292.4 L428.9,292.3 L429.1,292.2 L429.3,292.1 L429.5,292.0 
		L429.7,292.1 L429.9,292.0 L430.1,292.1 L430.3,292.1 L430.5,292.0 L430.7,292.0 L430.9,292.0 L431.1,291.9 
		L431.3,291.8 L431.5,291.8 L431.7,291.8 L431.9,291.9 L432.1,291.6 L432.3,291.6 L432.5,291.4 L432.7,291.5 
		L432.9,291.4 L433.1,291.3 L433.3,291.4 L433.5,291.4 L433.7,291.4 L433.9,291.5 L434.1,291.4 L434.3,291.4 
		L434.5,291.4 L434.7,291.3 L434.9,291.3 L435.1,291.3 L435.3,291.4 L435.5,291.3 L435.7,291.3 L435.9,291.3 
		L436.1,291.4 L436.3,291.4 L436.5,291.4 L436.7,291.5 L436.9,291.6 L437.1,291.6 L437.3,291.6 L437.5,291.6 
		L437.7,291.7 L437.9,291.6 L438.1,291.6 L438.3,291.6 L438.5,291.6 L438.7,291.6 L438.9,291.6 L439.1,291.9 
		L439.3,291.9 L439.5,292.0 L439.7,292.0 L439.9,292.1 L440.1,292.1 L440.3,292.2 L440.5,292.2 L440.7,292.2 
		L440.9,292.2 L441.1,292.2 L441.3,292.2 L441.5,292.3 L441.7,292.2 L441.9,292.2 L442.1,292.1 L442.3,291.9 
		L442.5,291.9 L442.7,291.9 L442.9,291.9 L443.1,291.9 L443.3,291.8 L443.6,291.8 L443.8,291.8 L444.0,291.8 
		L444.2,291.8 L444.4,291.8 L444.6,291.9 L444.8,291.8 L445.0,291.9 L445.2,291.9 L445.4,291.9 L445.6,291.9 
		L445.8,292.0 L446.0,292.0 L446.2,292.1 L446.4,292.1 L446.6,292.1 L446.8,292.3 L447.0,292.2 L447.2,292.3 
		L447.4,292.1 L447.6,292.1 L447.8,292.1 L448.0,292.2 L448.2,292.2 L448.4,292.4 L448.6,292.4 L448.8,292.4 
		L449.0,292.6 L449.2,292.4 L449.4,292.3 L449.6,292.3 L449.8,292.2 L450.0,292.3 L450.2,292.3 L450.4,292.3 
		L450.6,292.4 L450.8,292.4 L451.0,292.4 L451.2,292.4 L451.4,292.4 L451.6,292.4 L451.8,292.4 L452.0,292.4 
		L452.2,292.4 L452.4,292.5 L452.6,292.3 L452.8,292.2 L453.0,292.3 L453.2,292.2 L453.4,292.3 L453.6,292.3 
		L453.8,292.4 L454.0,292.4 L454.2,292.4 L454.4,292.4 L454.6,292.5 L454.8,292.4 L455.0,292.4 L455.2,292.5 
		L455.4,292.5 L455.6,292.5 L455.8,292.4 L456.0,292.3 L456.2,292.3 L456.4,292.3 L456.6,292.2 L456.8,292.2 
		L457.0,292.2 L457.2,292.1 L457.4,292.2 L457.6,292.2 L457.8,292.3 L458.0,292.3 L458.2,292.4 L458.4,292.4 
		L458.6,292.5 L458.8,292.5 L459.0,292.5 L459.2,292.4 L459.4,292.5 L459.6,292.6 L459.8,292.6 L460.0,292.6 
		L460.2,292.7 L460.4,292.5 L460.6,292.5 L460.8,292.5 L461.0,292.6 L461.2,292.6 L461.4,292.6 L461.6,292.6 
		L461.8,292.6 L462.0,292.7 L462.2,292.7 L462.4,292.7 L462.7,292.8 L462.9,292.9 L463.1,292.8 L463.3,292.8 
		L463.5,292.9 L463.7,292.9 L463.9,293.0 L464.1,293.0 L464.3,293.0 L464.5,293.1 L464.7,293.0 L464.9,293.0 
		L465.1,293.0 L465.3,293.0 L465.5,293.1 L465.7,293.1 L465.9,293.2 L466.1,293.2 L466.3,293.2 L466.5,293.2 
		L466.7,293.2 L466.9,293.2 L467.1,293.3 L467.3,293.3 L467.5,293.3 L467.7,293.3 L467.9,293.3 L468.1,293.4 
		L468.3,293.5 L468.5,293.5 L468.7,293.5 L468.9,293.6 L469.1,293.7 L469.3,293.7 L469.5,293.7 L469.7,293.8 
		L469.9,293.8 L470.1,293.7 L470.3,293.5 L470.5,293.3 L470.7,293.3 L470.9,293.2 L471.1,293.2 L471.3,293.2 
		L471.5,293.2 L471.7,293.2 L471.9,293.3 L472.1,293.3 L472.3,293.3 L472.5,293.3 L472.7,293.3 L472.9,293.3 
		L473.1,293.3 L473.3,293.2 L473.5,293.2 L473.7,293.2 L473.9,293.2 L474.1,293.2 L474.3,293.2 L474.5,293.3 
		L474.7,293.3 L474.9,293.4 L475.1,293.3 L475.3,293.3 L475.5,293.3 L475.7,293.3 L475.9,293.3 L476.1,293.3 
		L476.3,293.4 L476.5,293.4 L476.7,293.4 L476.9,293.3 L477.1,293.1 L477.3,293.1 L477.5,293.1 L477.7,293.1 
		L477.9,293.2 L478.1,293.2 L478.3,293.2 L478.5,293.2 L478.7,293.2 L478.9,293.2 L479.1,293.2 L479.3,293.2 
		L479.5,293.3 L479.7,293.4 L479.9,293.3 L480.1,293.3 L480.3,293.5 L480.5,293.5 L480.7,293.5 L480.9,293.6 
		L481.1,293.5 L481.3,293.5 L481.5,293.5 L481.7,293.5 L482.0,293.6 L482.2,293.6 L482.4,293.6 L482.6,293.7 
		L482.8,293.7 L483.0,293.8 L483.2,293.8 L483.4,293.8 L483.6,293.7 L483.8,293.7 L484.0,293.7 L484.2,293.9 
		L484.4,293.9 L484.6,293.7 L484.8,293.7 L485.0,293.7 L485.2,293.8 L485.4,293.7 L485.6,293.7 L485.8,293.6 
		L486.0,293.7 L486.2,293.6 L486.4,293.6 L486.6,293.6 L486.8,293.7 L487.0,293.8 L487.2,293.8 L487.4,293.8 
		L487.6,293.8 L487.8,293.9 L488.0,293.9 L488.2,293.9 L488.4,293.8 L488.6,293.8 L488.8,293.8 L489.0,293.8 
		L489.2,293.9 L489.4,293.9 L489.6,294.0 L489.8,294.0 L490.0,294.1 L490.2,294.0 L490.4,294.0 L490.6,294.0 
		 h0.01'/></g>
	</g>
	<g id="gnuplot_plot_2" ><title>gnuplot_plot_2</title>
<g style="fill:none; color:green; stroke:currentColor; stroke-width:1.00; stroke-linecap:butt; stroke-linejoin:miter">
	<g transform="translate(423.5,408.9)" style="stroke:none; fill:black; font-family:Arial; font-size:12.00pt; text-anchor:end">
		<text>Radio maximum capacity</text>
	</g>
	<path  d='M431.8,404.4 L474.0,404.4 M90.7,77.5 L90.9,166.4 L91.1,208.8 L91.3,179.2 L91.5,126.4 L91.7,80.4 
		L91.9,92.0 L92.1,104.8 L92.3,119.8 L92.5,90.4 L92.7,115.2 L92.9,99.9 L93.1,99.3 L93.3,112.0 
		L93.5,110.7 L93.7,127.7 L93.9,134.1 L94.1,134.1 L94.3,162.1 L94.5,169.1 L94.7,178.5 L94.9,186.7 
		L95.1,191.2 L95.3,204.4 L95.5,206.2 L95.7,206.2 L95.9,224.1 L96.1,224.4 L96.3,235.9 L96.5,239.0 
		L96.7,245.8 L96.9,241.1 L97.1,239.1 L97.3,238.0 L97.5,240.0 L97.7,237.1 L97.9,232.8 L98.1,232.8 
		L98.3,238.4 L98.5,238.4 L98.7,247.3 L99.0,247.4 L99.2,252.9 L99.4,244.6 L99.6,244.3 L99.8,245.0 
		L100.0,245.0 L100.2,251.5 L100.4,250.1 L100.6,250.1 L100.8,251.2 L101.0,245.3 L101.2,246.4 L101.4,246.2 
		L101.6,245.7 L101.8,248.7 L102.0,246.9 L102.2,242.3 L102.4,242.4 L102.6,242.4 L102.8,247.7 L103.0,247.7 
		L103.2,251.2 L103.4,251.8 L103.6,253.6 L103.8,253.4 L104.0,252.4 L104.2,250.9 L104.4,246.4 L104.6,246.2 
		L104.8,248.3 L105.0,247.5 L105.2,247.6 L105.4,249.0 L105.6,251.3 L105.8,247.0 L106.0,245.7 L106.2,246.0 
		L106.4,249.8 L106.6,249.7 L106.8,253.1 L107.0,252.8 L107.2,252.6 L107.4,252.6 L107.6,252.6 L107.8,257.2 
		L108.0,256.3 L108.2,254.1 L108.4,253.8 L108.6,253.0 L108.8,253.2 L109.0,255.2 L109.2,254.6 L109.4,254.2 
		L109.6,253.2 L109.8,252.3 L110.0,252.1 L110.2,252.6 L110.4,253.4 L110.6,253.4 L110.8,256.1 L111.0,257.7 
		L111.2,257.3 L111.4,257.1 L111.6,255.3 L111.8,254.6 L112.0,254.2 L112.2,253.4 L112.4,252.8 L112.6,252.9 
		L112.8,252.9 L113.0,253.9 L113.2,254.9 L113.4,254.9 L113.6,254.9 L113.8,259.1 L114.0,259.3 L114.2,259.0 
		L114.4,257.6 L114.6,256.9 L114.8,256.9 L115.0,256.9 L115.2,261.1 L115.4,260.6 L115.6,258.0 L115.8,256.5 
		L116.0,256.9 L116.2,257.4 L116.4,258.3 L116.6,258.2 L116.8,259.0 L117.0,259.0 L117.2,260.3 L117.4,259.9 
		L117.6,260.9 L117.8,260.9 L118.1,260.9 L118.3,263.6 L118.5,263.0 L118.7,263.9 L118.9,263.8 L119.1,263.8 
		L119.3,266.0 L119.5,264.5 L119.7,264.6 L119.9,263.7 L120.1,263.3 L120.3,263.3 L120.5,263.3 L120.7,264.5 
		L120.9,263.6 L121.1,263.8 L121.3,263.0 L121.5,263.2 L121.7,262.8 L121.9,261.8 L122.1,261.8 L122.3,262.1 
		L122.5,263.2 L122.7,263.0 L122.9,264.0 L123.1,264.0 L123.3,265.5 L123.5,265.0 L123.7,265.1 L123.9,265.2 
		L124.1,266.9 L124.3,266.4 L124.5,267.5 L124.7,267.3 L124.9,266.8 L125.1,266.0 L125.3,265.3 L125.5,263.3 
		L125.7,263.2 L125.9,263.1 L126.1,262.8 L126.3,262.8 L126.5,262.7 L126.7,264.0 L126.9,263.2 L127.1,263.2 
		L127.3,264.5 L127.5,263.6 L127.7,264.2 L127.9,264.2 L128.1,265.7 L128.3,263.9 L128.5,263.6 L128.7,264.0 
		L128.9,264.4 L129.1,264.3 L129.3,263.5 L129.5,263.2 L129.7,264.3 L129.9,263.8 L130.1,263.8 L130.3,263.9 
		L130.5,263.9 L130.7,264.9 L130.9,264.6 L131.1,264.7 L131.3,264.7 L131.5,264.7 L131.7,267.3 L131.9,265.8 
		L132.1,265.9 L132.3,266.0 L132.5,266.0 L132.7,267.3 L132.9,266.5 L133.1,266.5 L133.3,266.5 L133.5,268.0 
		L133.7,268.4 L133.9,267.9 L134.1,268.6 L134.3,268.6 L134.5,269.6 L134.7,269.1 L134.9,268.4 L135.1,268.8 
		L135.3,269.6 L135.5,269.4 L135.7,269.6 L135.9,269.5 L136.1,270.0 L136.3,270.7 L136.6,270.8 L136.8,270.3 
		L137.0,269.9 L137.2,269.0 L137.4,268.6 L137.6,269.0 L137.8,267.9 L138.0,267.2 L138.2,267.3 L138.4,266.9 
		L138.6,267.1 L138.8,267.5 L139.0,267.6 L139.2,268.3 L139.4,267.6 L139.6,267.1 L139.8,266.8 L140.0,266.8 
		L140.2,267.9 L140.4,268.0 L140.6,268.0 L140.8,269.1 L141.0,269.2 L141.2,269.5 L141.4,269.4 L141.6,269.4 
		L141.8,269.1 L142.0,269.4 L142.2,269.4 L142.4,269.9 L142.6,270.2 L142.8,270.2 L143.0,269.5 L143.2,269.7 
		L143.4,270.1 L143.6,270.1 L143.8,269.3 L144.0,269.2 L144.2,269.5 L144.4,268.2 L144.6,268.0 L144.8,268.3 
		L145.0,268.2 L145.2,268.3 L145.4,267.8 L145.6,267.7 L145.8,268.0 L146.0,268.0 L146.2,269.0 L146.4,269.1 
		L146.6,268.6 L146.8,269.1 L147.0,269.2 L147.2,269.1 L147.4,269.5 L147.6,269.7 L147.8,269.1 L148.0,269.4 
		L148.2,270.0 L148.4,270.0 L148.6,270.4 L148.8,270.4 L149.0,269.8 L149.2,270.0 L149.4,269.8 L149.6,269.9 
		L149.8,270.0 L150.0,270.0 L150.2,270.7 L150.4,270.8 L150.6,271.3 L150.8,270.6 L151.0,269.9 L151.2,269.8 
		L151.4,268.9 L151.6,269.0 L151.8,269.4 L152.0,269.6 L152.2,269.7 L152.4,268.9 L152.6,268.4 L152.8,268.2 
		L153.0,268.2 L153.2,268.1 L153.4,267.2 L153.6,267.2 L153.8,267.0 L154.0,267.4 L154.2,267.1 L154.4,266.4 
		L154.6,266.3 L154.8,266.4 L155.0,266.7 L155.2,266.6 L155.4,266.8 L155.7,266.3 L155.9,266.3 L156.1,266.5 
		L156.3,265.4 L156.5,265.6 L156.7,265.6 L156.9,266.2 L157.1,266.4 L157.3,266.9 L157.5,267.0 L157.7,267.2 
		L157.9,267.2 L158.1,267.6 L158.3,267.6 L158.5,267.7 L158.7,268.0 L158.9,267.8 L159.1,267.9 L159.3,267.9 
		L159.5,268.1 L159.7,268.5 L159.9,267.1 L160.1,266.4 L160.3,265.3 L160.5,265.0 L160.7,264.9 L160.9,264.9 
		L161.1,266.0 L161.3,266.0 L161.5,266.0 L161.7,266.4 L161.9,266.7 L162.1,266.7 L162.3,266.6 L162.5,266.5 
		L162.7,266.3 L162.9,265.6 L163.1,265.6 L163.3,266.2 L163.5,266.6 L163.7,266.6 L163.9,265.6 L164.1,265.9 
		L164.3,265.9 L164.5,266.4 L164.7,266.1 L164.9,265.8 L165.1,266.0 L165.3,266.0 L165.5,265.7 L165.7,265.6 
		L165.9,265.8 L166.1,265.9 L166.3,266.3 L166.5,266.0 L166.7,266.1 L166.9,266.0 L167.1,264.9 L167.3,264.9 
		L167.5,265.3 L167.7,265.3 L167.9,265.3 L168.1,265.3 L168.3,267.1 L168.5,266.8 L168.7,267.1 L168.9,267.1 
		L169.1,267.4 L169.3,266.2 L169.5,266.1 L169.7,266.4 L169.9,266.4 L170.1,266.5 L170.3,266.4 L170.5,266.7 
		L170.7,267.0 L170.9,266.8 L171.1,267.0 L171.3,266.9 L171.5,266.9 L171.7,267.6 L171.9,267.6 L172.1,267.5 
		L172.3,267.6 L172.5,268.2 L172.7,268.2 L172.9,268.7 L173.1,268.9 L173.3,268.2 L173.5,268.3 L173.7,268.3 
		L173.9,268.3 L174.1,268.5 L174.3,267.9 L174.5,267.5 L174.8,268.0 L175.0,267.8 L175.2,267.3 L175.4,267.3 
		L175.6,267.9 L175.8,267.7 L176.0,267.7 L176.2,267.5 L176.4,267.5 L176.6,267.0 L176.8,266.4 L177.0,266.1 
		L177.2,266.0 L177.4,265.9 L177.6,265.8 L177.8,265.2 L178.0,265.2 L178.2,265.7 L178.4,266.0 L178.6,265.7 
		L178.8,265.4 L179.0,265.4 L179.2,265.8 L179.4,266.0 L179.6,266.5 L179.8,266.1 L180.0,266.3 L180.2,265.9 
		L180.4,266.2 L180.6,265.9 L180.8,265.9 L181.0,266.0 L181.2,266.4 L181.4,266.6 L181.6,266.2 L181.8,266.0 
		L182.0,265.7 L182.2,266.1 L182.4,266.2 L182.6,266.3 L182.8,266.3 L183.0,265.7 L183.2,265.5 L183.4,265.5 
		L183.6,265.8 L183.8,265.9 L184.0,265.6 L184.2,264.9 L184.4,264.5 L184.6,264.8 L184.8,264.7 L185.0,264.7 
		L185.2,264.5 L185.4,264.8 L185.6,264.9 L185.8,264.9 L186.0,265.2 L186.2,264.6 L186.4,264.5 L186.6,264.5 
		L186.8,264.2 L187.0,264.1 L187.2,264.0 L187.4,263.9 L187.6,264.1 L187.8,263.8 L188.0,263.6 L188.2,263.2 
		L188.4,263.1 L188.6,262.8 L188.8,262.8 L189.0,263.2 L189.2,262.7 L189.4,262.7 L189.6,262.8 L189.8,262.7 
		L190.0,262.6 L190.2,262.4 L190.4,262.0 L190.6,261.9 L190.8,262.0 L191.0,261.5 L191.2,261.4 L191.4,261.4 
		L191.6,262.0 L191.8,262.1 L192.0,262.6 L192.2,262.6 L192.4,263.2 L192.6,263.0 L192.8,263.1 L193.0,263.1 
		L193.2,263.4 L193.4,263.5 L193.6,263.5 L193.9,263.3 L194.1,263.2 L194.3,263.2 L194.5,263.2 L194.7,264.1 
		L194.9,263.9 L195.1,263.9 L195.3,263.9 L195.5,263.9 L195.7,263.5 L195.9,263.5 L196.1,263.3 L196.3,263.3 
		L196.5,263.3 L196.7,263.8 L196.9,263.3 L197.1,263.2 L197.3,263.3 L197.5,263.6 L197.7,263.4 L197.9,263.4 
		L198.1,263.7 L198.3,263.7 L198.5,264.4 L198.7,264.6 L198.9,264.8 L199.1,264.6 L199.3,264.9 L199.5,264.9 
		L199.7,264.9 L199.9,264.9 L200.1,265.8 L200.3,265.8 L200.5,266.2 L200.7,266.1 L200.9,265.8 L201.1,265.8 
		L201.3,265.6 L201.5,265.8 L201.7,266.0 L201.9,265.7 L202.1,265.7 L202.3,265.9 L202.5,265.9 L202.7,265.9 
		L202.9,265.9 L203.1,266.0 L203.3,265.5 L203.5,265.4 L203.7,265.3 L203.9,265.1 L204.1,264.3 L204.3,264.3 
		L204.5,264.3 L204.7,264.0 L204.9,264.0 L205.1,264.0 L205.3,264.3 L205.5,264.5 L205.7,264.1 L205.9,263.7 
		L206.1,263.4 L206.3,263.4 L206.5,263.4 L206.7,264.0 L206.9,264.2 L207.1,264.1 L207.3,264.1 L207.5,264.0 
		L207.7,263.8 L207.9,263.8 L208.1,263.3 L208.3,263.3 L208.5,263.4 L208.7,263.4 L208.9,263.7 L209.1,263.6 
		L209.3,263.6 L209.5,263.5 L209.7,263.5 L209.9,263.5 L210.1,263.9 L210.3,263.9 L210.5,264.0 L210.7,264.0 
		L210.9,264.4 L211.1,264.3 L211.3,264.5 L211.5,264.5 L211.7,265.1 L211.9,265.0 L212.1,265.2 L212.3,265.2 
		L212.5,265.4 L212.7,265.3 L212.9,265.4 L213.2,265.1 L213.4,265.0 L213.6,264.9 L213.8,265.0 L214.0,264.9 
		L214.2,264.7 L214.4,264.9 L214.6,264.9 L214.8,265.0 L215.0,264.7 L215.2,264.5 L215.4,264.4 L215.6,263.7 
		L215.8,263.6 L216.0,263.7 L216.2,263.5 L216.4,263.4 L216.6,263.6 L216.8,263.6 L217.0,263.5 L217.2,263.4 
		L217.4,262.9 L217.6,263.1 L217.8,263.1 L218.0,262.9 L218.2,262.9 L218.4,263.0 L218.6,263.2 L218.8,263.2 
		L219.0,263.5 L219.2,263.4 L219.4,263.4 L219.6,263.6 L219.8,263.9 L220.0,263.9 L220.2,264.2 L220.4,264.2 
		L220.6,264.6 L220.8,264.6 L221.0,264.5 L221.2,264.5 L221.4,264.4 L221.6,264.4 L221.8,264.7 L222.0,264.7 
		L222.2,265.1 L222.4,265.3 L222.6,265.4 L222.8,265.4 L223.0,265.4 L223.2,266.2 L223.4,266.3 L223.6,266.4 
		L223.8,266.1 L224.0,266.1 L224.2,266.5 L224.4,266.5 L224.6,266.8 L224.8,267.1 L225.0,266.6 L225.2,266.5 
		L225.4,266.5 L225.6,267.0 L225.8,266.8 L226.0,266.5 L226.2,266.2 L226.4,266.1 L226.6,266.3 L226.8,266.2 
		L227.0,266.4 L227.2,266.5 L227.4,266.5 L227.6,266.7 L227.8,266.2 L228.0,266.4 L228.2,266.4 L228.4,266.2 
		L228.6,266.2 L228.8,266.2 L229.0,266.2 L229.2,266.6 L229.4,266.5 L229.6,266.6 L229.8,266.6 L230.0,266.6 
		L230.2,266.8 L230.4,266.8 L230.6,266.8 L230.8,266.6 L231.0,266.6 L231.2,266.7 L231.4,266.3 L231.6,266.4 
		L231.8,266.4 L232.0,266.6 L232.3,266.5 L232.5,266.2 L232.7,266.4 L232.9,266.4 L233.1,266.4 L233.3,266.8 
		L233.5,266.3 L233.7,266.3 L233.9,266.4 L234.1,266.3 L234.3,266.5 L234.5,266.4 L234.7,266.3 L234.9,266.6 
		L235.1,266.0 L235.3,265.7 L235.5,265.4 L235.7,265.4 L235.9,265.6 L236.1,265.6 L236.3,265.6 L236.5,265.9 
		L236.7,265.9 L236.9,266.3 L237.1,266.3 L237.3,266.3 L237.5,266.2 L237.7,266.4 L237.9,266.4 L238.1,266.6 
		L238.3,266.3 L238.5,266.3 L238.7,266.5 L238.9,266.6 L239.1,266.3 L239.3,266.2 L239.5,266.1 L239.7,266.2 
		L239.9,265.8 L240.1,265.8 L240.3,265.5 L240.5,265.5 L240.7,265.2 L240.9,265.0 L241.1,265.0 L241.3,265.1 
		L241.5,265.0 L241.7,265.0 L241.9,264.9 L242.1,264.9 L242.3,265.0 L242.5,265.0 L242.7,265.0 L242.9,264.9 
		L243.1,264.8 L243.3,264.8 L243.5,265.0 L243.7,264.8 L243.9,264.7 L244.1,264.3 L244.3,264.2 L244.5,264.2 
		L244.7,264.2 L244.9,264.2 L245.1,264.2 L245.3,264.3 L245.5,264.3 L245.7,264.3 L245.9,264.7 L246.1,264.7 
		L246.3,264.9 L246.5,264.7 L246.7,264.7 L246.9,264.6 L247.1,264.9 L247.3,264.9 L247.5,264.9 L247.7,264.9 
		L247.9,265.2 L248.1,265.3 L248.3,265.4 L248.5,265.5 L248.7,265.5 L248.9,265.9 L249.1,266.0 L249.3,266.0 
		L249.5,266.0 L249.7,266.3 L249.9,266.2 L250.1,266.1 L250.3,266.1 L250.5,265.9 L250.7,265.8 L250.9,265.8 
		L251.1,266.1 L251.3,266.2 L251.5,266.3 L251.7,266.4 L251.9,266.4 L252.2,266.2 L252.4,266.2 L252.6,266.4 
		L252.8,266.2 L253.0,266.2 L253.2,266.4 L253.4,266.4 L253.6,266.8 L253.8,266.7 L254.0,266.2 L254.2,266.3 
		L254.4,266.4 L254.6,266.2 L254.8,266.3 L255.0,266.3 L255.2,266.5 L255.4,266.6 L255.6,266.3 L255.8,266.3 
		L256.0,266.6 L256.2,266.5 L256.4,266.5 L256.6,266.7 L256.8,266.8 L257.0,267.0 L257.2,266.6 L257.4,266.5 
		L257.6,266.4 L257.8,266.1 L258.0,266.2 L258.2,266.2 L258.4,266.1 L258.6,266.2 L258.8,266.3 L259.0,266.3 
		L259.2,266.7 L259.4,266.7 L259.6,266.7 L259.8,266.7 L260.0,266.7 L260.2,266.7 L260.4,267.3 L260.6,267.2 
		L260.8,267.2 L261.0,267.1 L261.2,266.9 L261.4,266.9 L261.6,267.1 L261.8,267.0 L262.0,267.0 L262.2,267.3 
		L262.4,266.7 L262.6,266.7 L262.8,266.4 L263.0,266.4 L263.2,266.4 L263.4,266.7 L263.6,266.4 L263.8,266.2 
		L264.0,266.3 L264.2,266.0 L264.4,266.0 L264.6,266.2 L264.8,266.2 L265.0,266.5 L265.2,266.3 L265.4,266.3 
		L265.6,266.7 L265.8,266.8 L266.0,266.6 L266.2,266.5 L266.4,266.4 L266.6,266.3 L266.8,266.5 L267.0,266.5 
		L267.2,266.6 L267.4,266.7 L267.6,266.8 L267.8,266.8 L268.0,266.8 L268.2,266.8 L268.4,267.1 L268.6,267.1 
		L268.8,267.1 L269.0,266.9 L269.2,266.9 L269.4,266.9 L269.6,267.0 L269.8,267.1 L270.0,267.1 L270.2,267.2 
		L270.4,267.3 L270.6,267.3 L270.8,267.4 L271.0,267.3 L271.3,267.2 L271.5,267.4 L271.7,267.6 L271.9,267.4 
		L272.1,267.4 L272.3,267.4 L272.5,267.3 L272.7,267.4 L272.9,267.4 L273.1,267.4 L273.3,267.7 L273.5,267.6 
		L273.7,267.6 L273.9,267.2 L274.1,267.1 L274.3,267.1 L274.5,267.4 L274.7,267.4 L274.9,267.3 L275.1,267.2 
		L275.3,267.0 L275.5,267.0 L275.7,267.2 L275.9,267.2 L276.1,267.3 L276.3,267.3 L276.5,267.0 L276.7,266.9 
		L276.9,267.1 L277.1,267.1 L277.3,267.0 L277.5,266.9 L277.7,266.8 L277.9,267.0 L278.1,266.9 L278.3,266.9 
		L278.5,267.2 L278.7,267.0 L278.9,266.7 L279.1,266.6 L279.3,266.5 L279.5,266.4 L279.7,266.6 L279.9,266.5 
		L280.1,266.2 L280.3,266.1 L280.5,265.9 L280.7,266.0 L280.9,266.0 L281.1,266.0 L281.3,266.0 L281.5,266.0 
		L281.7,265.9 L281.9,266.2 L282.1,266.3 L282.3,266.3 L282.5,266.3 L282.7,266.3 L282.9,267.0 L283.1,267.0 
		L283.3,267.0 L283.5,267.0 L283.7,267.1 L283.9,267.2 L284.1,267.0 L284.3,267.0 L284.5,267.2 L284.7,267.3 
		L284.9,267.3 L285.1,267.6 L285.3,267.7 L285.5,267.7 L285.7,267.6 L285.9,267.5 L286.1,267.5 L286.3,267.5 
		L286.5,267.8 L286.7,267.5 L286.9,267.2 L287.1,267.1 L287.3,267.1 L287.5,267.0 L287.7,267.0 L287.9,267.1 
		L288.1,267.3 L288.3,267.2 L288.5,267.2 L288.7,267.2 L288.9,267.3 L289.1,267.5 L289.3,267.3 L289.5,267.2 
		L289.7,267.4 L289.9,267.5 L290.1,267.4 L290.4,267.4 L290.6,267.4 L290.8,267.6 L291.0,267.5 L291.2,267.2 
		L291.4,267.2 L291.6,267.2 L291.8,267.0 L292.0,267.0 L292.2,267.2 L292.4,267.2 L292.6,267.5 L292.8,267.5 
		L293.0,267.6 L293.2,267.7 L293.4,267.7 L293.6,267.4 L293.8,267.4 L294.0,267.5 L294.2,267.5 L294.4,267.4 
		L294.6,267.4 L294.8,267.4 L295.0,267.5 L295.2,267.6 L295.4,267.8 L295.6,267.9 L295.8,267.9 L296.0,267.9 
		L296.2,267.8 L296.4,267.7 L296.6,267.7 L296.8,267.7 L297.0,267.9 L297.2,268.0 L297.4,268.0 L297.6,268.0 
		L297.8,268.0 L298.0,268.4 L298.2,268.4 L298.4,268.5 L298.6,268.5 L298.8,268.6 L299.0,268.8 L299.2,268.8 
		L299.4,268.4 L299.6,268.4 L299.8,268.6 L300.0,268.4 L300.2,268.4 L300.4,268.6 L300.6,268.6 L300.8,268.8 
		L301.0,268.7 L301.2,268.6 L301.4,268.6 L301.6,268.5 L301.8,268.6 L302.0,268.5 L302.2,268.5 L302.4,268.6 
		L302.6,268.6 L302.8,268.7 L303.0,268.7 L303.2,268.8 L303.4,268.7 L303.6,268.8 L303.8,268.8 L304.0,268.9 
		L304.2,268.8 L304.4,268.5 L304.6,268.6 L304.8,268.6 L305.0,268.9 L305.2,268.7 L305.4,268.7 L305.6,268.6 
		L305.8,268.6 L306.0,268.7 L306.2,268.5 L306.4,268.7 L306.6,268.9 L306.8,268.8 L307.0,268.9 L307.2,268.9 
		L307.4,269.1 L307.6,269.2 L307.8,269.3 L308.0,269.3 L308.2,269.2 L308.4,269.3 L308.6,269.4 L308.8,269.5 
		L309.0,269.6 L309.2,269.7 L309.4,269.7 L309.7,269.7 L309.9,269.8 L310.1,269.7 L310.3,269.6 L310.5,269.7 
		L310.7,269.8 L310.9,269.7 L311.1,269.8 L311.3,269.9 L311.5,269.9 L311.7,270.1 L311.9,270.1 L312.1,270.0 
		L312.3,270.0 L312.5,270.1 L312.7,270.1 L312.9,270.0 L313.1,270.1 L313.3,269.9 L313.5,269.9 L313.7,269.9 
		L313.9,269.9 L314.1,270.3 L314.3,270.3 L314.5,270.4 L314.7,270.3 L314.9,270.3 L315.1,270.4 L315.3,270.2 
		L315.5,269.9 L315.7,269.9 L315.9,269.8 L316.1,269.9 L316.3,269.9 L316.5,270.0 L316.7,270.2 L316.9,270.2 
		L317.1,270.4 L317.3,270.3 L317.5,270.2 L317.7,270.0 L317.9,270.0 L318.1,270.2 L318.3,270.2 L318.5,270.3 
		L318.7,270.4 L318.9,270.5 L319.1,270.6 L319.3,270.4 L319.5,270.4 L319.7,270.5 L319.9,270.5 L320.1,270.5 
		L320.3,270.7 L320.5,270.6 L320.7,270.7 L320.9,270.4 L321.1,270.4 L321.3,270.3 L321.5,270.4 L321.7,270.4 
		L321.9,270.4 L322.1,270.6 L322.3,270.6 L322.5,270.6 L322.7,270.8 L322.9,270.8 L323.1,270.9 L323.3,270.7 
		L323.5,270.6 L323.7,270.5 L323.9,270.5 L324.1,270.5 L324.3,270.4 L324.5,270.4 L324.7,270.5 L324.9,270.3 
		L325.1,270.4 L325.3,270.4 L325.5,270.5 L325.7,270.4 L325.9,270.3 L326.1,270.1 L326.3,270.2 L326.5,270.2 
		L326.7,270.4 L326.9,270.4 L327.1,270.5 L327.3,270.6 L327.5,270.5 L327.7,270.4 L327.9,270.4 L328.1,270.4 
		L328.3,270.4 L328.5,270.9 L328.8,270.8 L329.0,270.8 L329.2,270.8 L329.4,270.8 L329.6,270.8 L329.8,270.8 
		L330.0,271.2 L330.2,271.3 L330.4,271.3 L330.6,271.3 L330.8,271.6 L331.0,271.5 L331.2,271.6 L331.4,271.6 
		L331.6,271.5 L331.8,271.5 L332.0,271.5 L332.2,271.7 L332.4,271.8 L332.6,271.7 L332.8,271.6 L333.0,271.7 
		L333.2,271.8 L333.4,271.7 L333.6,271.9 L333.8,271.9 L334.0,271.9 L334.2,271.9 L334.4,271.9 L334.6,272.3 
		L334.8,272.3 L335.0,272.4 L335.2,272.4 L335.4,272.6 L335.6,272.6 L335.8,272.6 L336.0,272.5 L336.2,272.5 
		L336.4,272.7 L336.6,272.7 L336.8,272.8 L337.0,272.8 L337.2,273.0 L337.4,273.0 L337.6,273.1 L337.8,273.1 
		L338.0,273.1 L338.2,272.9 L338.4,272.7 L338.6,272.7 L338.8,272.7 L339.0,272.7 L339.2,273.1 L339.4,273.1 
		L339.6,273.3 L339.8,273.4 L340.0,273.4 L340.2,273.4 L340.4,273.4 L340.6,273.4 L340.8,273.4 L341.0,273.3 
		L341.2,273.2 L341.4,273.1 L341.6,273.1 L341.8,272.9 L342.0,273.1 L342.2,273.1 L342.4,273.1 L342.6,273.3 
		L342.8,273.3 L343.0,273.5 L343.2,273.5 L343.4,273.6 L343.6,273.6 L343.8,273.8 L344.0,273.9 L344.2,274.0 
		L344.4,274.0 L344.6,274.0 L344.8,274.1 L345.0,274.1 L345.2,274.0 L345.4,274.0 L345.6,273.6 L345.8,273.6 
		L346.0,273.6 L346.2,273.6 L346.4,273.8 L346.6,273.8 L346.8,274.0 L347.0,274.0 L347.2,273.8 L347.4,273.7 
		L347.6,273.8 L347.9,273.8 L348.1,274.0 L348.3,273.9 L348.5,273.8 L348.7,273.7 L348.9,273.7 L349.1,273.7 
		L349.3,274.0 L349.5,274.0 L349.7,274.0 L349.9,273.7 L350.1,273.6 L350.3,273.6 L350.5,273.6 L350.7,273.8 
		L350.9,273.7 L351.1,273.7 L351.3,273.7 L351.5,273.6 L351.7,273.6 L351.9,273.7 L352.1,273.7 L352.3,273.7 
		L352.5,273.7 L352.7,273.7 L352.9,273.8 L353.1,273.8 L353.3,273.8 L353.5,273.8 L353.7,273.8 L353.9,273.7 
		L354.1,273.7 L354.3,273.7 L354.5,274.0 L354.7,274.0 L354.9,274.0 L355.1,274.2 L355.3,274.2 L355.5,274.2 
		L355.7,274.2 L355.9,274.2 L356.1,274.2 L356.3,274.6 L356.5,274.6 L356.7,274.6 L356.9,274.7 L357.1,274.6 
		L357.3,274.7 L357.5,274.7 L357.7,274.7 L357.9,274.6 L358.1,274.5 L358.3,274.5 L358.5,274.6 L358.7,274.7 
		L358.9,274.7 L359.1,274.9 L359.3,274.9 L359.5,274.9 L359.7,275.2 L359.9,275.3 L360.1,275.3 L360.3,275.3 
		L360.5,275.5 L360.7,275.6 L360.9,275.4 L361.1,275.4 L361.3,275.5 L361.5,275.6 L361.7,275.4 L361.9,275.3 
		L362.1,275.2 L362.3,275.3 L362.5,275.1 L362.7,275.1 L362.9,275.1 L363.1,275.2 L363.3,275.0 L363.5,275.1 
		L363.7,275.2 L363.9,275.0 L364.1,275.0 L364.3,275.0 L364.5,275.0 L364.7,275.0 L364.9,275.0 L365.1,275.0 
		L365.3,275.2 L365.5,275.3 L365.7,275.1 L365.9,275.1 L366.1,275.3 L366.3,275.1 L366.5,275.1 L366.7,275.0 
		L367.0,275.0 L367.2,275.2 L367.4,275.2 L367.6,275.2 L367.8,275.1 L368.0,275.0 L368.2,275.1 L368.4,275.1 
		L368.6,275.2 L368.8,275.1 L369.0,275.0 L369.2,274.9 L369.4,274.9 L369.6,274.9 L369.8,274.9 L370.0,274.7 
		L370.2,274.5 L370.4,274.4 L370.6,274.6 L370.8,274.5 L371.0,274.5 L371.2,274.6 L371.4,274.6 L371.6,274.6 
		L371.8,274.8 L372.0,274.7 L372.2,274.8 L372.4,274.7 L372.6,274.5 L372.8,274.5 L373.0,274.6 L373.2,274.6 
		L373.4,274.9 L373.6,274.8 L373.8,274.8 L374.0,274.8 L374.2,274.8 L374.4,274.9 L374.6,274.9 L374.8,274.8 
		L375.0,274.8 L375.2,275.0 L375.4,275.0 L375.6,274.9 L375.8,274.9 L376.0,275.1 L376.2,275.1 L376.4,275.2 
		L376.6,274.9 L376.8,274.9 L377.0,274.9 L377.2,274.8 L377.4,274.8 L377.6,274.8 L377.8,274.8 L378.0,274.8 
		L378.2,274.8 L378.4,275.1 L378.6,275.1 L378.8,274.9 L379.0,274.9 L379.2,275.0 L379.4,275.0 L379.6,275.0 
		L379.8,275.2 L380.0,275.1 L380.2,275.1 L380.4,275.0 L380.6,274.9 L380.8,274.9 L381.0,274.9 L381.2,274.9 
		L381.4,275.2 L381.6,275.2 L381.8,275.4 L382.0,275.3 L382.2,275.3 L382.4,275.3 L382.6,275.2 L382.8,275.2 
		L383.0,275.3 L383.2,275.2 L383.4,275.1 L383.6,275.1 L383.8,275.2 L384.0,275.2 L384.2,275.2 L384.4,275.3 
		L384.6,275.3 L384.8,275.4 L385.0,275.5 L385.2,275.3 L385.4,275.2 L385.6,275.1 L385.8,275.1 L386.0,275.0 
		L386.3,275.1 L386.5,275.1 L386.7,275.1 L386.9,275.0 L387.1,275.0 L387.3,275.0 L387.5,275.0 L387.7,275.0 
		L387.9,275.2 L388.1,275.1 L388.3,275.1 L388.5,275.1 L388.7,275.3 L388.9,275.3 L389.1,275.3 L389.3,275.3 
		L389.5,275.3 L389.7,275.3 L389.9,275.3 L390.1,275.4 L390.3,275.5 L390.5,275.5 L390.7,275.5 L390.9,275.5 
		L391.1,275.6 L391.3,275.4 L391.5,275.4 L391.7,275.2 L391.9,275.3 L392.1,275.3 L392.3,275.3 L392.5,275.3 
		L392.7,275.5 L392.9,275.6 L393.1,275.7 L393.3,275.6 L393.5,275.5 L393.7,275.5 L393.9,275.6 L394.1,275.4 
		L394.3,275.4 L394.5,275.5 L394.7,275.4 L394.9,275.5 L395.1,275.6 L395.3,275.6 L395.5,275.6 L395.7,275.6 
		L395.9,275.7 L396.1,275.7 L396.3,275.8 L396.5,275.7 L396.7,275.7 L396.9,275.7 L397.1,275.7 L397.3,275.9 
		L397.5,275.9 L397.7,276.0 L397.9,276.0 L398.1,275.9 L398.3,275.9 L398.5,276.1 L398.7,276.0 L398.9,276.0 
		L399.1,276.0 L399.3,276.1 L399.5,276.0 L399.7,275.9 L399.9,275.9 L400.1,276.0 L400.3,276.0 L400.5,276.1 
		L400.7,276.1 L400.9,276.1 L401.1,276.2 L401.3,276.2 L401.5,276.2 L401.7,276.3 L401.9,276.3 L402.1,276.4 
		L402.3,276.4 L402.5,276.4 L402.7,276.6 L402.9,276.7 L403.1,276.7 L403.3,276.8 L403.5,276.8 L403.7,276.9 
		L403.9,277.0 L404.1,276.9 L404.3,277.0 L404.5,277.0 L404.7,277.0 L404.9,277.0 L405.1,277.0 L405.4,277.0 
		L405.6,277.2 L405.8,277.2 L406.0,277.2 L406.2,277.3 L406.4,277.4 L406.6,277.4 L406.8,277.4 L407.0,277.4 
		L407.2,277.6 L407.4,277.7 L407.6,277.7 L407.8,277.6 L408.0,277.6 L408.2,277.6 L408.4,277.7 L408.6,277.6 
		L408.8,277.4 L409.0,277.4 L409.2,277.3 L409.4,277.3 L409.6,277.4 L409.8,277.3 L410.0,277.4 L410.2,277.4 
		L410.4,277.6 L410.6,277.5 L410.8,277.4 L411.0,277.4 L411.2,277.4 L411.4,277.5 L411.6,277.6 L411.8,277.6 
		L412.0,277.5 L412.2,277.5 L412.4,277.5 L412.6,277.7 L412.8,277.4 L413.0,277.4 L413.2,277.4 L413.4,277.4 
		L413.6,277.3 L413.8,277.4 L414.0,277.3 L414.2,277.3 L414.4,277.5 L414.6,277.5 L414.8,277.6 L415.0,277.6 
		L415.2,277.6 L415.4,277.6 L415.6,277.7 L415.8,277.7 L416.0,277.7 L416.2,277.7 L416.4,277.7 L416.6,277.7 
		L416.8,277.7 L417.0,277.9 L417.2,277.9 L417.4,278.1 L417.6,278.1 L417.8,278.2 L418.0,278.3 L418.2,278.4 
		L418.4,278.4 L418.6,278.5 L418.8,278.5 L419.0,278.6 L419.2,278.6 L419.4,278.6 L419.6,278.6 L419.8,278.9 
		L420.0,278.9 L420.2,279.1 L420.4,279.1 L420.6,279.1 L420.8,278.9 L421.0,278.9 L421.2,278.7 L421.4,278.7 
		L421.6,278.8 L421.8,278.7 L422.0,278.7 L422.2,278.7 L422.4,278.7 L422.6,278.9 L422.8,278.9 L423.0,279.0 
		L423.2,279.0 L423.4,279.2 L423.6,279.2 L423.8,279.3 L424.0,279.2 L424.2,279.2 L424.5,279.3 L424.7,279.3 
		L424.9,279.2 L425.1,279.2 L425.3,279.2 L425.5,279.2 L425.7,279.4 L425.9,279.3 L426.1,279.1 L426.3,279.1 
		L426.5,279.2 L426.7,279.2 L426.9,279.2 L427.1,279.2 L427.3,279.2 L427.5,279.4 L427.7,279.4 L427.9,279.3 
		L428.1,279.2 L428.3,279.2 L428.5,279.4 L428.7,279.4 L428.9,279.4 L429.1,279.2 L429.3,279.1 L429.5,279.0 
		L429.7,279.2 L429.9,279.1 L430.1,279.1 L430.3,279.1 L430.5,279.1 L430.7,279.1 L430.9,279.1 L431.1,279.0 
		L431.3,279.0 L431.5,278.9 L431.7,278.9 L431.9,279.0 L432.1,278.7 L432.3,278.7 L432.5,278.6 L432.7,278.6 
		L432.9,278.5 L433.1,278.5 L433.3,278.6 L433.5,278.6 L433.7,278.6 L433.9,278.7 L434.1,278.6 L434.3,278.7 
		L434.5,278.6 L434.7,278.6 L434.9,278.6 L435.1,278.6 L435.3,278.6 L435.5,278.6 L435.7,278.6 L435.9,278.6 
		L436.1,278.7 L436.3,278.6 L436.5,278.6 L436.7,278.8 L436.9,278.9 L437.1,278.9 L437.3,278.9 L437.5,278.9 
		L437.7,279.1 L437.9,278.9 L438.1,279.0 L438.3,279.0 L438.5,279.0 L438.7,279.0 L438.9,279.0 L439.1,279.2 
		L439.3,279.3 L439.5,279.4 L439.7,279.4 L439.9,279.6 L440.1,279.6 L440.3,279.6 L440.5,279.7 L440.7,279.7 
		L440.9,279.6 L441.1,279.7 L441.3,279.7 L441.5,279.7 L441.7,279.7 L441.9,279.7 L442.1,279.6 L442.3,279.4 
		L442.5,279.4 L442.7,279.4 L442.9,279.4 L443.1,279.5 L443.3,279.3 L443.6,279.3 L443.8,279.3 L444.0,279.3 
		L444.2,279.3 L444.4,279.3 L444.6,279.5 L444.8,279.4 L445.0,279.5 L445.2,279.5 L445.4,279.5 L445.6,279.6 
		L445.8,279.6 L446.0,279.6 L446.2,279.7 L446.4,279.7 L446.6,279.7 L446.8,279.9 L447.0,279.9 L447.2,279.9 
		L447.4,279.8 L447.6,279.8 L447.8,279.8 L448.0,279.9 L448.2,279.9 L448.4,280.1 L448.6,280.1 L448.8,280.1 
		L449.0,280.3 L449.2,280.1 L449.4,280.1 L449.6,280.1 L449.8,280.0 L450.0,280.1 L450.2,280.1 L450.4,280.1 
		L450.6,280.2 L450.8,280.2 L451.0,280.2 L451.2,280.2 L451.4,280.2 L451.6,280.2 L451.8,280.3 L452.0,280.2 
		L452.2,280.3 L452.4,280.3 L452.6,280.1 L452.8,280.1 L453.0,280.1 L453.2,280.1 L453.4,280.1 L453.6,280.1 
		L453.8,280.3 L454.0,280.3 L454.2,280.3 L454.4,280.3 L454.6,280.4 L454.8,280.3 L455.0,280.3 L455.2,280.4 
		L455.4,280.4 L455.6,280.4 L455.8,280.3 L456.0,280.3 L456.2,280.3 L456.4,280.2 L456.6,280.2 L456.8,280.2 
		L457.0,280.1 L457.2,280.1 L457.4,280.2 L457.6,280.2 L457.8,280.3 L458.0,280.3 L458.2,280.4 L458.4,280.5 
		L458.6,280.5 L458.8,280.6 L459.0,280.5 L459.2,280.5 L459.4,280.6 L459.6,280.6 L459.8,280.7 L460.0,280.7 
		L460.2,280.8 L460.4,280.6 L460.6,280.6 L460.8,280.6 L461.0,280.7 L461.2,280.7 L461.4,280.7 L461.6,280.8 
		L461.8,280.8 L462.0,280.8 L462.2,280.8 L462.4,280.8 L462.7,281.0 L462.9,281.0 L463.1,281.0 L463.3,281.0 
		L463.5,281.1 L463.7,281.1 L463.9,281.2 L464.1,281.2 L464.3,281.3 L464.5,281.3 L464.7,281.2 L464.9,281.2 
		L465.1,281.2 L465.3,281.2 L465.5,281.4 L465.7,281.4 L465.9,281.5 L466.1,281.5 L466.3,281.5 L466.5,281.5 
		L466.7,281.5 L466.9,281.5 L467.1,281.5 L467.3,281.6 L467.5,281.6 L467.7,281.7 L467.9,281.7 L468.1,281.8 
		L468.3,281.8 L468.5,281.8 L468.7,281.9 L468.9,281.9 L469.1,282.0 L469.3,282.1 L469.5,282.1 L469.7,282.2 
		L469.9,282.2 L470.1,282.1 L470.3,281.9 L470.5,281.7 L470.7,281.7 L470.9,281.6 L471.1,281.7 L471.3,281.6 
		L471.5,281.7 L471.7,281.7 L471.9,281.7 L472.1,281.7 L472.3,281.8 L472.5,281.7 L472.7,281.7 L472.9,281.7 
		L473.1,281.7 L473.3,281.7 L473.5,281.7 L473.7,281.7 L473.9,281.7 L474.1,281.7 L474.3,281.7 L474.5,281.8 
		L474.7,281.8 L474.9,281.9 L475.1,281.9 L475.3,281.9 L475.5,281.9 L475.7,281.8 L475.9,281.8 L476.1,281.9 
		L476.3,281.9 L476.5,282.0 L476.7,281.9 L476.9,281.9 L477.1,281.7 L477.3,281.7 L477.5,281.7 L477.7,281.7 
		L477.9,281.8 L478.1,281.8 L478.3,281.9 L478.5,281.9 L478.7,281.9 L478.9,281.8 L479.1,281.8 L479.3,281.8 
		L479.5,282.0 L479.7,282.0 L479.9,282.0 L480.1,282.0 L480.3,282.2 L480.5,282.2 L480.7,282.2 L480.9,282.3 
		L481.1,282.2 L481.3,282.2 L481.5,282.2 L481.7,282.2 L482.0,282.4 L482.2,282.3 L482.4,282.3 L482.6,282.4 
		L482.8,282.5 L483.0,282.6 L483.2,282.6 L483.4,282.6 L483.6,282.5 L483.8,282.5 L484.0,282.5 L484.2,282.7 
		L484.4,282.7 L484.6,282.5 L484.8,282.5 L485.0,282.5 L485.2,282.6 L485.4,282.6 L485.6,282.6 L485.8,282.4 
		L486.0,282.5 L486.2,282.4 L486.4,282.4 L486.6,282.4 L486.8,282.6 L487.0,282.6 L487.2,282.7 L487.4,282.7 
		L487.6,282.7 L487.8,282.8 L488.0,282.8 L488.2,282.8 L488.4,282.8 L488.6,282.7 L488.8,282.7 L489.0,282.7 
		L489.2,282.8 L489.4,282.9 L489.6,282.9 L489.8,283.0 L490.0,283.0 L490.2,283.0 L490.4,283.0 L490.6,283.0 
		 h0.01'/></g>
	</g>
<g style="fill:none; color:black; stroke:currentColor; stroke-width:1.00; stroke-linecap:butt; stroke-linejoin:miter">
	<path  d='M88.5,54.1 L88.5,422.4 L490.6,422.4 L490.6,54.1 L88.5,54.1 Z  h0.01'/></g>
</g>
</svg>

