<?xml version="1.0" encoding="utf-8"  standalone="no"?>
<!DOCTYPE svg PUBLIC "-//W3C//DTD SVG 1.1//EN" 
 "http://www.w3.org/Graphics/SVG/1.1/DTD/svg11.dtd">
<svg 
 width="600" height="480" 
 viewBox="0 0 600 480"
 xmlns="http://www.w3.org/2000/svg"
 xmlns:xlink="http://www.w3.org/1999/xlink"
>

<title>Gnuplot</title>
<desc>Produced by GNUPLOT 4.6 patchlevel 1 </desc>

<g id="gnuplot_canvas">

<rect x="0" y="0" width="600" height="480" fill="none"/>
<defs>

	<circle id='gpDot' r='0.5' stroke-width='0.5'/>
	<path id='gpPt0' stroke-width='0.222' stroke='currentColor' d='M-1,0 h2 M0,-1 v2'/>
	<path id='gpPt1' stroke-width='0.222' stroke='currentColor' d='M-1,-1 L1,1 M1,-1 L-1,1'/>
	<path id='gpPt2' stroke-width='0.222' stroke='currentColor' d='M-1,0 L1,0 M0,-1 L0,1 M-1,-1 L1,1 M-1,1 L1,-1'/>
	<rect id='gpPt3' stroke-width='0.222' stroke='currentColor' x='-1' y='-1' width='2' height='2'/>
	<rect id='gpPt4' stroke-width='0.222' stroke='currentColor' fill='currentColor' x='-1' y='-1' width='2' height='2'/>
	<circle id='gpPt5' stroke-width='0.222' stroke='currentColor' cx='0' cy='0' r='1'/>
	<use xlink:href='#gpPt5' id='gpPt6' fill='currentColor' stroke='none'/>
	<path id='gpPt7' stroke-width='0.222' stroke='currentColor' d='M0,-1.33 L-1.33,0.67 L1.33,0.67 z'/>
	<use xlink:href='#gpPt7' id='gpPt8' fill='currentColor' stroke='none'/>
	<use xlink:href='#gpPt7' id='gpPt9' stroke='currentColor' transform='rotate(180)'/>
	<use xlink:href='#gpPt9' id='gpPt10' fill='currentColor' stroke='none'/>
	<use xlink:href='#gpPt3' id='gpPt11' stroke='currentColor' transform='rotate(45)'/>
	<use xlink:href='#gpPt11' id='gpPt12' fill='currentColor' stroke='none'/>
</defs>
<g style="fill:none; color:white; stroke:currentColor; stroke-width:1.00; stroke-linecap:butt; stroke-linejoin:miter">
</g>
<g style="fill:none; color:black; stroke:currentColor; stroke-width:1.00; stroke-linecap:butt; stroke-linejoin:miter">
	<path  d='M88.5,422.4 L97.5,422.4 M490.6,422.4 L481.6,422.4  h0.01'/>	<g transform="translate(80.2,426.9)" style="stroke:none; fill:black; font-family:Arial; font-size:12.00pt; text-anchor:end">
		<text> 0</text>
	</g>
	<path  d='M88.5,385.6 L97.5,385.6 M490.6,385.6 L481.6,385.6  h0.01'/>	<g transform="translate(80.2,390.1)" style="stroke:none; fill:black; font-family:Arial; font-size:12.00pt; text-anchor:end">
		<text> 1000</text>
	</g>
	<path  d='M88.5,348.7 L97.5,348.7 M490.6,348.7 L481.6,348.7  h0.01'/>	<g transform="translate(80.2,353.2)" style="stroke:none; fill:black; font-family:Arial; font-size:12.00pt; text-anchor:end">
		<text> 2000</text>
	</g>
	<path  d='M88.5,311.9 L97.5,311.9 M490.6,311.9 L481.6,311.9  h0.01'/>	<g transform="translate(80.2,316.4)" style="stroke:none; fill:black; font-family:Arial; font-size:12.00pt; text-anchor:end">
		<text> 3000</text>
	</g>
	<path  d='M88.5,275.1 L97.5,275.1 M490.6,275.1 L481.6,275.1  h0.01'/>	<g transform="translate(80.2,279.6)" style="stroke:none; fill:black; font-family:Arial; font-size:12.00pt; text-anchor:end">
		<text> 4000</text>
	</g>
	<path  d='M88.5,238.2 L97.5,238.2 M490.6,238.2 L481.6,238.2  h0.01'/>	<g transform="translate(80.2,242.7)" style="stroke:none; fill:black; font-family:Arial; font-size:12.00pt; text-anchor:end">
		<text> 5000</text>
	</g>
	<path  d='M88.5,201.4 L97.5,201.4 M490.6,201.4 L481.6,201.4  h0.01'/>	<g transform="translate(80.2,205.9)" style="stroke:none; fill:black; font-family:Arial; font-size:12.00pt; text-anchor:end">
		<text> 6000</text>
	</g>
	<path  d='M88.5,164.6 L97.5,164.6 M490.6,164.6 L481.6,164.6  h0.01'/>	<g transform="translate(80.2,169.1)" style="stroke:none; fill:black; font-family:Arial; font-size:12.00pt; text-anchor:end">
		<text> 7000</text>
	</g>
	<path  d='M88.5,127.8 L97.5,127.8 M490.6,127.8 L481.6,127.8  h0.01'/>	<g transform="translate(80.2,132.3)" style="stroke:none; fill:black; font-family:Arial; font-size:12.00pt; text-anchor:end">
		<text> 8000</text>
	</g>
	<path  d='M88.5,90.9 L97.5,90.9 M490.6,90.9 L481.6,90.9  h0.01'/>	<g transform="translate(80.2,95.4)" style="stroke:none; fill:black; font-family:Arial; font-size:12.00pt; text-anchor:end">
		<text> 9000</text>
	</g>
	<path  d='M88.5,54.1 L97.5,54.1 M490.6,54.1 L481.6,54.1  h0.01'/>	<g transform="translate(80.2,58.6)" style="stroke:none; fill:black; font-family:Arial; font-size:12.00pt; text-anchor:end">
		<text> 10000</text>
	</g>
	<path  d='M88.5,422.4 L88.5,413.4 M88.5,54.1 L88.5,63.1  h0.01'/>	<g transform="translate(88.5,444.9)" style="stroke:none; fill:black; font-family:Arial; font-size:12.00pt; text-anchor:middle">
		<text> 0</text>
	</g>
	<path  d='M128.7,422.4 L128.7,413.4 M128.7,54.1 L128.7,63.1  h0.01'/>	<g transform="translate(128.7,444.9)" style="stroke:none; fill:black; font-family:Arial; font-size:12.00pt; text-anchor:middle">
		<text> 10</text>
	</g>
	<path  d='M168.9,422.4 L168.9,413.4 M168.9,54.1 L168.9,63.1  h0.01'/>	<g transform="translate(168.9,444.9)" style="stroke:none; fill:black; font-family:Arial; font-size:12.00pt; text-anchor:middle">
		<text> 20</text>
	</g>
	<path  d='M209.1,422.4 L209.1,413.4 M209.1,54.1 L209.1,63.1  h0.01'/>	<g transform="translate(209.1,444.9)" style="stroke:none; fill:black; font-family:Arial; font-size:12.00pt; text-anchor:middle">
		<text> 30</text>
	</g>
	<path  d='M249.3,422.4 L249.3,413.4 M249.3,54.1 L249.3,63.1  h0.01'/>	<g transform="translate(249.3,444.9)" style="stroke:none; fill:black; font-family:Arial; font-size:12.00pt; text-anchor:middle">
		<text> 40</text>
	</g>
	<path  d='M289.6,422.4 L289.6,413.4 M289.6,54.1 L289.6,63.1  h0.01'/>	<g transform="translate(289.6,444.9)" style="stroke:none; fill:black; font-family:Arial; font-size:12.00pt; text-anchor:middle">
		<text> 50</text>
	</g>
	<path  d='M329.8,422.4 L329.8,413.4 M329.8,54.1 L329.8,63.1  h0.01'/>	<g transform="translate(329.8,444.9)" style="stroke:none; fill:black; font-family:Arial; font-size:12.00pt; text-anchor:middle">
		<text> 60</text>
	</g>
	<path  d='M370.0,422.4 L370.0,413.4 M370.0,54.1 L370.0,63.1  h0.01'/>	<g transform="translate(370.0,444.9)" style="stroke:none; fill:black; font-family:Arial; font-size:12.00pt; text-anchor:middle">
		<text> 70</text>
	</g>
	<path  d='M410.2,422.4 L410.2,413.4 M410.2,54.1 L410.2,63.1  h0.01'/>	<g transform="translate(410.2,444.9)" style="stroke:none; fill:black; font-family:Arial; font-size:12.00pt; text-anchor:middle">
		<text> 80</text>
	</g>
	<path  d='M450.4,422.4 L450.4,413.4 M450.4,54.1 L450.4,63.1  h0.01'/>	<g transform="translate(450.4,444.9)" style="stroke:none; fill:black; font-family:Arial; font-size:12.00pt; text-anchor:middle">
		<text> 90</text>
	</g>
	<path  d='M490.6,422.4 L490.6,413.4 M490.6,54.1 L490.6,63.1  h0.01'/>	<g transform="translate(490.6,444.9)" style="stroke:none; fill:black; font-family:Arial; font-size:12.00pt; text-anchor:middle">
		<text> 100</text>
	</g>
	<path  d='M490.6,422.4 L481.6,422.4  h0.01'/>	<g transform="translate(498.9,426.9)" style="stroke:none; fill:blue; font-family:Arial; font-size:12.00pt; text-anchor:start">
		<text> 0</text>
	</g>
	<path  d='M490.6,385.6 L481.6,385.6  h0.01'/>	<g transform="translate(498.9,390.1)" style="stroke:none; fill:blue; font-family:Arial; font-size:12.00pt; text-anchor:start">
		<text> 1000</text>
	</g>
	<path  d='M490.6,348.7 L481.6,348.7  h0.01'/>	<g transform="translate(498.9,353.2)" style="stroke:none; fill:blue; font-family:Arial; font-size:12.00pt; text-anchor:start">
		<text> 2000</text>
	</g>
	<path  d='M490.6,311.9 L481.6,311.9  h0.01'/>	<g transform="translate(498.9,316.4)" style="stroke:none; fill:blue; font-family:Arial; font-size:12.00pt; text-anchor:start">
		<text> 3000</text>
	</g>
	<path  d='M490.6,275.1 L481.6,275.1  h0.01'/>	<g transform="translate(498.9,279.6)" style="stroke:none; fill:blue; font-family:Arial; font-size:12.00pt; text-anchor:start">
		<text> 4000</text>
	</g>
	<path  d='M490.6,238.2 L481.6,238.2  h0.01'/>	<g transform="translate(498.9,242.7)" style="stroke:none; fill:blue; font-family:Arial; font-size:12.00pt; text-anchor:start">
		<text> 5000</text>
	</g>
	<path  d='M490.6,201.4 L481.6,201.4  h0.01'/>	<g transform="translate(498.9,205.9)" style="stroke:none; fill:blue; font-family:Arial; font-size:12.00pt; text-anchor:start">
		<text> 6000</text>
	</g>
	<path  d='M490.6,164.6 L481.6,164.6  h0.01'/>	<g transform="translate(498.9,169.1)" style="stroke:none; fill:blue; font-family:Arial; font-size:12.00pt; text-anchor:start">
		<text> 7000</text>
	</g>
	<path  d='M490.6,127.8 L481.6,127.8  h0.01'/>	<g transform="translate(498.9,132.3)" style="stroke:none; fill:blue; font-family:Arial; font-size:12.00pt; text-anchor:start">
		<text> 8000</text>
	</g>
	<path  d='M490.6,90.9 L481.6,90.9  h0.01'/>	<g transform="translate(498.9,95.4)" style="stroke:none; fill:blue; font-family:Arial; font-size:12.00pt; text-anchor:start">
		<text> 9000</text>
	</g>
	<path  d='M490.6,54.1 L481.6,54.1  h0.01'/>	<g transform="translate(498.9,58.6)" style="stroke:none; fill:blue; font-family:Arial; font-size:12.00pt; text-anchor:start">
		<text> 10000</text>
	</g>
	<path  d='M88.5,54.1 L88.5,422.4 L490.6,422.4 L490.6,54.1 L88.5,54.1 Z  h0.01'/>	<g transform="translate(17.6,238.3) rotate(270)" style="stroke:none; fill:black; font-family:Arial; font-size:12.00pt; text-anchor:middle">
		<text>TCP throughput (kbps)</text>
	</g>
	<g transform="translate(570.4,238.3) rotate(270)" style="stroke:none; fill:black; font-family:Arial; font-size:12.00pt; text-anchor:middle">
		<text>TCP Uplink Delay(ms)</text>
	</g>
	<g transform="translate(289.5,471.9)" style="stroke:none; fill:black; font-family:Arial; font-size:12.00pt; text-anchor:middle">
		<text>Time (s)</text>
	</g>
	<g transform="translate(289.5,31.6)" style="stroke:none; fill:black; font-family:Arial; font-size:12.00pt; text-anchor:middle">
		<text>Distance 500m, 4kmph: TCP throughput vs link capacity Uplink 100RBs PfffScheduler</text>
	</g>
	<path  d='M240.9,413.4 L240.9,377.4 L482.3,377.4 L482.3,413.4 L240.9,413.4 Z  h0.01'/></g>
	<g id="gnuplot_plot_1" ><title>gnuplot_plot_1</title>
<g style="fill:none; color:red; stroke:currentColor; stroke-width:1.00; stroke-linecap:butt; stroke-linejoin:miter">
	<g transform="translate(423.5,390.9)" style="stroke:none; fill:black; font-family:Arial; font-size:12.00pt; text-anchor:end">
		<text>TCP Throughput</text>
	</g>
	<path  d='M431.8,386.4 L474.0,386.4 M90.7,413.0 L90.9,409.2 L91.1,405.2 L91.3,375.8 L91.5,331.0 L91.7,256.6 
		L91.9,268.9 L92.1,261.2 L92.3,282.1 L92.5,266.5 L92.7,277.0 L92.9,256.9 L93.1,260.6 L93.3,265.4 
		L93.5,266.1 L93.7,274.7 L93.9,281.0 L94.1,281.0 L94.3,281.0 L94.5,281.0 L94.7,306.7 L94.9,309.9 
		L95.1,309.9 L95.3,319.7 L95.5,321.5 L95.7,321.5 L95.9,321.5 L96.1,321.5 L96.3,321.5 L96.5,321.5 
		L96.7,342.0 L96.9,337.2 L97.1,337.2 L97.3,340.4 L97.5,340.4 L97.7,343.4 L97.9,342.8 L98.1,342.8 
		L98.3,344.8 L98.5,344.8 L98.7,344.8 L99.0,344.8 L99.2,352.4 L99.4,344.3 L99.6,344.7 L99.8,344.7 
		L100.0,344.7 L100.2,349.2 L100.4,347.8 L100.6,347.8 L100.8,351.0 L101.0,344.9 L101.2,344.9 L101.4,347.1 
		L101.6,347.6 L101.8,347.6 L102.0,347.8 L102.2,343.4 L102.4,343.3 L102.6,343.3 L102.8,346.2 L103.0,346.2 
		L103.2,347.9 L103.4,348.1 L103.6,348.1 L103.8,349.9 L104.0,351.5 L104.2,351.2 L104.4,347.1 L104.6,346.7 
		L104.8,347.5 L105.0,348.9 L105.2,349.3 L105.4,349.3 L105.6,351.1 L105.8,346.8 L106.0,345.9 L106.2,345.9 
		L106.4,348.2 L106.6,348.1 L106.8,348.1 L107.0,348.8 L107.2,347.9 L107.4,347.9 L107.6,347.9 L107.8,350.3 
		L108.0,351.4 L108.2,349.2 L108.4,349.1 L108.6,348.5 L108.8,348.5 L109.0,349.2 L109.2,349.2 L109.4,350.1 
		L109.6,350.0 L109.8,349.5 L110.0,349.1 L110.2,349.1 L110.4,350.2 L110.6,350.2 L110.8,350.2 L111.0,350.2 
		L111.2,353.0 L111.4,352.6 L111.6,352.1 L111.8,351.1 L112.0,351.1 L112.2,351.1 L112.4,351.1 L112.6,351.1 
		L112.8,351.1 L113.0,351.1 L113.2,351.1 L113.4,351.1 L113.6,351.1 L113.8,357.3 L114.0,357.3 L114.2,356.5 
		L114.4,356.9 L114.6,356.1 L114.8,356.1 L115.0,356.1 L115.2,356.1 L115.4,358.2 L115.6,355.7 L115.8,354.5 
		L116.0,354.2 L116.2,354.2 L116.4,355.4 L116.6,355.4 L116.8,356.5 L117.0,356.5 L117.2,357.0 L117.4,356.7 
		L117.6,356.7 L117.8,356.7 L118.1,356.7 L118.3,358.1 L118.5,357.5 L118.7,357.6 L118.9,358.2 L119.1,358.2 
		L119.3,358.9 L119.5,359.2 L119.7,359.2 L119.9,359.8 L120.1,359.8 L120.3,360.3 L120.5,360.3 L120.7,360.3 
		L120.9,359.5 L121.1,359.4 L121.3,358.6 L121.5,358.6 L121.7,358.3 L121.9,357.1 L122.1,357.1 L122.3,357.1 
		L122.5,358.5 L122.7,358.2 L122.9,358.7 L123.1,358.7 L123.3,359.5 L123.5,358.9 L123.7,359.3 L123.9,359.3 
		L124.1,360.1 L124.3,359.6 L124.5,359.6 L124.7,359.6 L124.9,359.6 L125.1,360.9 L125.3,360.2 L125.5,358.3 
		L125.7,358.7 L125.9,358.8 L126.1,358.8 L126.3,359.3 L126.5,359.5 L126.7,359.5 L126.9,359.7 L127.1,359.5 
		L127.3,360.1 L127.5,359.4 L127.7,359.5 L127.9,359.5 L128.1,360.2 L128.3,359.7 L128.5,359.3 L128.7,359.5 
		L128.9,359.8 L129.1,359.7 L129.3,359.3 L129.5,359.3 L129.7,359.3 L129.9,360.2 L130.1,359.9 L130.3,359.9 
		L130.5,359.9 L130.7,360.5 L130.9,360.3 L131.1,360.3 L131.3,360.3 L131.5,360.3 L131.7,361.5 L131.9,360.6 
		L132.1,360.4 L132.3,360.4 L132.5,360.4 L132.7,360.4 L132.9,360.7 L133.1,360.7 L133.3,360.7 L133.5,361.2 
		L133.7,361.3 L133.9,360.9 L134.1,360.9 L134.3,360.9 L134.5,361.6 L134.7,361.9 L134.9,361.3 L135.1,361.3 
		L135.3,361.3 L135.5,361.9 L135.7,361.9 L135.9,361.7 L136.1,361.7 L136.3,361.7 L136.6,361.7 L136.8,362.5 
		L137.0,362.7 L137.2,362.0 L137.4,361.7 L137.6,361.8 L137.8,362.1 L138.0,361.5 L138.2,361.5 L138.4,361.7 
		L138.6,361.8 L138.8,361.8 L139.0,361.8 L139.2,361.8 L139.4,362.9 L139.6,362.4 L139.8,362.4 L140.0,362.4 
		L140.2,362.4 L140.4,363.2 L140.6,363.2 L140.8,363.2 L141.0,363.9 L141.2,364.2 L141.4,364.1 L141.6,364.1 
		L141.8,363.3 L142.0,363.4 L142.2,363.4 L142.4,363.5 L142.6,363.5 L142.8,363.4 L143.0,363.6 L143.2,363.6 
		L143.4,364.1 L143.6,364.2 L143.8,363.8 L144.0,363.7 L144.2,363.7 L144.4,363.6 L144.6,363.5 L144.8,363.5 
		L145.0,364.0 L145.2,363.9 L145.4,363.9 L145.6,363.8 L145.8,363.9 L146.0,363.9 L146.2,363.9 L146.4,364.5 
		L146.6,364.3 L146.8,364.3 L147.0,364.3 L147.2,364.3 L147.4,364.3 L147.6,365.2 L147.8,364.7 L148.0,364.8 
		L148.2,365.1 L148.4,365.0 L148.6,365.3 L148.8,365.3 L149.0,365.0 L149.2,365.0 L149.4,365.3 L149.6,365.3 
		L149.8,365.7 L150.0,365.6 L150.2,365.6 L150.4,365.6 L150.6,366.2 L150.8,366.2 L151.0,366.1 L151.2,366.1 
		L151.4,365.3 L151.6,365.3 L151.8,365.6 L152.0,365.8 L152.2,365.9 L152.4,365.9 L152.6,365.5 L152.8,365.5 
		L153.0,365.8 L153.2,365.8 L153.4,365.8 L153.6,365.8 L153.8,365.8 L154.0,366.2 L154.2,366.1 L154.4,365.5 
		L154.6,365.7 L154.8,365.7 L155.0,365.7 L155.2,365.7 L155.4,366.3 L155.7,365.9 L155.9,366.0 L156.1,366.0 
		L156.3,365.2 L156.5,365.2 L156.7,365.2 L156.9,365.2 L157.1,365.6 L157.3,365.8 L157.5,365.8 L157.7,365.8 
		L157.9,365.7 L158.1,365.7 L158.3,365.7 L158.5,365.7 L158.7,366.4 L158.9,366.3 L159.1,366.2 L159.3,366.2 
		L159.5,366.1 L159.7,366.2 L159.9,364.8 L160.1,364.2 L160.3,363.1 L160.5,363.1 L160.7,363.1 L160.9,363.1 
		L161.1,363.7 L161.3,363.7 L161.5,363.7 L161.7,363.8 L161.9,363.8 L162.1,363.8 L162.3,363.8 L162.5,364.1 
		L162.7,363.8 L162.9,363.9 L163.1,363.9 L163.3,364.1 L163.5,364.1 L163.7,364.1 L163.9,364.4 L164.1,364.4 
		L164.3,364.4 L164.5,364.5 L164.7,364.2 L164.9,363.8 L165.1,363.8 L165.3,363.8 L165.5,364.1 L165.7,364.1 
		L165.9,364.1 L166.1,364.1 L166.3,364.2 L166.5,364.2 L166.7,364.2 L166.9,364.3 L167.1,363.3 L167.3,363.3 
		L167.5,363.3 L167.7,363.3 L167.9,363.3 L168.1,363.3 L168.3,364.2 L168.5,363.9 L168.7,363.9 L168.9,363.9 
		L169.1,364.4 L169.3,363.3 L169.5,363.1 L169.7,363.3 L169.9,363.5 L170.1,363.4 L170.3,363.4 L170.5,363.4 
		L170.7,363.9 L170.9,363.7 L171.1,363.7 L171.3,363.7 L171.5,363.7 L171.7,363.7 L171.9,363.9 L172.1,363.9 
		L172.3,364.0 L172.5,364.0 L172.7,364.0 L172.9,364.0 L173.1,364.6 L173.3,364.2 L173.5,364.3 L173.7,364.4 
		L173.9,364.4 L174.1,364.6 L174.3,364.2 L174.5,363.9 L174.8,364.1 L175.0,364.1 L175.2,363.7 L175.4,363.7 
		L175.6,363.9 L175.8,363.8 L176.0,363.7 L176.2,363.6 L176.4,363.8 L176.6,363.6 L176.8,363.5 L177.0,363.2 
		L177.2,363.0 L177.4,363.1 L177.6,363.0 L177.8,362.5 L178.0,362.5 L178.2,362.7 L178.4,362.7 L178.6,362.7 
		L178.8,362.8 L179.0,362.8 L179.2,362.8 L179.4,362.8 L179.6,363.4 L179.8,363.1 L180.0,363.1 L180.2,363.1 
		L180.4,363.2 L180.6,363.0 L180.8,363.0 L181.0,363.0 L181.2,363.0 L181.4,363.3 L181.6,363.0 L181.8,362.9 
		L182.0,362.6 L182.2,362.6 L182.4,362.8 L182.6,362.8 L182.8,362.8 L183.0,363.0 L183.2,362.9 L183.4,362.9 
		L183.6,362.9 L183.8,362.9 L184.0,362.9 L184.2,363.1 L184.4,362.8 L184.6,362.8 L184.8,362.8 L185.0,362.8 
		L185.2,363.0 L185.4,363.0 L185.6,363.0 L185.8,363.0 L186.0,363.3 L186.2,362.8 L186.4,362.7 L186.6,362.7 
		L186.8,362.8 L187.0,362.9 L187.2,362.9 L187.4,362.9 L187.6,363.0 L187.8,362.9 L188.0,362.9 L188.2,362.5 
		L188.4,362.4 L188.6,362.5 L188.8,362.5 L189.0,362.5 L189.2,362.5 L189.4,362.3 L189.6,362.4 L189.8,362.3 
		L190.0,362.3 L190.2,362.4 L190.4,362.1 L190.6,362.2 L190.8,362.2 L191.0,362.3 L191.2,362.3 L191.4,362.3 
		L191.6,362.4 L191.8,362.4 L192.0,362.4 L192.2,362.4 L192.4,362.4 L192.6,363.0 L192.8,363.1 L193.0,363.1 
		L193.2,363.1 L193.4,363.2 L193.6,363.2 L193.9,363.3 L194.1,363.2 L194.3,363.2 L194.5,363.2 L194.7,363.2 
		L194.9,363.5 L195.1,363.5 L195.3,363.4 L195.5,363.4 L195.7,363.4 L195.9,363.4 L196.1,363.2 L196.3,363.2 
		L196.5,363.2 L196.7,363.5 L196.9,363.0 L197.1,363.0 L197.3,363.0 L197.5,363.2 L197.7,363.0 L197.9,363.0 
		L198.1,363.0 L198.3,363.0 L198.5,363.0 L198.7,363.0 L198.9,363.8 L199.1,363.6 L199.3,363.6 L199.5,363.6 
		L199.7,363.6 L199.9,363.6 L200.1,363.6 L200.3,363.6 L200.5,364.4 L200.7,364.4 L200.9,364.2 L201.1,364.2 
		L201.3,364.1 L201.5,364.2 L201.7,364.2 L201.9,364.1 L202.1,364.1 L202.3,364.1 L202.5,364.1 L202.7,364.3 
		L202.9,364.3 L203.1,364.4 L203.3,364.3 L203.5,364.2 L203.7,364.3 L203.9,364.4 L204.1,364.1 L204.3,364.1 
		L204.5,364.2 L204.7,364.1 L204.9,364.1 L205.1,364.1 L205.3,364.1 L205.5,364.1 L205.7,364.3 L205.9,364.1 
		L206.1,363.8 L206.3,363.8 L206.5,363.8 L206.7,363.8 L206.9,364.2 L207.1,364.0 L207.3,363.9 L207.5,363.9 
		L207.7,364.0 L207.9,364.0 L208.1,364.1 L208.3,364.1 L208.5,364.1 L208.7,364.1 L208.9,364.1 L209.1,364.4 
		L209.3,364.5 L209.5,364.5 L209.7,364.5 L209.9,364.5 L210.1,364.6 L210.3,364.7 L210.5,364.7 L210.7,364.7 
		L210.9,364.9 L211.1,364.9 L211.3,364.9 L211.5,364.9 L211.7,365.3 L211.9,365.2 L212.1,365.2 L212.3,365.2 
		L212.5,365.6 L212.7,365.5 L212.9,365.5 L213.2,365.4 L213.4,365.3 L213.6,365.3 L213.8,365.3 L214.0,365.3 
		L214.2,365.4 L214.4,365.4 L214.6,365.4 L214.8,365.4 L215.0,365.6 L215.2,365.4 L215.4,365.4 L215.6,365.4 
		L215.8,365.4 L216.0,365.4 L216.2,365.4 L216.4,365.3 L216.6,365.3 L216.8,365.5 L217.0,365.4 L217.2,365.4 
		L217.4,365.3 L217.6,365.3 L217.8,365.3 L218.0,365.3 L218.2,365.3 L218.4,365.3 L218.6,365.3 L218.8,365.6 
		L219.0,365.7 L219.2,365.7 L219.4,365.7 L219.6,365.7 L219.8,365.7 L220.0,365.7 L220.2,365.7 L220.4,365.7 
		L220.6,365.7 L220.8,366.2 L221.0,366.2 L221.2,366.2 L221.4,366.2 L221.6,366.2 L221.8,366.5 L222.0,366.5 
		L222.2,366.5 L222.4,366.5 L222.6,366.5 L222.8,366.5 L223.0,366.5 L223.2,367.1 L223.4,367.1 L223.6,367.1 
		L223.8,367.1 L224.0,367.1 L224.2,367.1 L224.4,367.1 L224.6,367.3 L224.8,367.3 L225.0,367.3 L225.2,367.2 
		L225.4,367.2 L225.6,367.2 L225.8,367.2 L226.0,367.4 L226.2,367.2 L226.4,367.1 L226.6,367.1 L226.8,367.2 
		L227.0,367.3 L227.2,367.2 L227.4,367.2 L227.6,367.2 L227.8,367.2 L228.0,367.2 L228.2,367.3 L228.4,367.2 
		L228.6,367.2 L228.8,367.2 L229.0,367.2 L229.2,367.2 L229.4,367.5 L229.6,367.5 L229.8,367.5 L230.0,367.5 
		L230.2,367.6 L230.4,367.6 L230.6,367.8 L230.8,367.6 L231.0,367.6 L231.2,367.6 L231.4,367.6 L231.6,367.6 
		L231.8,367.6 L232.0,367.6 L232.3,367.7 L232.5,367.4 L232.7,367.4 L232.9,367.4 L233.1,367.4 L233.3,367.4 
		L233.5,367.8 L233.7,367.8 L233.9,367.8 L234.1,367.9 L234.3,368.0 L234.5,368.0 L234.7,368.0 L234.9,368.2 
		L235.1,368.3 L235.3,368.0 L235.5,367.9 L235.7,367.9 L235.9,367.9 L236.1,367.9 L236.3,367.9 L236.5,368.2 
		L236.7,368.2 L236.9,368.3 L237.1,368.3 L237.3,368.3 L237.5,368.3 L237.7,368.4 L237.9,368.4 L238.1,368.5 
		L238.3,368.6 L238.5,368.6 L238.7,368.6 L238.9,368.6 L239.1,368.8 L239.3,368.8 L239.5,368.8 L239.7,368.8 
		L239.9,368.8 L240.1,368.8 L240.3,368.8 L240.5,368.8 L240.7,368.8 L240.9,368.7 L241.1,368.7 L241.3,368.7 
		L241.5,368.7 L241.7,368.7 L241.9,368.7 L242.1,368.7 L242.3,368.9 L242.5,368.9 L242.7,368.9 L242.9,368.9 
		L243.1,368.9 L243.3,368.9 L243.5,369.0 L243.7,368.8 L243.9,368.9 L244.1,368.7 L244.3,368.7 L244.5,368.7 
		L244.7,368.8 L244.9,368.7 L245.1,368.8 L245.3,368.8 L245.5,368.8 L245.7,368.8 L245.9,368.8 L246.1,368.8 
		L246.3,369.0 L246.5,368.8 L246.7,368.8 L246.9,368.8 L247.1,368.8 L247.3,368.9 L247.5,368.8 L247.7,368.8 
		L247.9,368.8 L248.1,368.8 L248.3,369.1 L248.5,369.1 L248.7,369.1 L248.9,369.1 L249.1,369.3 L249.3,369.3 
		L249.5,369.3 L249.7,369.3 L249.9,369.5 L250.1,369.4 L250.3,369.4 L250.5,369.4 L250.7,369.4 L250.9,369.4 
		L251.1,369.4 L251.3,369.8 L251.5,369.8 L251.7,369.9 L251.9,370.0 L252.2,369.8 L252.4,369.8 L252.6,369.9 
		L252.8,369.8 L253.0,369.7 L253.2,369.7 L253.4,369.7 L253.6,369.7 L253.8,370.0 L254.0,369.6 L254.2,369.6 
		L254.4,369.7 L254.6,369.7 L254.8,369.8 L255.0,369.7 L255.2,369.8 L255.4,369.8 L255.6,369.8 L255.8,369.7 
		L256.0,369.9 L256.2,369.8 L256.4,369.8 L256.6,369.8 L256.8,369.8 L257.0,370.0 L257.2,369.8 L257.4,369.8 
		L257.6,369.7 L257.8,369.6 L258.0,369.6 L258.2,369.7 L258.4,369.6 L258.6,369.6 L258.8,369.6 L259.0,369.6 
		L259.2,369.8 L259.4,369.8 L259.6,369.8 L259.8,369.8 L260.0,369.8 L260.2,369.8 L260.4,369.8 L260.6,370.0 
		L260.8,370.0 L261.0,370.0 L261.2,370.0 L261.4,370.0 L261.6,370.1 L261.8,370.1 L262.0,370.1 L262.2,370.2 
		L262.4,370.1 L262.6,370.1 L262.8,370.1 L263.0,370.1 L263.2,370.1 L263.4,370.1 L263.6,370.2 L263.8,370.1 
		L264.0,370.1 L264.2,370.1 L264.4,370.1 L264.6,370.2 L264.8,370.2 L265.0,370.3 L265.2,370.2 L265.4,370.2 
		L265.6,370.4 L265.8,370.4 L266.0,370.3 L266.2,370.3 L266.4,370.4 L266.6,370.3 L266.8,370.4 L267.0,370.4 
		L267.2,370.4 L267.4,370.4 L267.6,370.5 L267.8,370.5 L268.0,370.6 L268.2,370.6 L268.4,370.6 L268.6,370.6 
		L268.8,370.8 L269.0,370.7 L269.2,370.7 L269.4,370.7 L269.6,370.7 L269.8,370.8 L270.0,370.8 L270.2,370.7 
		L270.4,370.7 L270.6,370.7 L270.8,370.7 L271.0,370.7 L271.3,370.7 L271.5,370.7 L271.7,370.7 L271.9,370.8 
		L272.1,370.8 L272.3,370.8 L272.5,370.7 L272.7,370.7 L272.9,370.7 L273.1,370.7 L273.3,370.9 L273.5,370.8 
		L273.7,370.7 L273.9,370.7 L274.1,370.7 L274.3,370.7 L274.5,370.7 L274.7,370.9 L274.9,370.8 L275.1,370.8 
		L275.3,370.8 L275.5,370.8 L275.7,370.9 L275.9,370.9 L276.1,370.9 L276.3,370.9 L276.5,371.0 L276.7,370.9 
		L276.9,371.0 L277.1,370.9 L277.3,370.9 L277.5,370.9 L277.7,370.9 L277.9,370.9 L278.1,371.0 L278.3,370.9 
		L278.5,370.9 L278.7,371.0 L278.9,370.9 L279.1,370.9 L279.3,371.0 L279.5,370.9 L279.7,370.9 L279.9,370.9 
		L280.1,371.0 L280.3,370.9 L280.5,370.8 L280.7,370.8 L280.9,370.8 L281.1,370.8 L281.3,370.8 L281.5,370.8 
		L281.7,370.8 L281.9,370.8 L282.1,370.8 L282.3,370.8 L282.5,370.8 L282.7,370.8 L282.9,370.8 L283.1,370.8 
		L283.3,371.2 L283.5,371.2 L283.7,371.2 L283.9,371.2 L284.1,371.2 L284.3,371.2 L284.5,371.3 L284.7,371.3 
		L284.9,371.3 L285.1,371.3 L285.3,371.3 L285.5,371.3 L285.7,371.5 L285.9,371.5 L286.1,371.5 L286.3,371.5 
		L286.5,371.6 L286.7,371.6 L286.9,371.6 L287.1,371.6 L287.3,371.6 L287.5,371.7 L287.7,371.7 L287.9,371.7 
		L288.1,371.8 L288.3,371.7 L288.5,371.7 L288.7,371.7 L288.9,371.7 L289.1,371.7 L289.3,371.8 L289.5,371.8 
		L289.7,371.8 L289.9,372.0 L290.1,372.0 L290.4,372.0 L290.6,372.0 L290.8,372.0 L291.0,372.0 L291.2,372.1 
		L291.4,372.1 L291.6,372.1 L291.8,372.0 L292.0,372.0 L292.2,372.0 L292.4,372.0 L292.6,372.1 L292.8,372.1 
		L293.0,372.1 L293.2,372.1 L293.4,372.1 L293.6,372.2 L293.8,372.2 L294.0,372.2 L294.2,372.2 L294.4,372.2 
		L294.6,372.2 L294.8,372.2 L295.0,372.3 L295.2,372.3 L295.4,372.3 L295.6,372.4 L295.8,372.3 L296.0,372.3 
		L296.2,372.4 L296.4,372.3 L296.6,372.2 L296.8,372.2 L297.0,372.3 L297.2,372.3 L297.4,372.3 L297.6,372.3 
		L297.8,372.3 L298.0,372.5 L298.2,372.5 L298.4,372.5 L298.6,372.5 L298.8,372.5 L299.0,372.6 L299.2,372.6 
		L299.4,372.6 L299.6,372.5 L299.8,372.6 L300.0,372.6 L300.2,372.6 L300.4,372.6 L300.6,372.6 L300.8,372.7 
		L301.0,372.7 L301.2,372.7 L301.4,372.7 L301.6,372.6 L301.8,372.6 L302.0,372.6 L302.2,372.6 L302.4,372.6 
		L302.6,372.6 L302.8,372.7 L303.0,372.7 L303.2,372.7 L303.4,372.8 L303.6,372.8 L303.8,372.8 L304.0,372.9 
		L304.2,372.9 L304.4,372.8 L304.6,372.8 L304.8,372.8 L305.0,372.9 L305.2,373.0 L305.4,373.0 L305.6,372.9 
		L305.8,372.9 L306.0,372.9 L306.2,372.9 L306.4,372.9 L306.6,373.0 L306.8,372.9 L307.0,372.9 L307.2,372.9 
		L307.4,373.0 L307.6,373.0 L307.8,373.0 L308.0,373.0 L308.2,373.0 L308.4,373.1 L308.6,373.1 L308.8,373.1 
		L309.0,373.2 L309.2,373.2 L309.4,373.2 L309.7,373.2 L309.9,373.4 L310.1,373.3 L310.3,373.2 L310.5,373.2 
		L310.7,373.2 L310.9,373.2 L311.1,373.2 L311.3,373.3 L311.5,373.3 L311.7,373.3 L311.9,373.2 L312.1,373.2 
		L312.3,373.2 L312.5,373.2 L312.7,373.2 L312.9,373.4 L313.1,373.4 L313.3,373.3 L313.5,373.3 L313.7,373.3 
		L313.9,373.3 L314.1,373.4 L314.3,373.4 L314.5,373.4 L314.7,373.4 L314.9,373.3 L315.1,373.3 L315.3,373.1 
		L315.5,372.9 L315.7,372.9 L315.9,372.8 L316.1,372.8 L316.3,372.8 L316.5,372.8 L316.7,372.8 L316.9,372.9 
		L317.1,373.0 L317.3,373.0 L317.5,373.0 L317.7,372.9 L317.9,372.9 L318.1,373.0 L318.3,373.0 L318.5,373.0 
		L318.7,373.0 L318.9,373.0 L319.1,373.0 L319.3,373.1 L319.5,373.1 L319.7,373.1 L319.9,373.1 L320.1,373.1 
		L320.3,373.2 L320.5,373.2 L320.7,373.2 L320.9,373.2 L321.1,373.2 L321.3,373.2 L321.5,373.2 L321.7,373.2 
		L321.9,373.2 L322.1,373.2 L322.3,373.3 L322.5,373.3 L322.7,373.3 L322.9,373.3 L323.1,373.4 L323.3,373.3 
		L323.5,373.2 L323.7,373.2 L323.9,373.1 L324.1,373.1 L324.3,373.2 L324.5,373.2 L324.7,373.2 L324.9,373.2 
		L325.1,373.2 L325.3,373.2 L325.5,373.2 L325.7,373.2 L325.9,373.2 L326.1,373.1 L326.3,373.1 L326.5,373.1 
		L326.7,373.2 L326.9,373.2 L327.1,373.2 L327.3,373.2 L327.5,373.3 L327.7,373.2 L327.9,373.2 L328.1,373.2 
		L328.3,373.2 L328.5,373.2 L328.8,373.4 L329.0,373.4 L329.2,373.4 L329.4,373.4 L329.6,373.4 L329.8,373.4 
		L330.0,373.5 L330.2,373.5 L330.4,373.5 L330.6,373.5 L330.8,373.5 L331.0,373.7 L331.2,373.7 L331.4,373.7 
		L331.6,373.8 L331.8,373.7 L332.0,373.7 L332.2,373.8 L332.4,373.8 L332.6,373.8 L332.8,373.7 L333.0,373.8 
		L333.2,373.8 L333.4,373.8 L333.6,373.8 L333.8,373.8 L334.0,373.8 L334.2,373.8 L334.4,373.8 L334.6,373.8 
		L334.8,374.0 L335.0,374.0 L335.2,374.0 L335.4,374.0 L335.6,374.2 L335.8,374.1 L336.0,374.1 L336.2,374.1 
		L336.4,374.1 L336.6,374.1 L336.8,374.2 L337.0,374.2 L337.2,374.2 L337.4,374.2 L337.6,374.3 L337.8,374.3 
		L338.0,374.3 L338.2,374.3 L338.4,374.2 L338.6,374.2 L338.8,374.2 L339.0,374.2 L339.2,374.4 L339.4,374.4 
		L339.6,374.4 L339.8,374.5 L340.0,374.4 L340.2,374.4 L340.4,374.4 L340.6,374.4 L340.8,374.5 L341.0,374.4 
		L341.2,374.4 L341.4,374.4 L341.6,374.4 L341.8,374.3 L342.0,374.3 L342.2,374.3 L342.4,374.3 L342.6,374.3 
		L342.8,374.3 L343.0,374.3 L343.2,374.3 L343.4,374.3 L343.6,374.3 L343.8,374.3 L344.0,374.3 L344.2,374.3 
		L344.4,374.3 L344.6,374.3 L344.8,374.9 L345.0,374.9 L345.2,374.8 L345.4,374.8 L345.6,374.8 L345.8,374.8 
		L346.0,374.8 L346.2,374.8 L346.4,374.9 L346.6,374.9 L346.8,374.9 L347.0,374.9 L347.2,375.0 L347.4,374.9 
		L347.6,374.9 L347.9,374.9 L348.1,374.9 L348.3,374.9 L348.5,375.1 L348.7,375.1 L348.9,375.1 L349.1,375.1 
		L349.3,375.1 L349.5,375.2 L349.7,375.2 L349.9,375.2 L350.1,375.3 L350.3,375.3 L350.5,375.3 L350.7,375.3 
		L350.9,375.4 L351.1,375.4 L351.3,375.4 L351.5,375.4 L351.7,375.4 L351.9,375.4 L352.1,375.4 L352.3,375.4 
		L352.5,375.4 L352.7,375.5 L352.9,375.5 L353.1,375.5 L353.3,375.5 L353.5,375.5 L353.7,375.5 L353.9,375.5 
		L354.1,375.5 L354.3,375.5 L354.5,375.6 L354.7,375.6 L354.9,375.6 L355.1,375.6 L355.3,375.6 L355.5,375.6 
		L355.7,375.6 L355.9,375.6 L356.1,375.6 L356.3,375.7 L356.5,375.7 L356.7,375.6 L356.9,375.7 L357.1,375.6 
		L357.3,375.6 L357.5,375.6 L357.7,375.6 L357.9,375.6 L358.1,375.5 L358.3,375.5 L358.5,375.5 L358.7,375.5 
		L358.9,375.6 L359.1,375.6 L359.3,375.6 L359.5,375.6 L359.7,375.7 L359.9,375.7 L360.1,375.7 L360.3,375.7 
		L360.5,375.7 L360.7,375.9 L360.9,375.8 L361.1,375.8 L361.3,375.8 L361.5,375.8 L361.7,375.8 L361.9,375.8 
		L362.1,375.8 L362.3,375.9 L362.5,375.8 L362.7,375.8 L362.9,375.9 L363.1,375.9 L363.3,375.8 L363.5,375.8 
		L363.7,375.9 L363.9,375.9 L364.1,375.9 L364.3,375.9 L364.5,375.9 L364.7,375.9 L364.9,375.9 L365.1,375.9 
		L365.3,375.9 L365.5,376.0 L365.7,376.0 L365.9,376.0 L366.1,376.0 L366.3,376.0 L366.5,376.0 L366.7,375.9 
		L367.0,375.9 L367.2,375.9 L367.4,375.9 L367.6,376.1 L367.8,376.1 L368.0,376.0 L368.2,376.0 L368.4,376.0 
		L368.6,376.1 L368.8,376.0 L369.0,376.0 L369.2,376.0 L369.4,376.0 L369.6,376.1 L369.8,376.0 L370.0,376.0 
		L370.2,375.9 L370.4,375.8 L370.6,375.8 L370.8,375.8 L371.0,375.8 L371.2,375.8 L371.4,375.9 L371.6,375.9 
		L371.8,376.0 L372.0,375.9 L372.2,375.9 L372.4,375.9 L372.6,375.9 L372.8,375.9 L373.0,375.9 L373.2,375.9 
		L373.4,376.0 L373.6,376.0 L373.8,376.0 L374.0,376.0 L374.2,376.0 L374.4,376.1 L374.6,376.1 L374.8,376.1 
		L375.0,376.1 L375.2,376.2 L375.4,376.2 L375.6,376.2 L375.8,376.2 L376.0,376.2 L376.2,376.2 L376.4,376.2 
		L376.6,376.3 L376.8,376.3 L377.0,376.3 L377.2,376.4 L377.4,376.4 L377.6,376.4 L377.8,376.4 L378.0,376.4 
		L378.2,376.4 L378.4,376.4 L378.6,376.4 L378.8,376.5 L379.0,376.5 L379.2,376.6 L379.4,376.6 L379.6,376.6 
		L379.8,376.7 L380.0,376.7 L380.2,376.7 L380.4,376.7 L380.6,376.7 L380.8,376.7 L381.0,376.7 L381.2,376.7 
		L381.4,376.7 L381.6,376.8 L381.8,376.9 L382.0,376.9 L382.2,376.9 L382.4,376.9 L382.6,376.9 L382.8,376.9 
		L383.0,377.0 L383.2,376.9 L383.4,376.9 L383.6,376.9 L383.8,376.9 L384.0,376.9 L384.2,376.9 L384.4,376.9 
		L384.6,376.9 L384.8,376.9 L385.0,376.9 L385.2,377.0 L385.4,377.0 L385.6,377.0 L385.8,376.9 L386.0,376.8 
		L386.3,376.8 L386.5,376.8 L386.7,376.9 L386.9,376.8 L387.1,376.8 L387.3,376.8 L387.5,376.8 L387.7,376.8 
		L387.9,376.9 L388.1,376.9 L388.3,376.8 L388.5,376.8 L388.7,376.9 L388.9,376.9 L389.1,376.9 L389.3,376.9 
		L389.5,376.9 L389.7,376.9 L389.9,376.9 L390.1,376.9 L390.3,377.0 L390.5,377.0 L390.7,377.0 L390.9,377.0 
		L391.1,377.0 L391.3,376.9 L391.5,376.9 L391.7,376.9 L391.9,376.9 L392.1,376.9 L392.3,376.9 L392.5,376.9 
		L392.7,377.0 L392.9,377.0 L393.1,377.0 L393.3,377.0 L393.5,377.0 L393.7,377.0 L393.9,377.0 L394.1,377.0 
		L394.3,377.0 L394.5,377.0 L394.7,376.9 L394.9,376.9 L395.1,377.0 L395.3,377.0 L395.5,376.9 L395.7,376.9 
		L395.9,376.9 L396.1,376.9 L396.3,376.9 L396.5,377.0 L396.7,377.0 L396.9,377.0 L397.1,377.0 L397.3,377.0 
		L397.5,377.0 L397.7,377.0 L397.9,377.0 L398.1,377.0 L398.3,377.0 L398.5,377.0 L398.7,376.9 L398.9,376.9 
		L399.1,376.9 L399.3,376.9 L399.5,376.9 L399.7,376.9 L399.9,376.9 L400.1,376.9 L400.3,376.9 L400.5,376.9 
		L400.7,377.0 L400.9,377.0 L401.1,377.0 L401.3,377.0 L401.5,377.0 L401.7,377.0 L401.9,377.0 L402.1,377.0 
		L402.3,377.0 L402.5,377.0 L402.7,377.0 L402.9,377.0 L403.1,377.0 L403.3,377.0 L403.5,377.0 L403.7,377.0 
		L403.9,377.3 L404.1,377.3 L404.3,377.3 L404.5,377.2 L404.7,377.2 L404.9,377.2 L405.1,377.2 L405.4,377.2 
		L405.6,377.2 L405.8,377.3 L406.0,377.3 L406.2,377.3 L406.4,377.3 L406.6,377.3 L406.8,377.4 L407.0,377.4 
		L407.2,377.4 L407.4,377.5 L407.6,377.5 L407.8,377.4 L408.0,377.3 L408.2,377.3 L408.4,377.3 L408.6,377.3 
		L408.8,377.1 L409.0,377.1 L409.2,377.1 L409.4,377.1 L409.6,377.1 L409.8,377.0 L410.0,377.0 L410.2,377.0 
		L410.4,377.1 L410.6,377.0 L410.8,377.0 L411.0,376.9 L411.2,376.9 L411.4,376.9 L411.6,377.0 L411.8,377.0 
		L412.0,376.9 L412.2,376.8 L412.4,376.8 L412.6,376.8 L412.8,376.7 L413.0,376.6 L413.2,376.6 L413.4,376.5 
		L413.6,376.4 L413.8,376.4 L414.0,376.5 L414.2,376.5 L414.4,376.5 L414.6,376.5 L414.8,376.5 L415.0,376.5 
		L415.2,376.5 L415.4,376.5 L415.6,376.5 L415.8,376.5 L416.0,376.4 L416.2,376.4 L416.4,376.4 L416.6,376.4 
		L416.8,376.4 L417.0,376.5 L417.2,376.5 L417.4,376.5 L417.6,376.5 L417.8,376.5 L418.0,376.6 L418.2,376.6 
		L418.4,376.6 L418.6,376.6 L418.8,376.6 L419.0,376.7 L419.2,376.7 L419.4,376.7 L419.6,376.7 L419.8,376.7 
		L420.0,376.7 L420.2,376.9 L420.4,376.9 L420.6,376.9 L420.8,376.9 L421.0,376.9 L421.2,376.8 L421.4,376.8 
		L421.6,376.9 L421.8,376.8 L422.0,376.8 L422.2,376.8 L422.4,376.8 L422.6,376.8 L422.8,376.8 L423.0,376.8 
		L423.2,376.8 L423.4,376.8 L423.6,376.9 L423.8,376.9 L424.0,376.9 L424.2,376.9 L424.5,376.9 L424.7,376.9 
		L424.9,376.9 L425.1,376.9 L425.3,376.9 L425.5,376.9 L425.7,376.9 L425.9,377.0 L426.1,377.0 L426.3,377.0 
		L426.5,377.0 L426.7,377.0 L426.9,377.0 L427.1,377.0 L427.3,377.0 L427.5,377.0 L427.7,377.1 L427.9,377.0 
		L428.1,377.0 L428.3,377.0 L428.5,377.0 L428.7,377.0 L428.9,377.0 L429.1,377.0 L429.3,377.0 L429.5,377.0 
		L429.7,377.0 L429.9,377.0 L430.1,377.0 L430.3,377.0 L430.5,376.9 L430.7,376.9 L430.9,376.9 L431.1,376.8 
		L431.3,376.8 L431.5,376.8 L431.7,376.8 L431.9,376.8 L432.1,376.8 L432.3,376.8 L432.5,376.7 L432.7,376.7 
		L432.9,376.7 L433.1,376.6 L433.3,376.6 L433.5,376.7 L433.7,376.7 L433.9,376.7 L434.1,376.7 L434.3,376.7 
		L434.5,376.7 L434.7,376.6 L434.9,376.6 L435.1,376.5 L435.3,376.6 L435.5,376.5 L435.7,376.5 L435.9,376.5 
		L436.1,376.6 L436.3,376.5 L436.5,376.5 L436.7,376.5 L436.9,376.5 L437.1,376.5 L437.3,376.5 L437.5,376.5 
		L437.7,376.5 L437.9,376.6 L438.1,376.6 L438.3,376.6 L438.5,376.6 L438.7,376.6 L438.9,376.6 L439.1,376.7 
		L439.3,376.7 L439.5,376.7 L439.7,376.7 L439.9,376.7 L440.1,376.8 L440.3,376.8 L440.5,376.8 L440.7,376.8 
		L440.9,376.7 L441.1,376.7 L441.3,376.7 L441.5,376.7 L441.7,376.8 L441.9,376.8 L442.1,376.8 L442.3,376.7 
		L442.5,376.7 L442.7,376.7 L442.9,376.7 L443.1,376.7 L443.3,376.6 L443.6,376.5 L443.8,376.6 L444.0,376.6 
		L444.2,376.6 L444.4,376.6 L444.6,376.6 L444.8,376.5 L445.0,376.5 L445.2,376.5 L445.4,376.5 L445.6,376.5 
		L445.8,376.5 L446.0,376.5 L446.2,376.6 L446.4,376.6 L446.6,376.6 L446.8,376.6 L447.0,376.6 L447.2,376.6 
		L447.4,376.5 L447.6,376.5 L447.8,376.5 L448.0,376.5 L448.2,376.5 L448.4,376.6 L448.6,376.6 L448.8,376.6 
		L449.0,376.7 L449.2,376.5 L449.4,376.5 L449.6,376.5 L449.8,376.4 L450.0,376.4 L450.2,376.4 L450.4,376.4 
		L450.6,376.5 L450.8,376.5 L451.0,376.5 L451.2,376.5 L451.4,376.5 L451.6,376.5 L451.8,376.5 L452.0,376.5 
		L452.2,376.5 L452.4,376.5 L452.6,376.4 L452.8,376.4 L453.0,376.4 L453.2,376.4 L453.4,376.4 L453.6,376.4 
		L453.8,376.4 L454.0,376.4 L454.2,376.5 L454.4,376.5 L454.6,376.5 L454.8,376.4 L455.0,376.4 L455.2,376.4 
		L455.4,376.5 L455.6,376.5 L455.8,376.4 L456.0,376.3 L456.2,376.3 L456.4,376.3 L456.6,376.2 L456.8,376.2 
		L457.0,376.2 L457.2,376.2 L457.4,376.2 L457.6,376.2 L457.8,376.2 L458.0,376.2 L458.2,376.3 L458.4,376.3 
		L458.6,376.3 L458.8,376.3 L459.0,376.3 L459.2,376.2 L459.4,376.3 L459.6,376.3 L459.8,376.3 L460.0,376.3 
		L460.2,376.4 L460.4,376.2 L460.6,376.2 L460.8,376.2 L461.0,376.2 L461.2,376.2 L461.4,376.2 L461.6,376.2 
		L461.8,376.2 L462.0,376.2 L462.2,376.2 L462.4,376.2 L462.7,376.2 L462.9,376.2 L463.1,376.2 L463.3,376.2 
		L463.5,376.4 L463.7,376.4 L463.9,376.4 L464.1,376.4 L464.3,376.5 L464.5,376.5 L464.7,376.5 L464.9,376.5 
		L465.1,376.5 L465.3,376.5 L465.5,376.5 L465.7,376.5 L465.9,376.5 L466.1,376.5 L466.3,376.5 L466.5,376.5 
		L466.7,376.6 L466.9,376.6 L467.1,376.6 L467.3,376.6 L467.5,376.6 L467.7,376.6 L467.9,376.6 L468.1,376.7 
		L468.3,376.7 L468.5,376.7 L468.7,376.7 L468.9,376.7 L469.1,376.7 L469.3,376.7 L469.5,376.7 L469.7,376.8 
		L469.9,376.8 L470.1,376.7 L470.3,376.5 L470.5,376.5 L470.7,376.5 L470.9,376.5 L471.1,376.5 L471.3,376.5 
		L471.5,376.5 L471.7,376.5 L471.9,376.5 L472.1,376.5 L472.3,376.5 L472.5,376.4 L472.7,376.4 L472.9,376.4 
		L473.1,376.4 L473.3,376.4 L473.5,376.4 L473.7,376.4 L473.9,376.4 L474.1,376.4 L474.3,376.4 L474.5,376.4 
		L474.7,376.4 L474.9,376.4 L475.1,376.3 L475.3,376.3 L475.5,376.3 L475.7,376.2 L475.9,376.2 L476.1,376.2 
		L476.3,376.2 L476.5,376.3 L476.7,376.2 L476.9,376.1 L477.1,376.0 L477.3,376.0 L477.5,376.0 L477.7,376.0 
		L477.9,376.0 L478.1,376.0 L478.3,376.0 L478.5,376.0 L478.7,376.0 L478.9,376.0 L479.1,376.0 L479.3,376.0 
		L479.5,376.0 L479.7,376.1 L479.9,376.1 L480.1,376.1 L480.3,376.1 L480.5,376.1 L480.7,376.1 L480.9,376.1 
		L481.1,376.2 L481.3,376.2 L481.5,376.3 L481.7,376.3 L482.0,376.3 L482.2,376.3 L482.4,376.3 L482.6,376.3 
		L482.8,376.3 L483.0,376.3 L483.2,376.4 L483.4,376.4 L483.6,376.4 L483.8,376.4 L484.0,376.4 L484.2,376.4 
		L484.4,376.5 L484.6,376.5 L484.8,376.4 L485.0,376.5 L485.2,376.5 L485.4,376.5 L485.6,376.5 L485.8,376.4 
		L486.0,376.4 L486.2,376.4 L486.4,376.4 L486.6,376.4 L486.8,376.5 L487.0,376.5 L487.2,376.5 L487.4,376.5 
		L487.6,376.5 L487.8,376.5 L488.0,376.5 L488.2,376.5 L488.4,376.5 L488.6,376.4 L488.8,376.4 L489.0,376.4 
		L489.2,376.4 L489.4,376.5 L489.6,376.5 L489.8,376.5 L490.0,376.5 L490.2,376.5 L490.4,376.5 L490.6,376.5 
		 h0.01'/></g>
	</g>
	<g id="gnuplot_plot_2" ><title>gnuplot_plot_2</title>
<g style="fill:none; color:green; stroke:currentColor; stroke-width:1.00; stroke-linecap:butt; stroke-linejoin:miter">
	<g transform="translate(423.5,408.9)" style="stroke:none; fill:black; font-family:Arial; font-size:12.00pt; text-anchor:end">
		<text>Radio maximum capacity</text>
	</g>
	<path  d='M431.8,404.4 L474.0,404.4 M90.7,60.0 L90.9,246.5 L91.1,280.0 L91.3,270.9 L91.5,227.0 L91.7,167.9 
		L91.9,195.2 L92.1,191.9 L92.3,223.4 L92.5,215.9 L92.7,230.7 L92.9,214.4 L93.1,221.2 L93.3,228.1 
		L93.5,232.0 L93.7,242.7 L93.9,250.9 L94.1,250.9 L94.3,250.9 L94.5,250.9 L94.7,282.5 L94.9,286.5 
		L95.1,286.5 L95.3,298.7 L95.5,301.2 L95.7,301.2 L95.9,301.2 L96.1,301.2 L96.3,301.2 L96.5,301.2 
		L96.7,325.9 L96.9,321.5 L97.1,321.5 L97.3,325.5 L97.5,329.3 L97.7,329.5 L97.9,329.2 L98.1,329.2 
		L98.3,331.9 L98.5,331.9 L98.7,331.9 L99.0,331.9 L99.2,340.9 L99.4,332.9 L99.6,333.6 L99.8,333.6 
		L100.0,333.6 L100.2,338.7 L100.4,337.6 L100.6,337.6 L100.8,341.2 L101.0,335.2 L101.2,335.2 L101.4,337.7 
		L101.6,338.4 L101.8,338.4 L102.0,339.0 L102.2,334.7 L102.4,334.7 L102.6,334.7 L102.8,337.9 L103.0,337.9 
		L103.2,340.7 L103.4,340.2 L103.6,340.2 L103.8,342.3 L104.0,342.3 L104.2,343.8 L104.4,339.8 L104.6,339.4 
		L104.8,340.3 L105.0,341.9 L105.2,342.4 L105.4,342.4 L105.6,344.5 L105.8,340.1 L106.0,339.3 L106.2,339.3 
		L106.4,341.9 L106.6,341.8 L106.8,341.8 L107.0,342.6 L107.2,341.7 L107.4,341.7 L107.6,341.7 L107.8,344.5 
		L108.0,345.6 L108.2,343.5 L108.4,343.4 L108.6,342.9 L108.8,342.9 L109.0,343.7 L109.2,343.7 L109.4,344.7 
		L109.6,344.6 L109.8,344.2 L110.0,343.8 L110.2,343.8 L110.4,345.1 L110.6,345.1 L110.8,345.1 L111.0,345.1 
		L111.2,348.1 L111.4,347.7 L111.6,347.2 L111.8,346.3 L112.0,346.3 L112.2,346.3 L112.4,346.3 L112.6,346.3 
		L112.8,346.3 L113.0,346.3 L113.2,346.3 L113.4,346.3 L113.6,346.3 L113.8,352.9 L114.0,352.9 L114.2,352.2 
		L114.4,352.6 L114.6,351.8 L114.8,351.8 L115.0,351.8 L115.2,351.8 L115.4,354.1 L115.6,351.6 L115.8,350.5 
		L116.0,350.2 L116.2,350.2 L116.4,351.4 L116.6,351.4 L116.8,352.7 L117.0,352.6 L117.2,353.2 L117.4,352.9 
		L117.6,352.9 L117.8,352.9 L118.1,352.9 L118.3,354.4 L118.5,353.8 L118.7,354.0 L118.9,354.6 L119.1,354.6 
		L119.3,355.3 L119.5,355.6 L119.7,355.6 L119.9,356.2 L120.1,356.2 L120.3,356.8 L120.5,356.8 L120.7,356.9 
		L120.9,356.1 L121.1,356.0 L121.3,355.2 L121.5,355.2 L121.7,355.0 L121.9,353.8 L122.1,353.8 L122.3,353.8 
		L122.5,353.8 L122.7,355.0 L122.9,355.5 L123.1,355.5 L123.3,355.5 L123.5,355.8 L123.7,356.1 L123.9,356.1 
		L124.1,357.0 L124.3,356.6 L124.5,356.6 L124.7,356.6 L124.9,356.6 L125.1,357.9 L125.3,357.2 L125.5,355.4 
		L125.7,355.4 L125.9,355.9 L126.1,355.9 L126.3,356.4 L126.5,356.6 L126.7,356.6 L126.9,356.8 L127.1,356.7 
		L127.3,357.3 L127.5,356.5 L127.7,356.7 L127.9,356.7 L128.1,357.4 L128.3,356.9 L128.5,356.6 L128.7,356.8 
		L128.9,357.1 L129.1,357.0 L129.3,356.6 L129.5,356.6 L129.7,356.6 L129.9,357.5 L130.1,357.3 L130.3,357.3 
		L130.5,357.3 L130.7,357.9 L130.9,357.7 L131.1,357.7 L131.3,357.7 L131.5,357.7 L131.7,359.0 L131.9,358.1 
		L132.1,357.9 L132.3,357.9 L132.5,357.9 L132.7,357.9 L132.9,358.3 L133.1,358.3 L133.3,358.3 L133.5,358.7 
		L133.7,358.7 L133.9,358.5 L134.1,358.5 L134.3,358.5 L134.5,359.3 L134.7,359.5 L134.9,358.9 L135.1,358.9 
		L135.3,359.6 L135.5,359.6 L135.7,359.6 L135.9,359.3 L136.1,359.3 L136.3,359.3 L136.6,359.3 L136.8,360.2 
		L137.0,360.5 L137.2,359.8 L137.4,359.4 L137.6,359.6 L137.8,359.8 L138.0,359.3 L138.2,359.3 L138.4,359.5 
		L138.6,359.6 L138.8,359.6 L139.0,359.6 L139.2,359.6 L139.4,360.8 L139.6,360.3 L139.8,360.3 L140.0,360.3 
		L140.2,361.1 L140.4,361.1 L140.6,361.1 L140.8,361.1 L141.0,361.8 L141.2,362.1 L141.4,362.0 L141.6,362.0 
		L141.8,361.2 L142.0,361.4 L142.2,361.4 L142.4,361.4 L142.6,361.5 L142.8,361.4 L143.0,361.6 L143.2,361.6 
		L143.4,361.6 L143.6,362.2 L143.8,361.8 L144.0,361.7 L144.2,361.7 L144.4,361.7 L144.6,361.5 L144.8,361.5 
		L145.0,362.1 L145.2,362.0 L145.4,362.0 L145.6,361.9 L145.8,362.0 L146.0,362.0 L146.2,362.0 L146.4,362.6 
		L146.6,362.4 L146.8,362.4 L147.0,362.4 L147.2,362.4 L147.4,362.4 L147.6,363.4 L147.8,362.8 L148.0,362.9 
		L148.2,362.9 L148.4,363.2 L148.6,363.4 L148.8,363.4 L149.0,363.2 L149.2,363.2 L149.4,363.5 L149.6,363.5 
		L149.8,363.9 L150.0,363.9 L150.2,363.9 L150.4,363.9 L150.6,364.4 L150.8,364.5 L151.0,363.8 L151.2,363.6 
		L151.4,363.2 L151.6,363.2 L151.8,363.5 L152.0,363.5 L152.2,363.4 L152.4,363.3 L152.6,363.0 L152.8,363.0 
		L153.0,363.3 L153.2,363.3 L153.4,363.3 L153.6,363.3 L153.8,363.3 L154.0,363.7 L154.2,363.6 L154.4,363.0 
		L154.6,363.0 L154.8,363.2 L155.0,363.2 L155.2,363.2 L155.4,363.9 L155.7,363.4 L155.9,363.6 L156.1,363.6 
		L156.3,362.8 L156.5,362.8 L156.7,362.8 L156.9,362.8 L157.1,363.2 L157.3,363.4 L157.5,363.4 L157.7,363.4 
		L157.9,363.4 L158.1,363.4 L158.3,363.4 L158.5,363.4 L158.7,364.0 L158.9,364.0 L159.1,363.9 L159.3,363.9 
		L159.5,363.8 L159.7,363.9 L159.9,362.5 L160.1,361.9 L160.3,360.8 L160.5,360.8 L160.7,360.8 L160.9,360.8 
		L161.1,360.8 L161.3,361.5 L161.5,361.5 L161.7,361.6 L161.9,361.6 L162.1,361.6 L162.3,361.6 L162.5,361.9 
		L162.7,361.6 L162.9,361.7 L163.1,361.7 L163.3,361.9 L163.5,361.9 L163.7,361.9 L163.9,362.2 L164.1,362.2 
		L164.3,362.2 L164.5,362.4 L164.7,362.0 L164.9,361.6 L165.1,361.6 L165.3,361.6 L165.5,362.0 L165.7,361.9 
		L165.9,361.9 L166.1,361.9 L166.3,362.1 L166.5,362.1 L166.7,362.1 L166.9,362.2 L167.1,361.2 L167.3,361.2 
		L167.5,361.2 L167.7,361.2 L167.9,361.2 L168.1,361.2 L168.3,362.1 L168.5,361.9 L168.7,361.9 L168.9,361.9 
		L169.1,362.3 L169.3,361.2 L169.5,361.1 L169.7,361.2 L169.9,361.5 L170.1,361.3 L170.3,361.3 L170.5,361.3 
		L170.7,361.9 L170.9,361.7 L171.1,361.7 L171.3,361.6 L171.5,361.6 L171.7,361.6 L171.9,361.8 L172.1,361.8 
		L172.3,361.9 L172.5,361.9 L172.7,361.9 L172.9,361.9 L173.1,362.5 L173.3,361.8 L173.5,361.9 L173.7,362.0 
		L173.9,362.0 L174.1,362.2 L174.3,361.7 L174.5,361.4 L174.8,361.4 L175.0,361.6 L175.2,361.2 L175.4,361.1 
		L175.6,361.1 L175.8,361.3 L176.0,361.2 L176.2,361.0 L176.4,361.0 L176.6,361.0 L176.8,360.5 L177.0,360.0 
		L177.2,359.8 L177.4,359.9 L177.6,359.7 L177.8,359.1 L178.0,359.1 L178.2,359.4 L178.4,359.4 L178.6,359.4 
		L178.8,359.5 L179.0,359.5 L179.2,359.5 L179.4,359.5 L179.6,360.1 L179.8,359.8 L180.0,359.8 L180.2,359.8 
		L180.4,359.9 L180.6,359.7 L180.8,359.8 L181.0,359.8 L181.2,359.8 L181.4,360.1 L181.6,359.7 L181.8,359.6 
		L182.0,359.4 L182.2,359.4 L182.4,359.6 L182.6,359.6 L182.8,359.6 L183.0,359.8 L183.2,359.7 L183.4,359.7 
		L183.6,359.7 L183.8,359.7 L184.0,359.7 L184.2,359.9 L184.4,359.6 L184.6,359.6 L184.8,359.6 L185.0,359.6 
		L185.2,359.8 L185.4,359.8 L185.6,359.8 L185.8,359.8 L186.0,360.1 L186.2,359.6 L186.4,359.5 L186.6,359.5 
		L186.8,359.6 L187.0,359.7 L187.2,359.7 L187.4,359.7 L187.6,359.9 L187.8,359.7 L188.0,359.7 L188.2,359.4 
		L188.4,359.3 L188.6,359.3 L188.8,359.3 L189.0,359.3 L189.2,359.4 L189.4,359.2 L189.6,359.3 L189.8,359.2 
		L190.0,359.2 L190.2,359.3 L190.4,359.1 L190.6,359.2 L190.8,359.2 L191.0,359.3 L191.2,359.2 L191.4,359.2 
		L191.6,359.4 L191.8,359.4 L192.0,359.4 L192.2,359.4 L192.4,359.4 L192.6,360.1 L192.8,360.1 L193.0,360.1 
		L193.2,360.1 L193.4,360.2 L193.6,360.2 L193.9,360.3 L194.1,360.3 L194.3,360.3 L194.5,360.3 L194.7,360.3 
		L194.9,360.6 L195.1,360.6 L195.3,360.5 L195.5,360.5 L195.7,360.4 L195.9,360.5 L196.1,360.3 L196.3,360.3 
		L196.5,360.3 L196.7,360.6 L196.9,360.1 L197.1,360.1 L197.3,360.1 L197.5,360.4 L197.7,360.2 L197.9,360.2 
		L198.1,360.2 L198.3,360.2 L198.5,360.2 L198.7,360.2 L198.9,360.9 L199.1,360.8 L199.3,360.8 L199.5,360.8 
		L199.7,360.8 L199.9,360.8 L200.1,360.8 L200.3,360.8 L200.5,361.6 L200.7,361.6 L200.9,361.4 L201.1,361.4 
		L201.3,361.4 L201.5,361.4 L201.7,361.4 L201.9,361.3 L202.1,361.3 L202.3,361.3 L202.5,361.3 L202.7,361.4 
		L202.9,361.4 L203.1,361.6 L203.3,361.1 L203.5,361.0 L203.7,361.1 L203.9,361.2 L204.1,360.4 L204.3,360.4 
		L204.5,360.6 L204.7,360.5 L204.9,360.4 L205.1,360.4 L205.3,360.4 L205.5,360.4 L205.7,360.5 L205.9,360.1 
		L206.1,359.9 L206.3,359.9 L206.5,359.9 L206.7,359.9 L206.9,360.3 L207.1,360.1 L207.3,360.0 L207.5,360.0 
		L207.7,360.2 L207.9,360.1 L208.1,360.1 L208.3,360.1 L208.5,360.2 L208.7,360.2 L208.9,360.2 L209.1,360.4 
		L209.3,360.5 L209.5,360.4 L209.7,360.4 L209.9,360.4 L210.1,360.5 L210.3,360.6 L210.5,360.6 L210.7,360.6 
		L210.9,360.7 L211.1,360.7 L211.3,360.7 L211.5,360.7 L211.7,361.2 L211.9,361.1 L212.1,361.1 L212.3,361.1 
		L212.5,361.4 L212.7,361.3 L212.9,361.3 L213.2,361.0 L213.4,360.9 L213.6,360.8 L213.8,360.8 L214.0,360.8 
		L214.2,360.9 L214.4,360.9 L214.6,360.9 L214.8,360.9 L215.0,360.8 L215.2,360.7 L215.4,360.7 L215.6,360.4 
		L215.8,360.4 L216.0,360.4 L216.2,360.4 L216.4,360.3 L216.6,360.3 L216.8,360.5 L217.0,360.4 L217.2,360.4 
		L217.4,360.2 L217.6,360.2 L217.8,360.2 L218.0,360.2 L218.2,360.3 L218.4,360.3 L218.6,360.3 L218.8,360.5 
		L219.0,360.5 L219.2,360.6 L219.4,360.6 L219.6,360.7 L219.8,360.7 L220.0,360.7 L220.2,360.7 L220.4,360.7 
		L220.6,360.7 L220.8,361.2 L221.0,361.1 L221.2,361.1 L221.4,361.1 L221.6,361.1 L221.8,361.5 L222.0,361.5 
		L222.2,361.5 L222.4,361.5 L222.6,361.5 L222.8,361.5 L223.0,361.5 L223.2,362.1 L223.4,362.2 L223.6,362.2 
		L223.8,362.1 L224.0,362.1 L224.2,362.1 L224.4,362.1 L224.6,362.4 L224.8,362.4 L225.0,362.4 L225.2,362.2 
		L225.4,362.2 L225.6,362.2 L225.8,362.2 L226.0,362.4 L226.2,362.2 L226.4,362.2 L226.6,362.2 L226.8,362.3 
		L227.0,362.4 L227.2,362.3 L227.4,362.3 L227.6,362.3 L227.8,362.2 L228.0,362.2 L228.2,362.3 L228.4,362.2 
		L228.6,362.3 L228.8,362.3 L229.0,362.3 L229.2,362.3 L229.4,362.5 L229.6,362.6 L229.8,362.5 L230.0,362.5 
		L230.2,362.7 L230.4,362.7 L230.6,362.9 L230.8,362.7 L231.0,362.7 L231.2,362.7 L231.4,362.7 L231.6,362.7 
		L231.8,362.7 L232.0,362.7 L232.3,362.8 L232.5,362.6 L232.7,362.6 L232.9,362.6 L233.1,362.6 L233.3,362.6 
		L233.5,363.0 L233.7,362.9 L233.9,362.9 L234.1,363.1 L234.3,363.1 L234.5,363.2 L234.7,363.2 L234.9,363.4 
		L235.1,363.5 L235.3,363.1 L235.5,362.9 L235.7,362.8 L235.9,362.8 L236.1,362.8 L236.3,362.8 L236.5,363.2 
		L236.7,363.2 L236.9,363.3 L237.1,363.3 L237.3,363.2 L237.5,363.2 L237.7,363.2 L237.9,363.2 L238.1,363.3 
		L238.3,363.4 L238.5,363.3 L238.7,363.3 L238.9,363.3 L239.1,363.2 L239.3,363.1 L239.5,363.0 L239.7,363.0 
		L239.9,362.8 L240.1,362.7 L240.3,362.5 L240.5,362.3 L240.7,362.2 L240.9,362.0 L241.1,362.0 L241.3,362.0 
		L241.5,362.0 L241.7,362.0 L241.9,362.0 L242.1,362.0 L242.3,362.1 L242.5,362.1 L242.7,362.1 L242.9,361.9 
		L243.1,361.8 L243.3,361.8 L243.5,361.8 L243.7,361.7 L243.9,361.7 L244.1,361.3 L244.3,361.3 L244.5,361.3 
		L244.7,361.4 L244.9,361.3 L245.1,361.4 L245.3,361.4 L245.5,361.4 L245.7,361.4 L245.9,361.4 L246.1,361.4 
		L246.3,361.7 L246.5,361.4 L246.7,361.4 L246.9,361.4 L247.1,361.4 L247.3,361.6 L247.5,361.5 L247.7,361.5 
		L247.9,361.5 L248.1,361.5 L248.3,361.8 L248.5,361.8 L248.7,361.8 L248.9,361.8 L249.1,362.1 L249.3,362.1 
		L249.5,362.1 L249.7,362.1 L249.9,362.3 L250.1,362.2 L250.3,362.2 L250.5,362.2 L250.7,362.2 L250.9,362.2 
		L251.1,362.2 L251.3,362.7 L251.5,362.7 L251.7,362.8 L251.9,362.8 L252.2,362.6 L252.4,362.6 L252.6,362.7 
		L252.8,362.6 L253.0,362.6 L253.2,362.6 L253.4,362.6 L253.6,362.6 L253.8,362.9 L254.0,362.4 L254.2,362.4 
		L254.4,362.5 L254.6,362.4 L254.8,362.4 L255.0,362.4 L255.2,362.4 L255.4,362.5 L255.6,362.3 L255.8,362.3 
		L256.0,362.3 L256.2,362.3 L256.4,362.3 L256.6,362.3 L256.8,362.3 L257.0,362.6 L257.2,362.1 L257.4,362.0 
		L257.6,361.8 L257.8,361.5 L258.0,361.5 L258.2,361.6 L258.4,361.5 L258.6,361.5 L258.8,361.5 L259.0,361.5 
		L259.2,361.8 L259.4,361.8 L259.6,361.7 L259.8,361.7 L260.0,361.7 L260.2,361.7 L260.4,361.7 L260.6,361.9 
		L260.8,362.0 L261.0,362.0 L261.2,361.8 L261.4,361.8 L261.6,361.9 L261.8,361.7 L262.0,361.7 L262.2,361.9 
		L262.4,361.4 L262.6,361.4 L262.8,361.3 L263.0,361.3 L263.2,361.3 L263.4,361.3 L263.6,361.4 L263.8,361.3 
		L264.0,361.3 L264.2,361.3 L264.4,361.3 L264.6,361.4 L264.8,361.4 L265.0,361.5 L265.2,361.3 L265.4,361.3 
		L265.6,361.3 L265.8,361.5 L266.0,361.3 L266.2,361.3 L266.4,361.4 L266.6,361.3 L266.8,361.4 L267.0,361.4 
		L267.2,361.4 L267.4,361.4 L267.6,361.6 L267.8,361.6 L268.0,361.7 L268.2,361.7 L268.4,361.7 L268.6,361.7 
		L268.8,362.0 L269.0,361.6 L269.2,361.7 L269.4,361.6 L269.6,361.6 L269.8,361.7 L270.0,361.7 L270.2,361.7 
		L270.4,361.7 L270.6,361.7 L270.8,361.7 L271.0,361.7 L271.3,361.6 L271.5,361.6 L271.7,361.6 L271.9,361.7 
		L272.1,361.7 L272.3,361.8 L272.5,361.6 L272.7,361.6 L272.9,361.6 L273.1,361.6 L273.3,361.8 L273.5,361.7 
		L273.7,361.6 L273.9,361.6 L274.1,361.4 L274.3,361.4 L274.5,361.6 L274.7,361.6 L274.9,361.4 L275.1,361.4 
		L275.3,361.2 L275.5,361.2 L275.7,361.2 L275.9,361.2 L276.1,361.3 L276.3,361.3 L276.5,361.3 L276.7,361.2 
		L276.9,361.3 L277.1,361.2 L277.3,361.2 L277.5,361.1 L277.7,361.1 L277.9,361.1 L278.1,361.2 L278.3,361.1 
		L278.5,361.1 L278.7,361.2 L278.9,360.8 L279.1,360.8 L279.3,360.9 L279.5,360.8 L279.7,360.9 L279.9,360.9 
		L280.1,361.0 L280.3,360.9 L280.5,360.6 L280.7,360.6 L280.9,360.6 L281.1,360.6 L281.3,360.6 L281.5,360.6 
		L281.7,360.6 L281.9,360.6 L282.1,360.6 L282.3,360.6 L282.5,360.6 L282.7,360.6 L282.9,360.6 L283.1,360.6 
		L283.3,361.1 L283.5,361.1 L283.7,361.1 L283.9,361.1 L284.1,361.1 L284.3,361.1 L284.5,361.2 L284.7,361.2 
		L284.9,361.2 L285.1,361.2 L285.3,361.2 L285.5,361.2 L285.7,361.2 L285.9,361.2 L286.1,361.2 L286.3,361.2 
		L286.5,361.2 L286.7,361.1 L286.9,360.8 L287.1,360.8 L287.3,360.9 L287.5,361.0 L287.7,361.0 L287.9,361.0 
		L288.1,361.1 L288.3,361.0 L288.5,361.0 L288.7,361.0 L288.9,361.0 L289.1,361.0 L289.3,361.2 L289.5,361.2 
		L289.7,361.2 L289.9,361.3 L290.1,361.4 L290.4,361.4 L290.6,361.4 L290.8,361.4 L291.0,361.4 L291.2,361.4 
		L291.4,361.4 L291.6,361.4 L291.8,361.2 L292.0,361.2 L292.2,361.3 L292.4,361.3 L292.6,361.4 L292.8,361.4 
		L293.0,361.4 L293.2,361.4 L293.4,361.4 L293.6,361.5 L293.8,361.5 L294.0,361.5 L294.2,361.5 L294.4,361.5 
		L294.6,361.6 L294.8,361.6 L295.0,361.6 L295.2,361.6 L295.4,361.6 L295.6,361.8 L295.8,361.8 L296.0,361.7 
		L296.2,361.7 L296.4,361.8 L296.6,361.7 L296.8,361.7 L297.0,361.8 L297.2,361.8 L297.4,361.8 L297.6,361.8 
		L297.8,361.8 L298.0,362.0 L298.2,362.0 L298.4,362.1 L298.6,362.1 L298.8,362.1 L299.0,362.2 L299.2,362.2 
		L299.4,361.9 L299.6,361.9 L299.8,362.0 L300.0,361.8 L300.2,361.8 L300.4,361.8 L300.6,361.8 L300.8,361.9 
		L301.0,362.0 L301.2,362.0 L301.4,362.0 L301.6,361.9 L301.8,361.9 L302.0,361.9 L302.2,361.9 L302.4,361.9 
		L302.6,362.0 L302.8,362.0 L303.0,362.0 L303.2,362.0 L303.4,362.1 L303.6,362.1 L303.8,362.1 L304.0,362.3 
		L304.2,362.3 L304.4,362.1 L304.6,362.1 L304.8,362.1 L305.0,362.2 L305.2,362.2 L305.4,362.2 L305.6,362.1 
		L305.8,362.0 L306.0,362.0 L306.2,361.9 L306.4,361.9 L306.6,362.0 L306.8,362.0 L307.0,362.0 L307.2,362.0 
		L307.4,362.2 L307.6,362.1 L307.8,362.1 L308.0,362.1 L308.2,362.2 L308.4,362.2 L308.6,362.2 L308.8,362.3 
		L309.0,362.3 L309.2,362.4 L309.4,362.4 L309.7,362.4 L309.9,362.6 L310.1,362.5 L310.3,362.4 L310.5,362.4 
		L310.7,362.5 L310.9,362.5 L311.1,362.5 L311.3,362.5 L311.5,362.5 L311.7,362.6 L311.9,362.5 L312.1,362.6 
		L312.3,362.6 L312.5,362.6 L312.7,362.6 L312.9,362.7 L313.1,362.8 L313.3,362.7 L313.5,362.7 L313.7,362.7 
		L313.9,362.7 L314.1,362.8 L314.3,362.8 L314.5,362.8 L314.7,362.8 L314.9,362.8 L315.1,362.8 L315.3,362.5 
		L315.5,362.3 L315.7,362.3 L315.9,362.2 L316.1,362.1 L316.3,362.1 L316.5,362.1 L316.7,362.1 L316.9,362.3 
		L317.1,362.4 L317.3,362.4 L317.5,362.4 L317.7,362.4 L317.9,362.3 L318.1,362.4 L318.3,362.4 L318.5,362.5 
		L318.7,362.5 L318.9,362.5 L319.1,362.5 L319.3,362.5 L319.5,362.4 L319.7,362.5 L319.9,362.4 L320.1,362.4 
		L320.3,362.6 L320.5,362.5 L320.7,362.5 L320.9,362.4 L321.1,362.4 L321.3,362.3 L321.5,362.3 L321.7,362.3 
		L321.9,362.3 L322.1,362.3 L322.3,362.4 L322.5,362.4 L322.7,362.5 L322.9,362.5 L323.1,362.6 L323.3,362.5 
		L323.5,362.4 L323.7,362.3 L323.9,362.3 L324.1,362.3 L324.3,362.4 L324.5,362.4 L324.7,362.4 L324.9,362.3 
		L325.1,362.3 L325.3,362.3 L325.5,362.3 L325.7,362.4 L325.9,362.4 L326.1,362.2 L326.3,362.2 L326.5,362.3 
		L326.7,362.4 L326.9,362.3 L327.1,362.3 L327.3,362.3 L327.5,362.5 L327.7,362.4 L327.9,362.4 L328.1,362.4 
		L328.3,362.4 L328.5,362.4 L328.8,362.6 L329.0,362.7 L329.2,362.6 L329.4,362.6 L329.6,362.6 L329.8,362.6 
		L330.0,362.6 L330.2,362.9 L330.4,362.9 L330.6,362.9 L330.8,362.9 L331.0,363.1 L331.2,363.1 L331.4,363.1 
		L331.6,363.2 L331.8,363.1 L332.0,363.1 L332.2,363.2 L332.4,363.2 L332.6,363.3 L332.8,363.2 L333.0,363.2 
		L333.2,363.3 L333.4,363.2 L333.6,363.3 L333.8,363.3 L334.0,363.3 L334.2,363.3 L334.4,363.3 L334.6,363.3 
		L334.8,363.5 L335.0,363.5 L335.2,363.5 L335.4,363.5 L335.6,363.7 L335.8,363.7 L336.0,363.7 L336.2,363.7 
		L336.4,363.7 L336.6,363.7 L336.8,363.8 L337.0,363.8 L337.2,363.8 L337.4,363.8 L337.6,363.8 L337.8,363.8 
		L338.0,363.9 L338.2,363.8 L338.4,363.6 L338.6,363.6 L338.8,363.6 L339.0,363.6 L339.2,363.8 L339.4,363.8 
		L339.6,363.8 L339.8,363.9 L340.0,363.9 L340.2,363.9 L340.4,363.8 L340.6,363.8 L340.8,363.7 L341.0,363.6 
		L341.2,363.6 L341.4,363.6 L341.6,363.6 L341.8,363.3 L342.0,363.3 L342.2,363.3 L342.4,363.3 L342.6,363.3 
		L342.8,363.3 L343.0,363.3 L343.2,363.3 L343.4,363.3 L343.6,363.3 L343.8,363.3 L344.0,363.3 L344.2,363.3 
		L344.4,363.3 L344.6,363.3 L344.8,364.0 L345.0,364.0 L345.2,363.8 L345.4,363.8 L345.6,363.7 L345.8,363.7 
		L346.0,363.7 L346.2,363.7 L346.4,363.7 L346.6,363.7 L346.8,363.7 L347.0,363.7 L347.2,363.8 L347.4,363.6 
		L347.6,363.6 L347.9,363.6 L348.1,363.6 L348.3,363.6 L348.5,363.8 L348.7,363.7 L348.9,363.7 L349.1,363.7 
		L349.3,363.7 L349.5,363.9 L349.7,363.8 L349.9,363.7 L350.1,363.7 L350.3,363.7 L350.5,363.7 L350.7,363.7 
		L350.9,363.7 L351.1,363.7 L351.3,363.7 L351.5,363.7 L351.7,363.7 L351.9,363.7 L352.1,363.6 L352.3,363.6 
		L352.5,363.6 L352.7,363.7 L352.9,363.7 L353.1,363.7 L353.3,363.6 L353.5,363.6 L353.7,363.6 L353.9,363.5 
		L354.1,363.5 L354.3,363.5 L354.5,363.6 L354.7,363.7 L354.9,363.7 L355.1,363.7 L355.3,363.7 L355.5,363.7 
		L355.7,363.7 L355.9,363.7 L356.1,363.7 L356.3,363.9 L356.5,363.8 L356.7,363.8 L356.9,363.9 L357.1,363.8 
		L357.3,363.8 L357.5,363.8 L357.7,363.8 L357.9,363.7 L358.1,363.6 L358.3,363.6 L358.5,363.6 L358.7,363.6 
		L358.9,363.7 L359.1,363.7 L359.3,363.7 L359.5,363.7 L359.7,363.7 L359.9,363.9 L360.1,363.9 L360.3,363.9 
		L360.5,363.9 L360.7,364.1 L360.9,364.0 L361.1,364.0 L361.3,364.0 L361.5,364.0 L361.7,363.8 L361.9,363.7 
		L362.1,363.7 L362.3,363.7 L362.5,363.5 L362.7,363.5 L362.9,363.5 L363.1,363.6 L363.3,363.4 L363.5,363.4 
		L363.7,363.5 L363.9,363.5 L364.1,363.5 L364.3,363.5 L364.5,363.5 L364.7,363.5 L364.9,363.4 L365.1,363.4 
		L365.3,363.4 L365.5,363.5 L365.7,363.5 L365.9,363.5 L366.1,363.5 L366.3,363.5 L366.5,363.6 L366.7,363.4 
		L367.0,363.4 L367.2,363.4 L367.4,363.4 L367.6,363.6 L367.8,363.7 L368.0,363.6 L368.2,363.6 L368.4,363.6 
		L368.6,363.7 L368.8,363.6 L369.0,363.5 L369.2,363.5 L369.4,363.6 L369.6,363.6 L369.8,363.6 L370.0,363.5 
		L370.2,363.3 L370.4,363.2 L370.6,363.2 L370.8,363.2 L371.0,363.2 L371.2,363.2 L371.4,363.4 L371.6,363.4 
		L371.8,363.5 L372.0,363.4 L372.2,363.4 L372.4,363.4 L372.6,363.3 L372.8,363.3 L373.0,363.3 L373.2,363.3 
		L373.4,363.3 L373.6,363.4 L373.8,363.4 L374.0,363.3 L374.2,363.3 L374.4,363.3 L374.6,363.2 L374.8,363.2 
		L375.0,363.2 L375.2,363.3 L375.4,363.3 L375.6,363.2 L375.8,363.2 L376.0,363.2 L376.2,363.2 L376.4,363.2 
		L376.6,363.2 L376.8,363.2 L377.0,363.2 L377.2,363.0 L377.4,362.9 L377.6,363.0 L377.8,362.9 L378.0,362.9 
		L378.2,362.9 L378.4,362.9 L378.6,362.9 L378.8,363.0 L379.0,362.9 L379.2,363.0 L379.4,363.0 L379.6,363.0 
		L379.8,363.1 L380.0,363.1 L380.2,363.0 L380.4,363.1 L380.6,363.1 L380.8,363.0 L381.0,363.0 L381.2,363.0 
		L381.4,363.0 L381.6,363.2 L381.8,363.2 L382.0,363.2 L382.2,363.2 L382.4,363.2 L382.6,363.2 L382.8,363.2 
		L383.0,363.2 L383.2,363.2 L383.4,363.0 L383.6,363.0 L383.8,363.0 L384.0,363.1 L384.2,363.1 L384.4,363.1 
		L384.6,363.1 L384.8,363.1 L385.0,363.1 L385.2,363.1 L385.4,363.0 L385.6,363.0 L385.8,363.0 L386.0,362.8 
		L386.3,362.8 L386.5,362.8 L386.7,362.9 L386.9,362.9 L387.1,362.9 L387.3,362.9 L387.5,362.9 L387.7,362.9 
		L387.9,363.0 L388.1,363.0 L388.3,362.9 L388.5,362.9 L388.7,363.0 L388.9,363.0 L389.1,363.0 L389.3,363.0 
		L389.5,363.1 L389.7,363.1 L389.9,363.1 L390.1,363.1 L390.3,363.1 L390.5,363.1 L390.7,363.1 L390.9,363.1 
		L391.1,363.0 L391.3,362.9 L391.5,362.9 L391.7,362.9 L391.9,362.9 L392.1,362.9 L392.3,362.9 L392.5,362.9 
		L392.7,363.0 L392.9,363.0 L393.1,363.0 L393.3,363.1 L393.5,363.0 L393.7,363.0 L393.9,363.0 L394.1,363.0 
		L394.3,363.0 L394.5,363.1 L394.7,363.0 L394.9,363.0 L395.1,363.1 L395.3,363.1 L395.5,363.1 L395.7,363.0 
		L395.9,363.0 L396.1,363.0 L396.3,363.0 L396.5,363.2 L396.7,363.1 L396.9,363.1 L397.1,363.1 L397.3,363.2 
		L397.5,363.2 L397.7,363.2 L397.9,363.2 L398.1,363.2 L398.3,363.2 L398.5,363.2 L398.7,363.2 L398.9,363.1 
		L399.1,363.1 L399.3,363.1 L399.5,363.2 L399.7,363.2 L399.9,363.2 L400.1,363.2 L400.3,363.2 L400.5,363.2 
		L400.7,363.3 L400.9,363.3 L401.1,363.3 L401.3,363.3 L401.5,363.4 L401.7,363.4 L401.9,363.4 L402.1,363.4 
		L402.3,363.4 L402.5,363.4 L402.7,363.4 L402.9,363.4 L403.1,363.4 L403.3,363.4 L403.5,363.4 L403.7,363.4 
		L403.9,363.8 L404.1,363.7 L404.3,363.8 L404.5,363.7 L404.7,363.7 L404.9,363.7 L405.1,363.7 L405.4,363.7 
		L405.6,363.8 L405.8,363.8 L406.0,363.8 L406.2,363.8 L406.4,363.9 L406.6,363.9 L406.8,363.9 L407.0,363.9 
		L407.2,363.9 L407.4,364.1 L407.6,364.1 L407.8,364.0 L408.0,363.9 L408.2,363.9 L408.4,363.9 L408.6,363.9 
		L408.8,363.7 L409.0,363.7 L409.2,363.7 L409.4,363.7 L409.6,363.8 L409.8,363.7 L410.0,363.7 L410.2,363.7 
		L410.4,363.8 L410.6,363.7 L410.8,363.7 L411.0,363.6 L411.2,363.6 L411.4,363.7 L411.6,363.7 L411.8,363.7 
		L412.0,363.6 L412.2,363.6 L412.4,363.6 L412.6,363.6 L412.8,363.5 L413.0,363.4 L413.2,363.4 L413.4,363.3 
		L413.6,363.2 L413.8,363.2 L414.0,363.3 L414.2,363.3 L414.4,363.3 L414.6,363.3 L414.8,363.3 L415.0,363.3 
		L415.2,363.4 L415.4,363.4 L415.6,363.4 L415.8,363.4 L416.0,363.3 L416.2,363.3 L416.4,363.3 L416.6,363.3 
		L416.8,363.3 L417.0,363.4 L417.2,363.4 L417.4,363.4 L417.6,363.4 L417.8,363.4 L418.0,363.6 L418.2,363.6 
		L418.4,363.6 L418.6,363.6 L418.8,363.6 L419.0,363.7 L419.2,363.7 L419.4,363.7 L419.6,363.7 L419.8,363.7 
		L420.0,363.7 L420.2,364.0 L420.4,364.0 L420.6,364.0 L420.8,363.8 L421.0,363.7 L421.2,363.5 L421.4,363.5 
		L421.6,363.6 L421.8,363.5 L422.0,363.5 L422.2,363.5 L422.4,363.5 L422.6,363.5 L422.8,363.5 L423.0,363.5 
		L423.2,363.5 L423.4,363.5 L423.6,363.7 L423.8,363.7 L424.0,363.7 L424.2,363.7 L424.5,363.7 L424.7,363.7 
		L424.9,363.7 L425.1,363.7 L425.3,363.6 L425.5,363.6 L425.7,363.6 L425.9,363.6 L426.1,363.5 L426.3,363.4 
		L426.5,363.5 L426.7,363.5 L426.9,363.5 L427.1,363.5 L427.3,363.5 L427.5,363.5 L427.7,363.6 L427.9,363.5 
		L428.1,363.4 L428.3,363.4 L428.5,363.4 L428.7,363.5 L428.9,363.5 L429.1,363.4 L429.3,363.3 L429.5,363.2 
		L429.7,363.3 L429.9,363.2 L430.1,363.2 L430.3,363.2 L430.5,363.1 L430.7,363.1 L430.9,363.1 L431.1,363.1 
		L431.3,363.1 L431.5,363.0 L431.7,363.0 L431.9,363.1 L432.1,362.8 L432.3,362.8 L432.5,362.7 L432.7,362.7 
		L432.9,362.8 L433.1,362.7 L433.3,362.7 L433.5,362.8 L433.7,362.8 L433.9,362.8 L434.1,362.8 L434.3,362.8 
		L434.5,362.8 L434.7,362.7 L434.9,362.7 L435.1,362.6 L435.3,362.7 L435.5,362.6 L435.7,362.6 L435.9,362.6 
		L436.1,362.7 L436.3,362.6 L436.5,362.6 L436.7,362.7 L436.9,362.7 L437.1,362.7 L437.3,362.7 L437.5,362.7 
		L437.7,362.7 L437.9,362.8 L438.1,362.8 L438.3,362.8 L438.5,362.8 L438.7,362.8 L438.9,362.8 L439.1,362.9 
		L439.3,362.9 L439.5,362.9 L439.7,362.9 L439.9,362.9 L440.1,363.0 L440.3,363.1 L440.5,363.1 L440.7,363.1 
		L440.9,363.0 L441.1,363.0 L441.3,363.0 L441.5,363.0 L441.7,363.1 L441.9,363.1 L442.1,363.1 L442.3,363.0 
		L442.5,362.9 L442.7,362.9 L442.9,362.9 L443.1,363.0 L443.3,362.9 L443.6,362.8 L443.8,362.9 L444.0,362.9 
		L444.2,362.9 L444.4,362.9 L444.6,362.9 L444.8,362.8 L445.0,362.8 L445.2,362.9 L445.4,362.9 L445.6,362.9 
		L445.8,362.9 L446.0,362.9 L446.2,362.9 L446.4,362.9 L446.6,362.9 L446.8,363.0 L447.0,363.0 L447.2,363.0 
		L447.4,362.9 L447.6,362.9 L447.8,362.9 L448.0,363.0 L448.2,363.0 L448.4,363.0 L448.6,363.0 L448.8,363.0 
		L449.0,363.1 L449.2,363.0 L449.4,363.0 L449.6,363.0 L449.8,362.9 L450.0,362.9 L450.2,363.0 L450.4,363.0 
		L450.6,363.0 L450.8,363.0 L451.0,363.0 L451.2,363.0 L451.4,363.1 L451.6,363.1 L451.8,363.1 L452.0,363.1 
		L452.2,363.1 L452.4,363.1 L452.6,363.0 L452.8,363.0 L453.0,363.0 L453.2,363.0 L453.4,363.0 L453.6,363.1 
		L453.8,363.1 L454.0,363.1 L454.2,363.1 L454.4,363.1 L454.6,363.2 L454.8,363.1 L455.0,363.1 L455.2,363.1 
		L455.4,363.2 L455.6,363.2 L455.8,363.1 L456.0,363.0 L456.2,363.0 L456.4,363.0 L456.6,362.9 L456.8,362.9 
		L457.0,363.0 L457.2,362.9 L457.4,363.0 L457.6,363.0 L457.8,363.0 L458.0,363.0 L458.2,363.1 L458.4,363.1 
		L458.6,363.1 L458.8,363.2 L459.0,363.1 L459.2,363.1 L459.4,363.1 L459.6,363.1 L459.8,363.1 L460.0,363.1 
		L460.2,363.2 L460.4,363.1 L460.6,363.0 L460.8,363.0 L461.0,363.0 L461.2,363.1 L461.4,363.1 L461.6,363.1 
		L461.8,363.1 L462.0,363.1 L462.2,363.1 L462.4,363.1 L462.7,363.1 L462.9,363.1 L463.1,363.1 L463.3,363.1 
		L463.5,363.4 L463.7,363.4 L463.9,363.4 L464.1,363.4 L464.3,363.5 L464.5,363.5 L464.7,363.5 L464.9,363.5 
		L465.1,363.5 L465.3,363.5 L465.5,363.5 L465.7,363.5 L465.9,363.5 L466.1,363.5 L466.3,363.5 L466.5,363.5 
		L466.7,363.7 L466.9,363.7 L467.1,363.7 L467.3,363.7 L467.5,363.7 L467.7,363.7 L467.9,363.7 L468.1,363.8 
		L468.3,363.8 L468.5,363.8 L468.7,363.8 L468.9,363.8 L469.1,363.8 L469.3,363.8 L469.5,363.8 L469.7,364.0 
		L469.9,364.0 L470.1,363.9 L470.3,363.7 L470.5,363.7 L470.7,363.7 L470.9,363.7 L471.1,363.7 L471.3,363.7 
		L471.5,363.7 L471.7,363.7 L471.9,363.7 L472.1,363.7 L472.3,363.7 L472.5,363.7 L472.7,363.6 L472.9,363.6 
		L473.1,363.7 L473.3,363.6 L473.5,363.7 L473.7,363.7 L473.9,363.7 L474.1,363.7 L474.3,363.7 L474.5,363.7 
		L474.7,363.7 L474.9,363.7 L475.1,363.7 L475.3,363.7 L475.5,363.6 L475.7,363.6 L475.9,363.6 L476.1,363.6 
		L476.3,363.6 L476.5,363.7 L476.7,363.6 L476.9,363.5 L477.1,363.3 L477.3,363.3 L477.5,363.3 L477.7,363.3 
		L477.9,363.3 L478.1,363.3 L478.3,363.4 L478.5,363.4 L478.7,363.4 L478.9,363.4 L479.1,363.4 L479.3,363.4 
		L479.5,363.4 L479.7,363.5 L479.9,363.5 L480.1,363.5 L480.3,363.5 L480.5,363.5 L480.7,363.5 L480.9,363.5 
		L481.1,363.5 L481.3,363.5 L481.5,363.5 L481.7,363.5 L482.0,363.5 L482.2,363.5 L482.4,363.5 L482.6,363.6 
		L482.8,363.6 L483.0,363.6 L483.2,363.6 L483.4,363.6 L483.6,363.5 L483.8,363.5 L484.0,363.5 L484.2,363.5 
		L484.4,363.6 L484.6,363.4 L484.8,363.4 L485.0,363.4 L485.2,363.4 L485.4,363.4 L485.6,363.4 L485.8,363.3 
		L486.0,363.3 L486.2,363.2 L486.4,363.2 L486.6,363.2 L486.8,363.2 L487.0,363.3 L487.2,363.3 L487.4,363.3 
		L487.6,363.3 L487.8,363.3 L488.0,363.3 L488.2,363.3 L488.4,363.3 L488.6,363.3 L488.8,363.3 L489.0,363.3 
		L489.2,363.3 L489.4,363.4 L489.6,363.3 L489.8,363.3 L490.0,363.3 L490.2,363.4 L490.4,363.4 L490.6,363.4 
		 h0.01'/></g>
	</g>
<g style="fill:none; color:black; stroke:currentColor; stroke-width:1.00; stroke-linecap:butt; stroke-linejoin:miter">
	<path  d='M88.5,54.1 L88.5,422.4 L490.6,422.4 L490.6,54.1 L88.5,54.1 Z  h0.01'/></g>
</g>
</svg>

