<?xml version="1.0" encoding="utf-8"  standalone="no"?>
<!DOCTYPE svg PUBLIC "-//W3C//DTD SVG 1.1//EN" 
 "http://www.w3.org/Graphics/SVG/1.1/DTD/svg11.dtd">
<svg 
 width="600" height="480" 
 viewBox="0 0 600 480"
 xmlns="http://www.w3.org/2000/svg"
 xmlns:xlink="http://www.w3.org/1999/xlink"
>

<title>Gnuplot</title>
<desc>Produced by GNUPLOT 4.6 patchlevel 1 </desc>

<g id="gnuplot_canvas">

<rect x="0" y="0" width="600" height="480" fill="none"/>
<defs>

	<circle id='gpDot' r='0.5' stroke-width='0.5'/>
	<path id='gpPt0' stroke-width='0.222' stroke='currentColor' d='M-1,0 h2 M0,-1 v2'/>
	<path id='gpPt1' stroke-width='0.222' stroke='currentColor' d='M-1,-1 L1,1 M1,-1 L-1,1'/>
	<path id='gpPt2' stroke-width='0.222' stroke='currentColor' d='M-1,0 L1,0 M0,-1 L0,1 M-1,-1 L1,1 M-1,1 L1,-1'/>
	<rect id='gpPt3' stroke-width='0.222' stroke='currentColor' x='-1' y='-1' width='2' height='2'/>
	<rect id='gpPt4' stroke-width='0.222' stroke='currentColor' fill='currentColor' x='-1' y='-1' width='2' height='2'/>
	<circle id='gpPt5' stroke-width='0.222' stroke='currentColor' cx='0' cy='0' r='1'/>
	<use xlink:href='#gpPt5' id='gpPt6' fill='currentColor' stroke='none'/>
	<path id='gpPt7' stroke-width='0.222' stroke='currentColor' d='M0,-1.33 L-1.33,0.67 L1.33,0.67 z'/>
	<use xlink:href='#gpPt7' id='gpPt8' fill='currentColor' stroke='none'/>
	<use xlink:href='#gpPt7' id='gpPt9' stroke='currentColor' transform='rotate(180)'/>
	<use xlink:href='#gpPt9' id='gpPt10' fill='currentColor' stroke='none'/>
	<use xlink:href='#gpPt3' id='gpPt11' stroke='currentColor' transform='rotate(45)'/>
	<use xlink:href='#gpPt11' id='gpPt12' fill='currentColor' stroke='none'/>
</defs>
<g style="fill:none; color:white; stroke:currentColor; stroke-width:1.00; stroke-linecap:butt; stroke-linejoin:miter">
</g>
<g style="fill:none; color:black; stroke:currentColor; stroke-width:1.00; stroke-linecap:butt; stroke-linejoin:miter">
	<path  d='M88.5,422.4 L97.5,422.4 M575.0,422.4 L566.0,422.4  h0.01'/>	<g transform="translate(80.2,426.9)" style="stroke:none; fill:black; font-family:Arial; font-size:12.00pt; text-anchor:end">
		<text> 0</text>
	</g>
	<path  d='M88.5,381.5 L97.5,381.5 M575.0,381.5 L566.0,381.5  h0.01'/>	<g transform="translate(80.2,386.0)" style="stroke:none; fill:black; font-family:Arial; font-size:12.00pt; text-anchor:end">
		<text> 2000</text>
	</g>
	<path  d='M88.5,340.6 L97.5,340.6 M575.0,340.6 L566.0,340.6  h0.01'/>	<g transform="translate(80.2,345.1)" style="stroke:none; fill:black; font-family:Arial; font-size:12.00pt; text-anchor:end">
		<text> 4000</text>
	</g>
	<path  d='M88.5,299.6 L97.5,299.6 M575.0,299.6 L566.0,299.6  h0.01'/>	<g transform="translate(80.2,304.1)" style="stroke:none; fill:black; font-family:Arial; font-size:12.00pt; text-anchor:end">
		<text> 6000</text>
	</g>
	<path  d='M88.5,258.7 L97.5,258.7 M575.0,258.7 L566.0,258.7  h0.01'/>	<g transform="translate(80.2,263.2)" style="stroke:none; fill:black; font-family:Arial; font-size:12.00pt; text-anchor:end">
		<text> 8000</text>
	</g>
	<path  d='M88.5,217.8 L97.5,217.8 M575.0,217.8 L566.0,217.8  h0.01'/>	<g transform="translate(80.2,222.3)" style="stroke:none; fill:black; font-family:Arial; font-size:12.00pt; text-anchor:end">
		<text> 10000</text>
	</g>
	<path  d='M88.5,176.9 L97.5,176.9 M575.0,176.9 L566.0,176.9  h0.01'/>	<g transform="translate(80.2,181.4)" style="stroke:none; fill:black; font-family:Arial; font-size:12.00pt; text-anchor:end">
		<text> 12000</text>
	</g>
	<path  d='M88.5,135.9 L97.5,135.9 M575.0,135.9 L566.0,135.9  h0.01'/>	<g transform="translate(80.2,140.4)" style="stroke:none; fill:black; font-family:Arial; font-size:12.00pt; text-anchor:end">
		<text> 14000</text>
	</g>
	<path  d='M88.5,95.0 L97.5,95.0 M575.0,95.0 L566.0,95.0  h0.01'/>	<g transform="translate(80.2,99.5)" style="stroke:none; fill:black; font-family:Arial; font-size:12.00pt; text-anchor:end">
		<text> 16000</text>
	</g>
	<path  d='M88.5,54.1 L97.5,54.1 M575.0,54.1 L566.0,54.1  h0.01'/>	<g transform="translate(80.2,58.6)" style="stroke:none; fill:black; font-family:Arial; font-size:12.00pt; text-anchor:end">
		<text> 18000</text>
	</g>
	<path  d='M88.5,422.4 L88.5,413.4 M88.5,54.1 L88.5,63.1  h0.01'/>	<g transform="translate(88.5,444.9)" style="stroke:none; fill:black; font-family:Arial; font-size:12.00pt; text-anchor:middle">
		<text> 0</text>
	</g>
	<path  d='M137.2,422.4 L137.2,413.4 M137.2,54.1 L137.2,63.1  h0.01'/>	<g transform="translate(137.2,444.9)" style="stroke:none; fill:black; font-family:Arial; font-size:12.00pt; text-anchor:middle">
		<text> 10</text>
	</g>
	<path  d='M185.8,422.4 L185.8,413.4 M185.8,54.1 L185.8,63.1  h0.01'/>	<g transform="translate(185.8,444.9)" style="stroke:none; fill:black; font-family:Arial; font-size:12.00pt; text-anchor:middle">
		<text> 20</text>
	</g>
	<path  d='M234.5,422.4 L234.5,413.4 M234.5,54.1 L234.5,63.1  h0.01'/>	<g transform="translate(234.5,444.9)" style="stroke:none; fill:black; font-family:Arial; font-size:12.00pt; text-anchor:middle">
		<text> 30</text>
	</g>
	<path  d='M283.1,422.4 L283.1,413.4 M283.1,54.1 L283.1,63.1  h0.01'/>	<g transform="translate(283.1,444.9)" style="stroke:none; fill:black; font-family:Arial; font-size:12.00pt; text-anchor:middle">
		<text> 40</text>
	</g>
	<path  d='M331.8,422.4 L331.8,413.4 M331.8,54.1 L331.8,63.1  h0.01'/>	<g transform="translate(331.8,444.9)" style="stroke:none; fill:black; font-family:Arial; font-size:12.00pt; text-anchor:middle">
		<text> 50</text>
	</g>
	<path  d='M380.4,422.4 L380.4,413.4 M380.4,54.1 L380.4,63.1  h0.01'/>	<g transform="translate(380.4,444.9)" style="stroke:none; fill:black; font-family:Arial; font-size:12.00pt; text-anchor:middle">
		<text> 60</text>
	</g>
	<path  d='M429.1,422.4 L429.1,413.4 M429.1,54.1 L429.1,63.1  h0.01'/>	<g transform="translate(429.1,444.9)" style="stroke:none; fill:black; font-family:Arial; font-size:12.00pt; text-anchor:middle">
		<text> 70</text>
	</g>
	<path  d='M477.7,422.4 L477.7,413.4 M477.7,54.1 L477.7,63.1  h0.01'/>	<g transform="translate(477.7,444.9)" style="stroke:none; fill:black; font-family:Arial; font-size:12.00pt; text-anchor:middle">
		<text> 80</text>
	</g>
	<path  d='M526.4,422.4 L526.4,413.4 M526.4,54.1 L526.4,63.1  h0.01'/>	<g transform="translate(526.4,444.9)" style="stroke:none; fill:black; font-family:Arial; font-size:12.00pt; text-anchor:middle">
		<text> 90</text>
	</g>
	<path  d='M575.0,422.4 L575.0,413.4 M575.0,54.1 L575.0,63.1  h0.01'/>	<g transform="translate(575.0,444.9)" style="stroke:none; fill:black; font-family:Arial; font-size:12.00pt; text-anchor:middle">
		<text> 100</text>
	</g>
	<path  d='M88.5,54.1 L88.5,422.4 L575.0,422.4 L575.0,54.1 L88.5,54.1 Z  h0.01'/>	<g transform="translate(17.6,238.3) rotate(270)" style="stroke:none; fill:black; font-family:Arial; font-size:12.00pt; text-anchor:middle">
		<text>TCP throughput (kbps)</text>
	</g>
	<g transform="translate(331.7,471.9)" style="stroke:none; fill:black; font-family:Arial; font-size:12.00pt; text-anchor:middle">
		<text>Time (s)</text>
	</g>
	<g transform="translate(331.7,31.6)" style="stroke:none; fill:black; font-family:Arial; font-size:12.00pt; text-anchor:middle">
		<text>Distance 300m, 2kmph: TCP throughput vs link capacity Uplink 100RBs PfffScheduler</text>
	</g>
	<path  d='M325.3,413.4 L325.3,377.4 L566.7,377.4 L566.7,413.4 L325.3,413.4 Z  h0.01'/></g>
	<g id="gnuplot_plot_1" ><title>gnuplot_plot_1</title>
<g style="fill:none; color:red; stroke:currentColor; stroke-width:1.00; stroke-linecap:butt; stroke-linejoin:miter">
	<g transform="translate(507.9,390.9)" style="stroke:none; fill:black; font-family:Arial; font-size:12.00pt; text-anchor:end">
		<text>TCP Throughput</text>
	</g>
	<path  d='M516.2,386.4 L558.4,386.4 M91.2,417.2 L91.4,411.5 L91.7,408.3 L91.9,410.3 L92.1,398.2 L92.4,390.8 
		L92.6,340.7 L92.9,254.7 L93.1,240.7 L93.4,240.7 L93.6,271.4 L93.9,287.6 L94.1,263.4 L94.3,255.6 
		L94.6,255.6 L94.8,264.0 L95.1,271.6 L95.3,266.3 L95.6,268.0 L95.8,268.0 L96.0,282.8 L96.3,282.8 
		L96.5,295.7 L96.8,286.8 L97.0,281.7 L97.3,281.7 L97.5,289.6 L97.7,291.5 L98.0,290.4 L98.2,289.6 
		L98.5,293.5 L98.7,293.5 L99.0,293.5 L99.2,302.4 L99.4,302.0 L99.7,305.1 L99.9,305.1 L100.2,309.5 
		L100.4,311.3 L100.7,315.6 L100.9,315.6 L101.1,315.6 L101.4,320.9 L101.6,320.9 L101.9,325.3 L102.1,323.8 
		L102.4,323.8 L102.6,328.0 L102.8,327.8 L103.1,327.8 L103.3,330.4 L103.6,330.9 L103.8,327.4 L104.1,327.5 
		L104.3,330.8 L104.5,331.8 L104.8,331.8 L105.0,333.2 L105.3,333.2 L105.5,333.2 L105.8,337.4 L106.0,338.3 
		L106.3,340.0 L106.5,337.6 L106.7,334.1 L107.0,331.1 L107.2,332.1 L107.5,332.1 L107.7,332.2 L108.0,333.5 
		L108.2,331.0 L108.4,330.6 L108.7,330.6 L108.9,333.0 L109.2,333.7 L109.4,334.7 L109.7,334.6 L109.9,336.0 
		L110.1,337.6 L110.4,337.5 L110.6,336.9 L110.9,337.4 L111.1,338.3 L111.4,338.4 L111.6,338.4 L111.8,338.3 
		L112.1,337.9 L112.3,338.8 L112.6,338.5 L112.8,339.1 L113.1,340.1 L113.3,338.5 L113.5,337.9 L113.8,337.6 
		L114.0,335.6 L114.3,335.1 L114.5,335.8 L114.8,335.3 L115.0,335.8 L115.3,335.7 L115.5,337.0 L115.7,337.0 
		L116.0,338.5 L116.2,336.3 L116.5,336.3 L116.7,336.8 L117.0,337.2 L117.2,336.7 L117.4,334.8 L117.7,334.5 
		L117.9,332.0 L118.2,332.2 L118.4,331.7 L118.7,331.7 L118.9,331.5 L119.1,331.5 L119.4,332.7 L119.6,332.8 
		L119.9,332.9 L120.1,332.9 L120.4,334.7 L120.6,334.5 L120.8,334.5 L121.1,334.5 L121.3,334.5 L121.6,334.5 
		L121.8,336.2 L122.1,336.0 L122.3,336.0 L122.6,336.7 L122.8,337.1 L123.0,337.7 L123.3,336.4 L123.5,336.3 
		L123.8,336.6 L124.0,335.1 L124.3,333.6 L124.5,333.6 L124.7,333.6 L125.0,333.6 L125.2,335.5 L125.5,335.5 
		L125.7,336.4 L126.0,335.5 L126.2,335.4 L126.4,335.4 L126.7,335.9 L126.9,335.9 L127.2,335.9 L127.4,337.5 
		L127.7,337.5 L127.9,337.5 L128.1,338.7 L128.4,337.8 L128.6,338.1 L128.9,338.0 L129.1,338.0 L129.4,336.5 
		L129.6,336.5 L129.8,336.9 L130.1,336.3 L130.3,334.4 L130.6,334.2 L130.8,333.7 L131.1,333.3 L131.3,332.9 
		L131.6,333.6 L131.8,331.0 L132.0,329.6 L132.3,329.6 L132.5,329.4 L132.8,328.9 L133.0,328.9 L133.3,327.0 
		L133.5,326.8 L133.7,326.7 L134.0,326.7 L134.2,326.7 L134.5,327.0 L134.7,327.0 L135.0,327.6 L135.2,326.2 
		L135.4,326.6 L135.7,326.0 L135.9,325.8 L136.2,325.4 L136.4,326.1 L136.7,326.3 L136.9,326.3 L137.2,327.0 
		L137.4,327.4 L137.6,327.4 L137.9,328.5 L138.1,328.4 L138.4,328.9 L138.6,328.8 L138.9,328.8 L139.1,328.4 
		L139.3,327.7 L139.6,327.1 L139.8,327.1 L140.1,327.1 L140.3,328.5 L140.6,328.8 L140.8,328.7 L141.0,329.0 
		L141.3,328.6 L141.5,328.7 L141.8,328.7 L142.0,329.2 L142.3,328.4 L142.5,328.4 L142.7,327.9 L143.0,328.1 
		L143.2,328.3 L143.5,328.4 L143.7,328.3 L144.0,328.8 L144.2,328.8 L144.4,329.4 L144.7,329.3 L144.9,328.7 
		L145.2,328.9 L145.4,329.4 L145.7,329.6 L145.9,328.8 L146.2,326.7 L146.4,325.9 L146.6,325.9 L146.9,325.8 
		L147.1,324.8 L147.4,325.0 L147.6,324.9 L147.9,324.9 L148.1,324.9 L148.3,326.1 L148.6,326.7 L148.8,326.7 
		L149.1,327.2 L149.3,327.6 L149.6,327.6 L149.8,327.7 L150.0,327.9 L150.3,328.1 L150.5,326.9 L150.8,326.8 
		L151.0,327.5 L151.3,327.5 L151.5,327.5 L151.7,327.5 L152.0,327.8 L152.2,327.9 L152.5,327.1 L152.7,327.1 
		L153.0,326.4 L153.2,324.9 L153.4,324.8 L153.7,324.9 L153.9,324.5 L154.2,324.5 L154.4,325.0 L154.7,325.0 
		L154.9,325.0 L155.2,325.0 L155.4,326.2 L155.6,326.2 L155.9,326.3 L156.1,326.5 L156.4,326.5 L156.6,326.9 
		L156.9,327.1 L157.1,326.9 L157.3,326.9 L157.6,327.4 L157.8,327.6 L158.1,327.6 L158.3,328.0 L158.6,327.0 
		L158.8,325.6 L159.0,325.5 L159.3,326.0 L159.5,326.0 L159.8,326.3 L160.0,325.9 L160.3,325.2 L160.5,325.2 
		L160.7,325.2 L161.0,325.2 L161.2,326.3 L161.5,326.3 L161.7,326.3 L162.0,326.6 L162.2,326.4 L162.4,326.5 
		L162.7,326.4 L162.9,326.4 L163.2,326.4 L163.4,326.4 L163.7,327.1 L163.9,327.3 L164.2,327.3 L164.4,327.3 
		L164.6,327.9 L164.9,327.9 L165.1,327.9 L165.4,327.7 L165.6,325.8 L165.9,325.0 L166.1,325.2 L166.3,325.2 
		L166.6,325.6 L166.8,325.9 L167.1,325.9 L167.3,325.9 L167.6,326.4 L167.8,326.4 L168.0,326.8 L168.3,327.0 
		L168.5,327.4 L168.8,327.0 L169.0,326.8 L169.3,326.6 L169.5,325.3 L169.7,325.1 L170.0,325.1 L170.2,324.6 
		L170.5,324.8 L170.7,324.8 L171.0,325.1 L171.2,324.8 L171.4,325.0 L171.7,325.4 L171.9,325.1 L172.2,324.5 
		L172.4,324.5 L172.7,324.9 L172.9,324.9 L173.2,325.2 L173.4,325.3 L173.6,325.1 L173.9,325.2 L174.1,325.2 
		L174.4,324.8 L174.6,324.6 L174.9,324.6 L175.1,324.5 L175.3,323.9 L175.6,324.1 L175.8,323.6 L176.1,323.6 
		L176.3,323.6 L176.6,324.2 L176.8,324.1 L177.0,324.3 L177.3,324.4 L177.5,324.7 L177.8,324.6 L178.0,324.4 
		L178.3,324.0 L178.5,324.3 L178.7,324.3 L179.0,324.5 L179.2,324.3 L179.5,324.5 L179.7,324.0 L180.0,323.0 
		L180.2,322.6 L180.4,322.9 L180.7,322.8 L180.9,322.8 L181.2,323.4 L181.4,322.8 L181.7,321.8 L181.9,321.3 
		L182.2,321.3 L182.4,321.3 L182.6,321.7 L182.9,320.9 L183.1,320.7 L183.4,320.7 L183.6,321.1 L183.9,321.1 
		L184.1,321.2 L184.3,321.2 L184.6,321.2 L184.8,322.0 L185.1,321.7 L185.3,321.5 L185.6,321.4 L185.8,321.5 
		L186.0,321.4 L186.3,321.4 L186.5,321.8 L186.8,321.8 L187.0,321.7 L187.3,321.7 L187.5,321.7 L187.7,321.7 
		L188.0,322.9 L188.2,322.5 L188.5,322.5 L188.7,322.3 L189.0,322.5 L189.2,322.5 L189.4,322.6 L189.7,322.2 
		L189.9,322.5 L190.2,322.5 L190.4,322.5 L190.7,322.5 L190.9,322.1 L191.2,322.1 L191.4,322.1 L191.6,322.1 
		L191.9,322.1 L192.1,323.3 L192.4,323.3 L192.6,323.6 L192.9,323.9 L193.1,323.9 L193.3,323.9 L193.6,324.3 
		L193.8,324.3 L194.1,324.3 L194.3,324.3 L194.6,324.8 L194.8,325.0 L195.0,325.1 L195.3,325.2 L195.5,325.3 
		L195.8,325.3 L196.0,325.8 L196.3,325.8 L196.5,325.8 L196.7,325.8 L197.0,325.8 L197.2,326.2 L197.5,326.1 
		L197.7,326.2 L198.0,326.3 L198.2,326.5 L198.4,326.5 L198.7,326.5 L198.9,326.5 L199.2,327.2 L199.4,327.0 
		L199.7,327.2 L199.9,327.3 L200.2,327.4 L200.4,327.5 L200.6,327.7 L200.9,327.7 L201.1,327.6 L201.4,327.4 
		L201.6,327.4 L201.9,327.7 L202.1,327.6 L202.3,327.6 L202.6,327.9 L202.8,327.9 L203.1,328.2 L203.3,327.8 
		L203.6,327.5 L203.8,327.4 L204.0,327.6 L204.3,327.6 L204.5,327.7 L204.8,327.9 L205.0,327.5 L205.3,327.1 
		L205.5,327.1 L205.7,327.4 L206.0,327.4 L206.2,327.4 L206.5,327.7 L206.7,327.6 L207.0,327.4 L207.2,327.2 
		L207.4,327.2 L207.7,327.2 L207.9,327.2 L208.2,327.2 L208.4,328.1 L208.7,328.4 L208.9,328.2 L209.2,328.2 
		L209.4,328.2 L209.6,328.2 L209.9,328.2 L210.1,328.2 L210.4,329.0 L210.6,329.0 L210.9,329.0 L211.1,329.4 
		L211.3,329.4 L211.6,329.4 L211.8,329.5 L212.1,329.5 L212.3,329.5 L212.6,329.5 L212.8,330.1 L213.0,330.0 
		L213.3,330.2 L213.5,330.3 L213.8,330.3 L214.0,330.5 L214.3,330.5 L214.5,330.5 L214.7,331.1 L215.0,331.2 
		L215.2,331.2 L215.5,331.2 L215.7,331.3 L216.0,331.3 L216.2,331.3 L216.4,331.3 L216.7,332.0 L216.9,332.0 
		L217.2,332.0 L217.4,332.4 L217.7,332.4 L217.9,332.4 L218.2,332.8 L218.4,332.8 L218.6,332.8 L218.9,333.4 
		L219.1,333.6 L219.4,333.7 L219.6,333.8 L219.9,333.8 L220.1,334.2 L220.3,334.3 L220.6,334.5 L220.8,334.5 
		L221.1,334.7 L221.3,334.7 L221.6,334.7 L221.8,334.7 L222.0,334.7 L222.3,334.7 L222.5,334.7 L222.8,334.7 
		L223.0,335.5 L223.3,335.5 L223.5,335.6 L223.7,335.7 L224.0,335.8 L224.2,335.9 L224.5,336.0 L224.7,336.0 
		L225.0,336.3 L225.2,336.3 L225.4,336.5 L225.7,336.5 L225.9,336.5 L226.2,336.5 L226.4,337.0 L226.7,337.1 
		L226.9,337.1 L227.2,337.1 L227.4,337.1 L227.6,337.1 L227.9,337.8 L228.1,337.7 L228.4,337.9 L228.6,337.9 
		L228.9,338.0 L229.1,338.2 L229.3,338.3 L229.6,338.3 L229.8,338.5 L230.1,338.5 L230.3,338.5 L230.6,338.5 
		L230.8,339.2 L231.0,339.2 L231.3,339.4 L231.5,339.4 L231.8,339.6 L232.0,339.7 L232.3,339.8 L232.5,339.8 
		L232.7,339.8 L233.0,339.8 L233.2,339.8 L233.5,340.5 L233.7,340.6 L234.0,340.7 L234.2,340.7 L234.5,340.9 
		L234.7,341.1 L234.9,341.1 L235.2,341.2 L235.4,341.3 L235.7,341.4 L235.9,341.4 L236.2,341.5 L236.4,341.5 
		L236.6,341.7 L236.9,341.7 L237.1,341.7 L237.4,341.9 L237.6,341.9 L237.9,341.9 L238.1,342.1 L238.3,342.1 
		L238.6,342.2 L238.8,342.4 L239.1,342.3 L239.3,342.2 L239.6,342.3 L239.8,342.3 L240.0,342.2 L240.3,342.1 
		L240.5,342.3 L240.8,342.1 L241.0,342.0 L241.3,342.1 L241.5,342.2 L241.7,342.2 L242.0,342.4 L242.2,342.4 
		L242.5,342.4 L242.7,342.3 L243.0,342.4 L243.2,342.4 L243.5,342.6 L243.7,342.6 L243.9,342.8 L244.2,342.7 
		L244.4,342.8 L244.7,342.8 L244.9,342.8 L245.2,342.8 L245.4,342.8 L245.6,343.4 L245.9,343.3 L246.1,343.3 
		L246.4,343.4 L246.6,343.6 L246.9,343.6 L247.1,343.6 L247.3,343.7 L247.6,343.7 L247.8,343.7 L248.1,344.0 
		L248.3,344.1 L248.6,344.1 L248.8,344.1 L249.0,344.0 L249.3,344.0 L249.5,344.1 L249.8,344.2 L250.0,344.1 
		L250.3,344.2 L250.5,344.1 L250.7,344.1 L251.0,344.1 L251.2,344.4 L251.5,344.4 L251.7,344.4 L252.0,344.7 
		L252.2,344.6 L252.5,344.5 L252.7,344.5 L252.9,344.5 L253.2,344.6 L253.4,344.5 L253.7,344.3 L253.9,344.3 
		L254.2,344.6 L254.4,344.5 L254.6,344.3 L254.9,344.3 L255.1,344.2 L255.4,344.2 L255.6,344.3 L255.9,344.2 
		L256.1,344.2 L256.3,344.2 L256.6,344.2 L256.8,344.5 L257.1,344.4 L257.3,344.5 L257.6,344.5 L257.8,344.5 
		L258.0,344.5 L258.3,344.5 L258.5,345.0 L258.8,345.0 L259.0,344.9 L259.3,344.9 L259.5,344.9 L259.7,344.9 
		L260.0,345.1 L260.2,345.2 L260.5,345.2 L260.7,345.2 L261.0,345.4 L261.2,345.5 L261.5,345.5 L261.7,345.6 
		L261.9,345.7 L262.2,345.7 L262.4,345.7 L262.7,345.7 L262.9,345.7 L263.2,345.9 L263.4,345.9 L263.6,346.0 
		L263.9,345.9 L264.1,345.8 L264.4,345.7 L264.6,345.7 L264.9,345.8 L265.1,345.8 L265.3,345.7 L265.6,345.7 
		L265.8,345.8 L266.1,345.8 L266.3,345.8 L266.6,346.0 L266.8,346.0 L267.0,346.0 L267.3,346.0 L267.5,345.8 
		L267.8,345.6 L268.0,345.5 L268.3,345.5 L268.5,345.5 L268.7,345.7 L269.0,345.7 L269.2,345.7 L269.5,345.7 
		L269.7,345.8 L270.0,345.9 L270.2,345.6 L270.5,345.3 L270.7,345.2 L270.9,345.2 L271.2,345.4 L271.4,345.5 
		L271.7,345.6 L271.9,345.6 L272.1,345.6 L272.4,345.6 L272.6,345.6 L272.9,345.9 L273.1,345.7 L273.4,345.4 
		L273.6,345.4 L273.9,345.2 L274.1,345.3 L274.3,344.9 L274.6,344.7 L274.8,344.7 L275.1,344.4 L275.3,344.4 
		L275.6,344.4 L275.8,344.6 L276.0,344.4 L276.3,344.3 L276.5,344.4 L276.8,344.1 L277.0,344.0 L277.3,344.1 
		L277.5,344.1 L277.7,344.2 L278.0,344.0 L278.2,344.0 L278.5,343.9 L278.7,343.9 L279.0,344.1 L279.2,344.1 
		L279.4,344.1 L279.7,344.1 L279.9,344.0 L280.2,344.0 L280.4,343.6 L280.7,343.6 L280.9,343.6 L281.1,343.5 
		L281.4,343.6 L281.6,343.7 L281.9,343.6 L282.1,343.1 L282.4,343.2 L282.6,343.1 L282.9,343.1 L283.1,343.1 
		L283.3,343.0 L283.6,342.9 L283.8,342.8 L284.1,342.8 L284.3,342.6 L284.6,342.4 L284.8,342.4 L285.0,342.4 
		L285.3,342.4 L285.5,342.4 L285.8,342.8 L286.0,342.8 L286.3,342.9 L286.5,342.9 L286.7,342.8 L287.0,342.8 
		L287.2,342.8 L287.5,342.8 L287.7,342.8 L288.0,343.1 L288.2,343.1 L288.4,343.1 L288.7,343.3 L288.9,343.3 
		L289.2,343.2 L289.4,343.3 L289.7,343.3 L289.9,343.3 L290.1,343.3 L290.4,343.3 L290.6,343.3 L290.9,343.3 
		L291.1,343.3 L291.4,343.9 L291.6,343.9 L291.9,343.9 L292.1,344.0 L292.3,344.0 L292.6,344.0 L292.8,344.1 
		L293.1,344.2 L293.3,344.2 L293.6,344.3 L293.8,344.3 L294.0,344.2 L294.3,344.2 L294.5,344.2 L294.8,344.4 
		L295.0,344.3 L295.3,344.3 L295.5,344.3 L295.7,344.3 L296.0,344.7 L296.2,344.6 L296.5,344.5 L296.7,344.4 
		L297.0,344.5 L297.2,344.4 L297.4,344.3 L297.7,344.3 L297.9,344.5 L298.2,344.4 L298.4,344.4 L298.7,344.4 
		L298.9,344.5 L299.1,344.5 L299.4,344.5 L299.6,344.5 L299.9,344.8 L300.1,344.9 L300.4,344.8 L300.6,344.8 
		L300.9,344.9 L301.1,344.9 L301.3,344.9 L301.6,344.9 L301.8,345.1 L302.1,345.2 L302.3,345.2 L302.6,345.2 
		L302.8,345.1 L303.0,345.2 L303.3,345.0 L303.5,344.8 L303.8,344.8 L304.0,344.8 L304.3,344.8 L304.5,344.8 
		L304.7,345.1 L305.0,345.1 L305.2,345.1 L305.5,345.1 L305.7,345.2 L306.0,345.1 L306.2,345.0 L306.4,344.9 
		L306.7,345.0 L306.9,345.0 L307.2,344.9 L307.4,344.6 L307.7,344.6 L307.9,344.6 L308.1,344.6 L308.4,344.6 
		L308.6,344.6 L308.9,344.6 L309.1,345.1 L309.4,345.0 L309.6,345.1 L309.9,345.0 L310.1,345.0 L310.3,345.1 
		L310.6,345.3 L310.8,345.2 L311.1,345.2 L311.3,345.2 L311.6,345.2 L311.8,345.5 L312.0,345.5 L312.3,345.5 
		L312.5,345.7 L312.8,345.7 L313.0,345.8 L313.3,345.8 L313.5,345.8 L313.7,345.8 L314.0,345.8 L314.2,346.1 
		L314.5,346.1 L314.7,346.2 L315.0,346.2 L315.2,346.3 L315.4,346.2 L315.7,346.0 L315.9,346.0 L316.2,346.1 
		L316.4,346.1 L316.7,346.2 L316.9,346.2 L317.2,346.2 L317.4,346.2 L317.6,346.2 L317.9,346.2 L318.1,346.1 
		L318.4,346.1 L318.6,346.3 L318.9,346.2 L319.1,346.3 L319.3,346.3 L319.6,346.3 L319.8,346.3 L320.1,346.6 
		L320.3,346.5 L320.6,346.5 L320.8,346.5 L321.0,346.5 L321.3,346.5 L321.5,346.6 L321.8,346.6 L322.0,346.6 
		L322.3,346.7 L322.5,346.7 L322.7,346.7 L323.0,346.7 L323.2,346.9 L323.5,346.9 L323.7,346.9 L324.0,346.9 
		L324.2,346.9 L324.4,346.9 L324.7,347.1 L324.9,347.1 L325.2,347.0 L325.4,347.0 L325.7,347.0 L325.9,347.0 
		L326.2,347.2 L326.4,347.3 L326.6,347.2 L326.9,347.1 L327.1,347.1 L327.4,347.1 L327.6,347.0 L327.9,347.0 
		L328.1,347.0 L328.3,347.0 L328.6,347.0 L328.8,347.2 L329.1,347.1 L329.3,347.1 L329.6,347.1 L329.8,347.2 
		L330.0,347.2 L330.3,347.3 L330.5,347.3 L330.8,347.3 L331.0,347.2 L331.3,347.3 L331.5,347.0 L331.7,346.9 
		L332.0,346.8 L332.2,346.9 L332.5,346.7 L332.7,346.7 L333.0,346.7 L333.2,346.7 L333.4,346.6 L333.7,346.5 
		L333.9,346.5 L334.2,346.4 L334.4,346.4 L334.7,346.4 L334.9,346.5 L335.2,346.5 L335.4,346.5 L335.6,346.5 
		L335.9,346.6 L336.1,346.4 L336.4,346.5 L336.6,346.5 L336.9,346.6 L337.1,346.6 L337.3,346.6 L337.6,346.7 
		L337.8,346.6 L338.1,346.7 L338.3,346.6 L338.6,346.3 L338.8,346.3 L339.0,346.3 L339.3,346.4 L339.5,346.4 
		L339.8,346.2 L340.0,346.1 L340.3,346.1 L340.5,346.1 L340.7,346.1 L341.0,346.1 L341.2,346.4 L341.5,346.4 
		L341.7,346.4 L342.0,346.4 L342.2,346.4 L342.4,346.5 L342.7,346.5 L342.9,346.6 L343.2,346.6 L343.4,346.6 
		L343.7,346.7 L343.9,346.6 L344.2,346.6 L344.4,346.6 L344.6,346.6 L344.9,346.8 L345.1,346.8 L345.4,346.9 
		L345.6,346.9 L345.9,347.0 L346.1,346.9 L346.3,346.9 L346.6,347.0 L346.8,347.0 L347.1,347.0 L347.3,347.0 
		L347.6,347.1 L347.8,347.1 L348.0,347.2 L348.3,347.1 L348.5,347.1 L348.8,347.0 L349.0,347.0 L349.3,347.0 
		L349.5,347.0 L349.7,347.1 L350.0,347.1 L350.2,347.1 L350.5,347.1 L350.7,347.1 L351.0,347.4 L351.2,347.4 
		L351.4,347.5 L351.7,347.5 L351.9,347.5 L352.2,347.3 L352.4,347.2 L352.7,347.3 L352.9,347.1 L353.2,347.1 
		L353.4,347.1 L353.6,347.1 L353.9,347.2 L354.1,347.1 L354.4,346.9 L354.6,346.9 L354.9,346.9 L355.1,346.9 
		L355.3,347.1 L355.6,347.1 L355.8,347.2 L356.1,347.2 L356.3,347.3 L356.6,347.3 L356.8,347.3 L357.0,347.3 
		L357.3,347.3 L357.5,347.6 L357.8,347.5 L358.0,347.5 L358.3,347.3 L358.5,347.3 L358.7,347.2 L359.0,347.2 
		L359.2,347.2 L359.5,347.2 L359.7,347.5 L360.0,347.5 L360.2,347.5 L360.4,347.5 L360.7,347.5 L360.9,347.5 
		L361.2,347.8 L361.4,347.6 L361.7,347.5 L361.9,347.5 L362.2,347.7 L362.4,347.7 L362.6,347.7 L362.9,347.8 
		L363.1,347.8 L363.4,347.9 L363.6,347.9 L363.9,347.9 L364.1,348.1 L364.3,348.1 L364.6,348.1 L364.8,348.1 
		L365.1,348.2 L365.3,348.2 L365.6,348.2 L365.8,348.2 L366.0,348.5 L366.3,348.5 L366.5,348.5 L366.8,348.5 
		L367.0,348.7 L367.3,348.7 L367.5,348.7 L367.7,348.7 L368.0,348.7 L368.2,348.7 L368.5,348.7 L368.7,348.7 
		L369.0,348.7 L369.2,348.8 L369.4,348.8 L369.7,348.8 L369.9,348.8 L370.2,348.8 L370.4,348.8 L370.7,349.0 
		L370.9,349.0 L371.2,349.0 L371.4,349.1 L371.6,349.1 L371.9,349.1 L372.1,349.1 L372.4,349.1 L372.6,349.1 
		L372.9,349.4 L373.1,349.3 L373.3,349.2 L373.6,349.3 L373.8,349.3 L374.1,349.3 L374.3,349.3 L374.6,349.3 
		L374.8,349.5 L375.0,349.5 L375.3,349.6 L375.5,349.6 L375.8,349.6 L376.0,349.8 L376.3,349.8 L376.5,349.8 
		L376.7,349.8 L377.0,349.8 L377.2,349.8 L377.5,349.8 L377.7,350.1 L378.0,350.1 L378.2,350.1 L378.4,350.1 
		L378.7,350.3 L378.9,350.3 L379.2,350.4 L379.4,350.4 L379.7,350.4 L379.9,350.4 L380.2,350.4 L380.4,350.4 
		L380.6,350.7 L380.9,350.6 L381.1,350.7 L381.4,350.7 L381.6,350.7 L381.9,350.7 L382.1,350.7 L382.3,350.8 
		L382.6,350.8 L382.8,350.8 L383.1,350.9 L383.3,350.9 L383.6,351.0 L383.8,351.0 L384.0,351.0 L384.3,351.0 
		L384.5,351.1 L384.8,351.1 L385.0,351.1 L385.3,351.1 L385.5,351.2 L385.7,351.2 L386.0,351.2 L386.2,351.2 
		L386.5,351.2 L386.7,351.2 L387.0,351.2 L387.2,351.2 L387.4,351.3 L387.7,351.3 L387.9,351.2 L388.2,351.2 
		L388.4,351.2 L388.7,351.2 L388.9,351.2 L389.2,351.2 L389.4,351.5 L389.6,351.5 L389.9,351.5 L390.1,351.5 
		L390.4,351.6 L390.6,351.6 L390.9,351.7 L391.1,351.7 L391.3,351.7 L391.6,351.8 L391.8,351.8 L392.1,351.8 
		L392.3,351.8 L392.6,351.8 L392.8,351.9 L393.0,351.9 L393.3,351.9 L393.5,351.8 L393.8,351.8 L394.0,351.9 
		L394.3,351.9 L394.5,351.9 L394.7,351.9 L395.0,351.9 L395.2,352.0 L395.5,352.0 L395.7,351.9 L396.0,351.9 
		L396.2,351.9 L396.4,351.9 L396.7,352.0 L396.9,352.0 L397.2,352.0 L397.4,352.2 L397.7,352.2 L397.9,352.1 
		L398.2,352.2 L398.4,352.1 L398.6,352.1 L398.9,352.1 L399.1,352.1 L399.4,352.1 L399.6,352.1 L399.9,352.1 
		L400.1,352.3 L400.3,352.3 L400.6,352.4 L400.8,352.4 L401.1,352.4 L401.3,352.4 L401.6,352.6 L401.8,352.6 
		L402.0,352.6 L402.3,352.6 L402.5,352.6 L402.8,352.7 L403.0,352.6 L403.3,352.6 L403.5,352.6 L403.7,352.7 
		L404.0,352.7 L404.2,352.7 L404.5,352.6 L404.7,352.5 L405.0,352.6 L405.2,352.6 L405.4,352.6 L405.7,352.6 
		L405.9,352.8 L406.2,352.8 L406.4,352.8 L406.7,352.8 L406.9,352.8 L407.2,353.0 L407.4,353.0 L407.6,353.0 
		L407.9,353.0 L408.1,353.2 L408.4,353.1 L408.6,353.1 L408.9,353.2 L409.1,353.2 L409.3,353.2 L409.6,353.2 
		L409.8,353.3 L410.1,353.3 L410.3,353.3 L410.6,353.3 L410.8,353.3 L411.0,353.3 L411.3,353.3 L411.5,353.4 
		L411.8,353.5 L412.0,353.5 L412.3,353.5 L412.5,353.5 L412.7,353.6 L413.0,353.6 L413.2,353.6 L413.5,353.6 
		L413.7,353.6 L414.0,353.5 L414.2,353.5 L414.5,353.5 L414.7,353.5 L414.9,353.5 L415.2,353.5 L415.4,353.5 
		L415.7,353.5 L415.9,353.5 L416.2,353.5 L416.4,353.5 L416.6,354.0 L416.9,353.9 L417.1,353.9 L417.4,353.9 
		L417.6,354.0 L417.9,354.0 L418.1,354.0 L418.3,354.0 L418.6,354.0 L418.8,354.0 L419.1,354.1 L419.3,354.1 
		L419.6,354.2 L419.8,354.2 L420.0,354.2 L420.3,354.2 L420.5,354.2 L420.8,354.4 L421.0,354.4 L421.3,354.4 
		L421.5,354.5 L421.7,354.5 L422.0,354.5 L422.2,354.5 L422.5,354.6 L422.7,354.6 L423.0,354.6 L423.2,354.6 
		L423.5,354.6 L423.7,354.7 L423.9,354.6 L424.2,354.7 L424.4,354.7 L424.7,354.7 L424.9,354.6 L425.2,354.6 
		L425.4,354.6 L425.6,354.6 L425.9,354.6 L426.1,354.6 L426.4,354.6 L426.6,354.7 L426.9,354.7 L427.1,354.7 
		L427.3,354.7 L427.6,354.7 L427.8,354.7 L428.1,354.7 L428.3,355.0 L428.6,355.0 L428.8,355.0 L429.0,355.0 
		L429.3,355.1 L429.5,355.2 L429.8,355.1 L430.0,355.1 L430.3,355.1 L430.5,355.1 L430.7,355.2 L431.0,355.1 
		L431.2,355.0 L431.5,355.0 L431.7,355.0 L432.0,355.0 L432.2,355.0 L432.5,354.9 L432.7,354.8 L432.9,354.8 
		L433.2,354.8 L433.4,354.9 L433.7,354.9 L433.9,354.9 L434.2,354.9 L434.4,354.9 L434.6,354.9 L434.9,354.9 
		L435.1,355.0 L435.4,354.9 L435.6,355.0 L435.9,354.9 L436.1,355.0 L436.3,354.9 L436.6,354.8 L436.8,354.8 
		L437.1,354.7 L437.3,354.8 L437.6,354.7 L437.8,354.7 L438.0,354.7 L438.3,354.9 L438.5,354.9 L438.8,354.9 
		L439.0,355.0 L439.3,355.0 L439.5,354.9 L439.7,354.9 L440.0,354.8 L440.2,354.8 L440.5,354.8 L440.7,354.9 
		L441.0,354.9 L441.2,354.9 L441.5,354.9 L441.7,354.8 L441.9,354.7 L442.2,354.7 L442.4,354.7 L442.7,354.7 
		L442.9,354.8 L443.2,354.8 L443.4,354.8 L443.6,354.8 L443.9,354.8 L444.1,354.8 L444.4,354.8 L444.6,354.8 
		L444.9,354.8 L445.1,355.1 L445.3,355.1 L445.6,355.1 L445.8,355.1 L446.1,355.1 L446.3,355.1 L446.6,355.1 
		L446.8,355.2 L447.0,355.2 L447.3,355.2 L447.5,355.2 L447.8,355.2 L448.0,355.2 L448.3,355.4 L448.5,355.4 
		L448.7,355.3 L449.0,355.3 L449.2,355.3 L449.5,355.3 L449.7,355.2 L450.0,355.3 L450.2,355.3 L450.5,355.3 
		L450.7,355.2 L450.9,355.2 L451.2,355.2 L451.4,355.3 L451.7,355.3 L451.9,355.3 L452.2,355.3 L452.4,355.2 
		L452.6,355.1 L452.9,355.0 L453.1,355.0 L453.4,355.0 L453.6,355.1 L453.9,355.2 L454.1,355.2 L454.3,355.2 
		L454.6,355.0 L454.8,354.9 L455.1,354.8 L455.3,354.8 L455.6,354.8 L455.8,354.9 L456.0,354.9 L456.3,354.9 
		L456.5,354.9 L456.8,355.0 L457.0,355.0 L457.3,355.0 L457.5,354.8 L457.7,354.8 L458.0,354.8 L458.2,354.6 
		L458.5,354.5 L458.7,354.5 L459.0,354.5 L459.2,354.5 L459.5,354.5 L459.7,354.5 L459.9,354.5 L460.2,354.5 
		L460.4,354.5 L460.7,354.8 L460.9,354.7 L461.2,354.7 L461.4,354.8 L461.6,354.7 L461.9,354.7 L462.1,354.7 
		L462.4,354.8 L462.6,354.8 L462.9,354.8 L463.1,354.8 L463.3,354.8 L463.6,354.8 L463.8,354.9 L464.1,354.8 
		L464.3,354.8 L464.6,354.8 L464.8,354.8 L465.0,354.8 L465.3,354.9 L465.5,354.9 L465.8,354.9 L466.0,354.9 
		L466.3,354.9 L466.5,355.0 L466.7,355.0 L467.0,355.0 L467.2,355.0 L467.5,355.0 L467.7,355.0 L468.0,355.0 
		L468.2,355.2 L468.5,355.2 L468.7,355.2 L468.9,355.2 L469.2,355.2 L469.4,355.2 L469.7,355.2 L469.9,355.1 
		L470.2,355.1 L470.4,355.2 L470.6,355.2 L470.9,355.2 L471.1,355.1 L471.4,355.0 L471.6,355.0 L471.9,355.0 
		L472.1,355.0 L472.3,355.1 L472.6,355.1 L472.8,355.1 L473.1,355.2 L473.3,355.2 L473.6,355.2 L473.8,355.2 
		L474.0,355.2 L474.3,355.3 L474.5,355.3 L474.8,355.4 L475.0,355.4 L475.3,355.3 L475.5,355.3 L475.7,355.3 
		L476.0,355.3 L476.2,355.3 L476.5,355.3 L476.7,355.4 L477.0,355.3 L477.2,355.3 L477.5,355.3 L477.7,355.3 
		L477.9,355.5 L478.2,355.4 L478.4,355.2 L478.7,355.2 L478.9,355.3 L479.2,355.3 L479.4,355.3 L479.6,355.3 
		L479.9,355.3 L480.1,355.4 L480.4,355.4 L480.6,355.4 L480.9,355.4 L481.1,355.5 L481.3,355.4 L481.6,355.4 
		L481.8,355.4 L482.1,355.5 L482.3,355.5 L482.6,355.5 L482.8,355.6 L483.0,355.6 L483.3,355.6 L483.5,355.6 
		L483.8,355.6 L484.0,355.6 L484.3,355.6 L484.5,355.7 L484.7,355.5 L485.0,355.4 L485.2,355.4 L485.5,355.4 
		L485.7,355.4 L486.0,355.4 L486.2,355.4 L486.5,355.4 L486.7,355.6 L486.9,355.6 L487.2,355.7 L487.4,355.5 
		L487.7,355.6 L487.9,355.5 L488.2,355.5 L488.4,355.5 L488.6,355.5 L488.9,355.5 L489.1,355.6 L489.4,355.6 
		L489.6,355.6 L489.9,355.7 L490.1,355.7 L490.3,355.7 L490.6,355.7 L490.8,355.7 L491.1,355.6 L491.3,355.6 
		L491.6,355.6 L491.8,355.7 L492.0,355.7 L492.3,355.7 L492.5,355.6 L492.8,355.6 L493.0,355.7 L493.3,355.7 
		L493.5,355.7 L493.7,355.7 L494.0,355.7 L494.2,355.7 L494.5,355.7 L494.7,355.7 L495.0,355.7 L495.2,355.9 
		L495.5,355.8 L495.7,355.9 L495.9,355.9 L496.2,355.9 L496.4,355.9 L496.7,355.9 L496.9,355.9 L497.2,356.1 
		L497.4,356.1 L497.6,356.1 L497.9,356.1 L498.1,356.2 L498.4,356.2 L498.6,356.2 L498.9,356.2 L499.1,356.2 
		L499.3,356.4 L499.6,356.4 L499.8,356.4 L500.1,356.4 L500.3,356.5 L500.6,356.5 L500.8,356.5 L501.0,356.5 
		L501.3,356.5 L501.5,356.5 L501.8,356.6 L502.0,356.6 L502.3,356.6 L502.5,356.7 L502.7,356.7 L503.0,356.7 
		L503.2,356.7 L503.5,356.7 L503.7,356.7 L504.0,356.7 L504.2,356.7 L504.5,356.7 L504.7,356.7 L504.9,356.7 
		L505.2,356.7 L505.4,356.7 L505.7,356.7 L505.9,356.7 L506.2,356.7 L506.4,356.7 L506.6,356.8 L506.9,356.8 
		L507.1,356.8 L507.4,356.8 L507.6,356.9 L507.9,356.8 L508.1,356.8 L508.3,356.8 L508.6,356.9 L508.8,356.9 
		L509.1,356.8 L509.3,356.8 L509.6,356.8 L509.8,356.8 L510.0,356.8 L510.3,356.8 L510.5,356.9 L510.8,356.9 
		L511.0,356.9 L511.3,356.9 L511.5,356.9 L511.8,356.9 L512.0,356.9 L512.2,356.9 L512.5,356.9 L512.7,356.9 
		L513.0,357.0 L513.2,357.0 L513.5,357.0 L513.7,357.0 L513.9,357.0 L514.2,357.0 L514.4,357.0 L514.7,357.0 
		L514.9,357.3 L515.2,357.3 L515.4,357.3 L515.6,357.3 L515.9,357.2 L516.1,357.2 L516.4,357.2 L516.6,357.2 
		L516.9,357.3 L517.1,357.3 L517.3,357.3 L517.6,357.3 L517.8,357.4 L518.1,357.4 L518.3,357.5 L518.6,357.5 
		L518.8,357.5 L519.0,357.5 L519.3,357.5 L519.5,357.5 L519.8,357.5 L520.0,357.5 L520.3,357.5 L520.5,357.5 
		L520.8,357.5 L521.0,357.6 L521.2,357.5 L521.5,357.5 L521.7,357.5 L522.0,357.5 L522.2,357.4 L522.5,357.5 
		L522.7,357.5 L522.9,357.5 L523.2,357.4 L523.4,357.4 L523.7,357.4 L523.9,357.4 L524.2,357.4 L524.4,357.4 
		L524.6,357.4 L524.9,357.7 L525.1,357.5 L525.4,357.5 L525.6,357.5 L525.9,357.5 L526.1,357.5 L526.3,357.6 
		L526.6,357.6 L526.8,357.6 L527.1,357.6 L527.3,357.6 L527.6,357.6 L527.8,357.6 L528.0,357.7 L528.3,357.7 
		L528.5,357.8 L528.8,357.8 L529.0,357.8 L529.3,357.8 L529.5,357.8 L529.8,357.8 L530.0,357.8 L530.2,357.8 
		L530.5,357.8 L530.7,357.8 L531.0,357.8 L531.2,357.8 L531.5,357.8 L531.7,357.8 L531.9,357.8 L532.2,357.8 
		L532.4,358.1 L532.7,358.1 L532.9,358.1 L533.2,358.1 L533.4,358.1 L533.6,358.1 L533.9,358.2 L534.1,358.2 
		L534.4,358.3 L534.6,358.3 L534.9,358.3 L535.1,358.3 L535.3,358.3 L535.6,358.3 L535.8,358.3 L536.1,358.4 
		L536.3,358.4 L536.6,358.4 L536.8,358.4 L537.0,358.4 L537.3,358.4 L537.5,358.4 L537.8,358.4 L538.0,358.4 
		L538.3,358.5 L538.5,358.5 L538.8,358.5 L539.0,358.5 L539.2,358.5 L539.5,358.6 L539.7,358.5 L540.0,358.5 
		L540.2,358.5 L540.5,358.5 L540.7,358.5 L540.9,358.5 L541.2,358.5 L541.4,358.5 L541.7,358.5 L541.9,358.5 
		L542.2,358.6 L542.4,358.5 L542.6,358.6 L542.9,358.6 L543.1,358.5 L543.4,358.5 L543.6,358.4 L543.9,358.4 
		L544.1,358.5 L544.3,358.5 L544.6,358.5 L544.8,358.5 L545.1,358.4 L545.3,358.4 L545.6,358.4 L545.8,358.4 
		L546.0,358.4 L546.3,358.3 L546.5,358.2 L546.8,358.2 L547.0,358.2 L547.3,358.1 L547.5,358.1 L547.8,358.1 
		L548.0,358.2 L548.2,358.1 L548.5,358.0 L548.7,358.1 L549.0,358.0 L549.2,358.1 L549.5,358.1 L549.7,358.1 
		L549.9,358.1 L550.2,358.0 L550.4,358.0 L550.7,358.0 L550.9,358.1 L551.2,358.1 L551.4,358.1 L551.6,358.1 
		L551.9,358.2 L552.1,358.2 L552.4,358.2 L552.6,358.2 L552.9,358.2 L553.1,358.1 L553.3,358.1 L553.6,358.1 
		L553.8,358.2 L554.1,358.2 L554.3,358.0 L554.6,357.9 L554.8,357.8 L555.0,357.8 L555.3,357.9 L555.5,357.8 
		L555.8,357.8 L556.0,357.9 L556.3,357.8 L556.5,357.8 L556.8,357.9 L557.0,357.8 L557.2,357.8 L557.5,357.8 
		L557.7,357.8 L558.0,357.8 L558.2,357.8 L558.5,357.8 L558.7,358.0 L558.9,358.0 L559.2,357.9 L559.4,357.9 
		L559.7,357.9 L559.9,357.9 L560.2,357.9 L560.4,358.1 L560.6,358.1 L560.9,358.1 L561.1,358.1 L561.4,358.1 
		L561.6,358.1 L561.9,358.2 L562.1,358.2 L562.3,358.2 L562.6,358.2 L562.8,358.2 L563.1,358.2 L563.3,358.3 
		L563.6,358.3 L563.8,358.4 L564.0,358.4 L564.3,358.4 L564.5,358.4 L564.8,358.4 L565.0,358.4 L565.3,358.4 
		L565.5,358.5 L565.8,358.6 L566.0,358.6 L566.2,358.6 L566.5,358.6 L566.7,358.6 L567.0,358.6 L567.2,358.7 
		L567.5,358.7 L567.7,358.7 L567.9,358.7 L568.2,358.7 L568.4,358.7 L568.7,358.7 L568.9,358.7 L569.2,358.7 
		L569.4,358.9 L569.6,358.9 L569.9,358.9 L570.1,358.9 L570.4,359.0 L570.6,359.0 L570.9,359.0 L571.1,359.0 
		L571.3,359.1 L571.6,359.1 L571.8,359.1 L572.1,359.1 L572.3,359.1 L572.6,359.2 L572.8,359.2 L573.0,359.2 
		L573.3,359.2 L573.5,359.2 L573.8,359.2 L574.0,359.2 L574.3,359.2 L574.5,359.2 L574.8,359.2 L575.0,359.2 
		 h0.01'/></g>
	</g>
	<g id="gnuplot_plot_2" ><title>gnuplot_plot_2</title>
<g style="fill:none; color:green; stroke:currentColor; stroke-width:1.00; stroke-linecap:butt; stroke-linejoin:miter">
	<g transform="translate(507.9,408.9)" style="stroke:none; fill:black; font-family:Arial; font-size:12.00pt; text-anchor:end">
		<text>Radio maximum capacity</text>
	</g>
	<path  d='M516.2,404.4 L558.4,404.4 M91.2,236.0 L91.4,94.3 L91.7,122.8 L91.9,249.2 L92.1,195.8 L92.4,200.5 
		L92.6,184.6 L92.9,118.4 L93.1,113.5 L93.4,113.5 L93.6,166.1 L93.9,197.7 L94.1,180.6 L94.3,178.1 
		L94.6,178.1 L94.8,197.0 L95.1,208.5 L95.3,206.7 L95.6,210.4 L95.8,210.4 L96.0,231.7 L96.3,231.7 
		L96.5,249.2 L96.8,242.4 L97.0,238.9 L97.3,238.9 L97.5,249.9 L97.7,253.3 L98.0,253.6 L98.2,253.1 
		L98.5,258.2 L98.7,258.2 L99.0,258.2 L99.2,271.0 L99.4,271.5 L99.7,275.3 L99.9,275.5 L100.2,281.1 
		L100.4,283.5 L100.7,288.9 L100.9,288.9 L101.1,288.9 L101.4,295.7 L101.6,295.7 L101.9,301.6 L102.1,300.4 
		L102.4,300.4 L102.6,305.9 L102.8,305.8 L103.1,305.8 L103.3,309.4 L103.6,310.4 L103.8,307.3 L104.1,307.4 
		L104.3,307.4 L104.5,312.7 L104.8,312.9 L105.0,314.8 L105.3,314.8 L105.5,314.8 L105.8,319.8 L106.0,321.1 
		L106.3,323.1 L106.5,321.0 L106.7,317.7 L107.0,314.9 L107.2,315.0 L107.5,316.4 L107.7,316.6 L108.0,318.2 
		L108.2,316.0 L108.4,315.7 L108.7,315.7 L108.9,318.5 L109.2,319.4 L109.4,320.7 L109.7,320.6 L109.9,322.2 
		L110.1,324.1 L110.4,324.1 L110.6,323.6 L110.9,324.4 L111.1,324.4 L111.4,325.6 L111.6,325.6 L111.8,325.9 
		L112.1,325.5 L112.3,326.7 L112.6,326.4 L112.8,327.2 L113.1,328.4 L113.3,326.9 L113.5,326.4 L113.8,326.2 
		L114.0,324.3 L114.3,323.9 L114.5,324.8 L114.8,324.4 L115.0,324.9 L115.3,324.9 L115.5,326.4 L115.7,326.4 
		L116.0,328.1 L116.2,326.0 L116.5,326.0 L116.7,326.7 L117.0,327.1 L117.2,326.8 L117.4,325.0 L117.7,324.7 
		L117.9,322.4 L118.2,322.6 L118.4,322.2 L118.7,322.2 L118.9,322.1 L119.1,322.1 L119.4,323.5 L119.6,323.7 
		L119.9,323.8 L120.1,323.8 L120.4,325.8 L120.6,325.7 L120.8,325.7 L121.1,325.7 L121.3,325.7 L121.6,325.7 
		L121.8,327.8 L122.1,327.6 L122.3,327.6 L122.6,328.4 L122.8,328.8 L123.0,329.6 L123.3,328.3 L123.5,328.3 
		L123.8,328.6 L124.0,327.1 L124.3,325.7 L124.5,325.7 L124.7,325.7 L125.0,325.7 L125.2,327.8 L125.5,327.8 
		L125.7,328.9 L126.0,328.0 L126.2,328.0 L126.4,327.9 L126.7,328.5 L126.9,328.5 L127.2,328.5 L127.4,330.3 
		L127.7,330.3 L127.9,330.3 L128.1,331.6 L128.4,330.7 L128.6,331.1 L128.9,331.1 L129.1,331.2 L129.4,329.7 
		L129.6,329.6 L129.8,330.2 L130.1,329.6 L130.3,327.7 L130.6,327.5 L130.8,327.1 L131.1,326.7 L131.3,326.3 
		L131.6,327.1 L131.8,324.6 L132.0,323.1 L132.3,323.1 L132.5,323.1 L132.8,322.6 L133.0,322.6 L133.3,320.7 
		L133.5,320.6 L133.7,320.5 L134.0,320.6 L134.2,320.6 L134.5,321.0 L134.7,321.0 L135.0,321.6 L135.2,320.2 
		L135.4,320.6 L135.7,320.0 L135.9,319.9 L136.2,319.5 L136.4,320.2 L136.7,320.5 L136.9,320.5 L137.2,321.3 
		L137.4,321.7 L137.6,321.7 L137.9,322.9 L138.1,322.8 L138.4,323.3 L138.6,323.2 L138.9,323.2 L139.1,322.9 
		L139.3,322.2 L139.6,321.6 L139.8,321.6 L140.1,321.6 L140.3,321.6 L140.6,323.5 L140.8,323.4 L141.0,323.7 
		L141.3,323.3 L141.5,323.5 L141.8,323.5 L142.0,324.0 L142.3,323.2 L142.5,323.2 L142.7,322.8 L143.0,323.0 
		L143.2,323.2 L143.5,323.3 L143.7,323.3 L144.0,323.7 L144.2,323.7 L144.4,324.4 L144.7,324.4 L144.9,323.8 
		L145.2,324.0 L145.4,324.5 L145.7,324.7 L145.9,324.0 L146.2,321.8 L146.4,321.1 L146.6,321.1 L146.9,321.0 
		L147.1,320.1 L147.4,320.2 L147.6,320.2 L147.9,320.2 L148.1,321.4 L148.3,321.4 L148.6,322.1 L148.8,322.1 
		L149.1,322.6 L149.3,323.0 L149.6,323.1 L149.8,323.1 L150.0,323.4 L150.3,323.6 L150.5,322.4 L150.8,322.3 
		L151.0,322.3 L151.3,323.1 L151.5,323.1 L151.7,323.1 L152.0,323.4 L152.2,323.6 L152.5,322.7 L152.7,322.7 
		L153.0,322.0 L153.2,320.6 L153.4,320.5 L153.7,320.6 L153.9,320.2 L154.2,320.2 L154.4,320.7 L154.7,320.7 
		L154.9,320.7 L155.2,320.7 L155.4,322.0 L155.6,322.0 L155.9,322.2 L156.1,322.4 L156.4,322.4 L156.6,322.8 
		L156.9,323.0 L157.1,322.9 L157.3,322.9 L157.6,323.3 L157.8,323.6 L158.1,323.6 L158.3,324.0 L158.6,323.1 
		L158.8,321.6 L159.0,321.5 L159.3,322.0 L159.5,322.0 L159.8,322.4 L160.0,321.9 L160.3,321.3 L160.5,321.3 
		L160.7,321.3 L161.0,321.3 L161.2,322.5 L161.5,322.5 L161.7,322.5 L162.0,322.7 L162.2,322.6 L162.4,322.7 
		L162.7,322.6 L162.9,322.6 L163.2,322.6 L163.4,322.6 L163.7,323.4 L163.9,323.6 L164.2,323.6 L164.4,323.6 
		L164.6,324.0 L164.9,324.3 L165.1,324.3 L165.4,324.1 L165.6,322.1 L165.9,321.3 L166.1,321.6 L166.3,321.6 
		L166.6,322.0 L166.8,322.3 L167.1,322.3 L167.3,322.3 L167.6,322.8 L167.8,322.8 L168.0,323.2 L168.3,323.5 
		L168.5,323.9 L168.8,323.5 L169.0,323.3 L169.3,323.1 L169.5,321.8 L169.7,321.6 L170.0,321.7 L170.2,321.1 
		L170.5,321.1 L170.7,321.3 L171.0,321.7 L171.2,321.4 L171.4,321.6 L171.7,322.0 L171.9,321.7 L172.2,321.2 
		L172.4,321.1 L172.7,321.5 L172.9,321.5 L173.2,321.8 L173.4,322.0 L173.6,321.8 L173.9,321.9 L174.1,321.9 
		L174.4,321.5 L174.6,321.3 L174.9,321.3 L175.1,321.2 L175.3,320.6 L175.6,320.9 L175.8,320.4 L176.1,320.3 
		L176.3,320.3 L176.6,321.0 L176.8,320.9 L177.0,321.2 L177.3,321.2 L177.5,321.6 L177.8,321.5 L178.0,321.3 
		L178.3,320.9 L178.5,321.1 L178.7,321.1 L179.0,321.4 L179.2,321.1 L179.5,321.4 L179.7,320.9 L180.0,319.9 
		L180.2,319.5 L180.4,319.8 L180.7,319.7 L180.9,319.7 L181.2,320.3 L181.4,319.7 L181.7,318.8 L181.9,318.3 
		L182.2,318.3 L182.4,318.3 L182.6,318.7 L182.9,317.9 L183.1,317.7 L183.4,317.7 L183.6,318.1 L183.9,318.1 
		L184.1,318.2 L184.3,318.2 L184.6,318.2 L184.8,319.0 L185.1,318.7 L185.3,318.6 L185.6,318.4 L185.8,318.6 
		L186.0,318.5 L186.3,318.5 L186.5,318.9 L186.8,318.9 L187.0,318.9 L187.3,318.9 L187.5,318.9 L187.7,318.9 
		L188.0,320.0 L188.2,319.6 L188.5,319.6 L188.7,319.4 L189.0,319.4 L189.2,319.7 L189.4,319.8 L189.7,319.4 
		L189.9,319.6 L190.2,319.6 L190.4,319.7 L190.7,319.6 L190.9,319.0 L191.2,319.0 L191.4,319.0 L191.6,319.0 
		L191.9,319.0 L192.1,320.2 L192.4,320.2 L192.6,320.6 L192.9,320.9 L193.1,320.9 L193.3,320.9 L193.6,321.2 
		L193.8,321.0 L194.1,321.0 L194.3,321.0 L194.6,321.5 L194.8,321.5 L195.0,321.5 L195.3,321.1 L195.5,321.0 
		L195.8,321.0 L196.0,321.6 L196.3,321.5 L196.5,321.4 L196.7,321.4 L197.0,321.4 L197.2,321.8 L197.5,321.4 
		L197.7,321.3 L198.0,321.6 L198.2,321.8 L198.4,321.8 L198.7,321.8 L198.9,321.8 L199.2,322.4 L199.4,322.0 
		L199.7,322.0 L199.9,322.3 L200.2,322.4 L200.4,322.5 L200.6,322.7 L200.9,322.7 L201.1,321.9 L201.4,321.5 
		L201.6,321.5 L201.9,321.8 L202.1,321.7 L202.3,321.7 L202.6,322.0 L202.8,322.0 L203.1,322.3 L203.3,321.9 
		L203.6,321.5 L203.8,321.4 L204.0,321.6 L204.3,321.6 L204.5,321.7 L204.8,321.9 L205.0,321.1 L205.3,320.1 
		L205.5,320.1 L205.7,320.4 L206.0,320.4 L206.2,320.4 L206.5,320.7 L206.7,320.6 L207.0,320.4 L207.2,320.3 
		L207.4,320.3 L207.7,320.3 L207.9,320.3 L208.2,320.3 L208.4,321.3 L208.7,321.6 L208.9,321.3 L209.2,321.4 
		L209.4,321.3 L209.6,321.3 L209.9,321.3 L210.1,321.3 L210.4,322.0 L210.6,322.2 L210.9,322.2 L211.1,322.3 
		L211.3,321.1 L211.6,320.3 L211.8,320.3 L212.1,320.3 L212.3,320.3 L212.6,320.3 L212.8,321.0 L213.0,320.9 
		L213.3,320.9 L213.5,321.2 L213.8,321.2 L214.0,321.5 L214.3,321.5 L214.5,321.5 L214.7,322.1 L215.0,322.2 
		L215.2,322.2 L215.5,322.2 L215.7,322.3 L216.0,322.3 L216.2,322.3 L216.4,322.3 L216.7,323.0 L216.9,323.0 
		L217.2,323.0 L217.4,323.4 L217.7,323.4 L217.9,323.5 L218.2,323.5 L218.4,323.5 L218.6,323.5 L218.9,324.0 
		L219.1,323.7 L219.4,323.2 L219.6,323.2 L219.9,323.2 L220.1,323.6 L220.3,323.7 L220.6,323.3 L220.8,323.3 
		L221.1,323.4 L221.3,323.5 L221.6,323.5 L221.8,323.4 L222.0,323.4 L222.3,323.4 L222.5,323.4 L222.8,323.4 
		L223.0,324.3 L223.3,324.0 L223.5,324.0 L223.7,323.9 L224.0,323.4 L224.2,323.4 L224.5,323.2 L224.7,323.2 
		L225.0,323.4 L225.2,323.6 L225.4,323.8 L225.7,323.8 L225.9,323.8 L226.2,323.8 L226.4,324.3 L226.7,324.4 
		L226.9,324.5 L227.2,324.5 L227.4,324.5 L227.6,324.5 L227.9,325.3 L228.1,325.0 L228.4,324.9 L228.6,324.9 
		L228.9,325.1 L229.1,325.3 L229.3,325.3 L229.6,325.3 L229.8,325.5 L230.1,325.5 L230.3,325.5 L230.6,325.5 
		L230.8,326.3 L231.0,326.0 L231.3,326.1 L231.5,326.1 L231.8,326.4 L232.0,326.3 L232.3,326.2 L232.5,326.2 
		L232.7,326.2 L233.0,326.2 L233.2,326.2 L233.5,326.9 L233.7,326.6 L234.0,326.7 L234.2,326.7 L234.5,326.6 
		L234.7,326.5 L234.9,326.6 L235.2,326.1 L235.4,325.9 L235.7,325.9 L235.9,325.9 L236.2,325.8 L236.4,325.8 
		L236.6,325.5 L236.9,325.0 L237.1,325.0 L237.4,325.2 L237.6,325.2 L237.9,325.2 L238.1,325.4 L238.3,325.4 
		L238.6,325.6 L238.8,325.8 L239.1,325.5 L239.3,325.2 L239.6,325.2 L239.8,325.4 L240.0,324.9 L240.3,324.5 
		L240.5,324.5 L240.8,324.4 L241.0,324.4 L241.3,324.5 L241.5,324.6 L241.7,324.6 L242.0,324.9 L242.2,324.9 
		L242.5,324.9 L242.7,324.9 L243.0,325.0 L243.2,325.0 L243.5,325.2 L243.7,325.2 L243.9,325.4 L244.2,325.3 
		L244.4,325.4 L244.7,325.5 L244.9,325.5 L245.2,325.5 L245.4,325.5 L245.6,326.1 L245.9,326.1 L246.1,326.1 
		L246.4,326.2 L246.6,326.5 L246.9,326.4 L247.1,326.1 L247.3,326.0 L247.6,326.0 L247.8,326.0 L248.1,326.4 
		L248.3,326.5 L248.6,326.3 L248.8,326.3 L249.0,325.9 L249.3,325.9 L249.5,326.1 L249.8,326.1 L250.0,326.0 
		L250.3,326.0 L250.5,326.0 L250.7,326.0 L251.0,326.0 L251.2,326.4 L251.5,326.4 L251.7,326.4 L252.0,326.7 
		L252.2,326.4 L252.5,325.9 L252.7,325.9 L252.9,325.9 L253.2,326.1 L253.4,325.8 L253.7,325.6 L253.9,325.6 
		L254.2,325.9 L254.4,325.9 L254.6,325.5 L254.9,325.5 L255.1,325.5 L255.4,325.5 L255.6,325.6 L255.9,325.4 
		L256.1,325.5 L256.3,325.5 L256.6,325.5 L256.8,325.8 L257.1,325.8 L257.3,325.8 L257.6,325.8 L257.8,325.8 
		L258.0,325.8 L258.3,325.8 L258.5,326.5 L258.8,326.5 L259.0,326.3 L259.3,326.1 L259.5,326.1 L259.7,326.1 
		L260.0,326.2 L260.2,325.8 L260.5,325.8 L260.7,325.8 L261.0,326.0 L261.2,326.2 L261.5,326.2 L261.7,326.3 
		L261.9,326.5 L262.2,326.4 L262.4,326.0 L262.7,326.0 L262.9,326.0 L263.2,326.3 L263.4,326.3 L263.6,326.3 
		L263.9,326.1 L264.1,326.0 L264.4,326.0 L264.6,326.0 L264.9,326.0 L265.1,326.1 L265.3,326.0 L265.6,326.0 
		L265.8,326.1 L266.1,326.1 L266.3,326.1 L266.6,326.3 L266.8,326.4 L267.0,326.4 L267.3,326.3 L267.5,325.8 
		L267.8,325.4 L268.0,325.4 L268.3,325.4 L268.5,325.4 L268.7,325.7 L269.0,325.6 L269.2,325.7 L269.5,325.7 
		L269.7,325.8 L270.0,325.9 L270.2,325.6 L270.5,325.3 L270.7,325.2 L270.9,325.2 L271.2,325.5 L271.4,325.6 
		L271.7,325.8 L271.9,325.7 L272.1,325.7 L272.4,325.7 L272.6,325.7 L272.9,326.2 L273.1,326.0 L273.4,325.6 
		L273.6,325.7 L273.9,325.5 L274.1,325.6 L274.3,325.1 L274.6,324.9 L274.8,325.0 L275.1,324.7 L275.3,324.7 
		L275.6,324.7 L275.8,325.0 L276.0,324.7 L276.3,324.7 L276.5,324.8 L276.8,324.5 L277.0,324.4 L277.3,324.5 
		L277.5,324.5 L277.7,324.7 L278.0,324.5 L278.2,324.5 L278.5,324.4 L278.7,324.4 L279.0,324.6 L279.2,324.6 
		L279.4,324.7 L279.7,324.7 L279.9,324.7 L280.2,324.6 L280.4,324.3 L280.7,324.3 L280.9,324.3 L281.1,324.2 
		L281.4,324.3 L281.6,324.5 L281.9,324.4 L282.1,324.0 L282.4,324.0 L282.6,324.0 L282.9,324.0 L283.1,324.0 
		L283.3,323.9 L283.6,323.9 L283.8,323.8 L284.1,323.7 L284.3,323.6 L284.6,323.5 L284.8,323.5 L285.0,323.5 
		L285.3,323.5 L285.5,323.5 L285.8,324.0 L286.0,324.0 L286.3,324.1 L286.5,324.2 L286.7,324.1 L287.0,324.1 
		L287.2,324.1 L287.5,324.1 L287.7,324.1 L288.0,324.5 L288.2,324.5 L288.4,324.5 L288.7,324.7 L288.9,324.7 
		L289.2,324.5 L289.4,324.6 L289.7,324.6 L289.9,324.6 L290.1,324.6 L290.4,324.6 L290.6,324.6 L290.9,324.6 
		L291.1,324.6 L291.4,325.4 L291.6,325.2 L291.9,325.2 L292.1,325.2 L292.3,325.0 L292.6,325.0 L292.8,325.2 
		L293.1,325.2 L293.3,325.3 L293.6,325.4 L293.8,325.0 L294.0,324.4 L294.3,324.3 L294.5,324.3 L294.8,324.5 
		L295.0,324.4 L295.3,324.4 L295.5,324.4 L295.7,324.4 L296.0,324.8 L296.2,324.8 L296.5,324.8 L296.7,324.6 
		L297.0,324.8 L297.2,324.5 L297.4,324.4 L297.7,324.4 L297.9,324.7 L298.2,324.6 L298.4,324.6 L298.7,324.6 
		L298.9,324.7 L299.1,324.8 L299.4,324.8 L299.6,324.8 L299.9,324.8 L300.1,325.2 L300.4,325.2 L300.6,325.2 
		L300.9,325.1 L301.1,325.1 L301.3,325.1 L301.6,325.1 L301.8,325.4 L302.1,325.6 L302.3,325.6 L302.6,325.6 
		L302.8,325.6 L303.0,325.7 L303.3,325.5 L303.5,325.2 L303.8,325.2 L304.0,325.2 L304.3,325.2 L304.5,325.2 
		L304.7,325.6 L305.0,325.6 L305.2,325.6 L305.5,325.6 L305.7,325.8 L306.0,325.7 L306.2,325.7 L306.4,325.6 
		L306.7,325.5 L306.9,325.7 L307.2,325.6 L307.4,325.3 L307.7,325.3 L307.9,325.3 L308.1,325.3 L308.4,325.3 
		L308.6,325.3 L308.9,325.3 L309.1,326.0 L309.4,325.9 L309.6,326.0 L309.9,325.9 L310.1,325.9 L310.3,326.0 
		L310.6,326.2 L310.8,326.0 L311.1,326.0 L311.3,326.0 L311.6,326.0 L311.8,326.4 L312.0,326.3 L312.3,326.3 
		L312.5,326.5 L312.8,326.5 L313.0,326.7 L313.3,326.7 L313.5,326.7 L313.7,326.7 L314.0,326.7 L314.2,327.1 
		L314.5,327.1 L314.7,327.3 L315.0,327.2 L315.2,327.3 L315.4,327.1 L315.7,326.9 L315.9,326.8 L316.2,326.9 
		L316.4,327.0 L316.7,327.1 L316.9,327.1 L317.2,327.2 L317.4,327.1 L317.6,327.1 L317.9,327.2 L318.1,327.1 
		L318.4,327.1 L318.6,327.2 L318.9,327.3 L319.1,327.3 L319.3,327.3 L319.6,327.3 L319.8,327.3 L320.1,327.7 
		L320.3,327.5 L320.6,327.5 L320.8,327.3 L321.0,326.8 L321.3,326.4 L321.5,326.5 L321.8,326.5 L322.0,326.5 
		L322.3,326.4 L322.5,326.5 L322.7,326.5 L323.0,326.5 L323.2,326.6 L323.5,326.7 L323.7,326.4 L324.0,326.3 
		L324.2,326.3 L324.4,326.3 L324.7,326.6 L324.9,326.6 L325.2,326.5 L325.4,326.5 L325.7,326.5 L325.9,326.5 
		L326.2,326.5 L326.4,326.9 L326.6,326.8 L326.9,326.7 L327.1,326.6 L327.4,326.7 L327.6,326.6 L327.9,326.6 
		L328.1,326.7 L328.3,326.7 L328.6,326.7 L328.8,326.8 L329.1,326.7 L329.3,326.8 L329.6,326.8 L329.8,326.8 
		L330.0,326.8 L330.3,327.0 L330.5,327.0 L330.8,327.0 L331.0,326.9 L331.3,327.0 L331.5,326.7 L331.7,326.5 
		L332.0,326.4 L332.2,326.5 L332.5,326.4 L332.7,326.3 L333.0,326.3 L333.2,326.3 L333.4,326.3 L333.7,326.2 
		L333.9,326.2 L334.2,326.2 L334.4,326.2 L334.7,326.2 L334.9,326.2 L335.2,326.3 L335.4,326.3 L335.6,326.3 
		L335.9,326.5 L336.1,326.3 L336.4,326.4 L336.6,326.4 L336.9,326.5 L337.1,326.5 L337.3,326.5 L337.6,326.6 
		L337.8,326.6 L338.1,326.7 L338.3,326.7 L338.6,326.4 L338.8,326.3 L339.0,326.4 L339.3,326.5 L339.5,326.4 
		L339.8,326.4 L340.0,326.2 L340.3,326.2 L340.5,326.2 L340.7,326.2 L341.0,326.2 L341.2,326.7 L341.5,326.7 
		L341.7,326.6 L342.0,326.6 L342.2,326.6 L342.4,326.9 L342.7,326.9 L342.9,326.9 L343.2,326.9 L343.4,326.9 
		L343.7,327.0 L343.9,327.0 L344.2,327.0 L344.4,327.0 L344.6,327.0 L344.9,327.2 L345.1,327.2 L345.4,327.3 
		L345.6,327.3 L345.9,327.4 L346.1,327.3 L346.3,327.3 L346.6,327.4 L346.8,327.3 L347.1,327.3 L347.3,327.3 
		L347.6,327.5 L347.8,327.5 L348.0,327.5 L348.3,327.2 L348.5,327.2 L348.8,327.1 L349.0,327.1 L349.3,327.1 
		L349.5,327.2 L349.7,327.3 L350.0,327.3 L350.2,327.3 L350.5,327.3 L350.7,327.3 L351.0,327.6 L351.2,327.6 
		L351.4,327.8 L351.7,327.8 L351.9,327.8 L352.2,327.5 L352.4,327.4 L352.7,327.5 L352.9,327.3 L353.2,327.3 
		L353.4,327.4 L353.6,327.5 L353.9,327.5 L354.1,327.5 L354.4,327.3 L354.6,327.3 L354.9,327.3 L355.1,327.3 
		L355.3,327.6 L355.6,327.6 L355.8,327.7 L356.1,327.7 L356.3,327.8 L356.6,327.8 L356.8,327.8 L357.0,327.8 
		L357.3,327.8 L357.5,328.2 L357.8,328.1 L358.0,328.1 L358.3,328.0 L358.5,327.9 L358.7,327.9 L359.0,327.9 
		L359.2,327.9 L359.5,327.9 L359.7,328.2 L360.0,328.3 L360.2,328.3 L360.4,328.3 L360.7,328.3 L360.9,328.3 
		L361.2,328.6 L361.4,328.4 L361.7,328.4 L361.9,328.4 L362.2,328.4 L362.4,328.6 L362.6,328.6 L362.9,328.7 
		L363.1,328.7 L363.4,328.9 L363.6,328.9 L363.9,328.9 L364.1,329.1 L364.3,329.1 L364.6,329.2 L364.8,329.2 
		L365.1,329.3 L365.3,329.3 L365.6,329.3 L365.8,329.3 L366.0,329.3 L366.3,329.7 L366.5,329.7 L366.8,329.7 
		L367.0,330.0 L367.3,329.9 L367.5,329.9 L367.7,329.9 L368.0,329.9 L368.2,330.0 L368.5,330.0 L368.7,330.0 
		L369.0,330.0 L369.2,330.2 L369.4,330.2 L369.7,330.2 L369.9,330.2 L370.2,330.2 L370.4,330.2 L370.7,330.5 
		L370.9,330.5 L371.2,330.5 L371.4,330.6 L371.6,330.6 L371.9,330.7 L372.1,330.7 L372.4,330.7 L372.6,330.7 
		L372.9,331.0 L373.1,330.9 L373.3,330.8 L373.6,330.9 L373.8,330.9 L374.1,330.9 L374.3,330.9 L374.6,330.9 
		L374.8,331.1 L375.0,330.9 L375.3,331.0 L375.5,331.0 L375.8,331.0 L376.0,331.2 L376.3,330.9 L376.5,330.9 
		L376.7,330.9 L377.0,330.9 L377.2,330.9 L377.5,330.9 L377.7,331.2 L378.0,331.2 L378.2,331.2 L378.4,331.2 
		L378.7,331.5 L378.9,331.5 L379.2,331.5 L379.4,331.3 L379.7,331.2 L379.9,331.2 L380.2,331.2 L380.4,331.2 
		L380.6,331.5 L380.9,331.5 L381.1,331.4 L381.4,331.2 L381.6,331.0 L381.9,330.9 L382.1,330.9 L382.3,331.0 
		L382.6,331.0 L382.8,331.1 L383.1,331.1 L383.3,331.1 L383.6,331.3 L383.8,331.2 L384.0,331.2 L384.3,331.2 
		L384.5,331.2 L384.8,331.3 L385.0,331.3 L385.3,331.3 L385.5,331.4 L385.7,331.4 L386.0,331.5 L386.2,331.5 
		L386.5,331.3 L386.7,331.2 L387.0,331.2 L387.2,331.2 L387.4,331.3 L387.7,331.2 L387.9,331.1 L388.2,331.1 
		L388.4,331.1 L388.7,331.1 L388.9,331.1 L389.2,331.1 L389.4,331.6 L389.6,331.5 L389.9,331.5 L390.1,331.5 
		L390.4,331.4 L390.6,331.5 L390.9,331.5 L391.1,331.5 L391.3,331.5 L391.6,331.7 L391.8,331.5 L392.1,331.3 
		L392.3,331.3 L392.6,331.3 L392.8,331.4 L393.0,331.3 L393.3,331.2 L393.5,331.1 L393.8,331.1 L394.0,331.2 
		L394.3,331.1 L394.5,331.1 L394.7,331.1 L395.0,331.1 L395.2,331.1 L395.5,331.2 L395.7,331.1 L396.0,331.1 
		L396.2,331.1 L396.4,331.1 L396.7,331.3 L396.9,331.3 L397.2,331.3 L397.4,331.5 L397.7,331.5 L397.9,331.5 
		L398.2,331.5 L398.4,331.5 L398.6,331.5 L398.9,331.5 L399.1,331.6 L399.4,331.6 L399.6,331.6 L399.9,331.6 
		L400.1,331.8 L400.3,331.8 L400.6,331.9 L400.8,332.0 L401.1,332.0 L401.3,332.0 L401.6,332.2 L401.8,332.2 
		L402.0,332.2 L402.3,332.2 L402.5,332.2 L402.8,332.3 L403.0,332.3 L403.3,332.3 L403.5,332.3 L403.7,332.4 
		L404.0,332.4 L404.2,332.4 L404.5,332.3 L404.7,332.3 L405.0,332.3 L405.2,332.3 L405.4,332.3 L405.7,332.3 
		L405.9,332.3 L406.2,332.7 L406.4,332.7 L406.7,332.7 L406.9,332.7 L407.2,332.9 L407.4,332.9 L407.6,332.9 
		L407.9,332.9 L408.1,333.2 L408.4,333.1 L408.6,333.0 L408.9,333.1 L409.1,332.9 L409.3,332.8 L409.6,332.8 
		L409.8,332.8 L410.1,332.9 L410.3,332.9 L410.6,332.9 L410.8,332.7 L411.0,332.6 L411.3,332.6 L411.5,332.7 
		L411.8,332.8 L412.0,332.8 L412.3,332.9 L412.5,332.9 L412.7,332.9 L413.0,332.9 L413.2,333.0 L413.5,333.0 
		L413.7,333.0 L414.0,332.8 L414.2,332.7 L414.5,332.7 L414.7,332.7 L414.9,332.7 L415.2,332.7 L415.4,332.7 
		L415.7,332.7 L415.9,332.7 L416.2,332.7 L416.4,332.7 L416.6,333.4 L416.9,333.2 L417.1,333.2 L417.4,333.2 
		L417.6,333.2 L417.9,333.2 L418.1,333.2 L418.3,333.0 L418.6,332.9 L418.8,332.9 L419.1,333.0 L419.3,333.0 
		L419.6,333.1 L419.8,333.1 L420.0,333.1 L420.3,333.1 L420.5,333.1 L420.8,333.3 L421.0,333.3 L421.3,333.4 
		L421.5,333.5 L421.7,333.4 L422.0,333.4 L422.2,333.4 L422.5,333.6 L422.7,333.6 L423.0,333.6 L423.2,333.6 
		L423.5,333.6 L423.7,333.7 L423.9,333.6 L424.2,333.6 L424.4,333.7 L424.7,333.5 L424.9,333.4 L425.2,333.4 
		L425.4,333.5 L425.6,333.4 L425.9,333.4 L426.1,333.5 L426.4,333.5 L426.6,333.6 L426.9,333.6 L427.1,333.6 
		L427.3,333.6 L427.6,333.6 L427.8,333.6 L428.1,333.6 L428.3,334.0 L428.6,334.0 L428.8,334.0 L429.0,334.0 
		L429.3,334.2 L429.5,334.2 L429.8,334.2 L430.0,334.1 L430.3,334.1 L430.5,334.2 L430.7,334.3 L431.0,334.2 
		L431.2,334.0 L431.5,334.0 L431.7,334.0 L432.0,334.0 L432.2,334.0 L432.5,333.8 L432.7,333.8 L432.9,333.8 
		L433.2,333.8 L433.4,333.9 L433.7,333.9 L433.9,333.9 L434.2,334.0 L434.4,334.0 L434.6,334.0 L434.9,334.0 
		L435.1,334.1 L435.4,334.1 L435.6,334.1 L435.9,334.1 L436.1,334.2 L436.3,334.1 L436.6,334.1 L436.8,334.0 
		L437.1,334.0 L437.3,334.1 L437.6,334.0 L437.8,334.0 L438.0,334.0 L438.3,334.2 L438.5,334.2 L438.8,334.2 
		L439.0,334.4 L439.3,334.4 L439.5,334.3 L439.7,334.3 L440.0,334.2 L440.2,334.2 L440.5,334.2 L440.7,334.3 
		L441.0,334.3 L441.2,334.4 L441.5,334.4 L441.7,334.3 L441.9,334.3 L442.2,334.3 L442.4,334.3 L442.7,334.3 
		L442.9,334.4 L443.2,334.4 L443.4,334.4 L443.6,334.4 L443.9,334.4 L444.1,334.4 L444.4,334.4 L444.6,334.4 
		L444.9,334.4 L445.1,334.9 L445.3,334.8 L445.6,334.8 L445.8,334.9 L446.1,334.9 L446.3,334.9 L446.6,334.9 
		L446.8,335.0 L447.0,334.9 L447.3,335.0 L447.5,335.0 L447.8,335.0 L448.0,335.0 L448.3,335.2 L448.5,335.1 
		L448.7,334.9 L449.0,334.8 L449.2,334.8 L449.5,334.8 L449.7,334.8 L450.0,334.8 L450.2,334.8 L450.5,334.7 
		L450.7,334.5 L450.9,334.5 L451.2,334.5 L451.4,334.6 L451.7,334.6 L451.9,334.6 L452.2,334.6 L452.4,334.5 
		L452.6,334.3 L452.9,334.3 L453.1,334.3 L453.4,334.3 L453.6,334.4 L453.9,334.5 L454.1,334.5 L454.3,334.5 
		L454.6,334.2 L454.8,333.9 L455.1,333.8 L455.3,333.8 L455.6,333.9 L455.8,334.0 L456.0,334.0 L456.3,334.0 
		L456.5,334.0 L456.8,334.2 L457.0,334.2 L457.3,334.2 L457.5,334.0 L457.7,333.9 L458.0,333.9 L458.2,333.8 
		L458.5,333.7 L458.7,333.6 L459.0,333.7 L459.2,333.7 L459.5,333.7 L459.7,333.7 L459.9,333.7 L460.2,333.7 
		L460.4,333.7 L460.7,334.1 L460.9,334.0 L461.2,334.1 L461.4,334.1 L461.6,334.0 L461.9,333.9 L462.1,333.9 
		L462.4,334.0 L462.6,334.0 L462.9,334.1 L463.1,334.0 L463.3,334.0 L463.6,334.0 L463.8,334.1 L464.1,333.9 
		L464.3,333.7 L464.6,333.7 L464.8,333.7 L465.0,333.7 L465.3,333.8 L465.5,333.8 L465.8,333.9 L466.0,333.9 
		L466.3,333.9 L466.5,334.0 L466.7,334.0 L467.0,334.0 L467.2,334.0 L467.5,334.0 L467.7,334.0 L468.0,334.0 
		L468.2,334.1 L468.5,334.0 L468.7,334.0 L468.9,334.0 L469.2,334.1 L469.4,334.1 L469.7,334.1 L469.9,333.9 
		L470.2,333.9 L470.4,334.0 L470.6,334.0 L470.9,334.0 L471.1,333.9 L471.4,333.8 L471.6,333.8 L471.9,333.8 
		L472.1,333.8 L472.3,334.0 L472.6,334.0 L472.8,334.0 L473.1,334.1 L473.3,334.2 L473.6,334.2 L473.8,334.2 
		L474.0,334.2 L474.3,334.3 L474.5,334.3 L474.8,334.4 L475.0,334.5 L475.3,334.3 L475.5,334.2 L475.7,334.3 
		L476.0,334.3 L476.2,334.3 L476.5,334.3 L476.7,334.5 L477.0,334.4 L477.2,334.4 L477.5,334.4 L477.7,334.4 
		L477.9,334.6 L478.2,334.4 L478.4,334.3 L478.7,334.3 L478.9,334.4 L479.2,334.4 L479.4,334.4 L479.6,334.5 
		L479.9,334.5 L480.1,334.6 L480.4,334.6 L480.6,334.6 L480.9,334.6 L481.1,334.7 L481.3,334.6 L481.6,334.6 
		L481.8,334.6 L482.1,334.8 L482.3,334.8 L482.6,334.8 L482.8,334.9 L483.0,334.9 L483.3,334.9 L483.5,334.9 
		L483.8,334.9 L484.0,334.9 L484.3,334.9 L484.5,335.1 L484.7,334.9 L485.0,334.7 L485.2,334.7 L485.5,334.8 
		L485.7,334.8 L486.0,334.8 L486.2,334.8 L486.5,334.8 L486.7,334.8 L486.9,335.1 L487.2,335.1 L487.4,335.0 
		L487.7,335.1 L487.9,335.1 L488.2,335.0 L488.4,334.9 L488.6,334.9 L488.9,334.9 L489.1,335.1 L489.4,335.1 
		L489.6,335.1 L489.9,335.2 L490.1,335.2 L490.3,335.2 L490.6,335.2 L490.8,334.9 L491.1,334.9 L491.3,334.9 
		L491.6,334.9 L491.8,334.9 L492.0,334.9 L492.3,334.9 L492.5,334.9 L492.8,334.9 L493.0,334.9 L493.3,334.9 
		L493.5,335.0 L493.7,335.0 L494.0,335.0 L494.2,335.0 L494.5,335.0 L494.7,335.0 L495.0,335.0 L495.2,335.2 
		L495.5,335.1 L495.7,335.2 L495.9,335.2 L496.2,335.2 L496.4,335.2 L496.7,335.2 L496.9,335.2 L497.2,335.4 
		L497.4,335.5 L497.6,335.5 L497.9,335.6 L498.1,335.6 L498.4,335.6 L498.6,335.7 L498.9,335.7 L499.1,335.7 
		L499.3,335.8 L499.6,335.8 L499.8,335.8 L500.1,335.8 L500.3,335.9 L500.6,335.9 L500.8,335.9 L501.0,335.7 
		L501.3,335.5 L501.5,335.3 L501.8,335.4 L502.0,335.4 L502.3,335.4 L502.5,335.5 L502.7,335.5 L503.0,335.5 
		L503.2,335.4 L503.5,335.4 L503.7,335.4 L504.0,335.4 L504.2,335.4 L504.5,335.5 L504.7,335.5 L504.9,335.5 
		L505.2,335.4 L505.4,335.4 L505.7,335.4 L505.9,335.5 L506.2,335.5 L506.4,335.5 L506.6,335.6 L506.9,335.6 
		L507.1,335.6 L507.4,335.6 L507.6,335.7 L507.9,335.7 L508.1,335.7 L508.3,335.7 L508.6,335.8 L508.8,335.8 
		L509.1,335.7 L509.3,335.7 L509.6,335.7 L509.8,335.7 L510.0,335.7 L510.3,335.7 L510.5,335.9 L510.8,335.9 
		L511.0,335.9 L511.3,335.9 L511.5,335.9 L511.8,335.8 L512.0,335.8 L512.2,335.9 L512.5,335.9 L512.7,335.9 
		L513.0,336.0 L513.2,336.0 L513.5,336.0 L513.7,336.0 L513.9,336.0 L514.2,336.0 L514.4,336.0 L514.7,336.0 
		L514.9,336.3 L515.2,336.4 L515.4,336.4 L515.6,336.4 L515.9,336.3 L516.1,336.3 L516.4,336.3 L516.6,336.3 
		L516.9,336.5 L517.1,336.5 L517.3,336.5 L517.6,336.5 L517.8,336.6 L518.1,336.6 L518.3,336.7 L518.6,336.7 
		L518.8,336.8 L519.0,336.7 L519.3,336.7 L519.5,336.7 L519.8,336.8 L520.0,336.8 L520.3,336.8 L520.5,336.8 
		L520.8,336.8 L521.0,337.0 L521.2,336.9 L521.5,336.9 L521.7,337.0 L522.0,336.9 L522.2,336.8 L522.5,336.9 
		L522.7,337.0 L522.9,336.9 L523.2,336.9 L523.4,336.9 L523.7,336.9 L523.9,336.9 L524.2,336.9 L524.4,336.9 
		L524.6,336.9 L524.9,337.2 L525.1,337.1 L525.4,337.0 L525.6,337.0 L525.9,337.0 L526.1,337.0 L526.3,337.1 
		L526.6,337.1 L526.8,337.1 L527.1,337.1 L527.3,337.1 L527.6,337.1 L527.8,337.1 L528.0,337.2 L528.3,337.2 
		L528.5,337.2 L528.8,337.3 L529.0,337.3 L529.3,337.3 L529.5,337.3 L529.8,337.4 L530.0,337.3 L530.2,337.3 
		L530.5,337.3 L530.7,337.3 L531.0,337.3 L531.2,337.3 L531.5,337.3 L531.7,337.3 L531.9,337.3 L532.2,337.3 
		L532.4,337.6 L532.7,337.3 L532.9,337.3 L533.2,337.3 L533.4,337.3 L533.6,337.3 L533.9,337.4 L534.1,337.4 
		L534.4,337.4 L534.6,337.4 L534.9,337.4 L535.1,337.4 L535.3,337.4 L535.6,337.2 L535.8,337.1 L536.1,337.1 
		L536.3,337.1 L536.6,337.2 L536.8,337.2 L537.0,337.1 L537.3,337.0 L537.5,337.1 L537.8,337.1 L538.0,337.1 
		L538.3,337.1 L538.5,337.0 L538.8,337.1 L539.0,337.1 L539.2,337.1 L539.5,337.2 L539.7,337.1 L540.0,337.0 
		L540.2,337.0 L540.5,337.0 L540.7,337.1 L540.9,337.0 L541.2,337.0 L541.4,337.0 L541.7,337.0 L541.9,337.0 
		L542.2,337.1 L542.4,337.1 L542.6,337.2 L542.9,337.2 L543.1,337.1 L543.4,337.1 L543.6,337.1 L543.9,337.1 
		L544.1,337.2 L544.3,337.2 L544.6,337.2 L544.8,337.1 L545.1,337.1 L545.3,337.1 L545.6,337.1 L545.8,337.1 
		L546.0,337.1 L546.3,337.1 L546.5,337.0 L546.8,337.0 L547.0,337.0 L547.3,336.9 L547.5,336.9 L547.8,336.9 
		L548.0,337.0 L548.2,336.9 L548.5,336.9 L548.7,336.9 L549.0,336.9 L549.2,336.9 L549.5,336.9 L549.7,336.9 
		L549.9,337.0 L550.2,336.9 L550.4,336.9 L550.7,336.9 L550.9,337.0 L551.2,337.0 L551.4,337.0 L551.6,337.0 
		L551.9,337.1 L552.1,337.1 L552.4,337.1 L552.6,337.1 L552.9,337.2 L553.1,337.2 L553.3,337.2 L553.6,337.2 
		L553.8,337.2 L554.1,337.2 L554.3,337.1 L554.6,336.9 L554.8,336.9 L555.0,336.9 L555.3,337.0 L555.5,337.0 
		L555.8,337.0 L556.0,337.1 L556.3,337.0 L556.5,337.0 L556.8,337.1 L557.0,337.0 L557.2,337.0 L557.5,337.0 
		L557.7,337.0 L558.0,337.0 L558.2,337.0 L558.5,337.0 L558.7,337.3 L558.9,337.3 L559.2,337.2 L559.4,337.3 
		L559.7,337.3 L559.9,337.3 L560.2,337.3 L560.4,337.4 L560.6,337.4 L560.9,337.5 L561.1,337.5 L561.4,337.5 
		L561.6,337.5 L561.9,337.6 L562.1,337.6 L562.3,337.6 L562.6,337.6 L562.8,337.6 L563.1,337.6 L563.3,337.8 
		L563.6,337.8 L563.8,337.9 L564.0,337.8 L564.3,337.8 L564.5,337.9 L564.8,337.9 L565.0,337.9 L565.3,337.9 
		L565.5,338.0 L565.8,338.1 L566.0,338.0 L566.2,338.0 L566.5,338.1 L566.7,338.1 L567.0,338.1 L567.2,338.0 
		L567.5,338.0 L567.7,338.0 L567.9,338.0 L568.2,338.0 L568.4,338.0 L568.7,338.0 L568.9,338.0 L569.2,338.0 
		L569.4,338.3 L569.6,338.3 L569.9,338.3 L570.1,338.3 L570.4,338.4 L570.6,338.4 L570.9,338.3 L571.1,338.3 
		L571.3,338.3 L571.6,338.1 L571.8,338.1 L572.1,338.1 L572.3,338.2 L572.6,338.2 L572.8,338.2 L573.0,338.1 
		L573.3,338.1 L573.5,338.2 L573.8,338.1 L574.0,338.0 L574.3,338.1 L574.5,338.0 L574.8,338.0 L575.0,338.1 
		 h0.01'/></g>
	</g>
<g style="fill:none; color:black; stroke:currentColor; stroke-width:1.00; stroke-linecap:butt; stroke-linejoin:miter">
	<path  d='M88.5,54.1 L88.5,422.4 L575.0,422.4 L575.0,54.1 L88.5,54.1 Z  h0.01'/></g>
</g>
</svg>

