<?xml version="1.0" encoding="utf-8"  standalone="no"?>
<!DOCTYPE svg PUBLIC "-//W3C//DTD SVG 1.1//EN" 
 "http://www.w3.org/Graphics/SVG/1.1/DTD/svg11.dtd">
<svg 
 width="600" height="480" 
 viewBox="0 0 600 480"
 xmlns="http://www.w3.org/2000/svg"
 xmlns:xlink="http://www.w3.org/1999/xlink"
>

<title>Gnuplot</title>
<desc>Produced by GNUPLOT 4.6 patchlevel 1 </desc>

<g id="gnuplot_canvas">

<rect x="0" y="0" width="600" height="480" fill="none"/>
<defs>

	<circle id='gpDot' r='0.5' stroke-width='0.5'/>
	<path id='gpPt0' stroke-width='0.222' stroke='currentColor' d='M-1,0 h2 M0,-1 v2'/>
	<path id='gpPt1' stroke-width='0.222' stroke='currentColor' d='M-1,-1 L1,1 M1,-1 L-1,1'/>
	<path id='gpPt2' stroke-width='0.222' stroke='currentColor' d='M-1,0 L1,0 M0,-1 L0,1 M-1,-1 L1,1 M-1,1 L1,-1'/>
	<rect id='gpPt3' stroke-width='0.222' stroke='currentColor' x='-1' y='-1' width='2' height='2'/>
	<rect id='gpPt4' stroke-width='0.222' stroke='currentColor' fill='currentColor' x='-1' y='-1' width='2' height='2'/>
	<circle id='gpPt5' stroke-width='0.222' stroke='currentColor' cx='0' cy='0' r='1'/>
	<use xlink:href='#gpPt5' id='gpPt6' fill='currentColor' stroke='none'/>
	<path id='gpPt7' stroke-width='0.222' stroke='currentColor' d='M0,-1.33 L-1.33,0.67 L1.33,0.67 z'/>
	<use xlink:href='#gpPt7' id='gpPt8' fill='currentColor' stroke='none'/>
	<use xlink:href='#gpPt7' id='gpPt9' stroke='currentColor' transform='rotate(180)'/>
	<use xlink:href='#gpPt9' id='gpPt10' fill='currentColor' stroke='none'/>
	<use xlink:href='#gpPt3' id='gpPt11' stroke='currentColor' transform='rotate(45)'/>
	<use xlink:href='#gpPt11' id='gpPt12' fill='currentColor' stroke='none'/>
</defs>
<g style="fill:none; color:white; stroke:currentColor; stroke-width:1.00; stroke-linecap:butt; stroke-linejoin:miter">
</g>
<g style="fill:none; color:black; stroke:currentColor; stroke-width:1.00; stroke-linecap:butt; stroke-linejoin:miter">
	<path  d='M88.5,422.4 L97.5,422.4 M507.2,422.4 L498.2,422.4  h0.01'/>	<g transform="translate(80.2,426.9)" style="stroke:none; fill:black; font-family:Arial; font-size:12.00pt; text-anchor:end">
		<text> 0</text>
	</g>
	<path  d='M88.5,361.0 L97.5,361.0 M507.2,361.0 L498.2,361.0  h0.01'/>	<g transform="translate(80.2,365.5)" style="stroke:none; fill:black; font-family:Arial; font-size:12.00pt; text-anchor:end">
		<text> 2000</text>
	</g>
	<path  d='M88.5,299.6 L97.5,299.6 M507.2,299.6 L498.2,299.6  h0.01'/>	<g transform="translate(80.2,304.1)" style="stroke:none; fill:black; font-family:Arial; font-size:12.00pt; text-anchor:end">
		<text> 4000</text>
	</g>
	<path  d='M88.5,238.2 L97.5,238.2 M507.2,238.2 L498.2,238.2  h0.01'/>	<g transform="translate(80.2,242.7)" style="stroke:none; fill:black; font-family:Arial; font-size:12.00pt; text-anchor:end">
		<text> 6000</text>
	</g>
	<path  d='M88.5,176.9 L97.5,176.9 M507.2,176.9 L498.2,176.9  h0.01'/>	<g transform="translate(80.2,181.4)" style="stroke:none; fill:black; font-family:Arial; font-size:12.00pt; text-anchor:end">
		<text> 8000</text>
	</g>
	<path  d='M88.5,115.5 L97.5,115.5 M507.2,115.5 L498.2,115.5  h0.01'/>	<g transform="translate(80.2,120.0)" style="stroke:none; fill:black; font-family:Arial; font-size:12.00pt; text-anchor:end">
		<text> 10000</text>
	</g>
	<path  d='M88.5,54.1 L97.5,54.1 M507.2,54.1 L498.2,54.1  h0.01'/>	<g transform="translate(80.2,58.6)" style="stroke:none; fill:black; font-family:Arial; font-size:12.00pt; text-anchor:end">
		<text> 12000</text>
	</g>
	<path  d='M88.5,422.4 L88.5,413.4 M88.5,54.1 L88.5,63.1  h0.01'/>	<g transform="translate(88.5,444.9)" style="stroke:none; fill:black; font-family:Arial; font-size:12.00pt; text-anchor:middle">
		<text> 0</text>
	</g>
	<path  d='M130.4,422.4 L130.4,413.4 M130.4,54.1 L130.4,63.1  h0.01'/>	<g transform="translate(130.4,444.9)" style="stroke:none; fill:black; font-family:Arial; font-size:12.00pt; text-anchor:middle">
		<text> 10</text>
	</g>
	<path  d='M172.2,422.4 L172.2,413.4 M172.2,54.1 L172.2,63.1  h0.01'/>	<g transform="translate(172.2,444.9)" style="stroke:none; fill:black; font-family:Arial; font-size:12.00pt; text-anchor:middle">
		<text> 20</text>
	</g>
	<path  d='M214.1,422.4 L214.1,413.4 M214.1,54.1 L214.1,63.1  h0.01'/>	<g transform="translate(214.1,444.9)" style="stroke:none; fill:black; font-family:Arial; font-size:12.00pt; text-anchor:middle">
		<text> 30</text>
	</g>
	<path  d='M256.0,422.4 L256.0,413.4 M256.0,54.1 L256.0,63.1  h0.01'/>	<g transform="translate(256.0,444.9)" style="stroke:none; fill:black; font-family:Arial; font-size:12.00pt; text-anchor:middle">
		<text> 40</text>
	</g>
	<path  d='M297.9,422.4 L297.9,413.4 M297.9,54.1 L297.9,63.1  h0.01'/>	<g transform="translate(297.9,444.9)" style="stroke:none; fill:black; font-family:Arial; font-size:12.00pt; text-anchor:middle">
		<text> 50</text>
	</g>
	<path  d='M339.7,422.4 L339.7,413.4 M339.7,54.1 L339.7,63.1  h0.01'/>	<g transform="translate(339.7,444.9)" style="stroke:none; fill:black; font-family:Arial; font-size:12.00pt; text-anchor:middle">
		<text> 60</text>
	</g>
	<path  d='M381.6,422.4 L381.6,413.4 M381.6,54.1 L381.6,63.1  h0.01'/>	<g transform="translate(381.6,444.9)" style="stroke:none; fill:black; font-family:Arial; font-size:12.00pt; text-anchor:middle">
		<text> 70</text>
	</g>
	<path  d='M423.5,422.4 L423.5,413.4 M423.5,54.1 L423.5,63.1  h0.01'/>	<g transform="translate(423.5,444.9)" style="stroke:none; fill:black; font-family:Arial; font-size:12.00pt; text-anchor:middle">
		<text> 80</text>
	</g>
	<path  d='M465.3,422.4 L465.3,413.4 M465.3,54.1 L465.3,63.1  h0.01'/>	<g transform="translate(465.3,444.9)" style="stroke:none; fill:black; font-family:Arial; font-size:12.00pt; text-anchor:middle">
		<text> 90</text>
	</g>
	<path  d='M507.2,422.4 L507.2,413.4 M507.2,54.1 L507.2,63.1  h0.01'/>	<g transform="translate(507.2,444.9)" style="stroke:none; fill:black; font-family:Arial; font-size:12.00pt; text-anchor:middle">
		<text> 100</text>
	</g>
	<path  d='M507.2,422.4 L498.2,422.4  h0.01'/>	<g transform="translate(515.5,426.9)" style="stroke:none; fill:blue; font-family:Arial; font-size:12.00pt; text-anchor:start">
		<text> 0</text>
	</g>
	<path  d='M507.2,385.6 L498.2,385.6  h0.01'/>	<g transform="translate(515.5,390.1)" style="stroke:none; fill:blue; font-family:Arial; font-size:12.00pt; text-anchor:start">
		<text> 50</text>
	</g>
	<path  d='M507.2,348.7 L498.2,348.7  h0.01'/>	<g transform="translate(515.5,353.2)" style="stroke:none; fill:blue; font-family:Arial; font-size:12.00pt; text-anchor:start">
		<text> 100</text>
	</g>
	<path  d='M507.2,311.9 L498.2,311.9  h0.01'/>	<g transform="translate(515.5,316.4)" style="stroke:none; fill:blue; font-family:Arial; font-size:12.00pt; text-anchor:start">
		<text> 150</text>
	</g>
	<path  d='M507.2,275.1 L498.2,275.1  h0.01'/>	<g transform="translate(515.5,279.6)" style="stroke:none; fill:blue; font-family:Arial; font-size:12.00pt; text-anchor:start">
		<text> 200</text>
	</g>
	<path  d='M507.2,238.2 L498.2,238.2  h0.01'/>	<g transform="translate(515.5,242.7)" style="stroke:none; fill:blue; font-family:Arial; font-size:12.00pt; text-anchor:start">
		<text> 250</text>
	</g>
	<path  d='M507.2,201.4 L498.2,201.4  h0.01'/>	<g transform="translate(515.5,205.9)" style="stroke:none; fill:blue; font-family:Arial; font-size:12.00pt; text-anchor:start">
		<text> 300</text>
	</g>
	<path  d='M507.2,164.6 L498.2,164.6  h0.01'/>	<g transform="translate(515.5,169.1)" style="stroke:none; fill:blue; font-family:Arial; font-size:12.00pt; text-anchor:start">
		<text> 350</text>
	</g>
	<path  d='M507.2,127.8 L498.2,127.8  h0.01'/>	<g transform="translate(515.5,132.3)" style="stroke:none; fill:blue; font-family:Arial; font-size:12.00pt; text-anchor:start">
		<text> 400</text>
	</g>
	<path  d='M507.2,90.9 L498.2,90.9  h0.01'/>	<g transform="translate(515.5,95.4)" style="stroke:none; fill:blue; font-family:Arial; font-size:12.00pt; text-anchor:start">
		<text> 450</text>
	</g>
	<path  d='M507.2,54.1 L498.2,54.1  h0.01'/>	<g transform="translate(515.5,58.6)" style="stroke:none; fill:blue; font-family:Arial; font-size:12.00pt; text-anchor:start">
		<text> 500</text>
	</g>
	<path  d='M88.5,54.1 L88.5,422.4 L507.2,422.4 L507.2,54.1 L88.5,54.1 Z  h0.01'/>	<g transform="translate(17.6,238.3) rotate(270)" style="stroke:none; fill:black; font-family:Arial; font-size:12.00pt; text-anchor:middle">
		<text>TCP throughput (Kbps)</text>
	</g>
	<g transform="translate(570.4,238.3) rotate(270)" style="stroke:none; fill:black; font-family:Arial; font-size:12.00pt; text-anchor:middle">
		<text>TCP UL Delay (ms)</text>
	</g>
	<g transform="translate(297.8,471.9)" style="stroke:none; fill:black; font-family:Arial; font-size:12.00pt; text-anchor:middle">
		<text>Time (s)</text>
	</g>
	<g transform="translate(297.8,31.6)" style="stroke:none; fill:black; font-family:Arial; font-size:12.00pt; text-anchor:middle">
		<text>Distance 800m, 4kmph: TCP throughput vs link capacity Uplink 100RBs PfffScheduler</text>
	</g>
	<path  d='M257.5,413.4 L257.5,359.4 L498.9,359.4 L498.9,413.4 L257.5,413.4 Z  h0.01'/></g>
	<g id="gnuplot_plot_1" ><title>gnuplot_plot_1</title>
<g style="fill:none; color:red; stroke:currentColor; stroke-width:1.00; stroke-linecap:butt; stroke-linejoin:miter">
	<g transform="translate(440.1,372.9)" style="stroke:none; fill:black; font-family:Arial; font-size:12.00pt; text-anchor:end">
		<text>TCP Throughput</text>
	</g>
	<path  d='M448.4,368.4 L490.6,368.4 M91.0,416.8 L91.2,414.1 L91.4,415.3 L91.6,407.2 L91.8,399.7 L92.1,403.0 
		L92.3,397.8 L92.5,397.8 L92.7,390.8 L92.9,389.9 L93.1,392.1 L93.3,390.8 L93.5,391.7 L93.7,391.7 
		L93.9,391.7 L94.2,391.7 L94.4,391.7 L94.6,391.7 L94.8,391.7 L95.0,402.0 L95.2,402.0 L95.4,402.0 
		L95.6,403.9 L95.8,403.9 L96.0,403.9 L96.2,403.9 L96.5,403.9 L96.7,403.9 L96.9,403.9 L97.1,408.1 
		L97.3,406.0 L97.5,406.0 L97.7,406.4 L97.9,406.4 L98.1,406.8 L98.3,406.2 L98.5,406.2 L98.8,406.2 
		L99.0,406.2 L99.2,406.2 L99.4,406.2 L99.6,408.5 L99.8,404.2 L100.0,404.3 L100.2,404.3 L100.4,404.3 
		L100.6,404.3 L100.8,405.5 L101.1,405.5 L101.3,406.2 L101.5,403.3 L101.7,403.3 L101.9,403.3 L102.1,403.3 
		L102.3,403.3 L102.5,403.8 L102.7,401.8 L102.9,401.8 L103.2,401.8 L103.4,402.5 L103.6,402.5 L103.8,402.5 
		L104.0,402.5 L104.2,402.5 L104.4,403.8 L104.6,403.8 L104.8,404.1 L105.0,403.4 L105.2,403.3 L105.5,403.3 
		L105.7,403.3 L105.9,403.3 L106.1,403.3 L106.3,404.8 L106.5,402.8 L106.7,402.4 L106.9,402.4 L107.1,402.4 
		L107.3,402.4 L107.5,402.4 L107.8,402.4 L108.0,403.6 L108.2,403.6 L108.4,403.6 L108.6,403.6 L108.8,404.6 
		L109.0,403.7 L109.2,403.6 L109.4,403.6 L109.6,403.6 L109.8,403.7 L110.1,403.7 L110.3,403.9 L110.5,403.9 
		L110.7,404.0 L110.9,403.9 L111.1,403.9 L111.3,403.9 L111.5,403.9 L111.7,403.9 L111.9,403.9 L112.2,403.9 
		L112.4,405.1 L112.6,405.2 L112.8,404.9 L113.0,404.9 L113.2,404.9 L113.4,404.9 L113.6,404.9 L113.8,404.9 
		L114.0,404.9 L114.2,404.9 L114.5,404.9 L114.7,404.9 L114.9,404.9 L115.1,404.9 L115.3,406.4 L115.5,406.5 
		L115.7,406.3 L115.9,406.3 L116.1,406.3 L116.3,406.3 L116.5,406.3 L116.8,406.7 L117.0,406.6 L117.2,406.6 
		L117.4,406.6 L117.6,406.6 L117.8,406.6 L118.0,406.6 L118.2,406.6 L118.4,406.6 L118.6,406.6 L118.9,406.6 
		L119.1,406.6 L119.3,406.6 L119.5,406.6 L119.7,408.0 L119.9,408.0 L120.1,408.0 L120.3,408.0 L120.5,408.0 
		L120.7,408.5 L120.9,408.5 L121.2,408.5 L121.4,408.5 L121.6,408.5 L121.8,408.5 L122.0,408.7 L122.2,408.6 
		L122.4,408.5 L122.6,408.4 L122.8,408.4 L123.0,408.6 L123.2,408.2 L123.5,408.2 L123.7,408.2 L123.9,408.2 
		L124.1,408.2 L124.3,408.2 L124.5,408.2 L124.7,408.2 L124.9,408.2 L125.1,408.2 L125.3,408.2 L125.6,409.2 
		L125.8,409.1 L126.0,409.1 L126.2,409.1 L126.4,409.1 L126.6,409.3 L126.8,409.3 L127.0,409.0 L127.2,409.0 
		L127.4,409.0 L127.6,409.0 L127.9,409.0 L128.1,409.0 L128.3,409.0 L128.5,409.4 L128.7,409.4 L128.9,409.4 
		L129.1,409.4 L129.3,409.4 L129.5,409.4 L129.7,409.4 L130.0,409.5 L130.2,409.4 L130.4,409.4 L130.6,409.4 
		L130.8,409.6 L131.0,409.6 L131.2,409.6 L131.4,409.6 L131.6,409.8 L131.8,409.7 L132.0,409.7 L132.3,409.7 
		L132.5,409.8 L132.7,409.8 L132.9,409.8 L133.1,409.8 L133.3,409.8 L133.5,409.8 L133.7,409.9 L133.9,409.8 
		L134.1,409.8 L134.3,409.8 L134.6,409.8 L134.8,409.8 L135.0,409.8 L135.2,409.8 L135.4,409.8 L135.6,409.8 
		L135.8,409.8 L136.0,409.8 L136.2,409.8 L136.4,409.8 L136.7,409.8 L136.9,409.8 L137.1,409.8 L137.3,409.8 
		L137.5,409.8 L137.7,409.8 L137.9,409.8 L138.1,409.8 L138.3,409.8 L138.5,409.8 L138.7,409.8 L139.0,410.9 
		L139.2,410.7 L139.4,410.7 L139.6,410.7 L139.8,410.9 L140.0,410.8 L140.2,410.8 L140.4,410.8 L140.6,410.8 
		L140.8,410.8 L141.0,410.8 L141.3,410.8 L141.5,411.1 L141.7,411.0 L141.9,411.0 L142.1,411.0 L142.3,411.0 
		L142.5,411.0 L142.7,411.0 L142.9,411.0 L143.1,411.0 L143.3,411.0 L143.6,411.0 L143.8,411.0 L144.0,411.0 
		L144.2,411.0 L144.4,411.0 L144.6,411.0 L144.8,411.0 L145.0,411.6 L145.2,411.7 L145.4,411.7 L145.7,411.7 
		L145.9,411.7 L146.1,411.8 L146.3,411.7 L146.5,411.7 L146.7,411.7 L146.9,411.7 L147.1,411.7 L147.3,411.7 
		L147.5,411.7 L147.7,411.7 L148.0,411.7 L148.2,411.8 L148.4,411.8 L148.6,411.8 L148.8,411.8 L149.0,411.8 
		L149.2,411.8 L149.4,411.8 L149.6,411.8 L149.8,411.8 L150.0,412.0 L150.3,411.9 L150.5,411.9 L150.7,411.9 
		L150.9,411.9 L151.1,411.9 L151.3,411.9 L151.5,412.0 L151.7,412.0 L151.9,412.0 L152.1,412.0 L152.4,412.0 
		L152.6,412.0 L152.8,412.0 L153.0,412.0 L153.2,412.0 L153.4,412.2 L153.6,412.0 L153.8,411.9 L154.0,411.7 
		L154.2,411.7 L154.4,411.7 L154.7,411.8 L154.9,411.7 L155.1,411.7 L155.3,411.5 L155.5,411.5 L155.7,411.5 
		L155.9,411.5 L156.1,411.6 L156.3,411.6 L156.5,411.6 L156.7,411.7 L157.0,411.7 L157.2,411.6 L157.4,411.6 
		L157.6,411.6 L157.8,411.6 L158.0,411.6 L158.2,411.8 L158.4,411.7 L158.6,411.7 L158.8,411.7 L159.1,411.4 
		L159.3,411.4 L159.5,411.4 L159.7,411.4 L159.9,411.5 L160.1,411.5 L160.3,411.5 L160.5,411.5 L160.7,411.5 
		L160.9,411.5 L161.1,411.5 L161.4,411.5 L161.6,411.7 L161.8,411.7 L162.0,411.7 L162.2,411.7 L162.4,411.6 
		L162.6,411.6 L162.8,411.5 L163.0,411.3 L163.2,411.0 L163.4,411.0 L163.7,411.0 L163.9,411.0 L164.1,411.0 
		L164.3,411.1 L164.5,411.1 L164.7,411.1 L164.9,411.1 L165.1,411.1 L165.3,411.1 L165.5,411.1 L165.8,411.2 
		L166.0,411.2 L166.2,411.2 L166.4,411.2 L166.6,411.2 L166.8,411.2 L167.0,411.3 L167.2,411.3 L167.4,411.3 
		L167.6,411.3 L167.8,411.1 L168.1,410.9 L168.3,410.9 L168.5,410.9 L168.7,410.9 L168.9,410.9 L169.1,411.0 
		L169.3,411.0 L169.5,411.0 L169.7,411.0 L169.9,411.0 L170.1,411.1 L170.4,410.9 L170.6,410.9 L170.8,410.9 
		L171.0,410.9 L171.2,410.9 L171.4,410.9 L171.6,410.9 L171.8,411.0 L172.0,411.0 L172.2,411.0 L172.4,411.1 
		L172.7,411.0 L172.9,411.0 L173.1,411.0 L173.3,411.0 L173.5,411.1 L173.7,411.1 L173.9,411.1 L174.1,411.1 
		L174.3,411.1 L174.5,411.1 L174.8,411.2 L175.0,411.2 L175.2,411.2 L175.4,411.2 L175.6,411.2 L175.8,411.2 
		L176.0,411.2 L176.2,411.2 L176.4,411.2 L176.6,411.4 L176.8,411.4 L177.1,411.4 L177.3,411.4 L177.5,411.4 
		L177.7,411.4 L177.9,411.5 L178.1,411.5 L178.3,411.5 L178.5,411.6 L178.7,411.6 L178.9,411.6 L179.1,411.6 
		L179.4,411.6 L179.6,411.6 L179.8,411.6 L180.0,411.6 L180.2,411.7 L180.4,411.7 L180.6,411.7 L180.8,411.7 
		L181.0,411.7 L181.2,411.7 L181.5,411.8 L181.7,411.8 L181.9,411.8 L182.1,411.8 L182.3,411.8 L182.5,411.8 
		L182.7,411.8 L182.9,411.8 L183.1,411.8 L183.3,411.9 L183.5,411.9 L183.8,411.9 L184.0,411.9 L184.2,411.9 
		L184.4,412.0 L184.6,412.0 L184.8,412.0 L185.0,412.0 L185.2,412.0 L185.4,412.0 L185.6,412.0 L185.8,412.1 
		L186.1,412.1 L186.3,412.1 L186.5,412.1 L186.7,412.1 L186.9,412.2 L187.1,412.1 L187.3,412.1 L187.5,412.1 
		L187.7,412.1 L187.9,412.1 L188.2,412.2 L188.4,412.2 L188.6,412.2 L188.8,412.2 L189.0,412.2 L189.2,412.2 
		L189.4,412.2 L189.6,412.2 L189.8,412.2 L190.0,412.3 L190.2,412.3 L190.5,412.3 L190.7,412.3 L190.9,412.2 
		L191.1,412.2 L191.3,412.2 L191.5,412.2 L191.7,412.2 L191.9,412.2 L192.1,412.2 L192.3,412.2 L192.5,412.2 
		L192.8,412.4 L193.0,412.4 L193.2,412.4 L193.4,412.4 L193.6,412.4 L193.8,412.4 L194.0,412.4 L194.2,412.4 
		L194.4,412.5 L194.6,412.4 L194.8,412.4 L195.1,412.4 L195.3,412.4 L195.5,412.4 L195.7,412.4 L195.9,412.4 
		L196.1,412.4 L196.3,412.4 L196.5,412.4 L196.7,412.4 L196.9,412.4 L197.2,412.4 L197.4,412.4 L197.6,412.5 
		L197.8,412.5 L198.0,412.5 L198.2,412.5 L198.4,412.5 L198.6,412.5 L198.8,412.5 L199.0,412.5 L199.2,412.5 
		L199.5,412.7 L199.7,412.6 L199.9,412.6 L200.1,412.6 L200.3,412.6 L200.5,412.6 L200.7,412.6 L200.9,412.6 
		L201.1,412.6 L201.3,412.6 L201.5,412.6 L201.8,412.6 L202.0,412.6 L202.2,412.6 L202.4,412.6 L202.6,412.6 
		L202.8,412.6 L203.0,412.6 L203.2,412.6 L203.4,412.6 L203.6,412.6 L203.9,412.6 L204.1,412.6 L204.3,412.6 
		L204.5,412.6 L204.7,412.6 L204.9,412.6 L205.1,412.6 L205.3,412.6 L205.5,412.9 L205.7,412.9 L205.9,412.9 
		L206.2,412.9 L206.4,412.9 L206.6,412.9 L206.8,412.9 L207.0,412.9 L207.2,412.9 L207.4,412.9 L207.6,412.9 
		L207.8,412.9 L208.0,412.9 L208.2,412.8 L208.5,412.9 L208.7,412.9 L208.9,412.9 L209.1,412.8 L209.3,412.8 
		L209.5,412.8 L209.7,412.8 L209.9,412.8 L210.1,412.8 L210.3,412.8 L210.6,412.9 L210.8,412.8 L211.0,412.8 
		L211.2,412.8 L211.4,412.8 L211.6,412.8 L211.8,412.8 L212.0,412.8 L212.2,412.8 L212.4,412.8 L212.6,412.8 
		L212.9,412.8 L213.1,412.8 L213.3,412.8 L213.5,412.8 L213.7,412.8 L213.9,412.8 L214.1,412.8 L214.3,412.8 
		L214.5,412.8 L214.7,412.8 L214.9,412.8 L215.2,412.8 L215.4,412.8 L215.6,412.8 L215.8,412.8 L216.0,413.0 
		L216.2,413.0 L216.4,413.0 L216.6,413.0 L216.8,413.0 L217.0,413.0 L217.3,413.0 L217.5,413.0 L217.7,413.1 
		L217.9,413.0 L218.1,413.0 L218.3,413.0 L218.5,413.1 L218.7,413.0 L218.9,413.0 L219.1,413.0 L219.3,413.1 
		L219.6,413.1 L219.8,413.1 L220.0,413.1 L220.2,413.0 L220.4,413.0 L220.6,413.0 L220.8,412.9 L221.0,412.9 
		L221.2,412.9 L221.4,412.9 L221.6,412.9 L221.9,412.9 L222.1,412.9 L222.3,412.9 L222.5,412.9 L222.7,413.0 
		L222.9,412.9 L223.1,412.9 L223.3,412.9 L223.5,412.9 L223.7,412.9 L223.9,412.9 L224.2,412.9 L224.4,412.9 
		L224.6,412.9 L224.8,412.9 L225.0,413.0 L225.2,413.0 L225.4,413.0 L225.6,413.0 L225.8,413.0 L226.0,413.0 
		L226.3,413.0 L226.5,413.0 L226.7,413.0 L226.9,413.0 L227.1,413.0 L227.3,413.0 L227.5,413.0 L227.7,413.0 
		L227.9,413.0 L228.1,413.0 L228.3,413.0 L228.6,413.0 L228.8,413.0 L229.0,413.0 L229.2,413.0 L229.4,413.2 
		L229.6,413.2 L229.8,413.2 L230.0,413.2 L230.2,413.2 L230.4,413.2 L230.6,413.3 L230.9,413.3 L231.1,413.3 
		L231.3,413.3 L231.5,413.3 L231.7,413.3 L231.9,413.3 L232.1,413.3 L232.3,413.3 L232.5,413.3 L232.7,413.3 
		L233.0,413.3 L233.2,413.3 L233.4,413.3 L233.6,413.4 L233.8,413.4 L234.0,413.4 L234.2,413.4 L234.4,413.4 
		L234.6,413.4 L234.8,413.4 L235.0,413.4 L235.3,413.4 L235.5,413.4 L235.7,413.4 L235.9,413.4 L236.1,413.4 
		L236.3,413.4 L236.5,413.4 L236.7,413.4 L236.9,413.4 L237.1,413.4 L237.3,413.4 L237.6,413.4 L237.8,413.4 
		L238.0,413.4 L238.2,413.4 L238.4,413.4 L238.6,413.4 L238.8,413.4 L239.0,413.4 L239.2,413.4 L239.4,413.5 
		L239.7,413.5 L239.9,413.5 L240.1,413.5 L240.3,413.5 L240.5,413.5 L240.7,413.5 L240.9,413.5 L241.1,413.6 
		L241.3,413.5 L241.5,413.5 L241.7,413.5 L242.0,413.5 L242.2,413.5 L242.4,413.5 L242.6,413.5 L242.8,413.5 
		L243.0,413.5 L243.2,413.5 L243.4,413.6 L243.6,413.5 L243.8,413.5 L244.0,413.5 L244.3,413.5 L244.5,413.5 
		L244.7,413.5 L244.9,413.5 L245.1,413.5 L245.3,413.5 L245.5,413.5 L245.7,413.5 L245.9,413.5 L246.1,413.4 
		L246.3,413.4 L246.6,413.4 L246.8,413.3 L247.0,413.3 L247.2,413.3 L247.4,413.3 L247.6,413.2 L247.8,413.2 
		L248.0,413.2 L248.2,413.2 L248.4,413.2 L248.6,413.2 L248.9,413.2 L249.1,413.2 L249.3,413.1 L249.5,413.1 
		L249.7,413.1 L249.9,413.1 L250.1,413.1 L250.3,413.1 L250.5,413.0 L250.7,413.0 L251.0,413.0 L251.2,413.0 
		L251.4,413.0 L251.6,413.0 L251.8,413.0 L252.0,413.0 L252.2,413.0 L252.4,413.0 L252.6,413.0 L252.8,413.0 
		L253.0,413.0 L253.3,413.0 L253.5,413.0 L253.7,413.0 L253.9,413.0 L254.1,413.0 L254.3,413.0 L254.5,413.0 
		L254.7,413.0 L254.9,413.1 L255.1,413.1 L255.3,413.1 L255.6,413.1 L255.8,413.1 L256.0,413.1 L256.2,413.1 
		L256.4,413.1 L256.6,413.1 L256.8,413.1 L257.0,413.1 L257.2,413.1 L257.4,413.1 L257.7,413.1 L257.9,413.1 
		L258.1,413.1 L258.3,413.1 L258.5,413.3 L258.7,413.3 L258.9,413.2 L259.1,413.2 L259.3,413.2 L259.5,413.2 
		L259.7,413.2 L260.0,413.2 L260.2,413.2 L260.4,413.2 L260.6,413.2 L260.8,413.2 L261.0,413.2 L261.2,413.2 
		L261.4,413.2 L261.6,413.2 L261.8,413.2 L262.0,413.2 L262.3,413.2 L262.5,413.3 L262.7,413.3 L262.9,413.3 
		L263.1,413.3 L263.3,413.3 L263.5,413.3 L263.7,413.3 L263.9,413.3 L264.1,413.3 L264.3,413.3 L264.6,413.3 
		L264.8,413.2 L265.0,413.2 L265.2,413.2 L265.4,413.2 L265.6,413.2 L265.8,413.2 L266.0,413.2 L266.2,413.2 
		L266.4,413.2 L266.7,413.2 L266.9,413.2 L267.1,413.2 L267.3,413.2 L267.5,413.2 L267.7,413.2 L267.9,413.2 
		L268.1,413.2 L268.3,413.3 L268.5,413.3 L268.7,413.3 L269.0,413.2 L269.2,413.2 L269.4,413.2 L269.6,413.1 
		L269.8,413.0 L270.0,413.0 L270.2,413.0 L270.4,413.0 L270.6,413.0 L270.8,413.0 L271.0,413.0 L271.3,413.0 
		L271.5,413.0 L271.7,413.0 L271.9,413.0 L272.1,413.0 L272.3,413.0 L272.5,413.0 L272.7,413.0 L272.9,413.0 
		L273.1,413.0 L273.4,412.9 L273.6,412.9 L273.8,412.9 L274.0,412.9 L274.2,412.9 L274.4,412.9 L274.6,412.9 
		L274.8,412.9 L275.0,412.9 L275.2,412.9 L275.4,412.9 L275.7,412.9 L275.9,412.9 L276.1,412.9 L276.3,413.0 
		L276.5,412.9 L276.7,412.9 L276.9,412.9 L277.1,412.9 L277.3,412.9 L277.5,412.9 L277.7,412.9 L278.0,412.9 
		L278.2,412.9 L278.4,412.9 L278.6,412.9 L278.8,412.9 L279.0,412.9 L279.2,412.9 L279.4,412.9 L279.6,412.9 
		L279.8,412.9 L280.1,412.9 L280.3,412.9 L280.5,412.9 L280.7,412.9 L280.9,413.0 L281.1,413.0 L281.3,413.0 
		L281.5,412.9 L281.7,412.9 L281.9,412.9 L282.1,412.9 L282.4,412.9 L282.6,412.9 L282.8,412.9 L283.0,412.8 
		L283.2,412.8 L283.4,412.8 L283.6,412.8 L283.8,412.8 L284.0,412.8 L284.2,412.8 L284.4,412.7 L284.7,412.7 
		L284.9,412.7 L285.1,412.7 L285.3,412.7 L285.5,412.7 L285.7,412.7 L285.9,412.7 L286.1,412.7 L286.3,412.7 
		L286.5,412.7 L286.8,412.6 L287.0,412.6 L287.2,412.6 L287.4,412.6 L287.6,412.6 L287.8,412.6 L288.0,412.6 
		L288.2,412.6 L288.4,412.5 L288.6,412.5 L288.8,412.5 L289.1,412.5 L289.3,412.5 L289.5,412.5 L289.7,412.5 
		L289.9,412.5 L290.1,412.5 L290.3,412.5 L290.5,412.5 L290.7,412.5 L290.9,412.5 L291.1,412.5 L291.4,412.6 
		L291.6,412.6 L291.8,412.6 L292.0,412.6 L292.2,412.6 L292.4,412.6 L292.6,412.6 L292.8,412.6 L293.0,412.6 
		L293.2,412.6 L293.4,412.6 L293.7,412.6 L293.9,412.5 L294.1,412.5 L294.3,412.5 L294.5,412.5 L294.7,412.5 
		L294.9,412.5 L295.1,412.4 L295.3,412.4 L295.5,412.4 L295.8,412.4 L296.0,412.4 L296.2,412.4 L296.4,412.4 
		L296.6,412.4 L296.8,412.4 L297.0,412.4 L297.2,412.4 L297.4,412.4 L297.6,412.5 L297.8,412.5 L298.1,412.5 
		L298.3,412.5 L298.5,412.5 L298.7,412.5 L298.9,412.5 L299.1,412.5 L299.3,412.5 L299.5,412.5 L299.7,412.5 
		L299.9,412.5 L300.1,412.5 L300.4,412.5 L300.6,412.5 L300.8,412.5 L301.0,412.5 L301.2,412.5 L301.4,412.5 
		L301.6,412.5 L301.8,412.5 L302.0,412.5 L302.2,412.5 L302.5,412.5 L302.7,412.5 L302.9,412.5 L303.1,412.5 
		L303.3,412.5 L303.5,412.5 L303.7,412.5 L303.9,412.5 L304.1,412.5 L304.3,412.5 L304.5,412.5 L304.8,412.5 
		L305.0,412.5 L305.2,412.5 L305.4,412.5 L305.6,412.5 L305.8,412.5 L306.0,412.5 L306.2,412.5 L306.4,412.5 
		L306.6,412.6 L306.8,412.6 L307.1,412.6 L307.3,412.6 L307.5,412.6 L307.7,412.6 L307.9,412.6 L308.1,412.6 
		L308.3,412.6 L308.5,412.6 L308.7,412.6 L308.9,412.6 L309.2,412.6 L309.4,412.6 L309.6,412.6 L309.8,412.6 
		L310.0,412.6 L310.2,412.6 L310.4,412.6 L310.6,412.6 L310.8,412.6 L311.0,412.6 L311.2,412.6 L311.5,412.6 
		L311.7,412.6 L311.9,412.6 L312.1,412.6 L312.3,412.6 L312.5,412.6 L312.7,412.6 L312.9,412.6 L313.1,412.7 
		L313.3,412.6 L313.5,412.6 L313.8,412.6 L314.0,412.6 L314.2,412.7 L314.4,412.7 L314.6,412.7 L314.8,412.7 
		L315.0,412.6 L315.2,412.6 L315.4,412.6 L315.6,412.6 L315.8,412.6 L316.1,412.6 L316.3,412.6 L316.5,412.6 
		L316.7,412.6 L316.9,412.6 L317.1,412.6 L317.3,412.6 L317.5,412.6 L317.7,412.6 L317.9,412.6 L318.2,412.6 
		L318.4,412.6 L318.6,412.6 L318.8,412.6 L319.0,412.6 L319.2,412.6 L319.4,412.6 L319.6,412.6 L319.8,412.6 
		L320.0,412.6 L320.2,412.6 L320.5,412.6 L320.7,412.6 L320.9,412.8 L321.1,412.8 L321.3,412.8 L321.5,412.8 
		L321.7,412.8 L321.9,412.8 L322.1,412.8 L322.3,412.8 L322.5,412.8 L322.8,412.8 L323.0,412.8 L323.2,412.8 
		L323.4,412.8 L323.6,412.8 L323.8,412.8 L324.0,412.8 L324.2,412.8 L324.4,412.9 L324.6,412.8 L324.9,412.8 
		L325.1,412.8 L325.3,412.8 L325.5,412.7 L325.7,412.7 L325.9,412.7 L326.1,412.7 L326.3,412.7 L326.5,412.7 
		L326.7,412.8 L326.9,412.8 L327.2,412.8 L327.4,412.8 L327.6,412.8 L327.8,412.8 L328.0,412.8 L328.2,412.8 
		L328.4,412.8 L328.6,412.8 L328.8,412.8 L329.0,412.8 L329.2,412.9 L329.5,412.9 L329.7,412.9 L329.9,412.9 
		L330.1,412.9 L330.3,412.9 L330.5,412.9 L330.7,412.9 L330.9,412.9 L331.1,412.9 L331.3,412.9 L331.6,412.9 
		L331.8,412.9 L332.0,412.9 L332.2,412.9 L332.4,412.9 L332.6,412.9 L332.8,412.9 L333.0,412.9 L333.2,412.9 
		L333.4,412.9 L333.6,412.9 L333.9,412.9 L334.1,412.9 L334.3,412.9 L334.5,412.9 L334.7,412.9 L334.9,412.9 
		L335.1,412.9 L335.3,412.9 L335.5,412.9 L335.7,412.9 L335.9,412.9 L336.2,412.9 L336.4,412.9 L336.6,412.9 
		L336.8,412.9 L337.0,412.9 L337.2,412.9 L337.4,412.9 L337.6,412.9 L337.8,412.9 L338.0,412.9 L338.3,412.9 
		L338.5,412.9 L338.7,412.9 L338.9,412.9 L339.1,412.9 L339.3,412.9 L339.5,412.9 L339.7,412.9 L339.9,412.9 
		L340.1,412.9 L340.3,412.9 L340.6,412.9 L340.8,412.9 L341.0,412.9 L341.2,412.9 L341.4,412.9 L341.6,412.9 
		L341.8,412.9 L342.0,412.9 L342.2,413.0 L342.4,413.0 L342.6,413.0 L342.9,413.0 L343.1,413.0 L343.3,413.0 
		L343.5,413.0 L343.7,413.0 L343.9,413.0 L344.1,413.0 L344.3,413.0 L344.5,413.0 L344.7,413.0 L344.9,413.0 
		L345.2,413.0 L345.4,413.0 L345.6,413.0 L345.8,413.0 L346.0,413.0 L346.2,413.0 L346.4,413.0 L346.6,413.0 
		L346.8,413.0 L347.0,413.2 L347.3,413.2 L347.5,413.2 L347.7,413.2 L347.9,413.2 L348.1,413.2 L348.3,413.2 
		L348.5,413.2 L348.7,413.1 L348.9,413.1 L349.1,413.1 L349.3,413.1 L349.6,413.1 L349.8,413.1 L350.0,413.1 
		L350.2,413.1 L350.4,413.1 L350.6,413.1 L350.8,413.1 L351.0,413.1 L351.2,413.1 L351.4,413.1 L351.6,413.1 
		L351.9,413.1 L352.1,413.1 L352.3,413.1 L352.5,413.1 L352.7,413.1 L352.9,413.1 L353.1,413.1 L353.3,413.1 
		L353.5,413.1 L353.7,413.1 L354.0,413.1 L354.2,413.1 L354.4,413.1 L354.6,413.1 L354.8,413.1 L355.0,413.1 
		L355.2,413.1 L355.4,413.1 L355.6,413.1 L355.8,413.1 L356.0,413.1 L356.3,413.1 L356.5,413.1 L356.7,413.1 
		L356.9,413.1 L357.1,413.1 L357.3,413.1 L357.5,413.1 L357.7,413.1 L357.9,413.1 L358.1,413.1 L358.3,413.1 
		L358.6,413.1 L358.8,413.1 L359.0,413.1 L359.2,413.1 L359.4,413.1 L359.6,413.1 L359.8,413.1 L360.0,413.1 
		L360.2,413.1 L360.4,413.1 L360.7,413.2 L360.9,413.2 L361.1,413.2 L361.3,413.2 L361.5,413.2 L361.7,413.2 
		L361.9,413.2 L362.1,413.2 L362.3,413.2 L362.5,413.2 L362.7,413.2 L363.0,413.2 L363.2,413.2 L363.4,413.2 
		L363.6,413.2 L363.8,413.2 L364.0,413.2 L364.2,413.2 L364.4,413.2 L364.6,413.2 L364.8,413.2 L365.0,413.2 
		L365.3,413.2 L365.5,413.2 L365.7,413.2 L365.9,413.2 L366.1,413.2 L366.3,413.2 L366.5,413.2 L366.7,413.2 
		L366.9,413.2 L367.1,413.2 L367.4,413.3 L367.6,413.3 L367.8,413.3 L368.0,413.3 L368.2,413.3 L368.4,413.3 
		L368.6,413.3 L368.8,413.3 L369.0,413.3 L369.2,413.3 L369.4,413.3 L369.7,413.3 L369.9,413.3 L370.1,413.3 
		L370.3,413.3 L370.5,413.3 L370.7,413.3 L370.9,413.3 L371.1,413.3 L371.3,413.3 L371.5,413.3 L371.7,413.3 
		L372.0,413.3 L372.2,413.4 L372.4,413.4 L372.6,413.4 L372.8,413.4 L373.0,413.4 L373.2,413.4 L373.4,413.4 
		L373.6,413.4 L373.8,413.4 L374.0,413.4 L374.3,413.4 L374.5,413.4 L374.7,413.4 L374.9,413.4 L375.1,413.4 
		L375.3,413.5 L375.5,413.5 L375.7,413.5 L375.9,413.5 L376.1,413.5 L376.4,413.5 L376.6,413.5 L376.8,413.5 
		L377.0,413.5 L377.2,413.5 L377.4,413.5 L377.6,413.5 L377.8,413.5 L378.0,413.5 L378.2,413.5 L378.4,413.5 
		L378.7,413.5 L378.9,413.5 L379.1,413.5 L379.3,413.5 L379.5,413.5 L379.7,413.5 L379.9,413.5 L380.1,413.5 
		L380.3,413.5 L380.5,413.5 L380.7,413.5 L381.0,413.5 L381.2,413.5 L381.4,413.5 L381.6,413.5 L381.8,413.5 
		L382.0,413.5 L382.2,413.5 L382.4,413.5 L382.6,413.5 L382.8,413.5 L383.1,413.5 L383.3,413.5 L383.5,413.5 
		L383.7,413.5 L383.9,413.5 L384.1,413.5 L384.3,413.5 L384.5,413.5 L384.7,413.5 L384.9,413.5 L385.1,413.5 
		L385.4,413.5 L385.6,413.5 L385.8,413.5 L386.0,413.5 L386.2,413.5 L386.4,413.5 L386.6,413.5 L386.8,413.5 
		L387.0,413.5 L387.2,413.5 L387.4,413.5 L387.7,413.5 L387.9,413.5 L388.1,413.5 L388.3,413.5 L388.5,413.5 
		L388.7,413.5 L388.9,413.5 L389.1,413.4 L389.3,413.4 L389.5,413.4 L389.8,413.4 L390.0,413.4 L390.2,413.4 
		L390.4,413.4 L390.6,413.4 L390.8,413.4 L391.0,413.4 L391.2,413.4 L391.4,413.4 L391.6,413.4 L391.8,413.4 
		L392.1,413.4 L392.3,413.4 L392.5,413.4 L392.7,413.4 L392.9,413.4 L393.1,413.4 L393.3,413.4 L393.5,413.4 
		L393.7,413.4 L393.9,413.4 L394.1,413.4 L394.4,413.4 L394.6,413.4 L394.8,413.4 L395.0,413.4 L395.2,413.4 
		L395.4,413.4 L395.6,413.4 L395.8,413.4 L396.0,413.4 L396.2,413.4 L396.4,413.4 L396.7,413.5 L396.9,413.5 
		L397.1,413.5 L397.3,413.5 L397.5,413.5 L397.7,413.4 L397.9,413.4 L398.1,413.4 L398.3,413.4 L398.5,413.4 
		L398.8,413.4 L399.0,413.4 L399.2,413.4 L399.4,413.4 L399.6,413.4 L399.8,413.4 L400.0,413.4 L400.2,413.4 
		L400.4,413.4 L400.6,413.4 L400.8,413.4 L401.1,413.4 L401.3,413.4 L401.5,413.4 L401.7,413.4 L401.9,413.4 
		L402.1,413.4 L402.3,413.4 L402.5,413.4 L402.7,413.4 L402.9,413.4 L403.1,413.4 L403.4,413.4 L403.6,413.5 
		L403.8,413.5 L404.0,413.5 L404.2,413.4 L404.4,413.4 L404.6,413.4 L404.8,413.4 L405.0,413.4 L405.2,413.4 
		L405.5,413.4 L405.7,413.4 L405.9,413.5 L406.1,413.5 L406.3,413.5 L406.5,413.5 L406.7,413.4 L406.9,413.4 
		L407.1,413.4 L407.3,413.4 L407.5,413.4 L407.8,413.4 L408.0,413.4 L408.2,413.4 L408.4,413.4 L408.6,413.4 
		L408.8,413.4 L409.0,413.4 L409.2,413.4 L409.4,413.5 L409.6,413.5 L409.8,413.5 L410.1,413.5 L410.3,413.5 
		L410.5,413.5 L410.7,413.5 L410.9,413.5 L411.1,413.5 L411.3,413.5 L411.5,413.5 L411.7,413.5 L411.9,413.5 
		L412.2,413.5 L412.4,413.5 L412.6,413.5 L412.8,413.5 L413.0,413.5 L413.2,413.5 L413.4,413.5 L413.6,413.6 
		L413.8,413.6 L414.0,413.6 L414.2,413.6 L414.5,413.6 L414.7,413.6 L414.9,413.6 L415.1,413.6 L415.3,413.6 
		L415.5,413.6 L415.7,413.6 L415.9,413.6 L416.1,413.6 L416.3,413.6 L416.5,413.6 L416.8,413.6 L417.0,413.7 
		L417.2,413.6 L417.4,413.6 L417.6,413.6 L417.8,413.6 L418.0,413.6 L418.2,413.6 L418.4,413.6 L418.6,413.6 
		L418.9,413.6 L419.1,413.6 L419.3,413.6 L419.5,413.6 L419.7,413.6 L419.9,413.6 L420.1,413.6 L420.3,413.6 
		L420.5,413.6 L420.7,413.6 L420.9,413.7 L421.2,413.7 L421.4,413.7 L421.6,413.7 L421.8,413.7 L422.0,413.7 
		L422.2,413.7 L422.4,413.7 L422.6,413.7 L422.8,413.7 L423.0,413.7 L423.2,413.7 L423.5,413.7 L423.7,413.7 
		L423.9,413.7 L424.1,413.7 L424.3,413.7 L424.5,413.7 L424.7,413.7 L424.9,413.7 L425.1,413.7 L425.3,413.7 
		L425.5,413.7 L425.8,413.7 L426.0,413.7 L426.2,413.7 L426.4,413.7 L426.6,413.7 L426.8,413.7 L427.0,413.6 
		L427.2,413.6 L427.4,413.6 L427.6,413.6 L427.9,413.6 L428.1,413.6 L428.3,413.6 L428.5,413.6 L428.7,413.7 
		L428.9,413.7 L429.1,413.7 L429.3,413.7 L429.5,413.7 L429.7,413.7 L429.9,413.7 L430.2,413.7 L430.4,413.7 
		L430.6,413.7 L430.8,413.7 L431.0,413.7 L431.2,413.7 L431.4,413.7 L431.6,413.7 L431.8,413.7 L432.0,413.7 
		L432.2,413.7 L432.5,413.7 L432.7,413.7 L432.9,413.7 L433.1,413.7 L433.3,413.7 L433.5,413.7 L433.7,413.7 
		L433.9,413.7 L434.1,413.7 L434.3,413.7 L434.6,413.7 L434.8,413.7 L435.0,413.7 L435.2,413.7 L435.4,413.7 
		L435.6,413.7 L435.8,413.7 L436.0,413.7 L436.2,413.7 L436.4,413.7 L436.6,413.7 L436.9,413.7 L437.1,413.7 
		L437.3,413.7 L437.5,413.7 L437.7,413.8 L437.9,413.7 L438.1,413.7 L438.3,413.7 L438.5,413.7 L438.7,413.8 
		L438.9,413.7 L439.2,413.7 L439.4,413.7 L439.6,413.7 L439.8,413.8 L440.0,413.7 L440.2,413.7 L440.4,413.8 
		L440.6,413.8 L440.8,413.8 L441.0,413.8 L441.3,413.8 L441.5,413.8 L441.7,413.8 L441.9,413.8 L442.1,413.8 
		L442.3,413.8 L442.5,413.8 L442.7,413.8 L442.9,413.8 L443.1,413.8 L443.3,413.8 L443.6,413.7 L443.8,413.7 
		L444.0,413.7 L444.2,413.7 L444.4,413.7 L444.6,413.8 L444.8,413.8 L445.0,413.8 L445.2,413.8 L445.4,413.8 
		L445.6,413.8 L445.9,413.8 L446.1,413.8 L446.3,413.7 L446.5,413.7 L446.7,413.7 L446.9,413.7 L447.1,413.7 
		L447.3,413.7 L447.5,413.7 L447.7,413.7 L447.9,413.7 L448.2,413.7 L448.4,413.7 L448.6,413.7 L448.8,413.7 
		L449.0,413.7 L449.2,413.7 L449.4,413.7 L449.6,413.7 L449.8,413.7 L450.0,413.7 L450.3,413.7 L450.5,413.7 
		L450.7,413.7 L450.9,413.7 L451.1,413.7 L451.3,413.7 L451.5,413.7 L451.7,413.7 L451.9,413.7 L452.1,413.7 
		L452.3,413.7 L452.6,413.7 L452.8,413.7 L453.0,413.7 L453.2,413.7 L453.4,413.7 L453.6,413.7 L453.8,413.7 
		L454.0,413.7 L454.2,413.7 L454.4,413.7 L454.6,413.7 L454.9,413.7 L455.1,413.7 L455.3,413.7 L455.5,413.7 
		L455.7,413.7 L455.9,413.7 L456.1,413.7 L456.3,413.7 L456.5,413.7 L456.7,413.7 L457.0,413.7 L457.2,413.7 
		L457.4,413.7 L457.6,413.7 L457.8,413.7 L458.0,413.7 L458.2,413.8 L458.4,413.8 L458.6,413.8 L458.8,413.8 
		L459.0,413.8 L459.3,413.8 L459.5,413.8 L459.7,413.8 L459.9,413.8 L460.1,413.8 L460.3,413.8 L460.5,413.8 
		L460.7,413.8 L460.9,413.8 L461.1,413.8 L461.3,413.8 L461.6,413.8 L461.8,413.8 L462.0,413.8 L462.2,413.8 
		L462.4,413.8 L462.6,413.8 L462.8,413.8 L463.0,413.8 L463.2,413.8 L463.4,413.8 L463.7,413.8 L463.9,413.8 
		L464.1,413.8 L464.3,413.8 L464.5,413.8 L464.7,413.8 L464.9,413.8 L465.1,413.8 L465.3,413.8 L465.5,413.8 
		L465.7,413.8 L466.0,413.9 L466.2,413.9 L466.4,413.9 L466.6,413.9 L466.8,413.9 L467.0,413.9 L467.2,413.9 
		L467.4,413.9 L467.6,413.9 L467.8,413.9 L468.0,413.9 L468.3,413.9 L468.5,413.9 L468.7,413.9 L468.9,413.9 
		L469.1,413.9 L469.3,413.9 L469.5,413.9 L469.7,413.9 L469.9,413.9 L470.1,413.9 L470.4,413.9 L470.6,413.9 
		L470.8,413.9 L471.0,413.9 L471.2,413.9 L471.4,413.9 L471.6,413.9 L471.8,413.9 L472.0,413.9 L472.2,413.9 
		L472.4,413.9 L472.7,413.9 L472.9,413.9 L473.1,413.9 L473.3,413.9 L473.5,413.9 L473.7,413.9 L473.9,413.9 
		L474.1,413.9 L474.3,413.9 L474.5,413.9 L474.7,413.9 L475.0,413.9 L475.2,413.9 L475.4,413.9 L475.6,414.0 
		L475.8,413.9 L476.0,413.9 L476.2,413.9 L476.4,413.9 L476.6,413.9 L476.8,413.9 L477.0,413.9 L477.3,413.9 
		L477.5,413.9 L477.7,413.9 L477.9,413.9 L478.1,413.9 L478.3,413.9 L478.5,413.9 L478.7,413.9 L478.9,413.9 
		L479.1,413.9 L479.4,413.9 L479.6,413.9 L479.8,413.9 L480.0,413.9 L480.2,414.0 L480.4,414.0 L480.6,414.0 
		L480.8,414.0 L481.0,414.0 L481.2,414.0 L481.4,414.0 L481.7,414.0 L481.9,414.0 L482.1,414.0 L482.3,414.0 
		L482.5,414.0 L482.7,414.0 L482.9,414.0 L483.1,414.0 L483.3,414.0 L483.5,414.0 L483.7,414.0 L484.0,414.0 
		L484.2,414.0 L484.4,414.1 L484.6,414.1 L484.8,414.1 L485.0,414.1 L485.2,414.1 L485.4,414.1 L485.6,414.1 
		L485.8,414.1 L486.1,414.1 L486.3,414.1 L486.5,414.1 L486.7,414.1 L486.9,414.1 L487.1,414.1 L487.3,414.1 
		L487.5,414.1 L487.7,414.1 L487.9,414.1 L488.1,414.1 L488.4,414.1 L488.6,414.1 L488.8,414.1 L489.0,414.1 
		L489.2,414.1 L489.4,414.1 L489.6,414.1 L489.8,414.1 L490.0,414.1 L490.2,414.1 L490.4,414.1 L490.7,414.1 
		L490.9,414.1 L491.1,414.1 L491.3,414.1 L491.5,414.1 L491.7,414.1 L491.9,414.1 L492.1,414.1 L492.3,414.1 
		L492.5,414.1 L492.8,414.1 L493.0,414.1 L493.2,414.1 L493.4,414.1 L493.6,414.1 L493.8,414.1 L494.0,414.1 
		L494.2,414.1 L494.4,414.1 L494.6,414.1 L494.8,414.1 L495.1,414.1 L495.3,414.1 L495.5,414.1 L495.7,414.1 
		L495.9,414.1 L496.1,414.1 L496.3,414.1 L496.5,414.1 L496.7,414.1 L496.9,414.1 L497.1,414.1 L497.4,414.1 
		L497.6,414.1 L497.8,414.1 L498.0,414.1 L498.2,414.1 L498.4,414.1 L498.6,414.1 L498.8,414.1 L499.0,414.1 
		L499.2,414.1 L499.4,414.1 L499.7,414.1 L499.9,414.1 L500.1,414.1 L500.3,414.1 L500.5,414.1 L500.7,414.1 
		L500.9,414.1 L501.1,414.1 L501.3,414.1 L501.5,414.1 L501.8,414.1 L502.0,414.1 L502.2,414.1 L502.4,414.1 
		L502.6,414.1 L502.8,414.1 L503.0,414.1 L503.2,414.1 L503.4,414.1 L503.6,414.1 L503.8,414.1 L504.1,414.1 
		L504.3,414.1 L504.5,414.1 L504.7,414.1 L504.9,414.1 L505.1,414.1 L505.3,414.1 L505.5,414.1 L505.7,414.1 
		L505.9,414.1 L506.1,414.1 L506.4,414.1 L506.6,414.1 L506.8,414.1 L507.0,414.1 L507.2,414.1  h0.01'/></g>
	</g>
	<g id="gnuplot_plot_2" ><title>gnuplot_plot_2</title>
<g style="fill:none; color:green; stroke:currentColor; stroke-width:1.00; stroke-linecap:butt; stroke-linejoin:miter">
	<g transform="translate(440.1,390.9)" style="stroke:none; fill:black; font-family:Arial; font-size:12.00pt; text-anchor:end">
		<text>Radio maximum capacity</text>
	</g>
	<path  d='M448.4,386.4 L490.6,386.4 M90.8,88.6 L91.0,353.5 L91.2,348.2 L91.4,369.5 L91.6,343.8 L91.8,339.9 
		L92.1,354.0 L92.3,351.2 L92.5,351.2 L92.7,355.6 L92.9,355.3 L93.1,362.8 L93.3,363.6 L93.5,365.8 
		L93.7,365.8 L93.9,365.8 L94.2,365.8 L94.4,365.8 L94.6,365.8 L94.8,365.8 L95.0,385.1 L95.2,385.1 
		L95.4,385.1 L95.6,389.4 L95.8,389.4 L96.0,389.4 L96.2,389.4 L96.5,389.4 L96.7,389.4 L96.9,389.4 
		L97.1,389.4 L97.3,395.1 L97.5,395.1 L97.7,396.2 L97.9,396.2 L98.1,397.2 L98.3,396.9 L98.5,396.9 
		L98.8,396.9 L99.0,396.9 L99.2,396.9 L99.4,396.9 L99.6,400.5 L99.8,396.4 L100.0,396.6 L100.2,396.6 
		L100.4,396.6 L100.6,396.6 L100.8,398.5 L101.1,398.5 L101.3,399.5 L101.5,396.7 L101.7,396.7 L101.9,396.7 
		L102.1,396.7 L102.3,396.7 L102.5,397.8 L102.7,395.8 L102.9,395.8 L103.2,395.8 L103.4,396.8 L103.6,396.8 
		L103.8,396.8 L104.0,396.8 L104.2,396.8 L104.4,398.6 L104.6,398.6 L104.8,399.1 L105.0,398.1 L105.2,398.1 
		L105.5,398.1 L105.7,398.1 L105.9,398.1 L106.1,398.1 L106.3,400.1 L106.5,398.1 L106.7,397.8 L106.9,397.8 
		L107.1,397.8 L107.3,397.8 L107.5,397.8 L107.8,397.8 L108.0,399.3 L108.2,399.3 L108.4,399.3 L108.6,399.3 
		L108.8,400.5 L109.0,399.6 L109.2,399.6 L109.4,399.6 L109.6,399.6 L109.8,399.8 L110.1,399.8 L110.3,400.1 
		L110.5,400.3 L110.7,400.2 L110.9,400.1 L111.1,400.1 L111.3,400.1 L111.5,400.1 L111.7,400.1 L111.9,400.1 
		L112.2,400.1 L112.4,401.5 L112.6,401.2 L112.8,400.9 L113.0,400.9 L113.2,400.9 L113.4,400.9 L113.6,400.9 
		L113.8,400.9 L114.0,400.9 L114.2,400.9 L114.5,400.9 L114.7,400.9 L114.9,400.9 L115.1,400.9 L115.3,402.3 
		L115.5,402.5 L115.7,402.2 L115.9,402.2 L116.1,402.2 L116.3,402.2 L116.5,402.2 L116.8,402.8 L117.0,402.7 
		L117.2,402.7 L117.4,402.7 L117.6,402.7 L117.8,402.7 L118.0,402.7 L118.2,402.7 L118.4,402.7 L118.6,402.7 
		L118.9,402.7 L119.1,402.7 L119.3,402.7 L119.5,402.7 L119.7,404.5 L119.9,404.5 L120.1,404.5 L120.3,404.5 
		L120.5,404.5 L120.7,405.1 L120.9,405.1 L121.2,405.1 L121.4,405.1 L121.6,405.1 L121.8,405.1 L122.0,405.3 
		L122.2,405.3 L122.4,405.2 L122.6,404.9 L122.8,404.9 L123.0,405.2 L123.2,404.7 L123.5,404.7 L123.7,404.7 
		L123.9,404.7 L124.1,404.7 L124.3,404.7 L124.5,404.7 L124.7,404.7 L124.9,404.7 L125.1,404.7 L125.3,404.7 
		L125.6,404.7 L125.8,405.8 L126.0,405.8 L126.2,405.8 L126.4,405.8 L126.6,406.1 L126.8,406.1 L127.0,405.8 
		L127.2,405.8 L127.4,405.8 L127.6,405.8 L127.9,405.8 L128.1,405.8 L128.3,405.8 L128.5,406.2 L128.7,406.2 
		L128.9,406.3 L129.1,406.0 L129.3,406.0 L129.5,406.0 L129.7,406.3 L130.0,406.0 L130.2,405.9 L130.4,405.9 
		L130.6,406.1 L130.8,406.1 L131.0,406.1 L131.2,406.1 L131.4,406.1 L131.6,406.4 L131.8,406.3 L132.0,406.3 
		L132.3,406.3 L132.5,406.4 L132.7,406.3 L132.9,406.3 L133.1,406.3 L133.3,406.3 L133.5,406.3 L133.7,406.2 
		L133.9,406.2 L134.1,406.2 L134.3,406.2 L134.6,406.2 L134.8,406.1 L135.0,406.1 L135.2,406.1 L135.4,406.1 
		L135.6,406.1 L135.8,406.1 L136.0,406.1 L136.2,406.1 L136.4,406.1 L136.7,406.1 L136.9,406.1 L137.1,406.1 
		L137.3,406.1 L137.5,406.1 L137.7,406.1 L137.9,406.1 L138.1,406.1 L138.3,406.1 L138.5,406.1 L138.7,406.1 
		L139.0,407.5 L139.2,407.2 L139.4,407.2 L139.6,407.2 L139.8,407.4 L140.0,407.3 L140.2,407.3 L140.4,407.4 
		L140.6,407.4 L140.8,407.4 L141.0,407.4 L141.3,407.4 L141.5,407.7 L141.7,407.5 L141.9,407.5 L142.1,407.5 
		L142.3,407.5 L142.5,407.5 L142.7,407.5 L142.9,407.5 L143.1,407.5 L143.3,407.5 L143.6,407.5 L143.8,407.5 
		L144.0,407.5 L144.2,407.5 L144.4,407.5 L144.6,407.5 L144.8,407.5 L145.0,408.4 L145.2,408.4 L145.4,408.4 
		L145.7,408.4 L145.9,408.4 L146.1,408.4 L146.3,408.4 L146.5,408.4 L146.7,408.3 L146.9,408.2 L147.1,408.2 
		L147.3,408.2 L147.5,408.2 L147.7,408.3 L148.0,408.3 L148.2,408.4 L148.4,408.4 L148.6,408.4 L148.8,408.4 
		L149.0,408.5 L149.2,408.5 L149.4,408.5 L149.6,408.5 L149.8,408.5 L150.0,408.7 L150.3,408.5 L150.5,408.5 
		L150.7,408.5 L150.9,408.5 L151.1,408.5 L151.3,408.5 L151.5,408.5 L151.7,408.5 L151.9,408.5 L152.1,408.5 
		L152.4,408.5 L152.6,408.5 L152.8,408.5 L153.0,408.5 L153.2,408.5 L153.4,408.9 L153.6,408.7 L153.8,408.6 
		L154.0,408.4 L154.2,408.4 L154.4,408.4 L154.7,408.5 L154.9,408.4 L155.1,408.4 L155.3,408.3 L155.5,408.3 
		L155.7,408.3 L155.9,408.3 L156.1,408.4 L156.3,408.4 L156.5,408.4 L156.7,408.5 L157.0,408.5 L157.2,408.5 
		L157.4,408.5 L157.6,408.5 L157.8,408.5 L158.0,408.5 L158.2,408.7 L158.4,408.5 L158.6,408.5 L158.8,408.5 
		L159.1,408.2 L159.3,408.2 L159.5,408.2 L159.7,408.2 L159.9,408.3 L160.1,408.3 L160.3,408.3 L160.5,408.4 
		L160.7,408.4 L160.9,408.4 L161.1,408.4 L161.4,408.4 L161.6,408.6 L161.8,408.6 L162.0,408.6 L162.2,408.6 
		L162.4,408.5 L162.6,408.5 L162.8,408.3 L163.0,408.1 L163.2,407.8 L163.4,407.8 L163.7,407.8 L163.9,407.8 
		L164.1,407.8 L164.3,407.9 L164.5,407.9 L164.7,407.9 L164.9,407.9 L165.1,407.9 L165.3,407.9 L165.5,407.9 
		L165.8,408.1 L166.0,408.1 L166.2,408.1 L166.4,408.1 L166.6,408.1 L166.8,408.1 L167.0,408.2 L167.2,408.2 
		L167.4,408.2 L167.6,408.2 L167.8,408.1 L168.1,407.9 L168.3,407.9 L168.5,407.9 L168.7,407.9 L168.9,407.9 
		L169.1,408.1 L169.3,408.1 L169.5,408.1 L169.7,408.1 L169.9,408.1 L170.1,408.2 L170.4,407.7 L170.6,407.7 
		L170.8,407.7 L171.0,407.7 L171.2,407.7 L171.4,407.7 L171.6,407.7 L171.8,407.9 L172.0,407.9 L172.2,407.9 
		L172.4,407.9 L172.7,407.6 L172.9,407.6 L173.1,407.6 L173.3,407.7 L173.5,407.7 L173.7,407.7 L173.9,407.7 
		L174.1,407.7 L174.3,407.7 L174.5,407.7 L174.8,407.8 L175.0,407.8 L175.2,407.8 L175.4,407.8 L175.6,407.8 
		L175.8,407.8 L176.0,407.8 L176.2,407.8 L176.4,407.8 L176.6,408.1 L176.8,407.8 L177.1,407.8 L177.3,407.8 
		L177.5,407.8 L177.7,407.8 L177.9,407.8 L178.1,407.7 L178.3,407.7 L178.5,407.7 L178.7,407.7 L178.9,407.7 
		L179.1,407.7 L179.4,407.7 L179.6,407.7 L179.8,407.7 L180.0,407.7 L180.2,407.8 L180.4,407.6 L180.6,407.3 
		L180.8,407.2 L181.0,407.3 L181.2,407.3 L181.5,407.2 L181.7,407.2 L181.9,407.2 L182.1,407.2 L182.3,407.2 
		L182.5,407.3 L182.7,407.3 L182.9,407.3 L183.1,407.3 L183.3,407.5 L183.5,407.4 L183.8,407.4 L184.0,407.4 
		L184.2,407.4 L184.4,407.4 L184.6,407.4 L184.8,407.4 L185.0,407.4 L185.2,407.4 L185.4,407.4 L185.6,407.4 
		L185.8,407.5 L186.1,407.5 L186.3,407.5 L186.5,407.5 L186.7,407.5 L186.9,407.7 L187.1,407.6 L187.3,407.6 
		L187.5,407.6 L187.7,407.6 L187.9,407.6 L188.2,407.6 L188.4,407.5 L188.6,407.5 L188.8,407.5 L189.0,407.5 
		L189.2,407.5 L189.4,407.5 L189.6,407.5 L189.8,407.5 L190.0,407.6 L190.2,407.6 L190.5,407.6 L190.7,407.6 
		L190.9,407.6 L191.1,407.6 L191.3,407.6 L191.5,407.6 L191.7,407.6 L191.9,407.6 L192.1,407.6 L192.3,407.6 
		L192.5,407.6 L192.8,407.9 L193.0,407.9 L193.2,407.9 L193.4,407.9 L193.6,407.9 L193.8,408.0 L194.0,408.0 
		L194.2,408.0 L194.4,408.0 L194.6,407.9 L194.8,407.9 L195.1,407.9 L195.3,407.9 L195.5,407.9 L195.7,407.9 
		L195.9,407.9 L196.1,407.9 L196.3,407.9 L196.5,407.9 L196.7,407.9 L196.9,407.9 L197.2,407.9 L197.4,407.9 
		L197.6,408.1 L197.8,408.1 L198.0,408.1 L198.2,408.1 L198.4,408.1 L198.6,408.1 L198.8,408.1 L199.0,408.1 
		L199.2,408.1 L199.5,408.3 L199.7,408.2 L199.9,408.2 L200.1,408.2 L200.3,408.2 L200.5,408.2 L200.7,408.2 
		L200.9,408.2 L201.1,408.2 L201.3,408.3 L201.5,408.3 L201.8,408.3 L202.0,408.3 L202.2,408.3 L202.4,408.3 
		L202.6,408.3 L202.8,408.3 L203.0,408.3 L203.2,408.3 L203.4,408.3 L203.6,408.3 L203.9,408.3 L204.1,408.3 
		L204.3,408.3 L204.5,408.3 L204.7,408.3 L204.9,408.3 L205.1,408.3 L205.3,408.3 L205.5,408.7 L205.7,408.7 
		L205.9,408.7 L206.2,408.7 L206.4,408.7 L206.6,408.7 L206.8,408.7 L207.0,408.7 L207.2,408.7 L207.4,408.7 
		L207.6,408.7 L207.8,408.8 L208.0,408.7 L208.2,408.6 L208.5,408.7 L208.7,408.7 L208.9,408.6 L209.1,408.6 
		L209.3,408.6 L209.5,408.5 L209.7,408.5 L209.9,408.5 L210.1,408.5 L210.3,408.5 L210.6,408.5 L210.8,408.4 
		L211.0,408.4 L211.2,408.4 L211.4,408.4 L211.6,408.4 L211.8,408.5 L212.0,408.4 L212.2,408.4 L212.4,408.4 
		L212.6,408.5 L212.9,408.5 L213.1,408.4 L213.3,408.4 L213.5,408.4 L213.7,408.4 L213.9,408.4 L214.1,408.5 
		L214.3,408.5 L214.5,408.5 L214.7,408.5 L214.9,408.5 L215.2,408.5 L215.4,408.5 L215.6,408.5 L215.8,408.5 
		L216.0,408.7 L216.2,408.7 L216.4,408.7 L216.6,408.7 L216.8,408.7 L217.0,408.8 L217.3,408.8 L217.5,408.8 
		L217.7,408.8 L217.9,408.8 L218.1,408.8 L218.3,408.8 L218.5,408.8 L218.7,408.9 L218.9,408.9 L219.1,408.9 
		L219.3,408.9 L219.6,408.9 L219.8,408.9 L220.0,408.9 L220.2,408.8 L220.4,408.8 L220.6,408.8 L220.8,408.6 
		L221.0,408.6 L221.2,408.6 L221.4,408.6 L221.6,408.6 L221.9,408.6 L222.1,408.6 L222.3,408.6 L222.5,408.6 
		L222.7,408.7 L222.9,408.7 L223.1,408.7 L223.3,408.7 L223.5,408.7 L223.7,408.7 L223.9,408.7 L224.2,408.7 
		L224.4,408.7 L224.6,408.7 L224.8,408.7 L225.0,408.8 L225.2,408.8 L225.4,408.8 L225.6,408.8 L225.8,408.8 
		L226.0,408.8 L226.3,408.8 L226.5,408.8 L226.7,408.8 L226.9,408.8 L227.1,408.8 L227.3,408.8 L227.5,408.8 
		L227.7,408.8 L227.9,408.8 L228.1,408.8 L228.3,408.8 L228.6,408.8 L228.8,408.8 L229.0,408.8 L229.2,408.8 
		L229.4,409.1 L229.6,409.1 L229.8,409.1 L230.0,409.1 L230.2,409.1 L230.4,409.1 L230.6,409.1 L230.9,409.1 
		L231.1,409.1 L231.3,409.1 L231.5,409.1 L231.7,409.2 L231.9,409.1 L232.1,409.1 L232.3,409.1 L232.5,409.1 
		L232.7,409.1 L233.0,409.2 L233.2,409.2 L233.4,409.2 L233.6,409.1 L233.8,409.1 L234.0,409.1 L234.2,409.1 
		L234.4,409.1 L234.6,409.1 L234.8,409.1 L235.0,409.1 L235.3,409.1 L235.5,409.1 L235.7,409.1 L235.9,409.1 
		L236.1,409.1 L236.3,409.1 L236.5,409.1 L236.7,409.2 L236.9,409.2 L237.1,409.2 L237.3,409.1 L237.6,409.1 
		L237.8,409.1 L238.0,409.1 L238.2,409.1 L238.4,409.1 L238.6,409.1 L238.8,409.1 L239.0,409.1 L239.2,409.1 
		L239.4,409.1 L239.7,409.3 L239.9,409.3 L240.1,409.3 L240.3,409.3 L240.5,409.3 L240.7,409.3 L240.9,409.3 
		L241.1,409.4 L241.3,409.3 L241.5,409.2 L241.7,409.1 L242.0,409.1 L242.2,409.1 L242.4,409.1 L242.6,409.1 
		L242.8,409.1 L243.0,409.1 L243.2,409.1 L243.4,409.2 L243.6,409.2 L243.8,409.2 L244.0,409.2 L244.3,409.3 
		L244.5,409.3 L244.7,409.3 L244.9,409.3 L245.1,409.3 L245.3,409.2 L245.5,409.1 L245.7,409.1 L245.9,409.1 
		L246.1,409.1 L246.3,409.1 L246.6,409.1 L246.8,409.0 L247.0,409.0 L247.2,408.9 L247.4,408.9 L247.6,408.9 
		L247.8,408.9 L248.0,408.9 L248.2,408.9 L248.4,408.9 L248.6,408.9 L248.9,408.9 L249.1,408.9 L249.3,408.8 
		L249.5,408.8 L249.7,408.8 L249.9,408.8 L250.1,408.8 L250.3,408.8 L250.5,408.6 L250.7,408.6 L251.0,408.6 
		L251.2,408.7 L251.4,408.7 L251.6,408.7 L251.8,408.7 L252.0,408.7 L252.2,408.7 L252.4,408.7 L252.6,408.7 
		L252.8,408.7 L253.0,408.8 L253.3,408.8 L253.5,408.8 L253.7,408.8 L253.9,408.8 L254.1,408.8 L254.3,408.8 
		L254.5,408.8 L254.7,408.8 L254.9,408.9 L255.1,408.9 L255.3,408.9 L255.6,408.9 L255.8,408.9 L256.0,408.9 
		L256.2,408.9 L256.4,408.9 L256.6,408.9 L256.8,408.9 L257.0,408.9 L257.2,408.9 L257.4,408.9 L257.7,408.9 
		L257.9,408.9 L258.1,408.9 L258.3,408.9 L258.5,409.1 L258.7,409.2 L258.9,409.1 L259.1,409.1 L259.3,409.1 
		L259.5,409.1 L259.7,409.1 L260.0,409.1 L260.2,409.1 L260.4,409.1 L260.6,409.1 L260.8,409.2 L261.0,409.2 
		L261.2,409.2 L261.4,409.2 L261.6,409.2 L261.8,409.2 L262.0,409.2 L262.3,409.2 L262.5,409.3 L262.7,409.3 
		L262.9,409.3 L263.1,409.3 L263.3,409.3 L263.5,409.3 L263.7,409.3 L263.9,409.3 L264.1,409.3 L264.3,409.3 
		L264.6,409.3 L264.8,409.2 L265.0,409.2 L265.2,409.2 L265.4,409.2 L265.6,409.2 L265.8,409.2 L266.0,409.2 
		L266.2,409.2 L266.4,409.2 L266.7,409.2 L266.9,409.2 L267.1,409.2 L267.3,409.2 L267.5,409.2 L267.7,409.2 
		L267.9,409.2 L268.1,409.2 L268.3,409.3 L268.5,409.3 L268.7,409.4 L269.0,409.3 L269.2,409.3 L269.4,409.3 
		L269.6,409.1 L269.8,409.1 L270.0,409.1 L270.2,409.1 L270.4,409.1 L270.6,409.1 L270.8,409.1 L271.0,409.1 
		L271.3,409.1 L271.5,409.1 L271.7,409.1 L271.9,409.1 L272.1,409.1 L272.3,409.1 L272.5,409.1 L272.7,409.1 
		L272.9,409.1 L273.1,409.1 L273.4,409.0 L273.6,409.0 L273.8,409.1 L274.0,409.1 L274.2,409.1 L274.4,409.1 
		L274.6,409.1 L274.8,409.1 L275.0,409.1 L275.2,409.1 L275.4,409.1 L275.7,409.1 L275.9,409.1 L276.1,409.1 
		L276.3,409.1 L276.5,409.1 L276.7,409.1 L276.9,409.1 L277.1,409.1 L277.3,409.1 L277.5,409.1 L277.7,409.1 
		L278.0,409.1 L278.2,409.1 L278.4,409.1 L278.6,409.1 L278.8,409.2 L279.0,409.2 L279.2,409.2 L279.4,409.2 
		L279.6,409.2 L279.8,409.2 L280.1,409.2 L280.3,409.2 L280.5,409.2 L280.7,409.2 L280.9,409.3 L281.1,409.2 
		L281.3,409.2 L281.5,409.2 L281.7,409.2 L281.9,409.2 L282.1,409.2 L282.4,409.2 L282.6,409.2 L282.8,409.2 
		L283.0,409.1 L283.2,409.1 L283.4,409.1 L283.6,409.1 L283.8,409.1 L284.0,409.1 L284.2,409.1 L284.4,409.1 
		L284.7,409.1 L284.9,409.1 L285.1,409.1 L285.3,409.1 L285.5,409.1 L285.7,409.1 L285.9,409.1 L286.1,409.1 
		L286.3,409.1 L286.5,409.1 L286.8,409.0 L287.0,409.0 L287.2,409.0 L287.4,408.9 L287.6,408.9 L287.8,408.9 
		L288.0,408.9 L288.2,409.0 L288.4,408.9 L288.6,408.9 L288.8,408.9 L289.1,408.9 L289.3,408.9 L289.5,408.9 
		L289.7,408.9 L289.9,408.9 L290.1,408.9 L290.3,408.9 L290.5,408.9 L290.7,408.9 L290.9,408.9 L291.1,408.9 
		L291.4,409.0 L291.6,409.0 L291.8,409.0 L292.0,409.0 L292.2,409.0 L292.4,409.0 L292.6,409.0 L292.8,409.0 
		L293.0,409.0 L293.2,409.0 L293.4,409.0 L293.7,409.0 L293.9,409.1 L294.1,409.1 L294.3,409.1 L294.5,409.1 
		L294.7,409.1 L294.9,409.0 L295.1,408.9 L295.3,408.9 L295.5,408.9 L295.8,408.9 L296.0,408.9 L296.2,409.0 
		L296.4,409.0 L296.6,409.0 L296.8,409.0 L297.0,409.0 L297.2,409.0 L297.4,409.0 L297.6,409.0 L297.8,409.0 
		L298.1,409.0 L298.3,409.0 L298.5,409.1 L298.7,409.1 L298.9,409.1 L299.1,409.1 L299.3,409.1 L299.5,409.1 
		L299.7,409.1 L299.9,409.1 L300.1,409.1 L300.4,409.1 L300.6,409.1 L300.8,409.1 L301.0,409.1 L301.2,409.1 
		L301.4,409.1 L301.6,409.1 L301.8,409.1 L302.0,409.1 L302.2,409.1 L302.5,409.1 L302.7,409.1 L302.9,409.1 
		L303.1,409.1 L303.3,409.1 L303.5,409.1 L303.7,409.1 L303.9,409.1 L304.1,409.1 L304.3,409.1 L304.5,409.1 
		L304.8,409.1 L305.0,409.1 L305.2,409.1 L305.4,409.1 L305.6,409.1 L305.8,409.1 L306.0,409.1 L306.2,409.1 
		L306.4,409.1 L306.6,409.3 L306.8,409.3 L307.1,409.3 L307.3,409.3 L307.5,409.3 L307.7,409.3 L307.9,409.3 
		L308.1,409.3 L308.3,409.3 L308.5,409.3 L308.7,409.2 L308.9,409.2 L309.2,409.2 L309.4,409.2 L309.6,409.2 
		L309.8,409.2 L310.0,409.2 L310.2,409.2 L310.4,409.2 L310.6,409.2 L310.8,409.2 L311.0,409.2 L311.2,409.2 
		L311.5,409.2 L311.7,409.2 L311.9,409.2 L312.1,409.2 L312.3,409.2 L312.5,409.2 L312.7,409.2 L312.9,409.2 
		L313.1,409.4 L313.3,409.3 L313.5,409.3 L313.8,409.3 L314.0,409.3 L314.2,409.3 L314.4,409.3 L314.6,409.3 
		L314.8,409.3 L315.0,409.3 L315.2,409.3 L315.4,409.3 L315.6,409.3 L315.8,409.3 L316.1,409.3 L316.3,409.3 
		L316.5,409.3 L316.7,409.3 L316.9,409.3 L317.1,409.3 L317.3,409.3 L317.5,409.3 L317.7,409.3 L317.9,409.3 
		L318.2,409.3 L318.4,409.3 L318.6,409.3 L318.8,409.3 L319.0,409.3 L319.2,409.3 L319.4,409.3 L319.6,409.3 
		L319.8,409.3 L320.0,409.3 L320.2,409.3 L320.5,409.3 L320.7,409.3 L320.9,409.6 L321.1,409.6 L321.3,409.6 
		L321.5,409.6 L321.7,409.6 L321.9,409.6 L322.1,409.6 L322.3,409.6 L322.5,409.6 L322.8,409.6 L323.0,409.6 
		L323.2,409.6 L323.4,409.6 L323.6,409.6 L323.8,409.6 L324.0,409.6 L324.2,409.6 L324.4,409.7 L324.6,409.6 
		L324.9,409.5 L325.1,409.5 L325.3,409.5 L325.5,409.5 L325.7,409.5 L325.9,409.5 L326.1,409.5 L326.3,409.5 
		L326.5,409.5 L326.7,409.5 L326.9,409.5 L327.2,409.5 L327.4,409.5 L327.6,409.5 L327.8,409.5 L328.0,409.5 
		L328.2,409.5 L328.4,409.5 L328.6,409.5 L328.8,409.5 L329.0,409.5 L329.2,409.7 L329.5,409.6 L329.7,409.6 
		L329.9,409.7 L330.1,409.6 L330.3,409.6 L330.5,409.6 L330.7,409.6 L330.9,409.6 L331.1,409.6 L331.3,409.6 
		L331.6,409.6 L331.8,409.6 L332.0,409.6 L332.2,409.6 L332.4,409.6 L332.6,409.6 L332.8,409.6 L333.0,409.6 
		L333.2,409.6 L333.4,409.6 L333.6,409.6 L333.9,409.6 L334.1,409.7 L334.3,409.6 L334.5,409.6 L334.7,409.6 
		L334.9,409.6 L335.1,409.6 L335.3,409.6 L335.5,409.6 L335.7,409.6 L335.9,409.6 L336.2,409.6 L336.4,409.6 
		L336.6,409.6 L336.8,409.6 L337.0,409.6 L337.2,409.6 L337.4,409.6 L337.6,409.6 L337.8,409.6 L338.0,409.6 
		L338.3,409.6 L338.5,409.6 L338.7,409.7 L338.9,409.7 L339.1,409.7 L339.3,409.7 L339.5,409.7 L339.7,409.7 
		L339.9,409.7 L340.1,409.7 L340.3,409.7 L340.6,409.7 L340.8,409.7 L341.0,409.7 L341.2,409.7 L341.4,409.7 
		L341.6,409.7 L341.8,409.7 L342.0,409.7 L342.2,409.8 L342.4,409.8 L342.6,409.8 L342.9,409.8 L343.1,409.8 
		L343.3,409.8 L343.5,409.8 L343.7,409.8 L343.9,409.8 L344.1,409.8 L344.3,409.8 L344.5,409.8 L344.7,409.8 
		L344.9,409.8 L345.2,409.8 L345.4,409.8 L345.6,409.8 L345.8,409.8 L346.0,409.8 L346.2,409.8 L346.4,409.8 
		L346.6,409.8 L346.8,409.8 L347.0,410.0 L347.3,410.0 L347.5,410.0 L347.7,410.0 L347.9,410.0 L348.1,410.0 
		L348.3,410.0 L348.5,410.0 L348.7,409.9 L348.9,409.9 L349.1,409.9 L349.3,409.9 L349.6,409.9 L349.8,409.9 
		L350.0,409.9 L350.2,409.9 L350.4,409.9 L350.6,409.9 L350.8,410.0 L351.0,410.0 L351.2,409.9 L351.4,409.9 
		L351.6,409.9 L351.9,409.9 L352.1,409.9 L352.3,409.9 L352.5,409.9 L352.7,409.9 L352.9,409.9 L353.1,409.9 
		L353.3,409.9 L353.5,409.9 L353.7,409.9 L354.0,409.9 L354.2,409.9 L354.4,409.9 L354.6,409.9 L354.8,409.9 
		L355.0,409.9 L355.2,409.9 L355.4,409.9 L355.6,409.9 L355.8,409.9 L356.0,409.9 L356.3,409.9 L356.5,409.8 
		L356.7,409.8 L356.9,409.8 L357.1,409.8 L357.3,409.8 L357.5,409.8 L357.7,409.8 L357.9,409.8 L358.1,409.9 
		L358.3,409.9 L358.6,409.9 L358.8,409.9 L359.0,409.9 L359.2,410.0 L359.4,409.9 L359.6,409.9 L359.8,409.9 
		L360.0,409.9 L360.2,409.9 L360.4,409.9 L360.7,409.9 L360.9,409.9 L361.1,409.9 L361.3,409.9 L361.5,409.9 
		L361.7,409.9 L361.9,410.0 L362.1,410.0 L362.3,410.0 L362.5,410.0 L362.7,410.0 L363.0,409.9 L363.2,409.9 
		L363.4,409.9 L363.6,409.9 L363.8,409.9 L364.0,409.9 L364.2,409.9 L364.4,409.9 L364.6,409.9 L364.8,409.9 
		L365.0,409.9 L365.3,409.9 L365.5,409.9 L365.7,409.9 L365.9,409.9 L366.1,409.9 L366.3,409.9 L366.5,409.9 
		L366.7,409.9 L366.9,409.9 L367.1,409.9 L367.4,410.1 L367.6,410.1 L367.8,410.1 L368.0,410.1 L368.2,410.1 
		L368.4,410.1 L368.6,410.1 L368.8,410.1 L369.0,410.2 L369.2,410.1 L369.4,410.1 L369.7,410.1 L369.9,410.1 
		L370.1,410.1 L370.3,410.1 L370.5,410.1 L370.7,410.1 L370.9,410.1 L371.1,410.1 L371.3,410.1 L371.5,410.1 
		L371.7,410.1 L372.0,410.1 L372.2,410.2 L372.4,410.2 L372.6,410.2 L372.8,410.2 L373.0,410.1 L373.2,410.1 
		L373.4,410.1 L373.6,410.1 L373.8,410.1 L374.0,410.1 L374.3,410.1 L374.5,410.1 L374.7,410.1 L374.9,410.1 
		L375.1,410.1 L375.3,410.1 L375.5,410.1 L375.7,410.1 L375.9,410.1 L376.1,410.1 L376.4,410.1 L376.6,410.1 
		L376.8,410.1 L377.0,410.1 L377.2,410.1 L377.4,410.1 L377.6,410.1 L377.8,410.1 L378.0,410.1 L378.2,410.1 
		L378.4,410.1 L378.7,410.1 L378.9,410.1 L379.1,410.1 L379.3,410.1 L379.5,410.1 L379.7,410.1 L379.9,410.1 
		L380.1,410.2 L380.3,410.2 L380.5,410.1 L380.7,410.1 L381.0,410.1 L381.2,410.1 L381.4,410.1 L381.6,410.2 
		L381.8,410.0 L382.0,410.0 L382.2,410.0 L382.4,410.0 L382.6,410.0 L382.8,410.0 L383.1,410.0 L383.3,410.0 
		L383.5,410.0 L383.7,410.1 L383.9,410.1 L384.1,410.1 L384.3,410.0 L384.5,410.0 L384.7,410.0 L384.9,410.0 
		L385.1,410.0 L385.4,410.0 L385.6,410.0 L385.8,410.1 L386.0,410.1 L386.2,410.0 L386.4,410.0 L386.6,410.0 
		L386.8,410.0 L387.0,410.0 L387.2,410.0 L387.4,410.0 L387.7,410.0 L387.9,410.0 L388.1,410.0 L388.3,410.0 
		L388.5,410.0 L388.7,410.0 L388.9,410.0 L389.1,409.9 L389.3,409.9 L389.5,409.9 L389.8,409.9 L390.0,409.9 
		L390.2,409.9 L390.4,409.9 L390.6,409.9 L390.8,409.9 L391.0,409.9 L391.2,409.9 L391.4,409.9 L391.6,409.9 
		L391.8,409.9 L392.1,409.9 L392.3,409.9 L392.5,409.9 L392.7,409.9 L392.9,409.9 L393.1,409.9 L393.3,409.9 
		L393.5,409.9 L393.7,409.9 L393.9,409.9 L394.1,409.9 L394.4,409.9 L394.6,409.9 L394.8,409.9 L395.0,409.9 
		L395.2,409.9 L395.4,409.9 L395.6,409.9 L395.8,409.9 L396.0,409.9 L396.2,409.9 L396.4,409.9 L396.7,409.9 
		L396.9,409.9 L397.1,409.9 L397.3,409.9 L397.5,409.9 L397.7,409.9 L397.9,409.9 L398.1,409.9 L398.3,409.9 
		L398.5,409.9 L398.8,409.9 L399.0,409.9 L399.2,409.9 L399.4,409.9 L399.6,409.9 L399.8,409.9 L400.0,409.9 
		L400.2,409.9 L400.4,409.9 L400.6,409.9 L400.8,409.9 L401.1,409.9 L401.3,409.9 L401.5,409.9 L401.7,409.9 
		L401.9,409.9 L402.1,409.9 L402.3,409.9 L402.5,409.9 L402.7,409.9 L402.9,409.9 L403.1,409.9 L403.4,409.9 
		L403.6,410.0 L403.8,409.9 L404.0,409.9 L404.2,409.9 L404.4,409.9 L404.6,409.9 L404.8,409.9 L405.0,409.9 
		L405.2,409.9 L405.5,409.9 L405.7,409.9 L405.9,410.0 L406.1,409.9 L406.3,409.9 L406.5,409.9 L406.7,409.9 
		L406.9,409.9 L407.1,409.9 L407.3,409.9 L407.5,409.9 L407.8,409.9 L408.0,409.9 L408.2,409.9 L408.4,409.9 
		L408.6,409.9 L408.8,409.9 L409.0,409.9 L409.2,409.9 L409.4,410.0 L409.6,410.0 L409.8,410.0 L410.1,410.0 
		L410.3,410.0 L410.5,410.0 L410.7,410.0 L410.9,410.0 L411.1,410.0 L411.3,410.1 L411.5,410.0 L411.7,410.0 
		L411.9,410.0 L412.2,410.0 L412.4,410.0 L412.6,410.1 L412.8,410.1 L413.0,410.1 L413.2,410.1 L413.4,410.1 
		L413.6,410.1 L413.8,410.1 L414.0,410.1 L414.2,410.1 L414.5,410.1 L414.7,410.1 L414.9,410.1 L415.1,410.1 
		L415.3,410.1 L415.5,410.1 L415.7,410.1 L415.9,410.1 L416.1,410.1 L416.3,410.1 L416.5,410.1 L416.8,410.1 
		L417.0,410.1 L417.2,410.2 L417.4,410.2 L417.6,410.2 L417.8,410.2 L418.0,410.2 L418.2,410.2 L418.4,410.2 
		L418.6,410.2 L418.9,410.2 L419.1,410.2 L419.3,410.2 L419.5,410.2 L419.7,410.2 L419.9,410.2 L420.1,410.2 
		L420.3,410.2 L420.5,410.2 L420.7,410.2 L420.9,410.2 L421.2,410.2 L421.4,410.2 L421.6,410.2 L421.8,410.2 
		L422.0,410.2 L422.2,410.2 L422.4,410.2 L422.6,410.2 L422.8,410.2 L423.0,410.2 L423.2,410.2 L423.5,410.2 
		L423.7,410.2 L423.9,410.2 L424.1,410.2 L424.3,410.2 L424.5,410.2 L424.7,410.2 L424.9,410.2 L425.1,410.2 
		L425.3,410.2 L425.5,410.2 L425.8,410.2 L426.0,410.2 L426.2,410.2 L426.4,410.2 L426.6,410.2 L426.8,410.1 
		L427.0,410.1 L427.2,410.1 L427.4,410.1 L427.6,410.1 L427.9,410.1 L428.1,410.1 L428.3,410.1 L428.5,410.1 
		L428.7,410.1 L428.9,410.1 L429.1,410.1 L429.3,410.1 L429.5,410.1 L429.7,410.1 L429.9,410.1 L430.2,410.1 
		L430.4,410.1 L430.6,410.1 L430.8,410.1 L431.0,410.1 L431.2,410.1 L431.4,410.1 L431.6,410.1 L431.8,410.1 
		L432.0,410.1 L432.2,410.1 L432.5,410.1 L432.7,410.1 L432.9,410.1 L433.1,410.1 L433.3,410.1 L433.5,410.1 
		L433.7,410.1 L433.9,410.1 L434.1,410.1 L434.3,410.1 L434.6,410.2 L434.8,410.2 L435.0,410.1 L435.2,410.1 
		L435.4,410.1 L435.6,410.1 L435.8,410.1 L436.0,410.1 L436.2,410.1 L436.4,410.1 L436.6,410.1 L436.9,410.1 
		L437.1,410.1 L437.3,410.1 L437.5,410.1 L437.7,410.2 L437.9,410.2 L438.1,410.2 L438.3,410.2 L438.5,410.2 
		L438.7,410.1 L438.9,410.1 L439.2,410.1 L439.4,410.1 L439.6,410.1 L439.8,410.2 L440.0,410.1 L440.2,410.1 
		L440.4,410.1 L440.6,410.1 L440.8,410.1 L441.0,410.1 L441.3,410.1 L441.5,410.1 L441.7,410.1 L441.9,410.2 
		L442.1,410.1 L442.3,410.1 L442.5,410.1 L442.7,410.1 L442.9,410.1 L443.1,410.1 L443.3,410.1 L443.6,410.1 
		L443.8,410.1 L444.0,410.1 L444.2,410.1 L444.4,410.1 L444.6,410.2 L444.8,410.2 L445.0,410.2 L445.2,410.2 
		L445.4,410.2 L445.6,410.2 L445.9,410.2 L446.1,410.2 L446.3,410.0 L446.5,410.0 L446.7,410.0 L446.9,410.0 
		L447.1,410.0 L447.3,410.1 L447.5,410.1 L447.7,410.1 L447.9,410.1 L448.2,410.1 L448.4,410.1 L448.6,410.1 
		L448.8,410.1 L449.0,410.0 L449.2,410.0 L449.4,410.0 L449.6,410.0 L449.8,410.0 L450.0,410.0 L450.3,410.0 
		L450.5,410.0 L450.7,410.0 L450.9,410.0 L451.1,410.0 L451.3,410.0 L451.5,410.0 L451.7,410.0 L451.9,410.0 
		L452.1,410.0 L452.3,410.1 L452.6,410.1 L452.8,410.1 L453.0,410.1 L453.2,410.1 L453.4,410.1 L453.6,410.1 
		L453.8,410.1 L454.0,410.1 L454.2,410.1 L454.4,410.1 L454.6,410.1 L454.9,410.1 L455.1,410.1 L455.3,410.1 
		L455.5,410.1 L455.7,410.1 L455.9,410.1 L456.1,410.1 L456.3,410.1 L456.5,410.1 L456.7,410.1 L457.0,410.1 
		L457.2,410.1 L457.4,410.1 L457.6,410.1 L457.8,410.1 L458.0,410.1 L458.2,410.1 L458.4,410.1 L458.6,410.1 
		L458.8,410.1 L459.0,410.1 L459.3,410.1 L459.5,410.1 L459.7,410.1 L459.9,410.1 L460.1,410.1 L460.3,410.1 
		L460.5,410.1 L460.7,410.1 L460.9,410.1 L461.1,410.1 L461.3,410.1 L461.6,410.1 L461.8,410.1 L462.0,410.1 
		L462.2,410.1 L462.4,410.1 L462.6,410.1 L462.8,410.1 L463.0,410.1 L463.2,410.2 L463.4,410.2 L463.7,410.2 
		L463.9,410.2 L464.1,410.2 L464.3,410.2 L464.5,410.2 L464.7,410.2 L464.9,410.2 L465.1,410.2 L465.3,410.2 
		L465.5,410.2 L465.7,410.2 L466.0,410.2 L466.2,410.2 L466.4,410.2 L466.6,410.2 L466.8,410.2 L467.0,410.2 
		L467.2,410.2 L467.4,410.2 L467.6,410.2 L467.8,410.2 L468.0,410.2 L468.3,410.2 L468.5,410.2 L468.7,410.2 
		L468.9,410.2 L469.1,410.2 L469.3,410.2 L469.5,410.2 L469.7,410.2 L469.9,410.2 L470.1,410.2 L470.4,410.2 
		L470.6,410.2 L470.8,410.2 L471.0,410.3 L471.2,410.3 L471.4,410.3 L471.6,410.3 L471.8,410.3 L472.0,410.3 
		L472.2,410.3 L472.4,410.3 L472.7,410.3 L472.9,410.3 L473.1,410.3 L473.3,410.3 L473.5,410.3 L473.7,410.3 
		L473.9,410.3 L474.1,410.3 L474.3,410.3 L474.5,410.3 L474.7,410.3 L475.0,410.3 L475.2,410.3 L475.4,410.3 
		L475.6,410.3 L475.8,410.3 L476.0,410.3 L476.2,410.3 L476.4,410.3 L476.6,410.3 L476.8,410.3 L477.0,410.3 
		L477.3,410.3 L477.5,410.3 L477.7,410.3 L477.9,410.3 L478.1,410.3 L478.3,410.3 L478.5,410.3 L478.7,410.3 
		L478.9,410.3 L479.1,410.3 L479.4,410.3 L479.6,410.3 L479.8,410.3 L480.0,410.3 L480.2,410.4 L480.4,410.4 
		L480.6,410.4 L480.8,410.4 L481.0,410.4 L481.2,410.4 L481.4,410.4 L481.7,410.4 L481.9,410.4 L482.1,410.4 
		L482.3,410.4 L482.5,410.4 L482.7,410.4 L482.9,410.4 L483.1,410.4 L483.3,410.4 L483.5,410.4 L483.7,410.4 
		L484.0,410.4 L484.2,410.4 L484.4,410.5 L484.6,410.5 L484.8,410.5 L485.0,410.5 L485.2,410.5 L485.4,410.5 
		L485.6,410.5 L485.8,410.5 L486.1,410.4 L486.3,410.4 L486.5,410.4 L486.7,410.3 L486.9,410.3 L487.1,410.4 
		L487.3,410.4 L487.5,410.4 L487.7,410.4 L487.9,410.3 L488.1,410.3 L488.4,410.3 L488.6,410.4 L488.8,410.4 
		L489.0,410.4 L489.2,410.4 L489.4,410.4 L489.6,410.4 L489.8,410.4 L490.0,410.4 L490.2,410.4 L490.4,410.4 
		L490.7,410.3 L490.9,410.3 L491.1,410.3 L491.3,410.3 L491.5,410.3 L491.7,410.4 L491.9,410.4 L492.1,410.4 
		L492.3,410.4 L492.5,410.4 L492.8,410.4 L493.0,410.4 L493.2,410.4 L493.4,410.4 L493.6,410.4 L493.8,410.4 
		L494.0,410.4 L494.2,410.4 L494.4,410.4 L494.6,410.4 L494.8,410.4 L495.1,410.4 L495.3,410.4 L495.5,410.4 
		L495.7,410.4 L495.9,410.4 L496.1,410.4 L496.3,410.4 L496.5,410.4 L496.7,410.4 L496.9,410.4 L497.1,410.4 
		L497.4,410.4 L497.6,410.4 L497.8,410.4 L498.0,410.4 L498.2,410.4 L498.4,410.4 L498.6,410.4 L498.8,410.4 
		L499.0,410.4 L499.2,410.4 L499.4,410.4 L499.7,410.4 L499.9,410.4 L500.1,410.4 L500.3,410.4 L500.5,410.4 
		L500.7,410.4 L500.9,410.4 L501.1,410.4 L501.3,410.4 L501.5,410.4 L501.8,410.4 L502.0,410.4 L502.2,410.4 
		L502.4,410.4 L502.6,410.4 L502.8,410.4 L503.0,410.4 L503.2,410.4 L503.4,410.4 L503.6,410.4 L503.8,410.4 
		L504.1,410.4 L504.3,410.4 L504.5,410.4 L504.7,410.4 L504.9,410.4 L505.1,410.4 L505.3,410.4 L505.5,410.4 
		L505.7,410.4 L505.9,410.4 L506.1,410.4 L506.4,410.4 L506.6,410.4 L506.8,410.4 L507.0,410.4 L507.2,410.4 
		 h0.01'/></g>
	</g>
	<g id="gnuplot_plot_3" ><title>gnuplot_plot_3</title>
<g style="fill:none; color:blue; stroke:currentColor; stroke-width:1.00; stroke-linecap:butt; stroke-linejoin:miter">
	<g transform="translate(440.1,408.9)" style="stroke:none; fill:black; font-family:Arial; font-size:12.00pt; text-anchor:end">
		<text>TCP UL Delay</text>
	</g>
	<path  d='M448.4,404.4 L490.6,404.4 M88.5,400.6 L88.7,404.1 L88.9,394.7 L89.1,404.3 L89.3,403.4 L89.6,402.7 
		L89.8,394.8 L90.0,394.8 L90.2,378.0 L90.4,379.2 L90.6,375.6 L90.8,369.2 L91.0,367.0 L91.2,367.0 
		L91.5,367.0 L91.7,367.0 L91.9,367.0 L92.1,367.0 L92.3,367.0 L92.5,358.1 L92.7,358.1 L92.9,358.1 
		L93.1,338.5 L93.3,338.5 L93.6,338.5 L93.8,338.5 L94.0,338.5 L94.2,338.5 L94.4,338.5 L94.6,334.2 
		L94.8,235.8 L95.0,235.8 L95.2,217.3 L95.5,217.3 L95.7,188.7 L95.9,155.8 L96.1,155.8 L96.3,155.8 
		L96.5,155.8 L96.7,155.8 L96.9,155.8 L97.1,148.0 L97.3,74.9 L97.6,74.2 L97.8,74.2 L98.0,74.2 
		L98.2,74.2 L98.4,72.2 L98.6,72.2 L98.8,71.5 L99.0,64.0 L99.2,64.0 L99.5,64.0 L99.7,64.0 
		L99.9,64.0 L100.1,55.5 L100.3,72.4 L100.5,72.4 L100.7,72.4 L100.9,74.5 L101.1,74.5 L101.3,74.5 
		L101.6,74.5 L101.8,74.5 L102.0,75.0 L102.2,75.0 L102.4,74.5 L102.6,85.7 L102.8,87.7 L103.0,87.7 
		L103.2,87.7 L103.5,87.7 L103.7,87.7 L103.9,87.9 L104.1,115.8 L104.3,122.6 L104.5,122.6 L104.7,122.6 
		L104.9,122.6 L105.1,122.6 L105.3,122.6 L105.6,123.5 L105.8,123.5 L106.0,123.5 L106.2,123.5 L106.4,123.3 
		L106.6,126.8 L106.8,131.5 L107.0,131.5 L107.2,131.5 L107.5,135.0 L107.7,135.0 L107.9,135.8 L108.1,136.5 
		L108.3,139.0 L108.5,139.4 L108.7,139.4 L108.9,139.4 L109.1,139.4 L109.4,139.4 L109.6,139.4 L109.8,139.4 
		L110.0,139.5 L110.2,141.1 L110.4,146.0 L110.6,146.0 L110.8,146.0 L111.0,146.0 L111.2,146.0 L111.5,146.0 
		L111.7,146.0 L111.9,146.0 L112.1,146.0 L112.3,146.0 L112.5,146.0 L112.7,146.0 L112.9,147.5 L113.1,147.8 
		L113.4,152.3 L113.6,152.3 L113.8,152.3 L114.0,152.3 L114.2,152.3 L114.4,153.4 L114.6,154.9 L114.8,154.9 
		L115.0,154.9 L115.2,154.9 L115.5,154.9 L115.7,154.9 L115.9,154.9 L116.1,154.9 L116.3,154.9 L116.5,154.9 
		L116.7,154.9 L116.9,154.9 L117.1,154.9 L117.4,153.0 L117.6,153.0 L117.8,153.0 L118.0,153.0 L118.2,153.0 
		L118.4,150.5 L118.6,150.5 L118.8,150.5 L119.0,150.5 L119.2,150.5 L119.5,150.5 L119.7,152.9 L119.9,154.5 
		L120.1,158.0 L120.3,161.3 L120.5,161.3 L120.7,161.5 L120.9,167.0 L121.1,167.0 L121.4,167.0 L121.6,167.0 
		L121.8,167.0 L122.0,167.0 L122.2,167.0 L122.4,167.0 L122.6,167.0 L122.8,167.0 L123.0,167.0 L123.3,166.8 
		L123.5,164.8 L123.7,164.8 L123.9,164.8 L124.1,164.8 L124.3,163.1 L124.5,163.3 L124.7,167.2 L124.9,167.2 
		L125.1,167.2 L125.4,167.2 L125.6,167.2 L125.8,167.2 L126.0,167.2 L126.2,167.1 L126.4,168.6 L126.6,168.6 
		L126.8,171.3 L127.0,171.3 L127.3,171.3 L127.5,171.3 L127.7,174.0 L127.9,175.6 L128.1,175.6 L128.3,175.6 
		L128.5,176.2 L128.7,176.2 L128.9,176.2 L129.2,176.2 L129.4,176.4 L129.6,177.7 L129.8,177.7 L130.0,177.7 
		L130.2,178.8 L130.4,180.4 L130.6,180.4 L130.8,180.4 L131.0,180.4 L131.3,180.4 L131.5,183.7 L131.7,184.7 
		L131.9,184.7 L132.1,184.7 L132.3,184.7 L132.5,188.0 L132.7,188.0 L132.9,188.0 L133.2,188.0 L133.4,188.0 
		L133.6,188.0 L133.8,188.0 L134.0,188.0 L134.2,188.0 L134.4,188.0 L134.6,188.0 L134.8,188.0 L135.0,188.0 
		L135.3,188.0 L135.5,188.0 L135.7,188.0 L135.9,188.0 L136.1,188.0 L136.3,188.0 L136.5,188.0 L136.7,187.0 
		L136.9,182.8 L137.2,182.8 L137.4,182.8 L137.6,182.9 L137.8,183.8 L138.0,183.8 L138.2,184.1 L138.4,184.1 
		L138.6,184.1 L138.8,184.1 L139.1,184.1 L139.3,184.0 L139.5,184.5 L139.7,184.5 L139.9,184.5 L140.1,184.5 
		L140.3,184.5 L140.5,184.5 L140.7,184.5 L140.9,184.5 L141.2,184.5 L141.4,184.5 L141.6,184.5 L141.8,184.5 
		L142.0,184.5 L142.2,184.5 L142.4,184.5 L142.6,184.5 L142.8,183.2 L143.1,183.4 L143.3,183.4 L143.5,183.4 
		L143.7,183.4 L143.9,183.8 L144.1,184.9 L144.3,186.0 L144.5,187.3 L144.7,188.6 L144.9,188.6 L145.2,188.6 
		L145.4,188.6 L145.6,189.6 L145.8,189.6 L146.0,190.3 L146.2,190.3 L146.4,190.3 L146.6,190.3 L146.8,190.7 
		L147.1,190.7 L147.3,190.7 L147.5,190.7 L147.7,190.7 L147.9,190.9 L148.1,192.6 L148.3,192.6 L148.5,192.6 
		L148.7,192.6 L149.0,192.6 L149.2,192.6 L149.4,194.2 L149.6,194.2 L149.8,194.2 L150.0,194.2 L150.2,194.2 
		L150.4,194.2 L150.6,194.2 L150.8,194.2 L151.1,194.2 L151.3,193.4 L151.5,199.0 L151.7,200.7 L151.9,205.1 
		L152.1,205.1 L152.3,205.1 L152.5,205.5 L152.7,206.5 L153.0,207.8 L153.2,210.5 L153.4,210.5 L153.6,210.5 
		L153.8,210.5 L154.0,211.0 L154.2,211.0 L154.4,211.0 L154.6,210.9 L154.8,210.9 L155.1,210.9 L155.3,210.9 
		L155.5,210.9 L155.7,210.9 L155.9,210.9 L156.1,210.8 L156.3,211.5 L156.5,211.5 L156.7,211.5 L157.0,216.6 
		L157.2,216.6 L157.4,216.6 L157.6,216.6 L157.8,216.8 L158.0,216.8 L158.2,216.8 L158.4,216.5 L158.6,216.5 
		L158.8,216.5 L159.1,216.5 L159.3,216.5 L159.5,216.4 L159.7,216.1 L159.9,216.1 L160.1,216.1 L160.3,215.9 
		L160.5,215.9 L160.7,218.1 L161.0,221.3 L161.2,227.7 L161.4,227.8 L161.6,227.8 L161.8,227.8 L162.0,227.8 
		L162.2,227.8 L162.4,227.8 L162.6,227.6 L162.9,227.6 L163.1,227.6 L163.3,227.6 L163.5,227.6 L163.7,226.5 
		L163.9,225.9 L164.1,225.9 L164.3,225.9 L164.5,225.9 L164.7,225.9 L165.0,224.2 L165.2,224.2 L165.4,224.2 
		L165.6,222.0 L165.8,223.6 L166.0,226.4 L166.2,226.4 L166.4,226.4 L166.6,226.4 L166.9,226.4 L167.1,226.5 
		L167.3,226.5 L167.5,226.5 L167.7,226.5 L167.9,226.5 L168.1,225.3 L168.3,228.8 L168.5,228.8 L168.7,228.8 
		L169.0,228.8 L169.2,228.8 L169.4,228.8 L169.6,228.8 L169.8,228.7 L170.0,228.7 L170.2,228.7 L170.4,228.7 
		L170.6,230.0 L170.9,230.0 L171.1,230.0 L171.3,230.0 L171.5,230.4 L171.7,230.4 L171.9,230.4 L172.1,230.4 
		L172.3,230.4 L172.5,230.4 L172.7,230.9 L173.0,230.9 L173.2,230.9 L173.4,230.9 L173.6,230.9 L173.8,230.9 
		L174.0,230.9 L174.2,230.9 L174.4,230.9 L174.6,230.8 L174.9,231.2 L175.1,231.2 L175.3,231.2 L175.5,231.2 
		L175.7,231.2 L175.9,231.3 L176.1,231.5 L176.3,231.5 L176.5,231.6 L176.8,232.2 L177.0,232.4 L177.2,232.4 
		L177.4,232.4 L177.6,232.4 L177.8,232.4 L178.0,232.4 L178.2,232.5 L178.4,232.8 L178.6,233.2 L178.9,233.5 
		L179.1,233.7 L179.3,233.7 L179.5,234.2 L179.7,234.2 L179.9,234.2 L180.1,234.2 L180.3,234.2 L180.5,234.6 
		L180.8,234.6 L181.0,234.6 L181.2,234.6 L181.4,234.6 L181.6,234.8 L181.8,234.8 L182.0,235.3 L182.2,235.3 
		L182.4,235.6 L182.6,235.6 L182.9,235.6 L183.1,235.6 L183.3,235.6 L183.5,235.6 L183.7,235.6 L183.9,236.0 
		L184.1,236.0 L184.3,236.0 L184.5,236.0 L184.8,236.0 L185.0,236.0 L185.2,236.6 L185.4,236.6 L185.6,236.6 
		L185.8,236.6 L186.0,236.6 L186.2,237.3 L186.4,237.9 L186.7,237.9 L186.9,237.9 L187.1,237.9 L187.3,237.9 
		L187.5,237.9 L187.7,237.9 L187.9,237.9 L188.1,237.9 L188.3,238.5 L188.5,238.9 L188.8,238.9 L189.0,239.3 
		L189.2,239.3 L189.4,239.3 L189.6,239.3 L189.8,239.3 L190.0,239.3 L190.2,239.3 L190.4,239.3 L190.7,239.3 
		L190.9,238.6 L191.1,238.6 L191.3,238.6 L191.5,238.6 L191.7,238.6 L191.9,238.7 L192.1,238.7 L192.3,238.7 
		L192.5,238.9 L192.8,239.8 L193.0,239.8 L193.2,239.8 L193.4,240.1 L193.6,240.6 L193.8,240.6 L194.0,240.9 
		L194.2,240.9 L194.4,240.9 L194.7,240.9 L194.9,240.9 L195.1,240.9 L195.3,240.9 L195.5,240.9 L195.7,240.2 
		L195.9,240.2 L196.1,240.2 L196.3,240.2 L196.5,240.2 L196.8,240.2 L197.0,240.2 L197.2,240.2 L197.4,240.2 
		L197.6,238.9 L197.8,239.3 L198.0,239.3 L198.2,240.6 L198.4,240.6 L198.7,240.6 L198.9,240.6 L199.1,240.6 
		L199.3,240.6 L199.5,240.4 L199.7,240.4 L199.9,240.4 L200.1,240.4 L200.3,240.4 L200.6,240.4 L200.8,240.4 
		L201.0,240.4 L201.2,240.4 L201.4,240.4 L201.6,240.4 L201.8,240.4 L202.0,240.4 L202.2,240.4 L202.4,240.4 
		L202.7,240.4 L202.9,240.4 L203.1,240.4 L203.3,240.4 L203.5,240.4 L203.7,236.4 L203.9,236.4 L204.1,236.4 
		L204.3,236.4 L204.6,236.4 L204.8,236.5 L205.0,236.5 L205.2,236.5 L205.4,236.5 L205.6,236.9 L205.8,236.9 
		L206.0,237.1 L206.2,237.8 L206.4,237.9 L206.7,238.2 L206.9,238.2 L207.1,238.8 L207.3,239.1 L207.5,239.1 
		L207.7,240.0 L207.9,240.0 L208.1,240.0 L208.3,240.0 L208.6,240.0 L208.8,240.1 L209.0,241.2 L209.2,242.2 
		L209.4,242.2 L209.6,242.2 L209.8,242.2 L210.0,242.2 L210.2,242.6 L210.4,242.6 L210.7,242.6 L210.9,242.6 
		L211.1,242.7 L211.3,243.2 L211.5,243.2 L211.7,243.2 L211.9,243.2 L212.1,243.2 L212.3,243.2 L212.6,243.2 
		L212.8,243.2 L213.0,243.2 L213.2,243.2 L213.4,243.2 L213.6,243.2 L213.8,243.2 L214.0,243.2 L214.2,242.2 
		L214.5,242.2 L214.7,242.2 L214.9,242.2 L215.1,242.1 L215.3,241.6 L215.5,241.6 L215.7,241.6 L215.9,241.4 
		L216.1,241.0 L216.3,241.0 L216.6,241.3 L216.8,241.3 L217.0,241.4 L217.2,241.4 L217.4,241.4 L217.6,241.3 
		L217.8,241.3 L218.0,241.3 L218.2,241.3 L218.5,242.5 L218.7,242.5 L218.9,242.5 L219.1,244.2 L219.3,244.2 
		L219.5,244.2 L219.7,244.2 L219.9,244.2 L220.1,244.2 L220.3,244.2 L220.6,244.2 L220.8,244.2 L221.0,243.8 
		L221.2,244.1 L221.4,244.1 L221.6,244.4 L221.8,244.4 L222.0,244.4 L222.2,244.4 L222.5,244.4 L222.7,244.4 
		L222.9,244.4 L223.1,244.4 L223.3,243.0 L223.5,243.0 L223.7,243.0 L223.9,243.0 L224.1,243.0 L224.4,243.0 
		L224.6,243.0 L224.8,243.0 L225.0,243.0 L225.2,243.0 L225.4,243.0 L225.6,243.0 L225.8,243.0 L226.0,243.0 
		L226.2,243.0 L226.5,243.0 L226.7,243.0 L226.9,243.0 L227.1,243.0 L227.3,243.0 L227.5,243.0 L227.7,242.1 
		L227.9,242.1 L228.1,242.1 L228.4,242.1 L228.6,242.1 L228.8,242.1 L229.0,242.2 L229.2,242.5 L229.4,242.5 
		L229.6,242.5 L229.8,242.5 L230.0,242.6 L230.2,243.1 L230.5,243.4 L230.7,243.4 L230.9,243.4 L231.1,243.4 
		L231.3,243.5 L231.5,243.5 L231.7,243.5 L231.9,243.9 L232.1,243.9 L232.4,243.9 L232.6,244.2 L232.8,244.5 
		L233.0,244.5 L233.2,244.5 L233.4,244.5 L233.6,244.5 L233.8,244.6 L234.0,244.6 L234.2,244.6 L234.5,244.6 
		L234.7,244.6 L234.9,244.6 L235.1,244.8 L235.3,244.8 L235.5,244.8 L235.7,245.1 L235.9,245.5 L236.1,245.5 
		L236.4,245.5 L236.6,245.5 L236.8,245.5 L237.0,245.5 L237.2,245.5 L237.4,245.5 L237.6,245.5 L237.8,245.4 
		L238.0,245.0 L238.3,245.0 L238.5,244.6 L238.7,244.6 L238.9,244.6 L239.1,244.6 L239.3,244.6 L239.5,244.4 
		L239.7,245.0 L239.9,245.7 L240.1,246.4 L240.4,246.4 L240.6,246.4 L240.8,246.4 L241.0,246.4 L241.2,246.4 
		L241.4,246.4 L241.6,246.4 L241.8,245.8 L242.0,246.3 L242.3,246.3 L242.5,246.3 L242.7,246.5 L242.9,246.5 
		L243.1,246.7 L243.3,246.7 L243.5,246.7 L243.7,248.1 L243.9,248.4 L244.1,248.4 L244.4,248.4 L244.6,249.6 
		L244.8,250.1 L245.0,250.1 L245.2,251.0 L245.4,251.1 L245.6,252.4 L245.8,252.4 L246.0,252.7 L246.2,252.7 
		L246.5,252.7 L246.7,252.7 L246.9,252.7 L247.1,252.9 L247.3,252.9 L247.5,252.9 L247.7,254.6 L247.9,255.4 
		L248.1,255.4 L248.4,255.9 L248.6,255.9 L248.8,255.9 L249.0,257.5 L249.2,257.5 L249.4,257.5 L249.6,257.6 
		L249.8,257.6 L250.0,257.6 L250.3,257.6 L250.5,257.5 L250.7,257.5 L250.9,257.5 L251.1,257.5 L251.3,256.7 
		L251.5,256.4 L251.7,256.3 L251.9,256.3 L252.1,256.3 L252.4,256.3 L252.6,256.3 L252.8,256.3 L253.0,256.3 
		L253.2,256.3 L253.4,255.9 L253.6,255.9 L253.8,255.9 L254.0,255.9 L254.3,255.9 L254.5,255.9 L254.7,255.9 
		L254.9,255.9 L255.1,255.9 L255.3,255.9 L255.5,255.9 L255.7,255.9 L255.9,255.9 L256.1,255.9 L256.4,255.9 
		L256.6,255.9 L256.8,255.9 L257.0,254.7 L257.2,254.4 L257.4,250.5 L257.6,250.5 L257.8,250.5 L258.0,250.5 
		L258.3,250.5 L258.5,250.5 L258.7,250.5 L258.9,250.5 L259.1,250.5 L259.3,249.2 L259.5,249.2 L259.7,249.2 
		L259.9,249.2 L260.2,249.2 L260.4,249.2 L260.6,249.2 L260.8,249.2 L261.0,248.8 L261.2,248.8 L261.4,248.8 
		L261.6,248.8 L261.8,248.8 L262.0,248.8 L262.3,248.8 L262.5,248.8 L262.7,246.8 L262.9,247.2 L263.1,247.3 
		L263.3,248.5 L263.5,248.5 L263.7,248.7 L263.9,248.7 L264.2,248.7 L264.4,248.7 L264.6,248.7 L264.8,248.7 
		L265.0,248.7 L265.2,247.7 L265.4,247.7 L265.6,247.7 L265.8,247.7 L266.0,247.7 L266.3,247.7 L266.5,247.7 
		L266.7,247.7 L266.9,246.6 L267.1,246.6 L267.3,246.5 L267.5,246.0 L267.7,246.0 L267.9,246.0 L268.2,248.8 
		L268.4,249.0 L268.6,249.4 L268.8,249.4 L269.0,249.4 L269.2,249.4 L269.4,249.3 L269.6,249.1 L269.8,249.1 
		L270.0,249.0 L270.3,249.0 L270.5,249.0 L270.7,249.0 L270.9,248.5 L271.1,248.6 L271.3,248.6 L271.5,248.6 
		L271.7,248.7 L271.9,249.6 L272.2,249.6 L272.4,249.6 L272.6,249.7 L272.8,249.7 L273.0,249.7 L273.2,249.6 
		L273.4,249.6 L273.6,249.6 L273.8,249.6 L274.1,249.6 L274.3,249.6 L274.5,249.6 L274.7,249.6 L274.9,249.5 
		L275.1,247.6 L275.3,247.6 L275.5,247.9 L275.7,247.9 L275.9,247.9 L276.2,247.9 L276.4,247.6 L276.6,247.6 
		L276.8,247.6 L277.0,247.6 L277.2,247.6 L277.4,247.4 L277.6,247.4 L277.8,247.4 L278.1,246.3 L278.3,246.3 
		L278.5,246.3 L278.7,246.3 L278.9,246.3 L279.1,246.3 L279.3,246.3 L279.5,245.1 L279.7,244.6 L279.9,244.6 
		L280.2,243.8 L280.4,244.4 L280.6,244.4 L280.8,244.4 L281.0,244.4 L281.2,244.5 L281.4,244.4 L281.6,245.3 
		L281.8,245.3 L282.1,245.5 L282.3,245.5 L282.5,245.5 L282.7,245.5 L282.9,245.2 L283.1,245.4 L283.3,245.4 
		L283.5,245.4 L283.7,245.4 L283.9,245.4 L284.2,245.4 L284.4,245.4 L284.6,244.8 L284.8,244.8 L285.0,244.8 
		L285.2,244.1 L285.4,246.5 L285.6,246.5 L285.8,246.8 L286.1,246.9 L286.3,246.9 L286.5,246.9 L286.7,246.9 
		L286.9,246.5 L287.1,247.2 L287.3,247.2 L287.5,247.2 L287.7,247.2 L288.0,247.2 L288.2,247.2 L288.4,247.2 
		L288.6,247.2 L288.8,247.2 L289.0,247.2 L289.2,247.2 L289.4,247.2 L289.6,247.2 L289.8,247.2 L290.1,245.3 
		L290.3,245.3 L290.5,245.3 L290.7,245.3 L290.9,245.3 L291.1,245.3 L291.3,245.3 L291.5,245.3 L291.7,245.3 
		L292.0,245.3 L292.2,245.3 L292.4,245.3 L292.6,239.8 L292.8,239.8 L293.0,239.8 L293.2,239.8 L293.4,239.8 
		L293.6,239.7 L293.8,240.9 L294.1,240.9 L294.3,241.1 L294.5,241.1 L294.7,241.1 L294.9,241.1 L295.1,241.1 
		L295.3,241.1 L295.5,241.1 L295.7,241.1 L296.0,241.1 L296.2,241.1 L296.4,240.9 L296.6,240.9 L296.8,240.9 
		L297.0,240.9 L297.2,240.7 L297.4,240.7 L297.6,240.7 L297.9,240.7 L298.1,240.7 L298.3,240.8 L298.5,241.0 
		L298.7,241.0 L298.9,241.0 L299.1,241.0 L299.3,241.1 L299.5,241.1 L299.7,241.2 L300.0,241.2 L300.2,241.2 
		L300.4,241.2 L300.6,241.2 L300.8,241.2 L301.0,241.3 L301.2,241.6 L301.4,241.6 L301.6,241.8 L301.9,241.8 
		L302.1,241.8 L302.3,241.9 L302.5,241.9 L302.7,241.9 L302.9,241.9 L303.1,241.9 L303.3,241.9 L303.5,241.9 
		L303.7,241.9 L304.0,241.9 L304.2,241.9 L304.4,241.9 L304.6,241.9 L304.8,241.9 L305.0,241.9 L305.2,241.9 
		L305.4,241.3 L305.6,241.3 L305.9,241.3 L306.1,241.3 L306.3,241.3 L306.5,241.3 L306.7,241.3 L306.9,240.4 
		L307.1,240.5 L307.3,240.5 L307.5,241.1 L307.7,241.1 L308.0,241.1 L308.2,241.1 L308.4,241.3 L308.6,241.3 
		L308.8,241.4 L309.0,241.4 L309.2,241.4 L309.4,241.4 L309.6,241.4 L309.9,241.4 L310.1,241.4 L310.3,241.4 
		L310.5,241.4 L310.7,241.4 L310.9,241.4 L311.1,241.4 L311.3,241.4 L311.5,241.4 L311.8,241.4 L312.0,241.2 
		L312.2,240.3 L312.4,240.3 L312.6,240.3 L312.8,240.3 L313.0,240.3 L313.2,240.3 L313.4,240.3 L313.6,240.3 
		L313.9,240.3 L314.1,240.6 L314.3,240.6 L314.5,240.6 L314.7,240.6 L314.9,240.6 L315.1,240.6 L315.3,240.6 
		L315.5,240.6 L315.8,240.6 L316.0,240.6 L316.2,240.6 L316.4,240.6 L316.6,240.6 L316.8,240.6 L317.0,240.6 
		L317.2,240.6 L317.4,240.6 L317.6,240.6 L317.9,240.6 L318.1,240.6 L318.3,240.6 L318.5,240.6 L318.7,240.6 
		L318.9,240.6 L319.1,240.6 L319.3,240.6 L319.5,240.6 L319.8,238.1 L320.0,236.4 L320.2,236.6 L320.4,236.6 
		L320.6,236.6 L320.8,236.6 L321.0,236.5 L321.2,236.5 L321.4,236.5 L321.6,236.5 L321.9,236.5 L322.1,236.5 
		L322.3,236.5 L322.5,236.5 L322.7,236.5 L322.9,236.5 L323.1,236.5 L323.3,234.5 L323.5,235.4 L323.8,236.3 
		L324.0,236.6 L324.2,237.2 L324.4,237.4 L324.6,237.4 L324.8,237.4 L325.0,237.4 L325.2,237.4 L325.4,237.4 
		L325.7,237.2 L325.9,237.2 L326.1,237.2 L326.3,237.2 L326.5,237.2 L326.7,237.2 L326.9,237.2 L327.1,237.2 
		L327.3,237.2 L327.5,237.2 L327.8,237.2 L328.0,237.2 L328.2,236.2 L328.4,236.1 L328.6,236.1 L328.8,236.1 
		L329.0,236.3 L329.2,236.3 L329.4,236.5 L329.7,236.6 L329.9,236.7 L330.1,236.9 L330.3,236.9 L330.5,236.9 
		L330.7,236.9 L330.9,236.9 L331.1,236.9 L331.3,236.9 L331.5,236.9 L331.8,236.9 L332.0,237.2 L332.2,237.2 
		L332.4,237.4 L332.6,237.4 L332.8,237.4 L333.0,237.4 L333.2,237.4 L333.4,237.5 L333.7,238.0 L333.9,238.0 
		L334.1,238.0 L334.3,238.0 L334.5,238.0 L334.7,238.0 L334.9,238.6 L335.1,238.6 L335.3,238.7 L335.5,238.7 
		L335.8,238.7 L336.0,238.7 L336.2,238.7 L336.4,238.7 L336.6,238.6 L336.8,238.6 L337.0,238.6 L337.2,238.6 
		L337.4,238.6 L337.7,238.5 L337.9,238.5 L338.1,238.7 L338.3,238.7 L338.5,238.7 L338.7,238.7 L338.9,238.7 
		L339.1,238.7 L339.3,238.7 L339.6,238.7 L339.8,238.7 L340.0,238.7 L340.2,238.7 L340.4,238.7 L340.6,238.7 
		L340.8,238.7 L341.0,238.7 L341.2,238.1 L341.4,238.1 L341.7,237.7 L341.9,237.7 L342.1,237.7 L342.3,237.7 
		L342.5,237.7 L342.7,237.7 L342.9,237.7 L343.1,237.7 L343.3,237.7 L343.6,237.7 L343.8,237.7 L344.0,237.7 
		L344.2,237.7 L344.4,237.7 L344.6,237.7 L344.8,237.7 L345.0,237.7 L345.2,237.7 L345.4,237.7 L345.7,237.7 
		L345.9,237.7 L346.1,237.2 L346.3,237.2 L346.5,237.2 L346.7,237.2 L346.9,235.9 L347.1,236.0 L347.3,236.0 
		L347.6,236.8 L347.8,237.5 L348.0,237.5 L348.2,237.5 L348.4,237.5 L348.6,237.5 L348.8,237.5 L349.0,237.5 
		L349.2,237.5 L349.5,237.5 L349.7,237.5 L349.9,237.2 L350.1,237.2 L350.3,237.8 L350.5,238.4 L350.7,238.7 
		L350.9,238.8 L351.1,238.8 L351.3,239.0 L351.6,239.0 L351.8,239.0 L352.0,239.0 L352.2,239.0 L352.4,239.0 
		L352.6,239.0 L352.8,239.0 L353.0,239.0 L353.2,239.0 L353.5,239.0 L353.7,239.0 L353.9,239.0 L354.1,239.0 
		L354.3,239.0 L354.5,239.0 L354.7,239.0 L354.9,238.4 L355.1,238.5 L355.3,238.9 L355.6,239.0 L355.8,239.0 
		L356.0,239.0 L356.2,239.0 L356.4,239.0 L356.6,239.0 L356.8,239.0 L357.0,239.0 L357.2,238.8 L357.5,238.8 
		L357.7,238.8 L357.9,238.8 L358.1,238.8 L358.3,238.8 L358.5,238.9 L358.7,238.9 L358.9,238.9 L359.1,238.9 
		L359.3,238.9 L359.6,238.9 L359.8,239.1 L360.0,239.1 L360.2,239.1 L360.4,239.1 L360.6,239.1 L360.8,239.1 
		L361.0,239.1 L361.2,239.1 L361.5,239.1 L361.7,239.1 L361.9,239.0 L362.1,239.4 L362.3,239.4 L362.5,239.4 
		L362.7,239.4 L362.9,239.4 L363.1,239.4 L363.4,239.4 L363.6,239.4 L363.8,239.4 L364.0,239.4 L364.2,239.4 
		L364.4,239.4 L364.6,239.4 L364.8,239.4 L365.0,239.4 L365.2,239.4 L365.5,239.4 L365.7,239.4 L365.9,239.4 
		L366.1,239.4 L366.3,239.4 L366.5,238.3 L366.7,238.4 L366.9,238.4 L367.1,238.4 L367.4,238.4 L367.6,238.4 
		L367.8,238.4 L368.0,238.4 L368.2,238.3 L368.4,238.4 L368.6,238.4 L368.8,238.4 L369.0,238.4 L369.2,238.4 
		L369.5,238.4 L369.7,238.4 L369.9,238.4 L370.1,238.4 L370.3,238.4 L370.5,238.4 L370.7,238.4 L370.9,238.4 
		L371.1,238.4 L371.4,238.1 L371.6,238.3 L371.8,238.3 L372.0,238.3 L372.2,238.5 L372.4,238.5 L372.6,238.5 
		L372.8,238.6 L373.0,238.8 L373.2,238.9 L373.5,238.9 L373.7,238.9 L373.9,238.9 L374.1,238.9 L374.3,238.9 
		L374.5,238.9 L374.7,238.9 L374.9,238.9 L375.1,238.9 L375.4,238.9 L375.6,239.1 L375.8,239.1 L376.0,239.1 
		L376.2,239.1 L376.4,239.1 L376.6,239.1 L376.8,239.1 L377.0,239.1 L377.3,239.1 L377.5,239.3 L377.7,239.3 
		L377.9,239.3 L378.1,239.3 L378.3,239.3 L378.5,239.3 L378.7,239.5 L378.9,239.5 L379.1,239.5 L379.4,239.5 
		L379.6,239.7 L379.8,239.9 L380.0,239.9 L380.2,239.9 L380.4,239.9 L380.6,239.9 L380.8,240.1 L381.0,240.8 
		L381.3,241.1 L381.5,241.1 L381.7,241.1 L381.9,241.1 L382.1,241.1 L382.3,241.1 L382.5,241.1 L382.7,241.0 
		L382.9,240.8 L383.1,240.8 L383.4,241.0 L383.6,241.9 L383.8,241.9 L384.0,241.9 L384.2,241.9 L384.4,241.9 
		L384.6,241.9 L384.8,241.9 L385.0,241.7 L385.3,241.7 L385.5,241.8 L385.7,242.2 L385.9,242.3 L386.1,242.3 
		L386.3,242.3 L386.5,242.3 L386.7,242.3 L386.9,242.3 L387.2,242.3 L387.4,242.3 L387.6,242.3 L387.8,242.5 
		L388.0,242.5 L388.2,242.5 L388.4,243.3 L388.6,243.6 L388.8,243.6 L389.0,243.6 L389.3,243.6 L389.5,243.6 
		L389.7,243.6 L389.9,243.6 L390.1,243.7 L390.3,243.8 L390.5,243.8 L390.7,243.8 L390.9,243.8 L391.2,243.8 
		L391.4,243.7 L391.6,243.6 L391.8,243.7 L392.0,243.9 L392.2,243.9 L392.4,243.9 L392.6,243.9 L392.8,243.9 
		L393.0,243.9 L393.3,243.9 L393.5,243.9 L393.7,243.9 L393.9,243.9 L394.1,243.9 L394.3,243.9 L394.5,243.8 
		L394.7,244.0 L394.9,244.2 L395.2,244.2 L395.4,244.2 L395.6,244.2 L395.8,244.2 L396.0,244.2 L396.2,244.2 
		L396.4,244.2 L396.6,244.2 L396.8,244.5 L397.0,244.6 L397.3,244.8 L397.5,244.8 L397.7,245.1 L397.9,245.1 
		L398.1,245.1 L398.3,245.2 L398.5,245.5 L398.7,245.5 L398.9,245.5 L399.2,245.5 L399.4,245.5 L399.6,245.5 
		L399.8,245.5 L400.0,245.9 L400.2,245.9 L400.4,245.9 L400.6,245.9 L400.8,245.9 L401.1,245.9 L401.3,245.9 
		L401.5,245.9 L401.7,245.9 L401.9,245.9 L402.1,245.9 L402.3,245.9 L402.5,245.9 L402.7,245.9 L402.9,245.8 
		L403.2,245.4 L403.4,245.4 L403.6,245.9 L403.8,245.9 L404.0,245.9 L404.2,245.9 L404.4,245.9 L404.6,245.9 
		L404.8,245.9 L405.1,245.9 L405.3,245.8 L405.5,246.0 L405.7,246.0 L405.9,246.0 L406.1,246.2 L406.3,246.2 
		L406.5,246.2 L406.7,246.2 L406.9,246.2 L407.2,246.2 L407.4,246.2 L407.6,246.2 L407.8,246.2 L408.0,246.2 
		L408.2,246.2 L408.4,246.2 L408.6,246.2 L408.8,245.3 L409.1,245.3 L409.3,245.3 L409.5,245.3 L409.7,245.3 
		L409.9,245.3 L410.1,245.3 L410.3,245.3 L410.5,245.3 L410.7,245.1 L410.9,244.8 L411.2,244.8 L411.4,244.8 
		L411.6,244.8 L411.8,244.8 L412.0,244.5 L412.2,244.5 L412.4,244.5 L412.6,244.5 L412.8,244.5 L413.1,244.1 
		L413.3,244.1 L413.5,244.1 L413.7,244.1 L413.9,244.1 L414.1,244.1 L414.3,244.1 L414.5,244.1 L414.7,244.1 
		L415.0,244.1 L415.2,244.1 L415.4,244.1 L415.6,244.1 L415.8,244.1 L416.0,244.1 L416.2,244.1 L416.4,243.9 
		L416.6,241.9 L416.8,241.9 L417.1,241.8 L417.3,241.8 L417.5,241.8 L417.7,241.9 L417.9,241.9 L418.1,241.9 
		L418.3,241.9 L418.5,241.9 L418.7,241.9 L419.0,241.9 L419.2,241.9 L419.4,241.9 L419.6,241.9 L419.8,241.9 
		L420.0,241.9 L420.2,241.9 L420.4,241.7 L420.6,241.8 L420.8,241.8 L421.1,241.8 L421.3,242.2 L421.5,242.2 
		L421.7,242.5 L421.9,242.5 L422.1,242.5 L422.3,242.5 L422.5,242.7 L422.7,242.7 L423.0,242.7 L423.2,242.7 
		L423.4,242.7 L423.6,242.7 L423.8,242.7 L424.0,242.7 L424.2,242.7 L424.4,242.7 L424.6,242.7 L424.9,242.7 
		L425.1,242.7 L425.3,242.7 L425.5,242.7 L425.7,242.9 L425.9,243.0 L426.1,243.0 L426.3,243.5 L426.5,244.0 
		L426.7,244.0 L427.0,244.0 L427.2,244.0 L427.4,244.0 L427.6,244.0 L427.8,244.0 L428.0,244.0 L428.2,243.7 
		L428.4,243.7 L428.6,243.8 L428.9,243.9 L429.1,243.9 L429.3,243.9 L429.5,243.9 L429.7,243.9 L429.9,243.9 
		L430.1,243.9 L430.3,243.9 L430.5,243.9 L430.7,243.9 L431.0,243.9 L431.2,243.9 L431.4,243.9 L431.6,243.9 
		L431.8,243.9 L432.0,243.9 L432.2,243.9 L432.4,243.9 L432.6,243.9 L432.9,243.9 L433.1,243.9 L433.3,243.9 
		L433.5,243.9 L433.7,243.9 L433.9,243.9 L434.1,242.5 L434.3,242.8 L434.5,243.1 L434.7,243.1 L435.0,243.1 
		L435.2,243.1 L435.4,243.1 L435.6,243.2 L435.8,243.2 L436.0,243.2 L436.2,243.2 L436.4,243.2 L436.6,243.2 
		L436.9,243.2 L437.1,243.2 L437.3,243.1 L437.5,243.2 L437.7,243.2 L437.9,243.2 L438.1,243.2 L438.3,243.4 
		L438.5,243.6 L438.8,243.6 L439.0,243.6 L439.2,243.6 L439.4,243.7 L439.6,243.8 L439.8,243.8 L440.0,243.9 
		L440.2,243.9 L440.4,243.9 L440.6,243.9 L440.9,243.9 L441.1,243.9 L441.3,243.9 L441.5,244.0 L441.7,244.2 
		L441.9,244.2 L442.1,244.2 L442.3,244.2 L442.5,244.2 L442.8,244.2 L443.0,244.1 L443.2,244.6 L443.4,244.6 
		L443.6,244.6 L443.8,244.6 L444.0,244.6 L444.2,244.5 L444.4,244.5 L444.6,244.5 L444.9,244.5 L445.1,244.5 
		L445.3,244.5 L445.5,244.5 L445.7,244.5 L445.9,245.2 L446.1,245.2 L446.3,245.4 L446.5,245.4 L446.8,245.4 
		L447.0,245.5 L447.2,245.5 L447.4,245.5 L447.6,245.5 L447.8,245.5 L448.0,245.3 L448.2,245.3 L448.4,245.5 
		L448.6,245.9 L448.9,245.9 L449.1,246.4 L449.3,246.4 L449.5,246.8 L449.7,246.8 L449.9,246.8 L450.1,246.8 
		L450.3,246.8 L450.5,246.8 L450.8,246.8 L451.0,246.8 L451.2,246.8 L451.4,246.8 L451.6,246.8 L451.8,246.8 
		L452.0,246.6 L452.2,246.6 L452.4,246.6 L452.7,246.6 L452.9,246.6 L453.1,246.6 L453.3,246.6 L453.5,246.6 
		L453.7,246.6 L453.9,246.6 L454.1,246.6 L454.3,246.6 L454.5,246.6 L454.8,246.6 L455.0,246.6 L455.2,244.7 
		L455.4,244.7 L455.6,244.7 L455.8,244.7 L456.0,244.7 L456.2,244.7 L456.4,244.7 L456.7,244.5 L456.9,244.7 
		L457.1,244.7 L457.3,244.7 L457.5,244.7 L457.7,244.7 L457.9,244.7 L458.1,244.7 L458.3,244.7 L458.5,244.7 
		L458.8,244.7 L459.0,244.7 L459.2,244.9 L459.4,244.9 L459.6,244.9 L459.8,244.9 L460.0,244.9 L460.2,244.9 
		L460.4,244.9 L460.7,244.9 L460.9,244.9 L461.1,244.9 L461.3,244.9 L461.5,244.9 L461.7,244.9 L461.9,244.8 
		L462.1,244.8 L462.3,244.8 L462.5,244.8 L462.8,244.8 L463.0,244.8 L463.2,244.8 L463.4,244.8 L463.6,244.8 
		L463.8,244.7 L464.0,244.8 L464.2,244.8 L464.4,244.8 L464.7,244.8 L464.9,244.8 L465.1,244.8 L465.3,244.8 
		L465.5,244.8 L465.7,244.8 L465.9,244.8 L466.1,244.8 L466.3,244.8 L466.6,244.9 L466.8,245.0 L467.0,245.0 
		L467.2,245.0 L467.4,245.1 L467.6,245.2 L467.8,245.2 L468.0,245.2 L468.2,245.2 L468.4,245.2 L468.7,245.2 
		L468.9,245.2 L469.1,245.2 L469.3,245.2 L469.5,245.2 L469.7,245.4 L469.9,245.4 L470.1,245.4 L470.3,245.4 
		L470.6,245.4 L470.8,245.4 L471.0,245.5 L471.2,245.5 L471.4,245.5 L471.6,245.5 L471.8,245.5 L472.0,245.5 
		L472.2,245.6 L472.4,245.6 L472.7,245.6 L472.9,245.6 L473.1,245.6 L473.3,245.6 L473.5,245.6 L473.7,245.6 
		L473.9,245.6 L474.1,245.5 L474.3,245.7 L474.6,245.7 L474.8,245.7 L475.0,245.7 L475.2,245.7 L475.4,245.7 
		L475.6,246.2 L475.8,246.2 L476.0,246.2 L476.2,246.2 L476.5,246.2 L476.7,246.2 L476.9,246.2 L477.1,246.2 
		L477.3,246.2 L477.5,246.2 L477.7,246.2 L477.9,246.2 L478.1,246.2 L478.3,246.2 L478.6,246.2 L478.8,246.2 
		L479.0,246.2 L479.2,246.2 L479.4,246.2 L479.6,246.2 L479.8,246.2 L480.0,245.2 L480.2,245.2 L480.5,245.2 
		L480.7,245.2 L480.9,245.2 L481.1,245.2 L481.3,245.2 L481.5,245.2 L481.7,245.2 L481.9,245.2 L482.1,244.7 
		L482.3,244.7 L482.6,244.7 L482.8,244.7 L483.0,244.7 L483.2,244.7 L483.4,244.7 L483.6,244.7 L483.8,244.7 
		L484.0,244.7 L484.2,244.6 L484.5,244.6 L484.7,244.6 L484.9,244.6 L485.1,244.6 L485.3,244.6 L485.5,244.6 
		L485.7,244.6 L485.9,244.8 L486.1,244.8 L486.3,244.8 L486.6,245.0 L486.8,245.0 L487.0,245.1 L487.2,245.1 
		L487.4,245.1 L487.6,245.1 L487.8,245.3 L488.0,245.3 L488.2,245.3 L488.5,245.4 L488.7,245.5 L488.9,245.6 
		L489.1,245.6 L489.3,245.6 L489.5,245.6 L489.7,245.6 L489.9,245.6 L490.1,245.6 L490.4,245.7 L490.6,245.8 
		L490.8,245.8 L491.0,245.8 L491.2,245.8 L491.4,245.8 L491.6,245.8 L491.8,245.8 L492.0,245.8 L492.2,245.8 
		L492.5,245.8 L492.7,245.8 L492.9,245.8 L493.1,246.0 L493.3,246.0 L493.5,246.0 L493.7,246.0 L493.9,246.0 
		L494.1,246.0 L494.4,245.9 L494.6,246.1 L494.8,246.1 L495.0,246.1 L495.2,246.1 L495.4,246.1 L495.6,246.1 
		L495.8,246.1 L496.0,246.1 L496.2,246.1 L496.5,246.1 L496.7,246.1 L496.9,246.1 L497.1,246.1 L497.3,245.8 
		L497.5,245.8 L497.7,245.8 L497.9,245.8 L498.1,245.8 L498.4,245.8 L498.6,245.8 L498.8,245.8 L499.0,245.8 
		L499.2,245.8 L499.4,245.8 L499.6,245.8 L499.8,245.8 L500.0,245.8 L500.2,245.8 L500.5,245.8 L500.7,245.8 
		L500.9,245.9 L501.1,245.9 L501.3,245.9 L501.5,245.9 L501.7,246.1 L501.9,246.1 L502.1,246.2 L502.4,246.3 
		L502.6,246.7 L502.8,246.7 L503.0,246.7 L503.2,246.7 L503.4,246.7 L503.6,246.7 L503.8,246.7 L504.0,246.7 
		L504.3,246.7 L504.5,246.7 L504.7,246.6 L504.9,246.4 L505.1,246.4 L505.3,246.4 L505.5,246.4 L505.7,246.4 
		L505.9,246.0 L506.1,246.0 L506.4,246.0 L506.6,246.0 L506.8,246.0 L507.0,246.0 L507.2,246.0  h0.01'/></g>
	</g>
<g style="fill:none; color:black; stroke:currentColor; stroke-width:1.00; stroke-linecap:butt; stroke-linejoin:miter">
	<path  d='M88.5,54.1 L88.5,422.4 L507.2,422.4 L507.2,54.1 L88.5,54.1 Z  h0.01'/></g>
</g>
</svg>

