#Distance	Velo	MeanUdp	std 					tcprate		loss 		delay	ulharq dlharq(send) ulharq dlharq(ack)
200.000000	3.000000	7007.673457	695.525772 	5453 		0.000497521 71 		0 	0 	22 	47 	0.7781
300.000000	3.000000	4047.915950	344.088026  3079 		0.000396505 93 		0 	0 	16 	23 	0.7608
400.000000	3.000000	2634.890337	201.749247  1650 		0.00074003 	79 		0 	0 	11 	10 	0.6264
500.000000	3.000000	1831.399723	194.336212  1097 		0.00082498 	115 	0 	0 	10 	10 	0.5991
600.000000	3.000000	1313.044485	162.061899 	675 		0.000804074 105 	0 	0 	5 	5 	0.5141
700.000000	3.000000	950.801908	191.014345 	523 		0.000520291 159 	0 	0 	2 	2 	0.5505
800.000000	3.000000	694.984229	164.363488 	328 		0.00179261 	133 	0 	0 	6 	3 	0.4726
900.000000	3.000000	497.578290	163.945370 	263 		0.00172325 	178 	0 	0 	6 	4 	0.5291
1000.000000	3.000000	370.083852	180.377322 	188 		0 			202 	0 	0 	0 	10 	0.5081
1100.000000	3.000000	266.512539	173.683162 	130 		0 			263 	0 	0 	0 	6 	0.4887
1200.000000	3.000000	218.192911	336.605838 	85 			0 			351 	0 	0 	0 	2 	0.3899
1300.000000	3.000000	172.939407	340.593212	67 			0 			604 	0 	0 	0 	4 	0.3895