16.616s 3 16.616 [node 3] TcpNewReno:DupAck(): Dupack in fast recovery mode. Increase cwnd to 18492
16.617s 3 16.617 [node 3] TcpNewReno:DupAck(): Dupack in fast recovery mode. Increase cwnd to 19028
16.619s 3 16.619 [node 3] TcpNewReno:DupAck(): Dupack in fast recovery mode. Increase cwnd to 19564
16.621s 3 16.621 [node 3] TcpNewReno:DupAck(): Dupack in fast recovery mode. Increase cwnd to 20100
16.622s 3 16.622 [node 3] TcpNewReno:DupAck(): Dupack in fast recovery mode. Increase cwnd to 20636
16.623s 3 16.623 [node 3] TcpNewReno:DupAck(): Dupack in fast recovery mode. Increase cwnd to 21172
16.624s 3 16.624 [node 3] TcpNewReno:DupAck(): Dupack in fast recovery mode. Increase cwnd to 21708
16.626s 3 16.626 [node 3] TcpNewReno:DupAck(): Dupack in fast recovery mode. Increase cwnd to 22244
16.628s 3 16.628 [node 3] TcpNewReno:DupAck(): Dupack in fast recovery mode. Increase cwnd to 22780
16.629s 3 16.629 [node 3] TcpNewReno:DupAck(): Dupack in fast recovery mode. Increase cwnd to 23316
16.735s 3 16.735 [node 3] TcpNewReno:DupAck(): Dupack in fast recovery mode. Increase cwnd to 23852
16.736s 3 16.736 [node 3] TcpNewReno:DupAck(): Dupack in fast recovery mode. Increase cwnd to 24388
16.737s 3 16.737 [node 3] TcpNewReno:DupAck(): Dupack in fast recovery mode. Increase cwnd to 24924
16.738s 3 16.738 [node 3] TcpNewReno:DupAck(): Dupack in fast recovery mode. Increase cwnd to 25460
16.739s 3 16.739 [node 3] TcpNewReno:DupAck(): Dupack in fast recovery mode. Increase cwnd to 25996
16.74s 3 16.74 [node 3] TcpNewReno:DupAck(): Dupack in fast recovery mode. Increase cwnd to 26532
16.741s 3 16.741 [node 3] TcpNewReno:DupAck(): Dupack in fast recovery mode. Increase cwnd to 27068
16.742s 3 16.742 [node 3] TcpNewReno:DupAck(): Dupack in fast recovery mode. Increase cwnd to 27604
16.855s 3 16.855 [node 3] TcpNewReno:DupAck(): Dupack in fast recovery mode. Increase cwnd to 28140
16.855s 3 16.855 [node 3] TcpNewReno:DupAck(): Dupack in fast recovery mode. Increase cwnd to 28676
16.856s 3 16.856 [node 3] TcpNewReno:DupAck(): Dupack in fast recovery mode. Increase cwnd to 29212
16.856s 3 16.856 [node 3] TcpNewReno:DupAck(): Dupack in fast recovery mode. Increase cwnd to 29748
16.857s 3 16.857 [node 3] TcpNewReno:DupAck(): Dupack in fast recovery mode. Increase cwnd to 30284
16.857s 3 16.857 [node 3] TcpNewReno:DupAck(): Dupack in fast recovery mode. Increase cwnd to 30820
16.858s 3 16.858 [node 3] TcpNewReno:DupAck(): Dupack in fast recovery mode. Increase cwnd to 31356
16.858s 3 16.858 [node 3] TcpNewReno:DupAck(): Dupack in fast recovery mode. Increase cwnd to 31892
16.858s 3 16.858 [node 3] TcpNewReno:DupAck(): Dupack in fast recovery mode. Increase cwnd to 32428
16.859s 3 16.859 [node 3] TcpNewReno:DupAck(): Dupack in fast recovery mode. Increase cwnd to 32964
16.859s 3 16.859 [node 3] TcpNewReno:DupAck(): Dupack in fast recovery mode. Increase cwnd to 33500
16.86s 3 16.86 [node 3] TcpNewReno:DupAck(): Dupack in fast recovery mode. Increase cwnd to 34036
16.86s 3 16.86 [node 3] TcpNewReno:DupAck(): Dupack in fast recovery mode. Increase cwnd to 34572
16.861s 3 16.861 [node 3] TcpNewReno:DupAck(): Dupack in fast recovery mode. Increase cwnd to 35108
16.861s 3 16.861 [node 3] TcpNewReno:DupAck(): Dupack in fast recovery mode. Increase cwnd to 35644
16.862s 3 16.862 [node 3] TcpNewReno:DupAck(): Dupack in fast recovery mode. Increase cwnd to 36180
16.862s 3 16.862 [node 3] TcpNewReno:DupAck(): Dupack in fast recovery mode. Increase cwnd to 36716
16.863s 3 16.863 [node 3] TcpNewReno:DupAck(): Dupack in fast recovery mode. Increase cwnd to 37252
16.863s 3 16.863 [node 3] TcpNewReno:DupAck(): Dupack in fast recovery mode. Increase cwnd to 37788
16.863s 3 16.863 [node 3] TcpNewReno:DupAck(): Dupack in fast recovery mode. Increase cwnd to 38324
16.864s 3 16.864 [node 3] TcpNewReno:DupAck(): Dupack in fast recovery mode. Increase cwnd to 38860
16.864s 3 16.864 [node 3] TcpNewReno:DupAck(): Dupack in fast recovery mode. Increase cwnd to 39396
16.865s 3 16.865 [node 3] TcpNewReno:DupAck(): Dupack in fast recovery mode. Increase cwnd to 39932
16.865s 3 16.865 [node 3] TcpNewReno:DupAck(): Dupack in fast recovery mode. Increase cwnd to 40468
16.866s 3 16.866 [node 3] TcpNewReno:DupAck(): Dupack in fast recovery mode. Increase cwnd to 41004
16.866s 3 16.866 [node 3] TcpNewReno:DupAck(): Dupack in fast recovery mode. Increase cwnd to 41540
16.867s 3 16.867 [node 3] TcpNewReno:DupAck(): Dupack in fast recovery mode. Increase cwnd to 42076
16.867s 3 16.867 [node 3] TcpNewReno:DupAck(): Dupack in fast recovery mode. Increase cwnd to 42612
16.867s 3 16.867 [node 3] TcpNewReno:DupAck(): Dupack in fast recovery mode. Increase cwnd to 43148
16.868s 3 16.868 [node 3] TcpNewReno:DupAck(): Dupack in fast recovery mode. Increase cwnd to 43684
16.869s 3 16.869 [node 3] TcpNewReno:DupAck(): Dupack in fast recovery mode. Increase cwnd to 44220
16.869s 3 16.869 [node 3] TcpNewReno:DupAck(): Dupack in fast recovery mode. Increase cwnd to 44756
16.87s 3 16.87 [node 3] TcpNewReno:DupAck(): Dupack in fast recovery mode. Increase cwnd to 45292
16.871s 3 16.871 [node 3] TcpNewReno:DupAck(): Dupack in fast recovery mode. Increase cwnd to 45828
16.871s 3 16.871 [node 3] TcpNewReno:DupAck(): Dupack in fast recovery mode. Increase cwnd to 46364
16.872s 3 16.872 [node 3] TcpNewReno:DupAck(): Dupack in fast recovery mode. Increase cwnd to 46900
16.873s 3 16.873 [node 3] TcpNewReno:DupAck(): Dupack in fast recovery mode. Increase cwnd to 47436
16.873s 3 16.873 [node 3] TcpNewReno:DupAck(): Dupack in fast recovery mode. Increase cwnd to 47972
16.874s 3 16.874 [node 3] TcpNewReno:DupAck(): Dupack in fast recovery mode. Increase cwnd to 48508
16.875s 3 16.875 [node 3] TcpNewReno:DupAck(): Dupack in fast recovery mode. Increase cwnd to 49044
16.875s 3 16.875 [node 3] TcpNewReno:DupAck(): Dupack in fast recovery mode. Increase cwnd to 49580
16.876s 3 16.876 [node 3] TcpNewReno:DupAck(): Dupack in fast recovery mode. Increase cwnd to 50116
16.876s 3 16.876 [node 3] TcpNewReno:DupAck(): Dupack in fast recovery mode. Increase cwnd to 50652
16.877s 3 16.877 [node 3] TcpNewReno:DupAck(): Dupack in fast recovery mode. Increase cwnd to 51188
16.878s 3 16.878 [node 3] TcpNewReno:DupAck(): Dupack in fast recovery mode. Increase cwnd to 51724
16.88s 3 16.88 [node 3] TcpNewReno:DupAck(): Dupack in fast recovery mode. Increase cwnd to 52260
16.881s 3 16.881 [node 3] TcpNewReno:DupAck(): Dupack in fast recovery mode. Increase cwnd to 52796
16.882s 3 16.882 [node 3] TcpNewReno:DupAck(): Dupack in fast recovery mode. Increase cwnd to 53332
16.883s 3 16.883 [node 3] TcpNewReno:DupAck(): Dupack in fast recovery mode. Increase cwnd to 53868
16.884s 3 16.884 [node 3] TcpNewReno:DupAck(): Dupack in fast recovery mode. Increase cwnd to 54404
16.885s 3 16.885 [node 3] TcpNewReno:DupAck(): Dupack in fast recovery mode. Increase cwnd to 54940
16.886s 3 16.886 [node 3] TcpNewReno:DupAck(): Dupack in fast recovery mode. Increase cwnd to 55476
16.888s 3 16.888 [node 3] TcpNewReno:DupAck(): Dupack in fast recovery mode. Increase cwnd to 56012
18.049s 3 18.049 [node 3] TcpNewReno:DupAck(): Dupack in fast recovery mode. Increase cwnd to 16080
18.05s 3 18.05 [node 3] TcpNewReno:DupAck(): Dupack in fast recovery mode. Increase cwnd to 16616
18.05s 3 18.05 [node 3] TcpNewReno:DupAck(): Dupack in fast recovery mode. Increase cwnd to 17152
18.051s 3 18.051 [node 3] TcpNewReno:DupAck(): Dupack in fast recovery mode. Increase cwnd to 17688
18.052s 3 18.052 [node 3] TcpNewReno:DupAck(): Dupack in fast recovery mode. Increase cwnd to 18224
18.052s 3 18.052 [node 3] TcpNewReno:DupAck(): Dupack in fast recovery mode. Increase cwnd to 18760
18.053s 3 18.053 [node 3] TcpNewReno:DupAck(): Dupack in fast recovery mode. Increase cwnd to 19296
18.054s 3 18.054 [node 3] TcpNewReno:DupAck(): Dupack in fast recovery mode. Increase cwnd to 19832
18.054s 3 18.054 [node 3] TcpNewReno:DupAck(): Dupack in fast recovery mode. Increase cwnd to 20368
18.055s 3 18.055 [node 3] TcpNewReno:DupAck(): Dupack in fast recovery mode. Increase cwnd to 20904
18.056s 3 18.056 [node 3] TcpNewReno:DupAck(): Dupack in fast recovery mode. Increase cwnd to 21440
18.056s 3 18.056 [node 3] TcpNewReno:DupAck(): Dupack in fast recovery mode. Increase cwnd to 21976
18.057s 3 18.057 [node 3] TcpNewReno:DupAck(): Dupack in fast recovery mode. Increase cwnd to 22512
18.058s 3 18.058 [node 3] TcpNewReno:DupAck(): Dupack in fast recovery mode. Increase cwnd to 23048
18.059s 3 18.059 [node 3] TcpNewReno:DupAck(): Dupack in fast recovery mode. Increase cwnd to 23584
18.06s 3 18.06 [node 3] TcpNewReno:DupAck(): Dupack in fast recovery mode. Increase cwnd to 24120
18.061s 3 18.061 [node 3] TcpNewReno:DupAck(): Dupack in fast recovery mode. Increase cwnd to 24656
18.062s 3 18.062 [node 3] TcpNewReno:DupAck(): Dupack in fast recovery mode. Increase cwnd to 25192
18.063s 3 18.063 [node 3] TcpNewReno:DupAck(): Dupack in fast recovery mode. Increase cwnd to 25728
18.064s 3 18.064 [node 3] TcpNewReno:DupAck(): Dupack in fast recovery mode. Increase cwnd to 26264
18.065s 3 18.065 [node 3] TcpNewReno:DupAck(): Dupack in fast recovery mode. Increase cwnd to 26800
18.066s 3 18.066 [node 3] TcpNewReno:DupAck(): Dupack in fast recovery mode. Increase cwnd to 27336
18.067s 3 18.067 [node 3] TcpNewReno:DupAck(): Dupack in fast recovery mode. Increase cwnd to 27872
18.068s 3 18.068 [node 3] TcpNewReno:DupAck(): Dupack in fast recovery mode. Increase cwnd to 28408
18.069s 3 18.069 [node 3] TcpNewReno:DupAck(): Dupack in fast recovery mode. Increase cwnd to 28944
18.07s 3 18.07 [node 3] TcpNewReno:DupAck(): Dupack in fast recovery mode. Increase cwnd to 29480
18.071s 3 18.071 [node 3] TcpNewReno:DupAck(): Dupack in fast recovery mode. Increase cwnd to 30016
18.095s 3 18.095 [node 3] TcpNewReno:DupAck(): Dupack in fast recovery mode. Increase cwnd to 30552
18.096s 3 18.096 [node 3] TcpNewReno:DupAck(): Dupack in fast recovery mode. Increase cwnd to 31088
18.097s 3 18.097 [node 3] TcpNewReno:DupAck(): Dupack in fast recovery mode. Increase cwnd to 31624
18.098s 3 18.098 [node 3] TcpNewReno:DupAck(): Dupack in fast recovery mode. Increase cwnd to 32160
18.099s 3 18.099 [node 3] TcpNewReno:DupAck(): Dupack in fast recovery mode. Increase cwnd to 32696
18.1s 3 18.1 [node 3] TcpNewReno:DupAck(): Dupack in fast recovery mode. Increase cwnd to 33232
18.101s 3 18.101 [node 3] TcpNewReno:DupAck(): Dupack in fast recovery mode. Increase cwnd to 33768
18.102s 3 18.102 [node 3] TcpNewReno:DupAck(): Dupack in fast recovery mode. Increase cwnd to 34304
18.102s 3 18.102 [node 3] TcpNewReno:DupAck(): Dupack in fast recovery mode. Increase cwnd to 34840
18.102s 3 18.102 [node 3] TcpNewReno:DupAck(): Dupack in fast recovery mode. Increase cwnd to 35376
18.103s 3 18.103 [node 3] TcpNewReno:DupAck(): Dupack in fast recovery mode. Increase cwnd to 35912
18.103s 3 18.103 [node 3] TcpNewReno:DupAck(): Dupack in fast recovery mode. Increase cwnd to 36448
18.104s 3 18.104 [node 3] TcpNewReno:DupAck(): Dupack in fast recovery mode. Increase cwnd to 36984
18.104s 3 18.104 [node 3] TcpNewReno:DupAck(): Dupack in fast recovery mode. Increase cwnd to 37520
18.105s 3 18.105 [node 3] TcpNewReno:DupAck(): Dupack in fast recovery mode. Increase cwnd to 38056
18.105s 3 18.105 [node 3] TcpNewReno:DupAck(): Dupack in fast recovery mode. Increase cwnd to 38592
18.106s 3 18.106 [node 3] TcpNewReno:DupAck(): Dupack in fast recovery mode. Increase cwnd to 39128
18.106s 3 18.106 [node 3] TcpNewReno:DupAck(): Dupack in fast recovery mode. Increase cwnd to 39664
18.107s 3 18.107 [node 3] TcpNewReno:DupAck(): Dupack in fast recovery mode. Increase cwnd to 40200
18.107s 3 18.107 [node 3] TcpNewReno:DupAck(): Dupack in fast recovery mode. Increase cwnd to 40736
18.108s 3 18.108 [node 3] TcpNewReno:DupAck(): Dupack in fast recovery mode. Increase cwnd to 41272
18.108s 3 18.108 [node 3] TcpNewReno:DupAck(): Dupack in fast recovery mode. Increase cwnd to 41808
18.109s 3 18.109 [node 3] TcpNewReno:DupAck(): Dupack in fast recovery mode. Increase cwnd to 42344
18.11s 3 18.11 [node 3] TcpNewReno:DupAck(): Dupack in fast recovery mode. Increase cwnd to 42880
18.11s 3 18.11 [node 3] TcpNewReno:DupAck(): Dupack in fast recovery mode. Increase cwnd to 43416
18.111s 3 18.111 [node 3] TcpNewReno:DupAck(): Dupack in fast recovery mode. Increase cwnd to 43952
18.112s 3 18.112 [node 3] TcpNewReno:DupAck(): Dupack in fast recovery mode. Increase cwnd to 44488
18.112s 3 18.112 [node 3] TcpNewReno:DupAck(): Dupack in fast recovery mode. Increase cwnd to 45024
18.113s 3 18.113 [node 3] TcpNewReno:DupAck(): Dupack in fast recovery mode. Increase cwnd to 45560
18.114s 3 18.114 [node 3] TcpNewReno:DupAck(): Dupack in fast recovery mode. Increase cwnd to 46096
18.114s 3 18.114 [node 3] TcpNewReno:DupAck(): Dupack in fast recovery mode. Increase cwnd to 46632
18.115s 3 18.115 [node 3] TcpNewReno:DupAck(): Dupack in fast recovery mode. Increase cwnd to 47168
18.116s 3 18.116 [node 3] TcpNewReno:DupAck(): Dupack in fast recovery mode. Increase cwnd to 47704
18.117s 3 18.117 [node 3] TcpNewReno:DupAck(): Dupack in fast recovery mode. Increase cwnd to 48240
18.118s 3 18.118 [node 3] TcpNewReno:DupAck(): Dupack in fast recovery mode. Increase cwnd to 48776
18.119s 3 18.119 [node 3] TcpNewReno:DupAck(): Dupack in fast recovery mode. Increase cwnd to 49312
18.12s 3 18.12 [node 3] TcpNewReno:DupAck(): Dupack in fast recovery mode. Increase cwnd to 49848
18.121s 3 18.121 [node 3] TcpNewReno:DupAck(): Dupack in fast recovery mode. Increase cwnd to 50384
18.122s 3 18.122 [node 3] TcpNewReno:DupAck(): Dupack in fast recovery mode. Increase cwnd to 50920
18.123s 3 18.123 [node 3] TcpNewReno:DupAck(): Dupack in fast recovery mode. Increase cwnd to 51456
18.124s 3 18.124 [node 3] TcpNewReno:DupAck(): Dupack in fast recovery mode. Increase cwnd to 51992
18.125s 3 18.125 [node 3] TcpNewReno:DupAck(): Dupack in fast recovery mode. Increase cwnd to 52528
18.126s 3 18.126 [node 3] TcpNewReno:DupAck(): Dupack in fast recovery mode. Increase cwnd to 53064
18.127s 3 18.127 [node 3] TcpNewReno:DupAck(): Dupack in fast recovery mode. Increase cwnd to 53600
18.128s 3 18.128 [node 3] TcpNewReno:DupAck(): Dupack in fast recovery mode. Increase cwnd to 54136
18.129s 3 18.129 [node 3] TcpNewReno:DupAck(): Dupack in fast recovery mode. Increase cwnd to 54672
18.13s 3 18.13 [node 3] TcpNewReno:DupAck(): Dupack in fast recovery mode. Increase cwnd to 55208
18.131s 3 18.131 [node 3] TcpNewReno:DupAck(): Dupack in fast recovery mode. Increase cwnd to 55744
18.132s 3 18.132 [node 3] TcpNewReno:DupAck(): Dupack in fast recovery mode. Increase cwnd to 56280
18.133s 3 18.133 [node 3] TcpNewReno:DupAck(): Dupack in fast recovery mode. Increase cwnd to 56816
18.133s 3 18.133 [node 3] TcpNewReno:DupAck(): Dupack in fast recovery mode. Increase cwnd to 57352
18.134s 3 18.134 [node 3] TcpNewReno:DupAck(): Dupack in fast recovery mode. Increase cwnd to 57888
18.135s 3 18.135 [node 3] TcpNewReno:DupAck(): Dupack in fast recovery mode. Increase cwnd to 58424
18.135s 3 18.135 [node 3] TcpNewReno:DupAck(): Dupack in fast recovery mode. Increase cwnd to 58960
18.136s 3 18.136 [node 3] TcpNewReno:DupAck(): Dupack in fast recovery mode. Increase cwnd to 59496
18.137s 3 18.137 [node 3] TcpNewReno:DupAck(): Dupack in fast recovery mode. Increase cwnd to 60032
18.137s 3 18.137 [node 3] TcpNewReno:DupAck(): Dupack in fast recovery mode. Increase cwnd to 60568
18.138s 3 18.138 [node 3] TcpNewReno:DupAck(): Dupack in fast recovery mode. Increase cwnd to 61104
18.139s 3 18.139 [node 3] TcpNewReno:DupAck(): Dupack in fast recovery mode. Increase cwnd to 61640
18.14s 3 18.14 [node 3] TcpNewReno:DupAck(): Dupack in fast recovery mode. Increase cwnd to 62176
18.141s 3 18.141 [node 3] TcpNewReno:DupAck(): Dupack in fast recovery mode. Increase cwnd to 62712
18.142s 3 18.142 [node 3] TcpNewReno:DupAck(): Dupack in fast recovery mode. Increase cwnd to 63248
18.143s 3 18.143 [node 3] TcpNewReno:DupAck(): Dupack in fast recovery mode. Increase cwnd to 63784
18.144s 3 18.144 [node 3] TcpNewReno:DupAck(): Dupack in fast recovery mode. Increase cwnd to 64320
18.145s 3 18.145 [node 3] TcpNewReno:DupAck(): Dupack in fast recovery mode. Increase cwnd to 64856
18.146s 3 18.146 [node 3] TcpNewReno:DupAck(): Dupack in fast recovery mode. Increase cwnd to 65392
18.255s 3 18.255 [node 3] TcpNewReno:DupAck(): Dupack in fast recovery mode. Increase cwnd to 65928
18.257s 3 18.257 [node 3] TcpNewReno:DupAck(): Dupack in fast recovery mode. Increase cwnd to 66464
18.258s 3 18.258 [node 3] TcpNewReno:DupAck(): Dupack in fast recovery mode. Increase cwnd to 67000
18.26s 3 18.26 [node 3] TcpNewReno:DupAck(): Dupack in fast recovery mode. Increase cwnd to 67536
18.295s 3 18.295 [node 3] TcpNewReno:DupAck(): Dupack in fast recovery mode. Increase cwnd to 68072
18.296s 3 18.296 [node 3] TcpNewReno:DupAck(): Dupack in fast recovery mode. Increase cwnd to 68608
21.335s 3 21.335 [node 3] TcpNewReno:DupAck(): Dupack in fast recovery mode. Increase cwnd to 6432
21.336s 3 21.336 [node 3] TcpNewReno:DupAck(): Dupack in fast recovery mode. Increase cwnd to 6968
21.338s 3 21.338 [node 3] TcpNewReno:DupAck(): Dupack in fast recovery mode. Increase cwnd to 7504
21.34s 3 21.34 [node 3] TcpNewReno:DupAck(): Dupack in fast recovery mode. Increase cwnd to 8040
21.341s 3 21.341 [node 3] TcpNewReno:DupAck(): Dupack in fast recovery mode. Increase cwnd to 8576
21.342s 3 21.342 [node 3] TcpNewReno:DupAck(): Dupack in fast recovery mode. Increase cwnd to 9112
21.343s 3 21.343 [node 3] TcpNewReno:DupAck(): Dupack in fast recovery mode. Increase cwnd to 9648
21.344s 3 21.344 [node 3] TcpNewReno:DupAck(): Dupack in fast recovery mode. Increase cwnd to 10184
21.346s 3 21.346 [node 3] TcpNewReno:DupAck(): Dupack in fast recovery mode. Increase cwnd to 10720
21.347s 3 21.347 [node 3] TcpNewReno:DupAck(): Dupack in fast recovery mode. Increase cwnd to 11256
21.348s 3 21.348 [node 3] TcpNewReno:DupAck(): Dupack in fast recovery mode. Increase cwnd to 11792
21.349s 3 21.349 [node 3] TcpNewReno:DupAck(): Dupack in fast recovery mode. Increase cwnd to 12328
21.35s 3 21.35 [node 3] TcpNewReno:DupAck(): Dupack in fast recovery mode. Increase cwnd to 12864
21.351s 3 21.351 [node 3] TcpNewReno:DupAck(): Dupack in fast recovery mode. Increase cwnd to 13400
21.352s 3 21.352 [node 3] TcpNewReno:DupAck(): Dupack in fast recovery mode. Increase cwnd to 13936
21.353s 3 21.353 [node 3] TcpNewReno:DupAck(): Dupack in fast recovery mode. Increase cwnd to 14472
21.354s 3 21.354 [node 3] TcpNewReno:DupAck(): Dupack in fast recovery mode. Increase cwnd to 15008
21.355s 3 21.355 [node 3] TcpNewReno:DupAck(): Dupack in fast recovery mode. Increase cwnd to 15544
21.356s 3 21.356 [node 3] TcpNewReno:DupAck(): Dupack in fast recovery mode. Increase cwnd to 16080
21.357s 3 21.357 [node 3] TcpNewReno:DupAck(): Dupack in fast recovery mode. Increase cwnd to 16616
21.358s 3 21.358 [node 3] TcpNewReno:DupAck(): Dupack in fast recovery mode. Increase cwnd to 17152
21.359s 3 21.359 [node 3] TcpNewReno:DupAck(): Dupack in fast recovery mode. Increase cwnd to 17688
21.359s 3 21.359 [node 3] TcpNewReno:DupAck(): Dupack in fast recovery mode. Increase cwnd to 18224
21.36s 3 21.36 [node 3] TcpNewReno:DupAck(): Dupack in fast recovery mode. Increase cwnd to 18760
21.361s 3 21.361 [node 3] TcpNewReno:DupAck(): Dupack in fast recovery mode. Increase cwnd to 19296
21.361s 3 21.361 [node 3] TcpNewReno:DupAck(): Dupack in fast recovery mode. Increase cwnd to 19832
21.362s 3 21.362 [node 3] TcpNewReno:DupAck(): Dupack in fast recovery mode. Increase cwnd to 20368
21.362s 3 21.362 [node 3] TcpNewReno:DupAck(): Dupack in fast recovery mode. Increase cwnd to 20904
27.994s 3 27.994 [node 3] TcpNewReno:DupAck(): Dupack in fast recovery mode. Increase cwnd to 6968
27.996s 3 27.996 [node 3] TcpNewReno:DupAck(): Dupack in fast recovery mode. Increase cwnd to 7504
27.998s 3 27.998 [node 3] TcpNewReno:DupAck(): Dupack in fast recovery mode. Increase cwnd to 8040
27.999s 3 27.999 [node 3] TcpNewReno:DupAck(): Dupack in fast recovery mode. Increase cwnd to 8576
28.001s 3 28.001 [node 3] TcpNewReno:DupAck(): Dupack in fast recovery mode. Increase cwnd to 9112
28.175s 3 28.175 [node 3] TcpNewReno:DupAck(): Dupack in fast recovery mode. Increase cwnd to 9648
28.176s 3 28.176 [node 3] TcpNewReno:DupAck(): Dupack in fast recovery mode. Increase cwnd to 10184
28.177s 3 28.177 [node 3] TcpNewReno:DupAck(): Dupack in fast recovery mode. Increase cwnd to 10720
28.178s 3 28.178 [node 3] TcpNewReno:DupAck(): Dupack in fast recovery mode. Increase cwnd to 11256
28.179s 3 28.179 [node 3] TcpNewReno:DupAck(): Dupack in fast recovery mode. Increase cwnd to 11792
28.18s 3 28.18 [node 3] TcpNewReno:DupAck(): Dupack in fast recovery mode. Increase cwnd to 12328
28.181s 3 28.181 [node 3] TcpNewReno:DupAck(): Dupack in fast recovery mode. Increase cwnd to 12864
28.182s 3 28.182 [node 3] TcpNewReno:DupAck(): Dupack in fast recovery mode. Increase cwnd to 13400
28.183s 3 28.183 [node 3] TcpNewReno:DupAck(): Dupack in fast recovery mode. Increase cwnd to 13936
28.183s 3 28.183 [node 3] TcpNewReno:DupAck(): Dupack in fast recovery mode. Increase cwnd to 14472
28.184s 3 28.184 [node 3] TcpNewReno:DupAck(): Dupack in fast recovery mode. Increase cwnd to 15008
28.185s 3 28.185 [node 3] TcpNewReno:DupAck(): Dupack in fast recovery mode. Increase cwnd to 15544
28.185s 3 28.185 [node 3] TcpNewReno:DupAck(): Dupack in fast recovery mode. Increase cwnd to 16080
28.186s 3 28.186 [node 3] TcpNewReno:DupAck(): Dupack in fast recovery mode. Increase cwnd to 16616
28.187s 3 28.187 [node 3] TcpNewReno:DupAck(): Dupack in fast recovery mode. Increase cwnd to 17152
28.187s 3 28.187 [node 3] TcpNewReno:DupAck(): Dupack in fast recovery mode. Increase cwnd to 17688
28.188s 3 28.188 [node 3] TcpNewReno:DupAck(): Dupack in fast recovery mode. Increase cwnd to 18224
28.188s 3 28.188 [node 3] TcpNewReno:DupAck(): Dupack in fast recovery mode. Increase cwnd to 18760
28.189s 3 28.189 [node 3] TcpNewReno:DupAck(): Dupack in fast recovery mode. Increase cwnd to 19296
28.19s 3 28.19 [node 3] TcpNewReno:DupAck(): Dupack in fast recovery mode. Increase cwnd to 19832
28.19s 3 28.19 [node 3] TcpNewReno:DupAck(): Dupack in fast recovery mode. Increase cwnd to 20368
28.191s 3 28.191 [node 3] TcpNewReno:DupAck(): Dupack in fast recovery mode. Increase cwnd to 20904
28.192s 3 28.192 [node 3] TcpNewReno:DupAck(): Dupack in fast recovery mode. Increase cwnd to 21440
28.192s 3 28.192 [node 3] TcpNewReno:DupAck(): Dupack in fast recovery mode. Increase cwnd to 21976
28.193s 3 28.193 [node 3] TcpNewReno:DupAck(): Dupack in fast recovery mode. Increase cwnd to 22512
28.194s 3 28.194 [node 3] TcpNewReno:DupAck(): Dupack in fast recovery mode. Increase cwnd to 23048
28.194s 3 28.194 [node 3] TcpNewReno:DupAck(): Dupack in fast recovery mode. Increase cwnd to 23584
30.984s 3 30.984 [node 3] TcpNewReno:DupAck(): Dupack in fast recovery mode. Increase cwnd to 4556
30.985s 3 30.985 [node 3] TcpNewReno:DupAck(): Dupack in fast recovery mode. Increase cwnd to 5092
30.987s 3 30.987 [node 3] TcpNewReno:DupAck(): Dupack in fast recovery mode. Increase cwnd to 5628
30.989s 3 30.989 [node 3] TcpNewReno:DupAck(): Dupack in fast recovery mode. Increase cwnd to 6164
30.99s 3 30.99 [node 3] TcpNewReno:DupAck(): Dupack in fast recovery mode. Increase cwnd to 6700
31.016s 3 31.016 [node 3] TcpNewReno:DupAck(): Dupack in fast recovery mode. Increase cwnd to 7236
31.018s 3 31.018 [node 3] TcpNewReno:DupAck(): Dupack in fast recovery mode. Increase cwnd to 7772
31.019s 3 31.019 [node 3] TcpNewReno:DupAck(): Dupack in fast recovery mode. Increase cwnd to 8308
31.021s 3 31.021 [node 3] TcpNewReno:DupAck(): Dupack in fast recovery mode. Increase cwnd to 8844
31.135s 3 31.135 [node 3] TcpNewReno:DupAck(): Dupack in fast recovery mode. Increase cwnd to 9380
31.136s 3 31.136 [node 3] TcpNewReno:DupAck(): Dupack in fast recovery mode. Increase cwnd to 9916
31.137s 3 31.137 [node 3] TcpNewReno:DupAck(): Dupack in fast recovery mode. Increase cwnd to 10452
31.138s 3 31.138 [node 3] TcpNewReno:DupAck(): Dupack in fast recovery mode. Increase cwnd to 10988
31.139s 3 31.139 [node 3] TcpNewReno:DupAck(): Dupack in fast recovery mode. Increase cwnd to 11524
31.14s 3 31.14 [node 3] TcpNewReno:DupAck(): Dupack in fast recovery mode. Increase cwnd to 12060
32.816s 3 32.816 [node 3] TcpNewReno:DupAck(): Dupack in fast recovery mode. Increase cwnd to 3752
32.817s 3 32.817 [node 3] TcpNewReno:DupAck(): Dupack in fast recovery mode. Increase cwnd to 4288
32.817s 3 32.817 [node 3] TcpNewReno:DupAck(): Dupack in fast recovery mode. Increase cwnd to 4824
32.818s 3 32.818 [node 3] TcpNewReno:DupAck(): Dupack in fast recovery mode. Increase cwnd to 5360
32.819s 3 32.819 [node 3] TcpNewReno:DupAck(): Dupack in fast recovery mode. Increase cwnd to 5896
32.819s 3 32.819 [node 3] TcpNewReno:DupAck(): Dupack in fast recovery mode. Increase cwnd to 6432
32.82s 3 32.82 [node 3] TcpNewReno:DupAck(): Dupack in fast recovery mode. Increase cwnd to 6968
32.821s 3 32.821 [node 3] TcpNewReno:DupAck(): Dupack in fast recovery mode. Increase cwnd to 7504
36.62s 3 36.62 [node 3] TcpNewReno:DupAck(): Dupack in fast recovery mode. Increase cwnd to 5360
36.621s 3 36.621 [node 3] TcpNewReno:DupAck(): Dupack in fast recovery mode. Increase cwnd to 5896
36.622s 3 36.622 [node 3] TcpNewReno:DupAck(): Dupack in fast recovery mode. Increase cwnd to 6432
36.623s 3 36.623 [node 3] TcpNewReno:DupAck(): Dupack in fast recovery mode. Increase cwnd to 6968
36.623s 3 36.623 [node 3] TcpNewReno:DupAck(): Dupack in fast recovery mode. Increase cwnd to 7504
36.624s 3 36.624 [node 3] TcpNewReno:DupAck(): Dupack in fast recovery mode. Increase cwnd to 8040
36.625s 3 36.625 [node 3] TcpNewReno:DupAck(): Dupack in fast recovery mode. Increase cwnd to 8576
36.625s 3 36.625 [node 3] TcpNewReno:DupAck(): Dupack in fast recovery mode. Increase cwnd to 9112
36.626s 3 36.626 [node 3] TcpNewReno:DupAck(): Dupack in fast recovery mode. Increase cwnd to 9648
36.626s 3 36.626 [node 3] TcpNewReno:DupAck(): Dupack in fast recovery mode. Increase cwnd to 10184
36.627s 3 36.627 [node 3] TcpNewReno:DupAck(): Dupack in fast recovery mode. Increase cwnd to 10720
36.628s 3 36.628 [node 3] TcpNewReno:DupAck(): Dupack in fast recovery mode. Increase cwnd to 11256
36.628s 3 36.628 [node 3] TcpNewReno:DupAck(): Dupack in fast recovery mode. Increase cwnd to 11792
36.629s 3 36.629 [node 3] TcpNewReno:DupAck(): Dupack in fast recovery mode. Increase cwnd to 12328
36.63s 3 36.63 [node 3] TcpNewReno:DupAck(): Dupack in fast recovery mode. Increase cwnd to 12864
36.63s 3 36.63 [node 3] TcpNewReno:DupAck(): Dupack in fast recovery mode. Increase cwnd to 13400
36.631s 3 36.631 [node 3] TcpNewReno:DupAck(): Dupack in fast recovery mode. Increase cwnd to 13936
36.631s 3 36.631 [node 3] TcpNewReno:DupAck(): Dupack in fast recovery mode. Increase cwnd to 14472
36.631s 3 36.631 [node 3] TcpNewReno:DupAck(): Dupack in fast recovery mode. Increase cwnd to 15008
36.632s 3 36.632 [node 3] TcpNewReno:DupAck(): Dupack in fast recovery mode. Increase cwnd to 15544
36.915s 3 36.915 [node 3] TcpNewReno:DupAck(): Dupack in fast recovery mode. Increase cwnd to 3216
36.915s 3 36.915 [node 3] TcpNewReno:DupAck(): Dupack in fast recovery mode. Increase cwnd to 3752
36.916s 3 36.916 [node 3] TcpNewReno:DupAck(): Dupack in fast recovery mode. Increase cwnd to 4288
36.916s 3 36.916 [node 3] TcpNewReno:DupAck(): Dupack in fast recovery mode. Increase cwnd to 4824
40.035s 3 40.035 [node 3] TcpNewReno:DupAck(): Dupack in fast recovery mode. Increase cwnd to 4556
40.176s 3 40.176 [node 3] TcpNewReno:DupAck(): Dupack in fast recovery mode. Increase cwnd to 5092
40.177s 3 40.177 [node 3] TcpNewReno:DupAck(): Dupack in fast recovery mode. Increase cwnd to 5628
40.179s 3 40.179 [node 3] TcpNewReno:DupAck(): Dupack in fast recovery mode. Increase cwnd to 6164
40.181s 3 40.181 [node 3] TcpNewReno:DupAck(): Dupack in fast recovery mode. Increase cwnd to 6700
40.182s 3 40.182 [node 3] TcpNewReno:DupAck(): Dupack in fast recovery mode. Increase cwnd to 7236
40.184s 3 40.184 [node 3] TcpNewReno:DupAck(): Dupack in fast recovery mode. Increase cwnd to 7772
40.186s 3 40.186 [node 3] TcpNewReno:DupAck(): Dupack in fast recovery mode. Increase cwnd to 8308
40.187s 3 40.187 [node 3] TcpNewReno:DupAck(): Dupack in fast recovery mode. Increase cwnd to 8844
40.189s 3 40.189 [node 3] TcpNewReno:DupAck(): Dupack in fast recovery mode. Increase cwnd to 9380
40.191s 3 40.191 [node 3] TcpNewReno:DupAck(): Dupack in fast recovery mode. Increase cwnd to 9916
40.192s 3 40.192 [node 3] TcpNewReno:DupAck(): Dupack in fast recovery mode. Increase cwnd to 10452
40.193s 3 40.193 [node 3] TcpNewReno:DupAck(): Dupack in fast recovery mode. Increase cwnd to 10988
40.195s 3 40.195 [node 3] TcpNewReno:DupAck(): Dupack in fast recovery mode. Increase cwnd to 11524
43.3s 3 43.3 [node 3] TcpNewReno:DupAck(): Dupack in fast recovery mode. Increase cwnd to 4556
43.301s 3 43.301 [node 3] TcpNewReno:DupAck(): Dupack in fast recovery mode. Increase cwnd to 5092
43.314s 3 43.314 [node 3] TcpNewReno:DupAck(): Dupack in fast recovery mode. Increase cwnd to 5628
43.314s 3 43.314 [node 3] TcpNewReno:DupAck(): Dupack in fast recovery mode. Increase cwnd to 6164
43.314s 3 43.314 [node 3] TcpNewReno:DupAck(): Dupack in fast recovery mode. Increase cwnd to 6700
43.315s 3 43.315 [node 3] TcpNewReno:DupAck(): Dupack in fast recovery mode. Increase cwnd to 7236
43.315s 3 43.315 [node 3] TcpNewReno:DupAck(): Dupack in fast recovery mode. Increase cwnd to 7772
43.315s 3 43.315 [node 3] TcpNewReno:DupAck(): Dupack in fast recovery mode. Increase cwnd to 8308
43.316s 3 43.316 [node 3] TcpNewReno:DupAck(): Dupack in fast recovery mode. Increase cwnd to 8844
43.316s 3 43.316 [node 3] TcpNewReno:DupAck(): Dupack in fast recovery mode. Increase cwnd to 9380
43.316s 3 43.316 [node 3] TcpNewReno:DupAck(): Dupack in fast recovery mode. Increase cwnd to 9916
43.317s 3 43.317 [node 3] TcpNewReno:DupAck(): Dupack in fast recovery mode. Increase cwnd to 10452
45.475s 3 45.475 [node 3] TcpNewReno:DupAck(): Dupack in fast recovery mode. Increase cwnd to 3752
45.475s 3 45.475 [node 3] TcpNewReno:DupAck(): Dupack in fast recovery mode. Increase cwnd to 4288
45.476s 3 45.476 [node 3] TcpNewReno:DupAck(): Dupack in fast recovery mode. Increase cwnd to 4824
45.476s 3 45.476 [node 3] TcpNewReno:DupAck(): Dupack in fast recovery mode. Increase cwnd to 5360
45.477s 3 45.477 [node 3] TcpNewReno:DupAck(): Dupack in fast recovery mode. Increase cwnd to 5896
45.477s 3 45.477 [node 3] TcpNewReno:DupAck(): Dupack in fast recovery mode. Increase cwnd to 6432
45.478s 3 45.478 [node 3] TcpNewReno:DupAck(): Dupack in fast recovery mode. Increase cwnd to 6968
45.478s 3 45.478 [node 3] TcpNewReno:DupAck(): Dupack in fast recovery mode. Increase cwnd to 7504
46.079s 3 46.079 [node 3] TcpNewReno:DupAck(): Dupack in fast recovery mode. Increase cwnd to 3216
46.081s 3 46.081 [node 3] TcpNewReno:DupAck(): Dupack in fast recovery mode. Increase cwnd to 3752
46.082s 3 46.082 [node 3] TcpNewReno:DupAck(): Dupack in fast recovery mode. Increase cwnd to 4288
46.135s 3 46.135 [node 3] TcpNewReno:DupAck(): Dupack in fast recovery mode. Increase cwnd to 4824
47.696s 3 47.696 [node 3] TcpNewReno:DupAck(): Dupack in fast recovery mode. Increase cwnd to 3216
47.696s 3 47.696 [node 3] TcpNewReno:DupAck(): Dupack in fast recovery mode. Increase cwnd to 3752
48.396s 3 48.396 [node 3] TcpNewReno:DupAck(): Dupack in fast recovery mode. Increase cwnd to 3216
48.396s 3 48.396 [node 3] TcpNewReno:DupAck(): Dupack in fast recovery mode. Increase cwnd to 3752
51.236s 3 51.236 [node 3] TcpNewReno:DupAck(): Dupack in fast recovery mode. Increase cwnd to 4020
51.236s 3 51.236 [node 3] TcpNewReno:DupAck(): Dupack in fast recovery mode. Increase cwnd to 4556
51.237s 3 51.237 [node 3] TcpNewReno:DupAck(): Dupack in fast recovery mode. Increase cwnd to 5092
51.237s 3 51.237 [node 3] TcpNewReno:DupAck(): Dupack in fast recovery mode. Increase cwnd to 5628
51.238s 3 51.238 [node 3] TcpNewReno:DupAck(): Dupack in fast recovery mode. Increase cwnd to 6164
51.238s 3 51.238 [node 3] TcpNewReno:DupAck(): Dupack in fast recovery mode. Increase cwnd to 6700
51.239s 3 51.239 [node 3] TcpNewReno:DupAck(): Dupack in fast recovery mode. Increase cwnd to 7236
51.239s 3 51.239 [node 3] TcpNewReno:DupAck(): Dupack in fast recovery mode. Increase cwnd to 7772
51.239s 3 51.239 [node 3] TcpNewReno:DupAck(): Dupack in fast recovery mode. Increase cwnd to 8308
51.24s 3 51.24 [node 3] TcpNewReno:DupAck(): Dupack in fast recovery mode. Increase cwnd to 8844
52.32s 3 52.32 [node 3] TcpNewReno:DupAck(): Dupack in fast recovery mode. Increase cwnd to 3216
52.321s 3 52.321 [node 3] TcpNewReno:DupAck(): Dupack in fast recovery mode. Increase cwnd to 3752
52.415s 3 52.415 [node 3] TcpNewReno:DupAck(): Dupack in fast recovery mode. Increase cwnd to 4288
52.416s 3 52.416 [node 3] TcpNewReno:DupAck(): Dupack in fast recovery mode. Increase cwnd to 4824
55.759s 3 55.759 [node 3] TcpNewReno:DupAck(): Dupack in fast recovery mode. Increase cwnd to 4824
55.76s 3 55.76 [node 3] TcpNewReno:DupAck(): Dupack in fast recovery mode. Increase cwnd to 5360
55.761s 3 55.761 [node 3] TcpNewReno:DupAck(): Dupack in fast recovery mode. Increase cwnd to 5896
55.762s 3 55.762 [node 3] TcpNewReno:DupAck(): Dupack in fast recovery mode. Increase cwnd to 6432
55.763s 3 55.763 [node 3] TcpNewReno:DupAck(): Dupack in fast recovery mode. Increase cwnd to 6968
55.764s 3 55.764 [node 3] TcpNewReno:DupAck(): Dupack in fast recovery mode. Increase cwnd to 7504
55.765s 3 55.765 [node 3] TcpNewReno:DupAck(): Dupack in fast recovery mode. Increase cwnd to 8040
55.766s 3 55.766 [node 3] TcpNewReno:DupAck(): Dupack in fast recovery mode. Increase cwnd to 8576
55.768s 3 55.768 [node 3] TcpNewReno:DupAck(): Dupack in fast recovery mode. Increase cwnd to 9112
55.769s 3 55.769 [node 3] TcpNewReno:DupAck(): Dupack in fast recovery mode. Increase cwnd to 9648
55.77s 3 55.77 [node 3] TcpNewReno:DupAck(): Dupack in fast recovery mode. Increase cwnd to 10184
55.771s 3 55.771 [node 3] TcpNewReno:DupAck(): Dupack in fast recovery mode. Increase cwnd to 10720
55.772s 3 55.772 [node 3] TcpNewReno:DupAck(): Dupack in fast recovery mode. Increase cwnd to 11256
55.773s 3 55.773 [node 3] TcpNewReno:DupAck(): Dupack in fast recovery mode. Increase cwnd to 11792
55.774s 3 55.774 [node 3] TcpNewReno:DupAck(): Dupack in fast recovery mode. Increase cwnd to 12328
55.775s 3 55.775 [node 3] TcpNewReno:DupAck(): Dupack in fast recovery mode. Increase cwnd to 12864
58.855s 3 58.855 [node 3] TcpNewReno:DupAck(): Dupack in fast recovery mode. Increase cwnd to 4824
58.856s 3 58.856 [node 3] TcpNewReno:DupAck(): Dupack in fast recovery mode. Increase cwnd to 5360
58.856s 3 58.856 [node 3] TcpNewReno:DupAck(): Dupack in fast recovery mode. Increase cwnd to 5896
58.856s 3 58.856 [node 3] TcpNewReno:DupAck(): Dupack in fast recovery mode. Increase cwnd to 6432
58.857s 3 58.857 [node 3] TcpNewReno:DupAck(): Dupack in fast recovery mode. Increase cwnd to 6968
58.857s 3 58.857 [node 3] TcpNewReno:DupAck(): Dupack in fast recovery mode. Increase cwnd to 7504
58.857s 3 58.857 [node 3] TcpNewReno:DupAck(): Dupack in fast recovery mode. Increase cwnd to 8040
58.858s 3 58.858 [node 3] TcpNewReno:DupAck(): Dupack in fast recovery mode. Increase cwnd to 8576
58.858s 3 58.858 [node 3] TcpNewReno:DupAck(): Dupack in fast recovery mode. Increase cwnd to 9112
58.858s 3 58.858 [node 3] TcpNewReno:DupAck(): Dupack in fast recovery mode. Increase cwnd to 9648
58.859s 3 58.859 [node 3] TcpNewReno:DupAck(): Dupack in fast recovery mode. Increase cwnd to 10184
58.859s 3 58.859 [node 3] TcpNewReno:DupAck(): Dupack in fast recovery mode. Increase cwnd to 10720
58.859s 3 58.859 [node 3] TcpNewReno:DupAck(): Dupack in fast recovery mode. Increase cwnd to 11256
58.86s 3 58.86 [node 3] TcpNewReno:DupAck(): Dupack in fast recovery mode. Increase cwnd to 11792
58.86s 3 58.86 [node 3] TcpNewReno:DupAck(): Dupack in fast recovery mode. Increase cwnd to 12328
58.86s 3 58.86 [node 3] TcpNewReno:DupAck(): Dupack in fast recovery mode. Increase cwnd to 12864
59.515s 3 59.515 [node 3] TcpNewReno:DupAck(): Dupack in fast recovery mode. Increase cwnd to 3216
59.515s 3 59.515 [node 3] TcpNewReno:DupAck(): Dupack in fast recovery mode. Increase cwnd to 3752
59.516s 3 59.516 [node 3] TcpNewReno:DupAck(): Dupack in fast recovery mode. Increase cwnd to 4288
59.516s 3 59.516 [node 3] TcpNewReno:DupAck(): Dupack in fast recovery mode. Increase cwnd to 4824
66.334s 3 66.334 [node 3] TcpNewReno:DupAck(): Dupack in fast recovery mode. Increase cwnd to 5896
66.336s 3 66.336 [node 3] TcpNewReno:DupAck(): Dupack in fast recovery mode. Increase cwnd to 6432
66.375s 3 66.375 [node 3] TcpNewReno:DupAck(): Dupack in fast recovery mode. Increase cwnd to 6968
66.375s 3 66.375 [node 3] TcpNewReno:DupAck(): Dupack in fast recovery mode. Increase cwnd to 7504
66.376s 3 66.376 [node 3] TcpNewReno:DupAck(): Dupack in fast recovery mode. Increase cwnd to 8040
66.377s 3 66.377 [node 3] TcpNewReno:DupAck(): Dupack in fast recovery mode. Increase cwnd to 8576
66.377s 3 66.377 [node 3] TcpNewReno:DupAck(): Dupack in fast recovery mode. Increase cwnd to 9112
66.378s 3 66.378 [node 3] TcpNewReno:DupAck(): Dupack in fast recovery mode. Increase cwnd to 9648
66.379s 3 66.379 [node 3] TcpNewReno:DupAck(): Dupack in fast recovery mode. Increase cwnd to 10184
66.379s 3 66.379 [node 3] TcpNewReno:DupAck(): Dupack in fast recovery mode. Increase cwnd to 10720
66.38s 3 66.38 [node 3] TcpNewReno:DupAck(): Dupack in fast recovery mode. Increase cwnd to 11256
66.381s 3 66.381 [node 3] TcpNewReno:DupAck(): Dupack in fast recovery mode. Increase cwnd to 11792
66.381s 3 66.381 [node 3] TcpNewReno:DupAck(): Dupack in fast recovery mode. Increase cwnd to 12328
66.382s 3 66.382 [node 3] TcpNewReno:DupAck(): Dupack in fast recovery mode. Increase cwnd to 12864
66.383s 3 66.383 [node 3] TcpNewReno:DupAck(): Dupack in fast recovery mode. Increase cwnd to 13400
66.383s 3 66.383 [node 3] TcpNewReno:DupAck(): Dupack in fast recovery mode. Increase cwnd to 13936
66.384s 3 66.384 [node 3] TcpNewReno:DupAck(): Dupack in fast recovery mode. Increase cwnd to 14472
66.385s 3 66.385 [node 3] TcpNewReno:DupAck(): Dupack in fast recovery mode. Increase cwnd to 15008
66.385s 3 66.385 [node 3] TcpNewReno:DupAck(): Dupack in fast recovery mode. Increase cwnd to 15544
66.386s 3 66.386 [node 3] TcpNewReno:DupAck(): Dupack in fast recovery mode. Increase cwnd to 16080
66.386s 3 66.386 [node 3] TcpNewReno:DupAck(): Dupack in fast recovery mode. Increase cwnd to 16616
66.387s 3 66.387 [node 3] TcpNewReno:DupAck(): Dupack in fast recovery mode. Increase cwnd to 17152
66.388s 3 66.388 [node 3] TcpNewReno:DupAck(): Dupack in fast recovery mode. Increase cwnd to 17688
66.388s 3 66.388 [node 3] TcpNewReno:DupAck(): Dupack in fast recovery mode. Increase cwnd to 18224
68.119s 3 68.119 [node 3] TcpNewReno:DupAck(): Dupack in fast recovery mode. Increase cwnd to 4288
68.12s 3 68.12 [node 3] TcpNewReno:DupAck(): Dupack in fast recovery mode. Increase cwnd to 4824
68.121s 3 68.121 [node 3] TcpNewReno:DupAck(): Dupack in fast recovery mode. Increase cwnd to 5360
68.122s 3 68.122 [node 3] TcpNewReno:DupAck(): Dupack in fast recovery mode. Increase cwnd to 5896
68.123s 3 68.123 [node 3] TcpNewReno:DupAck(): Dupack in fast recovery mode. Increase cwnd to 6432
68.125s 3 68.125 [node 3] TcpNewReno:DupAck(): Dupack in fast recovery mode. Increase cwnd to 6968
68.126s 3 68.126 [node 3] TcpNewReno:DupAck(): Dupack in fast recovery mode. Increase cwnd to 7504
68.128s 3 68.128 [node 3] TcpNewReno:DupAck(): Dupack in fast recovery mode. Increase cwnd to 8040
68.13s 3 68.13 [node 3] TcpNewReno:DupAck(): Dupack in fast recovery mode. Increase cwnd to 8576
68.131s 3 68.131 [node 3] TcpNewReno:DupAck(): Dupack in fast recovery mode. Increase cwnd to 9112
69.141s 3 69.141 [node 3] TcpNewReno:DupAck(): Dupack in fast recovery mode. Increase cwnd to 4288
69.142s 3 69.142 [node 3] TcpNewReno:DupAck(): Dupack in fast recovery mode. Increase cwnd to 4824
69.142s 3 69.142 [node 3] TcpNewReno:DupAck(): Dupack in fast recovery mode. Increase cwnd to 5360
69.143s 3 69.143 [node 3] TcpNewReno:DupAck(): Dupack in fast recovery mode. Increase cwnd to 5896
69.143s 3 69.143 [node 3] TcpNewReno:DupAck(): Dupack in fast recovery mode. Increase cwnd to 6432
69.144s 3 69.144 [node 3] TcpNewReno:DupAck(): Dupack in fast recovery mode. Increase cwnd to 6968
69.145s 3 69.145 [node 3] TcpNewReno:DupAck(): Dupack in fast recovery mode. Increase cwnd to 7504
69.145s 3 69.145 [node 3] TcpNewReno:DupAck(): Dupack in fast recovery mode. Increase cwnd to 8040
69.146s 3 69.146 [node 3] TcpNewReno:DupAck(): Dupack in fast recovery mode. Increase cwnd to 8576
69.147s 3 69.147 [node 3] TcpNewReno:DupAck(): Dupack in fast recovery mode. Increase cwnd to 9112
69.147s 3 69.147 [node 3] TcpNewReno:DupAck(): Dupack in fast recovery mode. Increase cwnd to 9648
69.836s 3 69.836 [node 3] TcpNewReno:DupAck(): Dupack in fast recovery mode. Increase cwnd to 3216
73.26s 3 73.26 [node 3] TcpNewReno:DupAck(): Dupack in fast recovery mode. Increase cwnd to 4824
73.26s 3 73.26 [node 3] TcpNewReno:DupAck(): Dupack in fast recovery mode. Increase cwnd to 5360
73.261s 3 73.261 [node 3] TcpNewReno:DupAck(): Dupack in fast recovery mode. Increase cwnd to 5896
73.261s 3 73.261 [node 3] TcpNewReno:DupAck(): Dupack in fast recovery mode. Increase cwnd to 6432
73.261s 3 73.261 [node 3] TcpNewReno:DupAck(): Dupack in fast recovery mode. Increase cwnd to 6968
73.262s 3 73.262 [node 3] TcpNewReno:DupAck(): Dupack in fast recovery mode. Increase cwnd to 7504
73.274s 3 73.274 [node 3] TcpNewReno:DupAck(): Dupack in fast recovery mode. Increase cwnd to 8040
73.274s 3 73.274 [node 3] TcpNewReno:DupAck(): Dupack in fast recovery mode. Increase cwnd to 8576
73.274s 3 73.274 [node 3] TcpNewReno:DupAck(): Dupack in fast recovery mode. Increase cwnd to 9112
73.275s 3 73.275 [node 3] TcpNewReno:DupAck(): Dupack in fast recovery mode. Increase cwnd to 9648
73.275s 3 73.275 [node 3] TcpNewReno:DupAck(): Dupack in fast recovery mode. Increase cwnd to 10184
73.275s 3 73.275 [node 3] TcpNewReno:DupAck(): Dupack in fast recovery mode. Increase cwnd to 10720
73.276s 3 73.276 [node 3] TcpNewReno:DupAck(): Dupack in fast recovery mode. Increase cwnd to 11256
73.276s 3 73.276 [node 3] TcpNewReno:DupAck(): Dupack in fast recovery mode. Increase cwnd to 11792
73.276s 3 73.276 [node 3] TcpNewReno:DupAck(): Dupack in fast recovery mode. Increase cwnd to 12328
73.277s 3 73.277 [node 3] TcpNewReno:DupAck(): Dupack in fast recovery mode. Increase cwnd to 12864
74.095s 3 74.095 [node 3] TcpNewReno:DupAck(): Dupack in fast recovery mode. Increase cwnd to 3216
74.096s 3 74.096 [node 3] TcpNewReno:DupAck(): Dupack in fast recovery mode. Increase cwnd to 3752
74.096s 3 74.096 [node 3] TcpNewReno:DupAck(): Dupack in fast recovery mode. Increase cwnd to 4288
74.096s 3 74.096 [node 3] TcpNewReno:DupAck(): Dupack in fast recovery mode. Increase cwnd to 4824
75.438s 3 75.438 [node 3] TcpNewReno:DupAck(): Dupack in fast recovery mode. Increase cwnd to 3216
75.439s 3 75.439 [node 3] TcpNewReno:DupAck(): Dupack in fast recovery mode. Increase cwnd to 3752
80.674s 3 80.674 [node 3] TcpNewReno:DupAck(): Dupack in fast recovery mode. Increase cwnd to 5092
80.675s 3 80.675 [node 3] TcpNewReno:DupAck(): Dupack in fast recovery mode. Increase cwnd to 5628
80.675s 3 80.675 [node 3] TcpNewReno:DupAck(): Dupack in fast recovery mode. Increase cwnd to 6164
80.675s 3 80.675 [node 3] TcpNewReno:DupAck(): Dupack in fast recovery mode. Increase cwnd to 6700
80.676s 3 80.676 [node 3] TcpNewReno:DupAck(): Dupack in fast recovery mode. Increase cwnd to 7236
80.676s 3 80.676 [node 3] TcpNewReno:DupAck(): Dupack in fast recovery mode. Increase cwnd to 7772
80.676s 3 80.676 [node 3] TcpNewReno:DupAck(): Dupack in fast recovery mode. Increase cwnd to 8308
80.677s 3 80.677 [node 3] TcpNewReno:DupAck(): Dupack in fast recovery mode. Increase cwnd to 8844
80.677s 3 80.677 [node 3] TcpNewReno:DupAck(): Dupack in fast recovery mode. Increase cwnd to 9380
80.677s 3 80.677 [node 3] TcpNewReno:DupAck(): Dupack in fast recovery mode. Increase cwnd to 9916
80.678s 3 80.678 [node 3] TcpNewReno:DupAck(): Dupack in fast recovery mode. Increase cwnd to 10452
80.678s 3 80.678 [node 3] TcpNewReno:DupAck(): Dupack in fast recovery mode. Increase cwnd to 10988
80.678s 3 80.678 [node 3] TcpNewReno:DupAck(): Dupack in fast recovery mode. Increase cwnd to 11524
80.679s 3 80.679 [node 3] TcpNewReno:DupAck(): Dupack in fast recovery mode. Increase cwnd to 12060
80.679s 3 80.679 [node 3] TcpNewReno:DupAck(): Dupack in fast recovery mode. Increase cwnd to 12596
80.679s 3 80.679 [node 3] TcpNewReno:DupAck(): Dupack in fast recovery mode. Increase cwnd to 13132
80.68s 3 80.68 [node 3] TcpNewReno:DupAck(): Dupack in fast recovery mode. Increase cwnd to 13668
80.68s 3 80.68 [node 3] TcpNewReno:DupAck(): Dupack in fast recovery mode. Increase cwnd to 14204
82.239s 3 82.239 [node 3] TcpNewReno:DupAck(): Dupack in fast recovery mode. Increase cwnd to 3216
82.24s 3 82.24 [node 3] TcpNewReno:DupAck(): Dupack in fast recovery mode. Increase cwnd to 3752
82.241s 3 82.241 [node 3] TcpNewReno:DupAck(): Dupack in fast recovery mode. Increase cwnd to 4288
82.242s 3 82.242 [node 3] TcpNewReno:DupAck(): Dupack in fast recovery mode. Increase cwnd to 4824
82.836s 3 82.836 [node 3] TcpNewReno:DupAck(): Dupack in fast recovery mode. Increase cwnd to 3216
82.837s 3 82.837 [node 3] TcpNewReno:DupAck(): Dupack in fast recovery mode. Increase cwnd to 3752
85.197s 3 85.197 [node 3] TcpNewReno:DupAck(): Dupack in fast recovery mode. Increase cwnd to 3484
85.198s 3 85.198 [node 3] TcpNewReno:DupAck(): Dupack in fast recovery mode. Increase cwnd to 4020
85.198s 3 85.198 [node 3] TcpNewReno:DupAck(): Dupack in fast recovery mode. Increase cwnd to 4556
85.199s 3 85.199 [node 3] TcpNewReno:DupAck(): Dupack in fast recovery mode. Increase cwnd to 5092
91.038s 3 91.038 [node 3] TcpNewReno:DupAck(): Dupack in fast recovery mode. Increase cwnd to 3484
91.039s 3 91.039 [node 3] TcpNewReno:DupAck(): Dupack in fast recovery mode. Increase cwnd to 4020
91.04s 3 91.04 [node 3] TcpNewReno:DupAck(): Dupack in fast recovery mode. Increase cwnd to 4556
91.041s 3 91.041 [node 3] TcpNewReno:DupAck(): Dupack in fast recovery mode. Increase cwnd to 5092
91.215s 3 91.215 [node 3] TcpNewReno:DupAck(): Dupack in fast recovery mode. Increase cwnd to 5628
91.216s 3 91.216 [node 3] TcpNewReno:DupAck(): Dupack in fast recovery mode. Increase cwnd to 6164
94.54s 3 94.54 [node 3] TcpNewReno:DupAck(): Dupack in fast recovery mode. Increase cwnd to 4556
94.541s 3 94.541 [node 3] TcpNewReno:DupAck(): Dupack in fast recovery mode. Increase cwnd to 5092
94.542s 3 94.542 [node 3] TcpNewReno:DupAck(): Dupack in fast recovery mode. Increase cwnd to 5628
94.543s 3 94.543 [node 3] TcpNewReno:DupAck(): Dupack in fast recovery mode. Increase cwnd to 6164
94.544s 3 94.544 [node 3] TcpNewReno:DupAck(): Dupack in fast recovery mode. Increase cwnd to 6700
94.545s 3 94.545 [node 3] TcpNewReno:DupAck(): Dupack in fast recovery mode. Increase cwnd to 7236
94.546s 3 94.546 [node 3] TcpNewReno:DupAck(): Dupack in fast recovery mode. Increase cwnd to 7772
94.547s 3 94.547 [node 3] TcpNewReno:DupAck(): Dupack in fast recovery mode. Increase cwnd to 8308
94.548s 3 94.548 [node 3] TcpNewReno:DupAck(): Dupack in fast recovery mode. Increase cwnd to 8844
94.549s 3 94.549 [node 3] TcpNewReno:DupAck(): Dupack in fast recovery mode. Increase cwnd to 9380
94.55s 3 94.55 [node 3] TcpNewReno:DupAck(): Dupack in fast recovery mode. Increase cwnd to 9916
94.551s 3 94.551 [node 3] TcpNewReno:DupAck(): Dupack in fast recovery mode. Increase cwnd to 10452
94.552s 3 94.552 [node 3] TcpNewReno:DupAck(): Dupack in fast recovery mode. Increase cwnd to 10988
94.553s 3 94.553 [node 3] TcpNewReno:DupAck(): Dupack in fast recovery mode. Increase cwnd to 11524
95.398s 3 95.398 [node 3] TcpNewReno:DupAck(): Dupack in fast recovery mode. Increase cwnd to 3216
95.399s 3 95.399 [node 3] TcpNewReno:DupAck(): Dupack in fast recovery mode. Increase cwnd to 3752
