<?xml version="1.0" encoding="utf-8"  standalone="no"?>
<!DOCTYPE svg PUBLIC "-//W3C//DTD SVG 1.1//EN" 
 "http://www.w3.org/Graphics/SVG/1.1/DTD/svg11.dtd">
<svg 
 width="600" height="480" 
 viewBox="0 0 600 480"
 xmlns="http://www.w3.org/2000/svg"
 xmlns:xlink="http://www.w3.org/1999/xlink"
>

<title>Gnuplot</title>
<desc>Produced by GNUPLOT 4.6 patchlevel 1 </desc>

<g id="gnuplot_canvas">

<rect x="0" y="0" width="600" height="480" fill="none"/>
<defs>

	<circle id='gpDot' r='0.5' stroke-width='0.5'/>
	<path id='gpPt0' stroke-width='0.222' stroke='currentColor' d='M-1,0 h2 M0,-1 v2'/>
	<path id='gpPt1' stroke-width='0.222' stroke='currentColor' d='M-1,-1 L1,1 M1,-1 L-1,1'/>
	<path id='gpPt2' stroke-width='0.222' stroke='currentColor' d='M-1,0 L1,0 M0,-1 L0,1 M-1,-1 L1,1 M-1,1 L1,-1'/>
	<rect id='gpPt3' stroke-width='0.222' stroke='currentColor' x='-1' y='-1' width='2' height='2'/>
	<rect id='gpPt4' stroke-width='0.222' stroke='currentColor' fill='currentColor' x='-1' y='-1' width='2' height='2'/>
	<circle id='gpPt5' stroke-width='0.222' stroke='currentColor' cx='0' cy='0' r='1'/>
	<use xlink:href='#gpPt5' id='gpPt6' fill='currentColor' stroke='none'/>
	<path id='gpPt7' stroke-width='0.222' stroke='currentColor' d='M0,-1.33 L-1.33,0.67 L1.33,0.67 z'/>
	<use xlink:href='#gpPt7' id='gpPt8' fill='currentColor' stroke='none'/>
	<use xlink:href='#gpPt7' id='gpPt9' stroke='currentColor' transform='rotate(180)'/>
	<use xlink:href='#gpPt9' id='gpPt10' fill='currentColor' stroke='none'/>
	<use xlink:href='#gpPt3' id='gpPt11' stroke='currentColor' transform='rotate(45)'/>
	<use xlink:href='#gpPt11' id='gpPt12' fill='currentColor' stroke='none'/>
</defs>
<g style="fill:none; color:white; stroke:currentColor; stroke-width:1.00; stroke-linecap:butt; stroke-linejoin:miter">
</g>
<g style="fill:none; color:black; stroke:currentColor; stroke-width:1.00; stroke-linecap:butt; stroke-linejoin:miter">
	<path  d='M88.5,422.4 L97.5,422.4 M575.0,422.4 L566.0,422.4  h0.01'/>	<g transform="translate(80.2,426.9)" style="stroke:none; fill:black; font-family:Arial; font-size:12.00pt; text-anchor:end">
		<text> 0</text>
	</g>
	<path  d='M88.5,376.4 L97.5,376.4 M575.0,376.4 L566.0,376.4  h0.01'/>	<g transform="translate(80.2,380.9)" style="stroke:none; fill:black; font-family:Arial; font-size:12.00pt; text-anchor:end">
		<text> 10000</text>
	</g>
	<path  d='M88.5,330.3 L97.5,330.3 M575.0,330.3 L566.0,330.3  h0.01'/>	<g transform="translate(80.2,334.8)" style="stroke:none; fill:black; font-family:Arial; font-size:12.00pt; text-anchor:end">
		<text> 20000</text>
	</g>
	<path  d='M88.5,284.3 L97.5,284.3 M575.0,284.3 L566.0,284.3  h0.01'/>	<g transform="translate(80.2,288.8)" style="stroke:none; fill:black; font-family:Arial; font-size:12.00pt; text-anchor:end">
		<text> 30000</text>
	</g>
	<path  d='M88.5,238.2 L97.5,238.2 M575.0,238.2 L566.0,238.2  h0.01'/>	<g transform="translate(80.2,242.7)" style="stroke:none; fill:black; font-family:Arial; font-size:12.00pt; text-anchor:end">
		<text> 40000</text>
	</g>
	<path  d='M88.5,192.2 L97.5,192.2 M575.0,192.2 L566.0,192.2  h0.01'/>	<g transform="translate(80.2,196.7)" style="stroke:none; fill:black; font-family:Arial; font-size:12.00pt; text-anchor:end">
		<text> 50000</text>
	</g>
	<path  d='M88.5,146.2 L97.5,146.2 M575.0,146.2 L566.0,146.2  h0.01'/>	<g transform="translate(80.2,150.7)" style="stroke:none; fill:black; font-family:Arial; font-size:12.00pt; text-anchor:end">
		<text> 60000</text>
	</g>
	<path  d='M88.5,100.1 L97.5,100.1 M575.0,100.1 L566.0,100.1  h0.01'/>	<g transform="translate(80.2,104.6)" style="stroke:none; fill:black; font-family:Arial; font-size:12.00pt; text-anchor:end">
		<text> 70000</text>
	</g>
	<path  d='M88.5,54.1 L97.5,54.1 M575.0,54.1 L566.0,54.1  h0.01'/>	<g transform="translate(80.2,58.6)" style="stroke:none; fill:black; font-family:Arial; font-size:12.00pt; text-anchor:end">
		<text> 80000</text>
	</g>
	<path  d='M88.5,422.4 L88.5,413.4 M88.5,54.1 L88.5,63.1  h0.01'/>	<g transform="translate(88.5,444.9)" style="stroke:none; fill:black; font-family:Arial; font-size:12.00pt; text-anchor:middle">
		<text> 0</text>
	</g>
	<path  d='M137.2,422.4 L137.2,413.4 M137.2,54.1 L137.2,63.1  h0.01'/>	<g transform="translate(137.2,444.9)" style="stroke:none; fill:black; font-family:Arial; font-size:12.00pt; text-anchor:middle">
		<text> 10</text>
	</g>
	<path  d='M185.8,422.4 L185.8,413.4 M185.8,54.1 L185.8,63.1  h0.01'/>	<g transform="translate(185.8,444.9)" style="stroke:none; fill:black; font-family:Arial; font-size:12.00pt; text-anchor:middle">
		<text> 20</text>
	</g>
	<path  d='M234.5,422.4 L234.5,413.4 M234.5,54.1 L234.5,63.1  h0.01'/>	<g transform="translate(234.5,444.9)" style="stroke:none; fill:black; font-family:Arial; font-size:12.00pt; text-anchor:middle">
		<text> 30</text>
	</g>
	<path  d='M283.1,422.4 L283.1,413.4 M283.1,54.1 L283.1,63.1  h0.01'/>	<g transform="translate(283.1,444.9)" style="stroke:none; fill:black; font-family:Arial; font-size:12.00pt; text-anchor:middle">
		<text> 40</text>
	</g>
	<path  d='M331.8,422.4 L331.8,413.4 M331.8,54.1 L331.8,63.1  h0.01'/>	<g transform="translate(331.8,444.9)" style="stroke:none; fill:black; font-family:Arial; font-size:12.00pt; text-anchor:middle">
		<text> 50</text>
	</g>
	<path  d='M380.4,422.4 L380.4,413.4 M380.4,54.1 L380.4,63.1  h0.01'/>	<g transform="translate(380.4,444.9)" style="stroke:none; fill:black; font-family:Arial; font-size:12.00pt; text-anchor:middle">
		<text> 60</text>
	</g>
	<path  d='M429.1,422.4 L429.1,413.4 M429.1,54.1 L429.1,63.1  h0.01'/>	<g transform="translate(429.1,444.9)" style="stroke:none; fill:black; font-family:Arial; font-size:12.00pt; text-anchor:middle">
		<text> 70</text>
	</g>
	<path  d='M477.7,422.4 L477.7,413.4 M477.7,54.1 L477.7,63.1  h0.01'/>	<g transform="translate(477.7,444.9)" style="stroke:none; fill:black; font-family:Arial; font-size:12.00pt; text-anchor:middle">
		<text> 80</text>
	</g>
	<path  d='M526.4,422.4 L526.4,413.4 M526.4,54.1 L526.4,63.1  h0.01'/>	<g transform="translate(526.4,444.9)" style="stroke:none; fill:black; font-family:Arial; font-size:12.00pt; text-anchor:middle">
		<text> 90</text>
	</g>
	<path  d='M575.0,422.4 L575.0,413.4 M575.0,54.1 L575.0,63.1  h0.01'/>	<g transform="translate(575.0,444.9)" style="stroke:none; fill:black; font-family:Arial; font-size:12.00pt; text-anchor:middle">
		<text> 100</text>
	</g>
	<path  d='M88.5,54.1 L88.5,422.4 L575.0,422.4 L575.0,54.1 L88.5,54.1 Z  h0.01'/>	<g transform="translate(17.6,238.3) rotate(270)" style="stroke:none; fill:black; font-family:Arial; font-size:12.00pt; text-anchor:middle">
		<text>value (bytes)</text>
	</g>
	<g transform="translate(331.7,471.9)" style="stroke:none; fill:black; font-family:Arial; font-size:12.00pt; text-anchor:middle">
		<text>Time (s)</text>
	</g>
	<g transform="translate(331.7,31.6)" style="stroke:none; fill:black; font-family:Arial; font-size:12.00pt; text-anchor:middle">
		<text>Congestion window 700m, 3kmph: Uplink UDP</text>
	</g>
	<path  d='M333.6,153.1 L333.6,63.1 L566.7,63.1 L566.7,153.1 L333.6,153.1 Z  h0.01'/></g>
	<g id="gnuplot_plot_1" ><title>gnuplot_plot_1</title>
<g style="fill:none; color:red; stroke:currentColor; stroke-width:1.00; stroke-linecap:butt; stroke-linejoin:miter">
	<g transform="translate(507.9,76.6)" style="stroke:none; fill:black; font-family:Arial; font-size:12.00pt; text-anchor:end">
		<text>cwnd</text>
	</g>
	<path  d='M516.2,72.1 L558.4,72.1 M91.5,417.5 L91.6,415.0 L91.9,412.5 L92.5,410.1 L92.5,407.6 L92.6,405.1 
		L92.6,402.7 L92.9,400.2 L92.9,397.7 L92.9,395.3 L92.9,392.8 L93.0,390.3 L93.0,387.9 L93.0,385.4 
		L93.0,382.9 L93.8,380.5 L93.8,378.0 L93.9,375.5 L93.9,373.0 L94.0,370.6 L94.0,368.1 L95.0,365.6 
		L95.0,363.2 L95.0,360.7 L95.0,358.2 L95.0,355.8 L95.0,353.3 L95.0,350.8 L95.0,348.4 L95.0,345.9 
		L95.0,343.4 L95.1,341.0 L95.1,338.5 L95.1,336.0 L95.1,333.6 L95.1,331.1 L95.1,328.6 L95.1,326.2 
		L95.1,323.7 L95.1,321.2 L95.1,318.8 L95.1,316.3 L95.1,313.8 L95.1,311.4 L95.1,308.9 L95.1,306.4 
		L95.1,304.0 L95.1,301.5 L95.1,299.0 L95.1,296.6 L95.1,294.1 L95.2,291.6 L95.2,289.1 L95.2,286.7 
		L95.2,284.2 L95.2,281.7 L95.2,279.3 L95.2,276.8 L95.2,274.3 L95.2,271.9 L95.2,269.4 L95.2,266.9 
		L95.2,264.5 L95.2,262.0 L95.2,259.5 L95.2,257.1 L95.2,254.6 L95.2,252.1 L95.2,249.7 L95.2,247.2 
		L95.2,244.7 L95.2,242.3 L95.2,239.8 L95.2,237.3 L95.2,234.9 L95.2,232.4 L95.4,229.9 L95.4,227.5 
		L95.4,225.0 L95.4,222.5 L95.4,220.1 L95.4,217.6 L95.4,215.1 L95.4,212.7 L95.4,210.2 L95.4,207.7 
		L95.4,205.3 L95.4,202.8 L95.4,200.3 L95.4,197.8 L95.5,195.4 L95.5,192.9 L95.5,190.4 L95.5,188.0 
		L95.5,185.5 L95.5,183.0 L95.5,180.6 L95.5,178.1 L95.5,175.6 L95.5,173.2 L95.5,170.7 L95.5,168.2 
		L95.5,165.8 L95.5,163.3 L95.5,160.8 L95.5,158.4 L95.5,155.9 L95.6,153.4 L95.6,151.0 L95.6,148.5 
		L95.6,146.0 L95.6,143.6 L95.6,141.1 L95.6,138.6 L95.6,136.2 L95.6,133.7 L95.7,131.2 L96.4,128.8 
		L96.4,126.3 L96.4,123.8 L96.4,121.4 L96.4,118.9 L96.4,118.8 L96.5,118.8 L96.5,118.7 L96.5,118.6 
		L96.5,118.5 L96.6,118.5 L96.7,118.4 L96.8,118.4 L97.3,118.4 L97.3,118.3 L97.4,118.3 L97.4,118.2 
		L97.5,118.1 L97.9,118.1 L97.9,118.0 L98.0,118.0 L98.0,117.9 L98.7,117.9 L98.7,117.8 L99.7,117.8 
		L99.9,117.8 L99.9,117.7 L100.2,117.7 L100.3,117.7 L100.3,117.6 L100.3,117.5 L100.4,117.4 L101.4,117.4 
		L102.6,117.4 L102.6,117.3 L102.7,117.3 L102.7,117.2 L102.8,117.1 L102.8,117.0 L102.9,117.0 L103.9,117.0 
		L103.9,116.9 L104.0,116.9 L104.0,116.8 L104.0,116.7 L104.0,116.6 L104.0,116.5 L104.1,116.5 L104.1,116.4 
		L104.1,116.3 L104.1,116.2 L104.1,116.1 L104.2,116.1 L104.2,116.0 L104.2,115.9 L104.2,115.8 L104.3,115.8 
		L105.1,115.8 L105.2,115.8 L105.5,115.7 L105.5,115.6 L105.6,115.6 L105.6,115.5 L106.3,115.5 L106.3,115.4 
		L106.3,115.3 L106.3,115.2 L106.4,115.2 L106.4,115.1 L106.4,115.0 L106.4,114.9 L106.5,114.9 L106.5,114.8 
		L106.9,114.8 L106.9,114.7 L106.9,114.6 L106.9,114.5 L107.0,114.5 L107.0,114.4 L107.0,114.3 L107.0,114.2 
		L107.0,114.1 L107.1,114.1 L107.6,114.1 L107.7,114.1 L107.7,114.0 L107.7,113.9 L108.0,113.9 L108.0,113.8 
		L108.1,113.8 L108.2,113.8 L108.2,113.7 L108.2,113.6 L108.3,113.6 L108.3,113.5 L108.3,113.4 L108.3,113.3 
		L108.3,113.2 L108.3,113.1 L108.4,113.1 L108.4,113.0 L108.6,112.9 L108.7,112.9 L108.7,112.8 L110.4,112.8 
		L110.5,112.7 L110.9,112.7 L111.0,112.7 L111.0,112.6 L111.1,112.5 L111.3,112.5 L111.4,112.5 L111.9,112.5 
		L111.9,112.4 L112.0,112.4 L112.0,112.3 L112.7,112.2 L112.8,112.2 L112.9,112.1 L112.9,112.0 L113.0,112.0 
		L113.0,111.9 L113.0,111.8 L113.9,111.8 L113.9,111.7 L114.0,111.6 L114.0,111.5 L114.1,111.4 L115.1,111.4 
		L115.2,111.3 L115.3,111.3 L115.3,111.2 L115.3,111.1 L115.4,111.1 L116.3,111.0 L116.4,111.0 L117.4,111.0 
		L117.6,111.0 L117.6,110.9 L117.6,110.8 L117.7,110.8 L117.8,110.7 L118.1,110.7 L118.2,110.7 L118.2,110.6 
		L118.2,110.5 L118.2,110.4 L118.2,110.3 L118.3,110.3 L118.3,110.2 L118.3,110.1 L118.5,110.1 L118.6,110.1 
		L118.6,110.0 L118.7,110.0 L118.7,109.9 L119.5,109.9 L119.5,109.8 L119.5,109.7 L119.6,109.7 L119.6,109.6 
		L119.6,109.5 L119.6,109.4 L119.6,109.3 L119.7,109.3 L120.7,109.3 L120.7,109.2 L120.7,109.1 L120.7,109.0 
		L120.8,109.0 L121.7,109.0 L121.7,108.9 L122.6,108.8 L122.7,108.8 L122.7,108.7 L122.7,108.6 L122.7,108.5 
		L122.8,108.5 L122.8,108.4 L123.6,108.4 L123.6,108.3 L123.6,108.2 L123.7,108.2 L123.8,108.2 L123.8,108.1 
		L124.0,108.1 L124.0,108.0 L124.1,108.0 L124.4,108.0 L124.4,107.9 L125.0,107.9 L125.0,107.8 L125.1,107.8 
		L125.1,107.7 L125.7,107.7 L125.8,107.6 L126.5,107.5 L126.6,107.5 L126.6,107.4 L126.7,107.4 L126.7,107.3 
		L127.7,107.3 L127.7,107.2 L127.8,107.2 L127.8,107.1 L127.9,107.1 L128.5,107.0 L128.5,106.9 L128.5,106.8 
		L128.6,106.8 L130.2,106.8 L130.2,106.7 L130.3,106.7 L130.3,106.6 L130.3,106.5 L130.4,106.5 L130.4,106.4 
		L130.4,106.3 L130.8,106.3 L131.4,106.3 L131.4,106.2 L131.4,106.1 L131.5,106.1 L131.5,106.0 L131.5,105.9 
		L132.2,105.8 L132.3,105.7 L132.3,105.6 L132.4,105.6 L132.4,105.5 L132.8,105.5 L133.3,105.5 L133.4,105.5 
		L133.5,105.4 L133.9,105.4 L133.9,105.3 L134.0,105.3 L134.5,105.3 L134.5,105.2 L136.1,105.2 L136.1,105.1 
		L136.1,105.0 L136.1,104.9 L136.1,104.8 L136.2,104.8 L136.2,104.7 L136.2,104.6 L136.2,104.5 L136.2,104.4 
		L136.3,104.4 L136.3,104.3 L136.3,104.2 L136.3,104.1 L136.3,104.0 L136.4,104.0 L136.4,103.9 L136.4,103.8 
		L136.4,103.7 L136.5,103.7 L136.5,103.6 L136.5,103.5 L136.5,103.4 L136.6,103.4 L136.6,103.3 L136.6,103.2 
		L136.7,103.2 L136.7,103.1 L137.6,103.1 L138.6,103.1 L139.2,103.1 L139.2,103.0 L139.2,102.9 L139.2,102.8 
		L139.2,102.7 L139.3,102.7 L139.3,102.6 L139.3,102.5 L139.3,102.4 L139.3,102.3 L139.4,102.3 L139.4,102.2 
		L139.4,102.1 L139.4,102.0 L139.4,101.9 L139.5,101.9 L139.5,101.8 L139.5,101.7 L139.5,101.6 L139.6,101.6 
		L139.6,101.5 L139.6,101.4 L139.6,101.3 L140.7,101.3 L140.8,101.2 L140.8,101.1 L141.8,101.1 L142.1,101.1 
		L142.3,101.1 L142.3,101.0 L142.3,100.9 L142.3,100.8 L142.3,100.7 L142.4,100.7 L142.4,100.6 L142.4,100.5 
		L143.1,100.5 L143.1,100.4 L143.1,100.3 L143.2,100.3 L143.2,100.2 L144.2,100.2 L144.6,100.2 L145.2,100.2 
		L145.2,100.1 L145.2,100.0 L145.3,100.0 L145.3,99.9 L145.3,99.8 L145.3,99.7 L145.3,99.6 L145.4,99.6 
		L145.4,99.5 L145.8,99.5 L145.8,99.4 L145.8,99.3 L145.9,99.3 L146.2,99.3 L146.2,99.2 L146.2,99.1 
		L146.2,99.0 L146.2,98.9 L146.2,98.8 L146.3,98.7 L146.3,98.6 L146.3,98.5 L146.3,98.4 L146.3,98.3 
		L146.3,98.2 L146.3,98.1 L146.4,98.1 L146.4,98.0 L146.4,97.9 L146.4,97.8 L146.4,97.7 L146.5,97.7 
		L146.8,97.6 L147.1,97.5 L147.2,97.5 L147.2,97.4 L147.3,97.3 L149.1,97.3 L149.1,97.2 L149.1,97.1 
		L149.2,97.1 L149.2,97.0 L149.2,96.9 L149.2,96.8 L149.3,96.8 L149.3,96.7 L149.4,96.7 L149.4,96.6 
		L149.7,96.6 L149.7,96.5 L149.7,96.4 L149.7,96.3 L149.8,96.3 L149.8,96.2 L149.8,96.1 L149.9,96.1 
		L150.1,96.1 L150.1,96.0 L150.1,95.9 L150.2,95.9 L150.6,95.9 L150.7,95.9 L150.7,95.8 L150.7,95.7 
		L151.0,95.7 L151.0,95.6 L151.1,95.6 L151.1,95.5 L151.6,95.5 L151.6,95.4 L151.7,95.4 L151.7,95.3 
		L151.7,95.2 L151.7,95.1 L151.8,95.1 L151.8,95.0 L151.8,94.9 L152.8,94.9 L153.8,94.9 L154.5,94.8 
		L154.6,94.8 L154.6,94.7 L154.6,94.6 L154.6,94.5 L154.7,94.5 L154.7,94.4 L155.1,94.4 L155.2,94.4 
		L155.5,94.4 L155.5,94.3 L155.6,94.3 L155.6,94.2 L155.6,94.1 L155.6,94.0 L155.7,94.0 L155.7,93.9 
		L155.8,93.9 L155.8,93.8 L155.9,93.8 L155.9,93.7 L157.8,93.7 L157.9,93.7 L157.9,93.6 L157.9,93.5 
		L157.9,93.4 L157.9,93.3 L157.9,93.2 L157.9,93.1 L158.0,93.0 L158.0,92.9 L158.0,92.8 L158.0,92.7 
		L158.1,92.6 L159.0,92.6 L159.0,92.5 L159.1,92.4 L159.1,92.3 L159.1,92.2 L159.1,92.1 L160.6,92.1 
		L160.6,92.0 L160.6,91.9 L160.7,91.9 L161.2,91.9 L161.2,91.8 L161.2,91.7 L161.3,91.7 L161.3,91.6 
		L161.3,91.5 L161.5,91.5 L161.6,91.5 L161.6,91.4 L163.1,91.4 L163.1,91.3 L163.2,91.3 L163.2,91.2 
		L163.2,91.1 L163.3,91.1 L163.3,91.0 L163.3,90.9 L163.4,90.9 L163.4,90.8 L163.4,90.7 L163.9,90.7 
		L163.9,90.6 L164.0,90.6 L164.0,90.5 L164.1,90.5 L164.1,90.4 L164.1,90.3 L164.2,90.3 L164.2,90.2 
		L164.2,90.1 L164.2,90.0 L164.3,90.0 L164.3,89.9 L164.3,89.8 L164.3,89.7 L164.3,89.6 L164.4,89.5 
		L164.4,89.4 L164.4,89.3 L164.4,89.2 L164.4,89.1 L164.5,89.0 L164.5,88.9 L164.5,88.8 L164.5,88.7 
		L164.5,88.6 L164.6,88.6 L164.6,88.5 L165.6,419.9 L165.6,417.5 L165.6,415.0 L165.6,412.5 L165.6,410.1 
		L165.6,407.6 L165.6,405.1 L165.6,402.7 L165.6,400.2 L165.7,397.7 L165.7,395.3 L165.7,392.8 L165.7,390.3 
		L165.7,387.9 L165.7,385.4 L165.7,382.9 L165.7,380.5 L165.7,378.0 L165.7,375.5 L165.7,373.0 L165.7,370.6 
		L165.7,368.1 L165.7,365.6 L165.7,363.2 L165.7,360.7 L165.7,358.2 L165.7,355.8 L165.7,353.3 L165.7,350.8 
		L165.7,348.4 L165.7,345.9 L165.7,343.4 L165.8,341.0 L166.6,338.5 L166.6,336.0 L166.6,333.6 L166.7,331.1 
		L166.7,328.6 L166.7,326.2 L166.7,323.7 L166.7,321.2 L166.7,318.8 L166.7,316.3 L166.7,313.8 L166.7,311.4 
		L166.7,308.9 L166.7,306.4 L166.7,304.0 L166.7,301.5 L166.8,299.0 L166.8,296.6 L166.8,294.1 L167.8,291.6 
		L168.9,289.1 L169.0,286.7 L169.0,284.2 L169.0,281.7 L169.0,279.3 L169.0,276.8 L169.0,274.3 L169.0,271.9 
		L169.0,271.8 L169.1,339.7 L169.3,337.3 L169.3,334.8 L169.3,332.3 L169.4,329.9 L169.4,327.4 L169.4,324.9 
		L169.4,322.5 L169.4,320.0 L169.4,317.5 L169.4,315.1 L169.9,312.6 L169.9,310.1 L169.9,307.7 L169.9,305.2 
		L169.9,302.7 L169.9,300.3 L169.9,297.8 L169.9,295.3 L170.5,292.9 L170.5,290.4 L170.5,287.9 L170.5,285.4 
		L170.5,283.0 L170.5,280.5 L170.5,278.0 L170.5,275.6 L170.5,273.1 L170.5,270.6 L170.5,268.2 L170.5,265.7 
		L170.5,263.2 L170.5,260.8 L170.5,258.3 L170.5,255.8 L170.5,253.4 L170.5,250.9 L170.5,248.4 L170.5,246.0 
		L170.5,243.5 L170.5,241.0 L170.5,238.6 L170.5,236.1 L170.5,233.6 L170.5,231.2 L170.6,228.7 L170.6,226.2 
		L170.6,223.8 L170.6,221.3 L170.6,218.8 L170.6,216.4 L170.6,213.9 L170.6,211.4 L170.6,209.0 L170.6,206.5 
		L170.6,204.0 L170.6,201.5 L170.6,199.1 L170.6,196.6 L170.6,194.1 L170.6,191.7 L170.6,189.2 L170.6,186.7 
		L170.6,184.3 L170.6,181.8 L170.6,179.3 L170.6,176.9 L170.6,174.4 L170.6,171.9 L170.6,169.5 L170.6,167.0 
		L170.7,164.5 L171.0,419.9 L173.4,417.5 L173.4,415.0 L173.4,412.5 L173.4,410.1 L173.4,407.6 L173.4,405.1 
		L173.5,402.7 L173.5,400.2 L173.5,397.7 L173.5,395.3 L173.5,392.8 L173.5,390.3 L173.5,387.9 L173.5,385.4 
		L173.5,382.9 L173.5,380.5 L174.0,378.0 L174.0,375.5 L175.0,373.0 L175.6,370.6 L175.6,368.1 L175.6,365.6 
		L175.6,363.2 L175.6,360.7 L175.6,358.2 L175.6,355.8 L175.6,353.3 L175.7,350.8 L175.7,348.4 L175.7,345.9 
		L175.7,343.4 L175.7,341.0 L175.7,338.5 L175.7,336.0 L175.7,333.6 L175.7,331.1 L176.1,328.6 L176.1,326.2 
		L176.2,323.7 L176.2,321.2 L176.2,318.8 L176.2,316.3 L176.2,313.8 L176.2,311.4 L176.2,308.9 L176.2,306.4 
		L176.2,304.0 L176.3,301.5 L176.3,299.0 L176.3,296.6 L176.3,294.1 L176.3,294.0 L176.3,350.8 L176.3,348.4 
		L176.3,345.9 L176.3,343.4 L176.3,341.0 L176.3,338.5 L176.3,336.0 L176.3,333.6 L176.3,331.1 L176.3,328.6 
		L176.3,326.2 L176.3,323.7 L176.3,321.2 L176.3,318.8 L176.3,316.3 L176.4,313.8 L176.4,311.4 L176.4,308.9 
		L176.4,306.4 L176.4,304.0 L176.4,301.5 L176.4,299.0 L176.4,296.6 L176.4,294.1 L176.4,291.6 L176.4,289.1 
		L176.4,286.7 L176.4,284.2 L176.5,281.7 L176.5,279.3 L176.5,276.8 L176.5,274.3 L176.5,271.9 L176.6,269.4 
		L176.6,266.9 L176.6,264.5 L176.6,262.0 L176.6,259.5 L176.6,257.1 L176.6,254.6 L176.6,252.1 L176.6,249.7 
		L176.6,247.2 L176.6,244.7 L176.6,242.3 L176.6,239.8 L176.6,237.3 L176.6,234.9 L176.6,232.4 L176.6,229.9 
		L176.6,227.5 L176.6,225.0 L176.6,222.5 L176.6,220.1 L176.6,217.6 L176.6,215.1 L176.6,212.7 L176.6,210.2 
		L176.6,207.7 L176.6,205.3 L176.6,202.8 L176.6,200.3 L176.6,197.8 L176.6,195.4 L176.6,192.9 L176.7,190.4 
		L176.7,188.0 L176.7,185.5 L176.7,183.0 L176.7,180.6 L176.7,178.1 L176.7,175.6 L176.7,173.2 L176.7,170.7 
		L176.7,168.2 L176.7,165.8 L176.7,163.3 L176.7,160.8 L176.7,158.4 L176.7,155.9 L176.7,153.4 L176.7,151.0 
		L176.7,148.5 L176.7,146.0 L176.7,143.6 L176.7,141.1 L176.7,138.6 L176.7,136.2 L176.8,133.7 L176.8,131.2 
		L176.8,128.8 L176.8,126.3 L176.8,123.8 L176.8,121.4 L177.3,118.9 L177.3,116.4 L177.3,113.9 L177.3,111.5 
		L177.5,109.0 L177.5,106.5 L177.5,111.5 L177.5,109.0 L177.5,113.9 L177.5,111.5 L177.5,116.4 L177.5,113.9 
		L177.5,118.9 L177.5,116.4 L177.5,121.4 L177.5,118.9 L177.6,123.8 L177.6,121.4 L177.6,126.3 L177.6,123.8 
		L177.6,128.8 L177.6,126.3 L177.6,131.2 L177.6,128.8 L178.1,133.7 L178.1,131.2 L178.1,136.2 L178.1,133.7 
		L178.1,138.6 L178.1,136.2 L178.1,141.1 L178.1,138.6 L178.1,143.6 L178.1,141.1 L178.1,146.0 L178.1,143.6 
		L178.1,148.5 L178.1,146.0 L178.2,151.0 L178.2,148.5 L178.2,153.4 L178.2,151.0 L178.2,155.9 L178.2,153.4 
		L178.5,158.4 L178.5,155.9 L178.5,160.8 L178.5,158.4 L178.5,163.3 L178.5,160.8 L178.5,165.8 L178.5,163.3 
		L179.1,168.2 L179.1,165.8 L179.1,170.7 L179.1,168.2 L179.1,358.2 L179.1,358.1 L179.1,358.0 L179.1,357.9 
		L179.1,357.8 L179.1,357.7 L179.1,357.6 L179.1,357.5 L179.1,357.4 L179.1,357.3 L179.1,357.2 L179.1,357.1 
		L179.1,357.0 L179.2,357.0 L179.2,356.9 L179.2,356.8 L180.4,356.7 L180.4,356.6 L180.4,356.5 L180.4,356.4 
		L180.4,356.3 L180.4,356.2 L180.4,356.1 L180.4,356.0 L180.5,356.0 L180.5,355.9 L180.5,355.8 L180.5,355.7 
		L180.5,355.6 L180.5,355.5 L180.5,355.4 L180.5,355.3 L180.5,355.2 L180.5,355.1 L181.5,355.0 L181.6,354.9 
		L181.6,354.8 L181.8,354.7 L181.8,354.6 L182.2,354.5 L182.2,354.4 L182.2,354.3 L182.2,354.2 L182.2,354.1 
		L182.2,354.0 L182.2,353.9 L182.3,353.8 L182.3,353.7 L182.3,353.6 L182.3,353.5 L182.3,353.4 L182.3,353.3 
		L182.3,353.2 L182.3,353.1 L182.4,353.0 L182.4,352.9 L182.4,352.8 L182.4,352.7 L182.4,352.6 L182.4,352.5 
		L185.5,352.4 L185.5,352.3 L185.7,352.2 L185.7,352.1 L185.7,352.0 L185.7,351.9 L185.7,351.8 L185.7,351.7 
		L185.7,351.6 L185.8,351.5 L185.8,351.4 L185.9,351.3 L185.9,351.2 L185.9,351.1 L185.9,351.0 L185.9,350.9 
		L185.9,350.8 L185.9,350.7 L186.6,350.6 L186.7,350.6 L186.7,350.5 L186.7,350.4 L186.7,350.3 L186.7,350.2 
		L186.7,350.1 L186.7,350.0 L186.7,349.9 L186.7,349.8 L186.7,349.7 L186.8,349.6 L186.8,349.5 L186.8,349.4 
		L186.8,349.3 L186.8,349.2 L186.8,349.1 L186.8,349.0 L186.8,348.9 L186.9,348.8 L186.9,348.7 L186.9,348.6 
		L186.9,348.5 L187.4,348.4 L187.5,348.3 L187.5,348.2 L187.5,348.1 L187.5,348.0 L187.5,347.9 L187.5,347.8 
		L187.5,347.7 L187.5,347.6 L187.5,347.5 L187.5,347.4 L187.5,347.3 L187.5,347.2 L187.5,347.1 L187.6,347.0 
		L187.6,346.9 L187.6,346.8 L187.6,346.7 L187.6,346.6 L187.6,346.5 L187.6,346.4 L187.6,346.3 L187.6,346.2 
		L187.6,346.1 L187.6,346.0 L187.6,345.9 L187.7,345.8 L187.7,345.7 L187.7,345.6 L187.7,345.5 L187.7,345.4 
		L187.7,345.3 L187.7,345.2 L187.7,345.1 L187.7,345.0 L187.7,344.9 L188.2,344.8 L188.2,344.7 L188.2,344.6 
		L188.2,344.5 L188.2,344.4 L188.2,344.3 L188.3,344.2 L188.3,344.1 L188.3,344.0 L188.3,343.9 L188.3,343.8 
		L188.3,343.7 L188.3,343.6 L188.3,343.5 L188.3,343.4 L188.3,343.3 L188.3,343.2 L188.4,343.1 L188.4,343.0 
		L188.4,342.9 L188.4,342.8 L188.4,342.7 L188.4,342.6 L188.4,342.5 L188.4,342.4 L188.5,342.3 L188.5,342.2 
		L188.5,342.1 L188.5,342.0 L189.5,419.9 L189.6,417.5 L189.6,415.0 L190.1,412.5 L190.2,410.1 L190.2,407.6 
		L190.2,405.1 L190.2,402.7 L190.2,400.2 L190.2,397.7 L190.2,395.3 L190.2,392.8 L190.2,390.3 L190.2,387.9 
		L190.3,385.4 L191.1,382.9 L191.1,382.8 L191.2,395.3 L192.3,392.8 L192.3,390.3 L192.3,387.9 L192.3,385.4 
		L192.3,382.9 L192.3,380.5 L192.3,378.0 L192.3,375.5 L192.3,373.0 L192.3,370.6 L192.4,368.1 L192.4,365.6 
		L192.4,363.2 L192.4,360.7 L192.4,358.2 L192.4,355.8 L192.4,353.3 L192.4,350.8 L192.4,348.4 L192.4,345.9 
		L192.4,343.4 L192.4,341.0 L192.4,338.5 L192.4,336.0 L192.4,333.6 L192.4,331.1 L192.4,328.6 L192.4,326.2 
		L192.4,331.1 L192.4,328.6 L192.4,333.6 L192.4,331.1 L192.4,336.0 L192.4,333.6 L192.5,338.5 L192.5,336.0 
		L193.1,341.0 L193.1,338.5 L193.1,343.4 L193.1,341.0 L193.1,345.9 L193.1,343.4 L193.1,402.7 L193.1,402.4 
		L193.3,402.1 L193.3,401.8 L193.3,401.5 L193.3,401.2 L193.3,400.9 L193.3,400.6 L193.7,400.3 L193.7,400.1 
		L193.7,399.8 L193.7,399.5 L193.7,399.3 L193.7,399.0 L194.2,398.7 L194.3,398.5 L194.3,398.2 L194.3,398.0 
		L194.3,397.7 L194.3,397.5 L194.6,397.2 L194.6,397.0 L194.6,396.8 L194.7,396.5 L194.7,396.3 L194.7,396.1 
		L194.7,395.8 L194.8,395.6 L194.8,395.4 L194.8,395.2 L194.8,394.9 L194.8,394.7 L194.8,394.5 L194.8,394.3 
		L194.8,394.1 L194.9,393.9 L194.9,393.6 L194.9,393.4 L194.9,393.2 L194.9,393.0 L195.0,392.8 L195.8,392.6 
		L195.8,392.4 L195.8,392.2 L195.8,392.0 L195.8,391.8 L195.9,391.6 L195.9,391.4 L196.0,391.2 L196.0,391.0 
		L196.0,390.8 L196.0,390.7 L196.0,390.5 L196.0,390.3 L196.0,390.1 L196.0,389.9 L196.1,389.7 L196.1,389.5 
		L196.1,389.3 L196.1,389.2 L196.1,389.0 L196.1,388.8 L196.1,388.6 L196.1,388.4 L197.1,388.3 L197.4,388.1 
		L197.4,387.9 L197.4,387.7 L197.7,387.6 L197.7,387.4 L197.7,387.2 L197.8,387.1 L197.8,386.9 L197.8,386.7 
		L197.8,386.6 L197.8,386.4 L197.9,386.2 L197.9,386.1 L197.9,385.9 L197.9,385.7 L197.9,385.6 L197.9,385.4 
		L197.9,385.2 L197.9,385.1 L197.9,384.9 L197.9,384.8 L198.0,384.6 L198.0,384.4 L198.0,384.3 L198.0,384.1 
		L198.0,384.0 L198.0,383.8 L198.0,383.7 L198.0,383.5 L199.0,383.3 L199.3,383.2 L199.3,383.0 L199.3,382.9 
		L200.1,382.7 L200.1,382.6 L200.1,382.4 L200.3,382.3 L200.3,382.1 L200.3,382.0 L200.3,381.8 L200.3,381.7 
		L200.3,381.5 L200.5,381.4 L200.5,381.2 L200.5,381.1 L200.5,381.0 L200.5,380.8 L200.5,380.7 L200.5,380.5 
		L200.5,380.4 L202.2,380.2 L202.2,380.1 L202.2,380.0 L202.2,379.8 L202.3,379.7 L202.3,379.5 L202.3,379.4 
		L202.3,379.3 L202.3,379.1 L202.3,379.0 L202.3,378.8 L202.3,378.7 L202.3,378.6 L202.4,378.4 L203.2,378.3 
		L203.2,378.2 L203.2,378.0 L204.2,377.9 L204.2,377.8 L204.2,377.6 L204.2,377.5 L204.2,377.4 L204.2,377.2 
		L204.2,377.1 L204.2,377.0 L204.3,376.8 L204.3,376.7 L204.3,376.6 L204.3,376.4 L204.3,376.3 L204.3,376.2 
		L204.3,376.0 L204.3,375.9 L204.3,375.8 L204.3,375.7 L204.3,375.5 L204.3,375.4 L204.3,375.3 L204.4,375.1 
		L204.4,375.0 L204.4,374.9 L204.4,374.8 L204.4,374.6 L204.4,374.5 L204.4,374.4 L204.4,374.3 L204.4,374.1 
		L204.4,374.0 L204.4,373.9 L204.4,373.8 L204.4,373.6 L204.4,373.5 L204.5,373.4 L204.5,373.3 L204.5,373.2 
		L204.5,373.0 L204.5,372.9 L204.5,372.8 L205.3,372.7 L205.3,372.6 L205.3,372.4 L205.3,372.3 L205.4,372.2 
		L205.4,372.1 L205.4,372.0 L205.4,371.8 L205.4,371.7 L205.4,371.6 L205.4,371.5 L205.4,371.4 L205.4,371.3 
		L205.4,371.1 L205.4,371.0 L205.4,370.9 L205.4,370.8 L205.4,370.7 L205.4,370.6 L205.4,370.4 L205.5,370.3 
		L205.5,370.2 L205.5,370.1 L205.5,370.0 L205.5,369.9 L205.5,369.8 L205.5,369.6 L205.5,369.5 L205.7,369.4 
		L205.7,369.3 L205.7,369.2 L205.7,369.1 L205.7,369.0 L205.7,368.9 L205.7,368.7 L205.7,368.6 L205.8,368.5 
		L205.8,368.4 L205.8,368.3 L205.8,368.2 L205.8,368.1 L205.8,368.0 L205.8,367.9 L205.8,367.8 L205.8,367.6 
		L205.9,367.5 L205.9,367.4 L205.9,367.3 L205.9,367.2 L205.9,367.1 L205.9,367.0 L205.9,366.9 L205.9,366.8 
		L206.1,366.7 L206.1,366.6 L206.1,366.5 L206.5,366.4 L206.5,366.2 L206.5,366.1 L206.5,366.0 L206.5,365.9 
		L206.6,365.8 L206.9,365.7 L206.9,365.6 L206.9,365.5 L207.3,365.4 L207.3,365.3 L207.3,365.2 L207.3,365.1 
		L207.3,365.0 L207.4,364.9 L207.4,364.8 L207.4,364.7 L207.4,364.6 L207.4,364.5 L207.4,364.4 L207.4,364.3 
		L207.4,364.2 L207.4,364.1 L207.5,364.0 L208.1,363.9 L208.1,363.8 L208.1,363.7 L208.1,363.6 L208.1,363.5 
		L208.1,363.4 L208.1,363.3 L208.1,363.1 L208.1,363.0 L208.1,362.9 L208.2,362.8 L208.2,362.7 L208.4,362.6 
		L208.5,362.5 L208.5,362.4 L208.5,362.3 L208.5,362.2 L208.5,362.1 L208.5,362.0 L208.5,361.9 L209.2,361.8 
		L209.2,361.7 L209.2,361.6 L209.2,361.5 L209.3,361.4 L209.3,361.3 L209.3,361.2 L209.3,361.1 L209.3,361.0 
		L209.3,360.9 L209.3,360.8 L209.3,360.7 L209.3,360.6 L209.3,360.5 L209.3,360.4 L209.3,360.3 L209.3,360.2 
		L209.3,360.1 L209.3,360.0 L209.3,359.9 L209.4,359.8 L209.4,359.7 L209.4,359.6 L209.4,359.5 L209.4,359.4 
		L209.4,359.3 L209.4,359.2 L209.4,359.1 L209.4,359.0 L209.4,358.9 L209.4,358.8 L209.4,358.7 L209.4,358.6 
		L209.4,358.5 L209.4,358.4 L209.5,358.3 L209.5,358.2 L210.0,358.1 L210.0,358.0 L210.0,357.9 L210.0,357.8 
		L210.0,357.7 L210.0,357.6 L210.0,357.5 L210.0,357.4 L210.0,357.3 L210.0,357.2 L210.0,357.1 L210.0,357.0 
		L210.1,356.9 L210.1,356.8 L210.1,356.7 L210.1,356.6 L210.1,356.5 L210.1,356.4 L210.1,356.3 L210.1,356.2 
		L210.1,356.1 L210.1,356.0 L210.1,355.9 L210.2,355.9 L210.2,355.8 L211.0,355.7 L211.0,355.6 L211.0,355.5 
		L211.0,355.4 L211.0,355.3 L211.9,355.2 L212.0,355.1 L212.0,355.0 L212.0,354.9 L212.0,354.8 L212.0,354.7 
		L212.0,354.6 L212.0,354.5 L212.0,354.4 L212.0,354.3 L212.0,354.2 L212.0,354.1 L212.0,354.0 L212.0,353.9 
		L212.0,353.8 L212.1,353.8 L212.1,353.7 L212.1,353.6 L212.1,353.5 L212.1,353.4 L212.1,353.3 L212.1,353.2 
		L212.3,353.1 L212.4,353.0 L212.4,352.9 L212.4,352.8 L212.4,352.7 L212.4,352.6 L212.4,352.5 L212.4,352.4 
		L213.1,352.3 L213.1,352.2 L213.1,352.1 L213.1,352.0 L213.1,351.9 L213.2,351.8 L213.2,351.7 L213.2,351.6 
		L213.2,351.5 L213.2,351.4 L213.2,351.3 L213.2,351.2 L214.7,351.1 L214.7,351.0 L214.7,350.9 L214.7,350.8 
		L214.8,350.7 L214.8,350.6 L214.8,350.5 L214.8,350.4 L214.8,350.3 L214.8,350.2 L214.8,350.1 L215.7,350.1 
		L215.7,350.0 L215.7,349.9 L215.7,349.8 L215.7,349.7 L215.7,349.6 L215.7,349.5 L215.7,349.4 L215.7,349.3 
		L215.8,349.2 L215.8,349.1 L215.8,349.0 L216.4,348.9 L216.4,348.8 L216.4,348.7 L216.5,348.6 L216.5,348.5 
		L216.5,348.4 L216.5,348.3 L217.0,348.2 L217.0,348.1 L217.0,348.0 L217.0,347.9 L217.0,347.8 L217.1,347.7 
		L217.1,347.6 L217.1,347.5 L217.1,347.4 L217.1,347.3 L217.1,347.2 L217.1,347.1 L217.1,347.0 L217.1,346.9 
		L217.1,346.8 L217.1,346.7 L217.1,346.6 L217.2,346.5 L217.2,346.4 L217.2,346.3 L217.2,346.2 L217.2,346.1 
		L217.2,346.0 L217.2,345.9 L217.2,345.8 L217.2,345.7 L217.4,345.6 L217.4,345.5 L218.0,345.5 L218.0,345.4 
		L218.0,345.3 L218.0,345.2 L218.0,345.1 L218.0,345.0 L218.1,344.9 L218.1,344.8 L218.1,344.7 L218.1,344.6 
		L218.1,344.5 L218.1,344.4 L218.1,344.3 L218.1,344.2 L218.1,344.1 L218.1,344.0 L218.1,343.9 L218.2,343.9 
		L218.4,343.8 L218.4,343.7 L218.4,343.6 L218.4,343.5 L219.1,343.4 L219.1,343.3 L219.2,343.2 L219.2,343.1 
		L219.2,343.0 L219.2,342.9 L219.2,342.8 L219.2,342.7 L219.2,342.6 L219.2,342.5 L219.2,342.4 L219.2,342.3 
		L219.2,342.2 L219.3,342.1 L219.3,342.0 L219.3,341.9 L219.3,341.8 L219.3,341.7 L219.3,341.6 L219.5,341.6 
		L219.5,341.5 L219.6,341.4 L220.1,341.3 L220.1,341.2 L220.1,341.1 L220.2,341.1 L220.2,341.0 L220.2,340.9 
		L220.2,340.8 L220.2,340.7 L220.2,340.6 L220.5,340.5 L221.1,340.4 L221.1,340.3 L221.1,340.2 L221.1,340.1 
		L221.1,340.0 L221.1,339.9 L221.1,339.8 L221.1,339.7 L221.1,339.6 L221.1,339.5 L221.2,339.5 L221.2,339.4 
		L221.2,339.3 L221.2,339.2 L221.2,339.1 L221.2,339.0 L221.2,338.9 L221.2,338.8 L221.2,338.7 L221.2,338.6 
		L221.2,338.5 L221.2,338.4 L221.3,338.3 L221.3,338.2 L221.3,338.1 L221.3,338.0 L221.3,337.9 L221.5,337.8 
		L221.5,337.7 L221.5,337.6 L221.5,337.5 L221.6,337.4 L221.6,337.3 L221.6,337.2 L221.6,337.1 L221.6,337.0 
		L221.6,336.9 L222.1,336.8 L222.1,336.7 L222.1,336.6 L222.1,336.5 L222.1,336.4 L222.1,336.3 L222.1,336.2 
		L222.1,336.1 L222.2,336.0 L222.2,335.9 L222.2,335.8 L223.2,419.9 L223.2,417.5 L223.4,415.0 L223.4,412.5 
		L223.5,410.1 L223.5,407.6 L224.0,405.1 L224.0,402.7 L224.0,400.2 L224.0,397.7 L224.0,395.3 L224.0,392.8 
		L224.1,390.3 L224.1,387.9 L224.1,385.4 L224.6,382.9 L224.6,380.5 L224.6,378.0 L224.7,377.8 L224.7,392.8 
		L224.7,390.3 L224.7,387.9 L224.7,385.4 L224.7,382.9 L224.7,380.5 L225.6,378.0 L225.6,375.5 L225.6,373.0 
		L225.6,370.6 L225.6,368.1 L225.6,365.6 L225.6,363.2 L225.6,360.7 L225.6,358.2 L225.6,355.8 L225.6,353.3 
		L225.6,350.8 L225.6,348.4 L225.6,345.9 L225.6,343.4 L225.6,341.0 L225.6,338.5 L225.6,336.0 L225.6,333.6 
		L225.6,331.1 L225.6,328.6 L225.6,326.2 L225.6,323.7 L225.6,321.2 L225.7,318.8 L225.7,316.3 L225.7,313.8 
		L225.7,318.8 L225.7,316.3 L225.7,321.2 L225.7,318.8 L225.7,323.7 L225.7,321.2 L225.7,326.2 L225.7,323.7 
		L225.7,328.6 L225.7,326.2 L225.7,331.1 L225.7,328.6 L225.7,333.6 L225.7,331.1 L225.7,336.0 L225.7,333.6 
		L225.8,400.2 L225.8,399.9 L225.8,399.7 L225.8,399.4 L225.8,399.1 L225.8,398.9 L225.8,398.6 L225.9,398.4 
		L225.9,398.1 L225.9,397.9 L225.9,397.6 L225.9,397.4 L225.9,397.1 L226.7,396.9 L226.7,396.7 L226.7,396.4 
		L226.8,396.2 L226.8,396.0 L226.8,395.7 L226.8,395.5 L226.8,395.3 L226.8,395.1 L226.8,394.8 L226.8,394.6 
		L226.9,394.4 L226.9,394.2 L229.1,394.0 L229.1,393.8 L229.1,393.5 L229.1,393.3 L229.1,393.1 L229.2,392.9 
		L229.2,392.7 L229.2,392.5 L229.2,392.3 L229.2,392.1 L229.3,391.9 L229.3,391.7 L229.5,391.5 L229.5,391.3 
		L229.5,391.1 L229.5,390.9 L229.5,390.8 L229.5,390.6 L229.6,390.4 L229.6,390.2 L229.6,390.0 L229.6,389.8 
		L229.6,389.6 L229.6,389.4 L229.9,389.3 L229.9,389.1 L229.9,388.9 L229.9,388.7 L230.8,388.5 L230.8,388.4 
		L230.8,388.2 L230.8,388.0 L230.8,387.8 L230.8,387.7 L230.9,387.5 L230.9,387.3 L230.9,387.1 L231.2,387.0 
		L231.2,386.8 L231.2,386.6 L231.2,386.5 L231.2,386.3 L231.3,386.1 L231.3,386.0 L231.3,385.8 L231.3,385.6 
		L231.3,385.5 L231.3,385.3 L231.3,385.2 L231.3,385.0 L231.3,384.8 L231.4,384.7 L231.4,384.5 L231.4,384.4 
		L231.4,384.2 L231.4,384.0 L231.4,383.9 L231.4,383.7 L231.4,383.6 L231.4,383.4 L231.5,383.3 L231.5,383.1 
		L231.5,383.0 L231.5,382.8 L232.4,382.7 L232.4,382.5 L232.4,382.4 L232.4,382.2 L232.4,382.1 L232.4,381.9 
		L232.4,381.8 L232.4,381.6 L232.5,381.5 L232.5,381.3 L232.5,381.2 L232.5,381.0 L232.5,380.9 L232.5,380.7 
		L232.5,380.6 L232.5,380.5 L232.5,380.3 L232.6,380.2 L232.6,380.0 L232.6,379.9 L232.6,379.7 L232.8,379.6 
		L232.8,379.5 L232.8,379.3 L232.8,379.2 L232.8,379.0 L232.8,378.9 L232.8,378.8 L232.8,378.6 L233.0,378.5 
		L233.0,378.4 L233.0,378.2 L233.0,378.1 L233.0,378.0 L233.0,377.8 L233.0,377.7 L233.0,377.6 L233.0,377.4 
		L233.1,377.3 L233.1,377.1 L233.1,377.0 L233.1,376.9 L233.1,376.7 L233.1,376.6 L233.1,376.5 L233.1,376.4 
		L233.1,376.2 L233.2,376.1 L233.4,376.0 L233.4,375.8 L233.4,375.7 L234.4,419.9 L234.4,417.5 L236.3,419.9 
		L237.3,417.5 L237.3,415.0 L237.6,412.5 L237.7,410.1 L237.8,407.6 L237.8,405.1 L237.9,402.7 L237.9,400.2 
		L239.2,399.9 L239.2,403.9 L239.2,401.4 L239.2,399.0 L239.2,396.5 L239.3,394.0 L239.3,391.6 L239.4,389.1 
		L239.4,386.6 L239.4,384.2 L239.4,381.7 L240.0,379.2 L240.0,376.7 L240.0,374.3 L240.0,371.8 L240.0,369.3 
		L240.0,366.9 L240.0,371.8 L240.0,369.3 L240.6,374.3 L240.6,371.8 L240.6,376.7 L240.6,374.3 L240.6,379.2 
		L240.6,376.7 L240.6,411.3 L240.6,410.7 L240.6,410.2 L240.6,409.7 L241.5,409.3 L241.5,408.8 L241.9,408.3 
		L241.9,407.9 L241.9,407.5 L241.9,407.1 L241.9,406.7 L241.9,406.3 L242.1,405.9 L242.1,405.6 L242.1,405.2 
		L242.2,404.9 L242.2,404.5 L242.2,404.2 L243.5,403.8 L243.5,403.5 L243.5,403.2 L243.6,402.9 L243.6,402.6 
		L243.6,402.3 L243.7,402.0 L243.7,401.7 L243.7,401.4 L243.7,401.1 L243.8,400.8 L243.8,400.5 L243.8,400.3 
		L243.8,400.0 L244.1,399.7 L244.1,399.4 L244.1,399.2 L244.1,398.9 L244.1,398.7 L244.1,398.4 L244.2,398.2 
		L244.2,397.9 L244.2,397.7 L244.2,397.4 L244.2,397.2 L244.2,396.9 L244.6,396.7 L244.7,396.5 L244.7,396.2 
		L244.7,396.0 L244.7,395.8 L244.7,395.6 L244.8,395.3 L244.8,395.1 L244.8,394.9 L244.8,394.7 L244.8,394.4 
		L244.8,394.2 L244.9,394.0 L244.9,393.8 L245.8,419.9 L245.8,417.5 L246.6,415.0 L246.6,412.5 L246.8,410.1 
		L246.8,407.6 L246.8,407.2 L248.1,407.6 L248.1,405.1 L248.1,402.7 L248.1,400.2 L248.2,397.7 L248.2,395.3 
		L248.2,392.8 L248.2,390.3 L248.2,387.9 L248.2,392.8 L248.2,390.3 L248.2,395.3 L248.2,392.8 L248.2,415.0 
		L248.2,414.2 L248.2,413.4 L248.2,412.8 L248.3,412.1 L248.3,411.5 L248.3,411.0 L248.3,410.5 L249.2,419.9 
		L249.3,417.5 L249.3,416.2 L249.3,415.2 L249.4,410.1 L250.1,417.5 L250.1,416.2 L250.2,415.2 L250.3,414.4 
		L250.4,413.6 L250.9,412.9 L251.0,412.3 L251.1,411.7 L251.1,411.1 L251.2,410.6 L251.2,410.1 L252.0,409.6 
		L252.1,409.1 L252.1,408.7 L252.2,408.2 L252.2,407.8 L252.3,407.4 L252.3,407.0 L252.4,406.6 L252.4,406.2 
		L252.4,405.8 L252.5,405.5 L252.8,405.1 L252.8,404.8 L252.8,404.4 L252.9,404.1 L252.9,403.7 L252.9,403.4 
		L253.8,403.1 L253.8,402.8 L254.2,402.5 L254.2,402.2 L254.2,401.9 L254.3,401.6 L254.3,401.3 L254.3,401.0 
		L254.3,400.7 L255.0,400.4 L255.0,400.2 L255.0,399.9 L255.0,399.6 L255.0,399.4 L255.0,399.1 L255.0,398.8 
		L255.1,398.6 L255.1,398.3 L255.1,398.1 L255.1,397.8 L255.2,397.6 L255.2,397.4 L255.2,397.1 L255.2,396.9 
		L255.2,396.6 L255.3,396.4 L255.3,396.2 L255.3,395.9 L255.4,395.7 L255.4,395.5 L255.4,395.3 L255.4,395.0 
		L255.4,394.8 L255.4,394.6 L255.5,394.4 L255.7,394.2 L255.7,394.0 L255.8,393.8 L255.8,393.5 L255.8,393.3 
		L255.8,393.1 L255.9,392.9 L256.1,392.7 L256.1,392.5 L256.2,392.3 L256.3,392.1 L256.3,391.9 L256.3,391.7 
		L256.4,391.5 L256.4,391.3 L256.4,391.1 L256.9,390.9 L256.9,390.7 L257.9,390.6 L258.1,390.4 L258.1,390.2 
		L258.1,390.0 L258.1,389.8 L258.8,389.6 L258.9,389.4 L258.9,389.3 L258.9,389.1 L258.9,388.9 L258.9,388.7 
		L258.9,388.5 L258.9,388.4 L259.0,388.2 L259.0,388.0 L259.0,387.8 L259.0,387.7 L259.0,387.5 L259.0,387.3 
		L259.0,387.1 L259.0,387.0 L259.0,386.8 L259.1,386.6 L259.1,386.5 L259.1,386.3 L259.4,386.1 L259.4,386.0 
		L259.4,385.8 L259.5,385.6 L259.5,385.5 L260.0,385.3 L260.0,385.2 L260.0,385.0 L260.0,384.8 L260.1,384.7 
		L260.4,384.5 L260.4,384.4 L260.4,384.2 L260.4,384.0 L260.4,383.9 L260.5,383.7 L260.5,383.6 L260.5,383.4 
		L260.5,383.3 L260.5,383.1 L260.5,383.0 L260.5,382.8 L260.5,382.7 L260.5,382.5 L260.6,382.3 L260.6,382.2 
		L260.6,382.0 L260.6,381.9 L260.6,381.8 L260.6,381.6 L260.6,381.5 L260.6,381.3 L260.6,381.2 L260.6,381.0 
		L260.6,380.9 L260.6,380.7 L260.7,380.6 L260.7,380.4 L260.7,380.3 L260.7,380.2 L260.7,380.0 L260.7,379.9 
		L260.7,379.7 L261.2,379.6 L261.2,379.5 L261.2,379.3 L261.2,379.2 L261.2,379.0 L261.2,378.9 L261.3,378.8 
		L261.3,378.6 L261.3,378.5 L262.2,378.4 L262.2,378.2 L262.2,378.1 L262.2,377.9 L262.2,377.8 L262.2,377.7 
		L262.2,377.5 L262.2,377.4 L262.2,377.3 L262.2,377.1 L262.3,377.0 L262.3,376.9 L262.3,376.7 L262.3,376.6 
		L262.3,376.5 L262.5,376.4 L262.5,376.2 L262.5,376.1 L262.6,376.0 L262.6,375.8 L262.6,375.7 L262.6,375.6 
		L262.6,375.5 L262.6,375.3 L262.6,375.2 L262.7,375.1 L262.7,374.9 L262.9,374.8 L262.9,374.7 L262.9,374.6 
		L262.9,374.4 L263.0,374.3 L263.0,374.2 L263.0,374.1 L263.0,374.0 L263.0,373.8 L263.0,373.7 L263.0,373.6 
		L263.0,373.5 L263.0,373.3 L263.0,373.2 L263.0,373.1 L263.1,373.0 L263.1,372.8 L263.1,372.7 L263.1,372.6 
		L263.1,372.5 L263.1,372.4 L263.1,372.3 L263.1,372.1 L263.1,372.0 L263.1,371.9 L263.1,371.8 L263.1,371.7 
		L263.2,371.5 L263.2,371.4 L263.2,371.3 L263.2,371.2 L263.2,371.1 L263.5,371.0 L263.5,370.8 L263.9,370.7 
		L263.9,370.6 L263.9,370.5 L263.9,370.4 L263.9,370.3 L264.0,370.1 L264.0,370.0 L264.0,369.9 L264.0,369.8 
		L264.0,369.7 L264.0,369.6 L264.0,369.5 L264.0,369.3 L264.0,369.2 L264.0,369.1 L264.0,369.0 L264.0,368.9 
		L264.0,368.8 L264.1,368.7 L264.1,368.6 L264.1,368.5 L264.1,368.4 L264.1,368.2 L264.1,368.1 L264.1,368.0 
		L264.1,367.9 L264.1,367.8 L264.1,367.7 L264.1,367.6 L264.1,367.5 L264.1,367.4 L264.1,367.2 L264.1,367.1 
		L264.1,367.0 L264.2,366.9 L264.2,366.8 L264.2,366.7 L264.2,366.6 L264.2,366.5 L264.2,366.4 L264.2,366.3 
		L264.2,366.2 L264.2,366.1 L264.2,366.0 L264.2,365.9 L264.2,365.8 L264.2,365.7 L264.2,365.6 L264.2,365.4 
		L264.2,365.3 L264.2,365.2 L264.2,365.1 L264.2,365.0 L264.2,364.9 L264.3,364.8 L264.3,364.7 L264.3,364.6 
		L264.3,364.5 L264.3,364.4 L264.3,364.3 L264.3,364.2 L264.3,364.1 L264.3,364.0 L264.3,363.9 L264.3,363.8 
		L264.3,363.7 L264.3,363.6 L264.3,363.5 L264.3,363.4 L264.3,363.3 L264.3,363.2 L264.3,363.1 L264.4,363.0 
		L264.4,362.9 L264.4,362.8 L264.4,362.7 L264.4,362.6 L264.4,362.5 L264.4,362.4 L264.4,362.3 L264.4,362.2 
		L264.4,362.1 L264.4,362.0 L264.4,361.9 L264.4,361.8 L265.4,419.9 L265.4,417.5 L265.5,415.0 L265.5,412.5 
		L265.5,410.1 L265.5,407.6 L265.5,405.1 L265.5,402.7 L265.6,400.2 L265.6,397.7 L266.2,395.3 L266.3,392.8 
		L266.3,392.6 L266.6,392.4 L266.6,400.2 L266.7,397.7 L266.7,395.3 L266.7,392.8 L266.7,390.3 L266.7,387.9 
		L266.7,385.4 L266.7,382.9 L266.7,380.5 L266.7,378.0 L266.7,375.5 L266.7,373.0 L266.7,370.6 L266.7,368.1 
		L266.7,365.6 L266.7,363.2 L266.7,360.7 L266.7,358.2 L266.7,355.8 L266.7,353.3 L266.7,350.8 L266.7,355.8 
		L266.7,353.3 L266.7,358.2 L266.7,355.8 L266.7,360.7 L266.7,358.2 L266.7,363.2 L266.7,360.7 L266.7,365.6 
		L266.7,363.2 L266.7,407.6 L266.7,407.2 L266.7,406.8 L266.7,406.4 L266.7,406.0 L266.8,405.7 L266.8,405.3 
		L266.8,404.9 L266.8,404.6 L266.8,404.3 L266.8,403.9 L266.8,403.6 L266.8,403.3 L266.8,403.0 L266.8,402.6 
		L266.9,402.3 L266.9,402.0 L266.9,401.7 L266.9,401.5 L266.9,401.2 L267.0,400.9 L267.0,400.6 L267.0,400.3 
		L267.9,419.9 L268.0,417.5 L268.0,415.0 L268.0,412.5 L268.0,411.9 L268.1,410.1 L268.1,407.6 L268.1,405.1 
		L268.1,402.7 L268.1,400.2 L268.1,405.1 L268.1,402.7 L268.1,417.5 L268.1,416.2 L268.2,415.2 L268.2,414.4 
		L268.2,413.6 L268.3,412.9 L269.0,412.3 L269.1,411.7 L269.1,411.1 L269.1,410.6 L269.2,410.1 L269.4,409.6 
		L269.4,409.1 L269.5,408.7 L269.5,408.2 L269.6,407.8 L269.6,407.4 L269.7,407.0 L269.8,406.6 L270.1,406.2 
		L270.1,405.8 L270.1,405.5 L270.5,405.1 L270.5,404.8 L270.5,404.4 L270.6,404.1 L270.7,403.7 L271.3,403.4 
		L271.3,403.1 L271.3,402.8 L272.3,402.5 L272.5,402.2 L272.5,401.9 L272.5,401.6 L273.0,401.3 L273.1,401.0 
		L273.6,400.7 L273.6,400.4 L273.8,400.2 L273.8,399.9 L273.9,399.6 L274.0,399.4 L274.0,399.1 L274.1,398.8 
		L274.1,398.6 L274.8,398.3 L274.8,398.1 L274.8,397.8 L275.0,397.6 L275.0,397.4 L275.0,397.1 L275.0,396.9 
		L275.1,396.6 L275.1,396.4 L275.1,396.2 L275.1,395.9 L275.1,395.7 L275.1,395.5 L275.2,395.3 L275.2,395.0 
		L275.2,394.8 L275.2,394.6 L275.2,394.4 L275.3,394.2 L276.0,394.0 L276.0,393.8 L276.0,393.5 L276.0,393.3 
		L276.0,393.1 L276.1,392.9 L276.1,392.7 L276.1,392.5 L276.1,392.3 L276.1,392.1 L276.7,391.9 L276.8,391.7 
		L276.8,391.5 L276.8,391.3 L276.8,391.1 L276.8,390.9 L276.9,390.7 L276.9,390.6 L277.7,390.4 L277.7,390.2 
		L277.7,390.0 L277.8,389.8 L277.8,389.6 L277.8,389.4 L277.8,389.3 L277.8,389.1 L277.8,388.9 L277.8,388.7 
		L277.8,388.5 L277.9,388.4 L277.9,388.2 L277.9,388.0 L277.9,387.8 L277.9,387.7 L277.9,387.5 L277.9,387.3 
		L277.9,387.1 L278.0,387.0 L278.0,386.8 L278.0,386.6 L278.0,386.5 L278.0,386.3 L278.0,386.1 L278.0,386.0 
		L278.0,385.8 L278.1,385.6 L278.1,385.5 L278.1,385.3 L278.1,385.2 L278.1,385.0 L278.1,384.8 L278.1,384.7 
		L278.1,384.5 L278.2,384.4 L278.2,384.2 L278.2,384.0 L278.2,383.9 L278.2,383.7 L278.2,383.6 L278.2,383.4 
		L278.2,383.3 L278.2,383.1 L278.3,383.0 L278.3,382.8 L278.3,382.7 L278.3,382.5 L278.3,382.3 L278.4,382.2 
		L278.4,382.0 L278.4,381.9 L278.4,381.8 L278.4,381.6 L278.4,381.5 L278.4,381.3 L278.4,381.2 L278.4,381.0 
		L278.4,380.9 L278.5,380.7 L278.5,380.6 L278.5,380.4 L278.5,380.3 L278.5,380.2 L279.3,380.0 L279.3,379.9 
		L279.3,379.7 L279.3,379.6 L279.3,379.5 L279.3,379.3 L279.3,379.2 L279.3,379.0 L279.4,378.9 L279.4,378.8 
		L279.4,378.6 L279.4,378.5 L279.4,378.4 L279.4,378.2 L279.4,378.1 L279.4,377.9 L279.4,377.8 L279.5,377.7 
		L279.5,377.5 L279.5,377.4 L279.5,377.3 L279.5,377.1 L279.9,377.0 L279.9,376.9 L279.9,376.7 L279.9,376.6 
		L279.9,376.5 L279.9,376.4 L281.1,419.9 L283.2,417.5 L283.2,415.0 L283.2,412.5 L283.2,410.1 L283.2,407.6 
		L283.2,405.1 L283.2,402.7 L283.2,400.2 L283.2,399.9 L283.3,403.9 L283.3,401.4 L284.0,399.0 L284.0,396.5 
		L284.0,394.0 L284.0,391.6 L284.0,389.1 L284.0,386.6 L284.0,384.2 L284.0,381.7 L284.0,379.2 L284.0,376.7 
		L284.0,374.3 L284.0,371.8 L284.0,369.3 L284.5,374.3 L284.5,371.8 L284.5,376.7 L284.5,374.3 L284.5,379.2 
		L284.5,376.7 L284.6,381.7 L284.6,379.2 L284.6,411.3 L284.6,410.7 L284.6,410.2 L284.6,409.7 L284.6,409.3 
		L284.6,408.8 L284.6,408.3 L284.6,407.9 L284.6,407.5 L284.6,407.1 L284.6,406.7 L284.6,406.3 L284.7,405.9 
		L285.1,405.6 L285.1,405.2 L285.1,404.9 L285.2,404.5 L285.2,404.2 L285.2,403.8 L285.5,403.5 L285.5,403.2 
		L285.5,402.9 L285.6,402.6 L285.6,402.3 L286.3,402.0 L286.3,401.7 L286.3,401.4 L287.3,401.1 L288.2,400.8 
		L288.2,400.5 L288.3,400.3 L288.3,400.0 L288.3,399.7 L288.3,399.4 L288.3,399.2 L288.3,398.9 L288.4,398.7 
		L288.4,398.4 L289.6,398.2 L289.6,397.9 L290.4,397.7 L290.4,397.4 L290.4,397.2 L290.4,396.9 L290.5,396.7 
		L290.5,396.5 L290.5,396.2 L290.5,396.0 L290.5,395.8 L292.3,395.6 L292.3,395.3 L292.3,395.1 L292.3,394.9 
		L292.3,394.7 L292.4,394.4 L292.4,394.2 L292.4,394.0 L292.4,393.8 L292.4,393.6 L292.9,393.4 L292.9,393.2 
		L292.9,393.0 L292.9,392.8 L292.9,392.6 L293.0,392.4 L293.0,392.2 L293.0,392.0 L293.0,391.8 L293.0,391.6 
		L293.0,391.4 L293.1,391.2 L293.5,391.0 L293.5,390.8 L293.7,390.6 L293.7,390.4 L293.7,390.2 L293.7,390.0 
		L294.6,389.9 L294.7,389.7 L294.7,389.5 L294.7,389.3 L294.7,389.1 L294.7,388.9 L294.7,388.8 L294.7,388.6 
		L294.8,388.4 L294.8,388.2 L294.8,388.1 L295.2,387.9 L295.2,387.7 L295.3,387.5 L295.8,387.4 L295.8,387.2 
		L295.8,387.0 L296.0,386.8 L296.0,386.7 L296.0,386.5 L296.0,386.3 L296.1,386.2 L296.1,386.0 L296.1,385.8 
		L296.1,385.7 L296.1,385.5 L296.1,385.4 L296.1,385.2 L296.1,385.0 L296.1,384.9 L296.2,384.7 L296.2,384.5 
		L296.2,384.4 L296.2,384.2 L296.2,384.1 L296.2,383.9 L296.2,383.8 L296.2,383.6 L296.3,383.5 L296.4,383.3 
		L296.4,383.1 L296.4,383.0 L296.6,382.8 L296.6,382.7 L296.6,382.5 L296.7,382.4 L296.7,382.2 L296.7,382.1 
		L296.8,381.9 L296.8,381.8 L296.8,381.6 L296.8,381.5 L296.8,381.4 L296.8,381.2 L296.8,381.1 L296.8,380.9 
		L296.9,380.8 L296.9,380.6 L296.9,380.5 L296.9,380.3 L297.9,419.9 L298.7,417.5 L298.8,415.0 L299.1,412.5 
		L299.1,410.1 L299.1,407.6 L299.1,405.1 L299.1,402.7 L299.1,400.2 L299.1,399.9 L299.1,403.9 L299.1,401.4 
		L299.2,399.0 L299.2,396.5 L299.2,394.0 L299.2,391.6 L299.2,389.1 L299.2,386.6 L299.2,384.2 L299.2,381.7 
		L299.2,379.2 L299.2,376.7 L299.2,374.3 L299.2,379.2 L299.2,376.7 L299.2,381.7 L299.2,379.2 L299.2,384.2 
		L299.2,381.7 L299.2,386.6 L299.2,384.2 L299.2,411.3 L299.2,410.7 L299.3,410.2 L299.3,409.7 L299.3,409.3 
		L299.3,408.8 L299.3,408.3 L299.3,407.9 L299.3,407.5 L299.3,407.1 L299.4,406.7 L300.3,406.3 L300.3,405.9 
		L300.3,405.6 L301.7,405.2 L301.7,404.9 L301.9,404.5 L301.9,404.2 L301.9,403.8 L302.0,403.5 L302.0,403.2 
		L302.0,402.9 L302.4,402.6 L302.5,402.3 L303.4,402.0 L303.8,401.7 L303.8,401.4 L303.8,401.1 L303.9,400.8 
		L303.9,400.5 L303.9,400.3 L303.9,400.0 L304.0,399.7 L304.0,399.4 L304.0,399.2 L304.0,398.9 L304.0,398.7 
		L304.1,398.4 L304.1,398.2 L304.1,397.9 L304.1,397.7 L304.1,397.4 L304.2,397.2 L305.2,396.9 L305.9,396.7 
		L305.9,396.5 L306.0,396.2 L306.0,396.0 L306.0,395.8 L306.0,395.6 L306.1,395.3 L306.1,395.1 L306.1,394.9 
		L306.1,394.7 L306.9,394.4 L306.9,394.2 L306.9,394.0 L306.9,393.8 L306.9,393.6 L307.0,393.4 L307.0,393.2 
		L307.0,393.0 L307.0,392.8 L307.0,392.6 L307.1,392.4 L307.1,392.2 L307.1,392.0 L307.1,391.8 L307.1,391.6 
		L309.2,419.9 L309.6,417.5 L309.6,415.0 L309.6,412.5 L309.7,410.1 L309.7,407.6 L309.7,407.2 L309.7,407.6 
		L309.7,405.1 L309.7,402.7 L309.7,400.2 L309.7,397.7 L309.7,395.3 L309.7,392.8 L309.7,390.3 L309.7,387.9 
		L309.8,392.8 L309.8,390.3 L309.8,395.3 L309.8,392.8 L309.8,415.0 L309.8,414.2 L309.8,413.4 L309.8,412.8 
		L309.8,412.1 L309.8,411.5 L309.8,411.0 L309.8,410.5 L309.9,410.0 L309.9,409.5 L310.0,409.0 L310.2,408.5 
		L310.2,408.1 L310.6,407.7 L310.6,407.3 L310.7,406.9 L310.7,406.5 L310.7,406.1 L310.8,405.7 L310.8,405.4 
		L310.8,405.0 L310.9,404.7 L310.9,404.3 L310.9,404.0 L311.0,403.7 L311.0,403.3 L311.0,403.0 L311.1,402.7 
		L311.1,402.4 L311.1,402.1 L312.1,419.9 L312.1,417.5 L312.6,415.0 L312.6,412.5 L312.6,411.9 L312.6,411.3 
		L312.7,410.1 L312.7,407.6 L312.7,405.1 L312.7,402.7 L312.9,400.2 L313.0,405.1 L313.0,402.7 L313.0,417.5 
		L313.0,416.2 L313.0,415.2 L313.0,414.4 L313.0,413.6 L314.0,419.9 L314.0,417.5 L314.3,416.2 L314.3,410.1 
		L314.4,417.5 L314.4,416.2 L314.5,415.2 L314.6,414.4 L314.7,413.6 L315.7,419.9 L315.7,417.5 L316.3,416.2 
		L316.3,410.1 L316.3,417.5 L316.3,416.2 L316.4,415.2 L316.6,414.4 L316.7,413.6 L316.8,412.9 L317.2,412.3 
		L317.3,411.7 L317.3,411.1 L317.4,410.6 L317.4,410.1 L318.2,409.6 L318.2,409.1 L318.3,408.7 L318.3,408.2 
		L318.4,407.8 L318.4,407.4 L319.4,419.9 L319.4,417.5 L319.8,415.0 L319.8,414.2 L319.8,413.4 L320.5,410.1 
		L320.5,407.6 L320.5,405.1 L320.5,410.1 L320.5,407.6 L320.6,417.5 L320.6,416.2 L320.6,415.2 L320.6,414.4 
		L320.6,413.6 L320.7,412.9 L320.8,412.3 L321.7,411.7 L321.7,411.1 L321.8,410.6 L321.8,410.1 L321.9,409.6 
		L321.9,409.1 L322.0,408.7 L322.0,408.2 L322.1,407.8 L322.1,407.4 L322.2,407.0 L322.2,406.6 L322.2,406.2 
		L323.2,419.9 L323.8,417.5 L323.8,415.0 L323.9,414.2 L323.9,410.1 L323.9,407.6 L323.9,405.1 L323.9,410.1 
		L323.9,407.6 L324.0,417.5 L324.0,416.2 L324.6,415.2 L324.6,414.4 L324.6,413.6 L324.7,412.9 L325.7,412.3 
		L327.2,419.9 L328.1,417.5 L328.1,416.2 L328.2,410.1 L328.2,417.5 L328.2,416.2 L328.7,415.2 L328.8,414.4 
		L328.9,413.6 L329.0,412.9 L329.1,412.3 L329.2,411.7 L329.2,411.1 L329.3,410.6 L329.3,410.1 L330.1,409.6 
		L330.1,409.1 L330.2,408.7 L330.2,408.2 L330.5,407.8 L330.5,407.4 L330.6,407.0 L330.6,406.6 L330.6,406.2 
		L330.9,405.8 L330.9,405.5 L331.0,405.1 L331.0,404.8 L331.0,404.4 L331.1,404.1 L331.1,403.7 L331.1,403.4 
		L331.4,403.1 L331.4,402.8 L331.4,402.5 L331.5,402.2 L331.5,401.9 L332.0,401.6 L332.0,401.3 L332.0,401.0 
		L332.0,400.7 L332.1,400.4 L332.1,400.2 L332.1,399.9 L332.4,399.6 L332.4,399.4 L332.4,399.1 L332.4,398.8 
		L332.5,398.6 L332.5,398.3 L332.5,398.1 L332.5,397.8 L332.6,397.6 L332.6,397.4 L332.6,397.1 L332.6,396.9 
		L332.7,396.6 L332.7,396.4 L332.7,396.2 L332.7,395.9 L332.7,395.7 L333.0,395.5 L333.0,395.3 L333.0,395.0 
		L333.6,394.8 L333.6,394.6 L333.6,394.4 L333.6,394.2 L333.6,394.0 L333.7,393.8 L333.7,393.5 L333.7,393.3 
		L334.3,393.1 L334.4,392.9 L334.4,392.7 L334.4,392.5 L334.4,392.3 L334.4,392.1 L334.4,391.9 L334.5,391.7 
		L334.5,391.5 L334.5,391.3 L334.5,391.1 L334.5,390.9 L334.5,390.7 L334.5,390.6 L334.5,390.4 L334.5,390.2 
		L334.6,390.0 L334.6,389.8 L334.6,389.6 L334.6,389.4 L334.6,389.3 L334.6,389.1 L334.7,388.9 L335.5,388.7 
		L335.5,388.5 L335.5,388.4 L335.5,388.2 L335.5,388.0 L335.5,387.8 L335.6,387.7 L335.6,387.5 L335.6,387.3 
		L335.6,387.1 L335.6,387.0 L335.6,386.8 L335.6,386.6 L335.7,386.5 L335.7,386.3 L335.7,386.1 L335.7,386.0 
		L337.2,419.9 L337.7,417.5 L337.7,415.0 L337.7,412.5 L337.7,410.1 L337.7,407.6 L337.7,405.1 L337.7,404.8 
		L337.8,406.4 L337.8,403.9 L337.8,401.4 L337.8,399.0 L337.8,396.5 L337.8,394.0 L337.8,391.6 L337.8,389.1 
		L337.8,386.6 L337.8,384.2 L337.8,381.7 L337.8,386.6 L337.8,384.2 L337.8,389.1 L337.8,386.6 L337.8,391.6 
		L337.8,389.1 L337.8,413.8 L337.8,413.1 L337.8,412.4 L337.8,411.8 L337.8,411.2 L337.8,410.7 L337.9,410.2 
		L337.9,409.7 L337.9,409.2 L337.9,408.7 L338.0,408.3 L338.8,407.9 L338.8,407.5 L339.8,407.0 L340.2,406.7 
		L340.2,406.3 L340.2,405.9 L340.3,405.5 L340.3,405.2 L340.6,404.8 L340.6,404.5 L340.6,404.1 L340.7,403.8 
		L340.7,403.5 L340.7,403.2 L340.8,402.8 L340.8,402.5 L342.7,419.9 L342.9,417.5 L342.9,415.0 L342.9,412.5 
		L342.9,411.9 L343.0,410.1 L343.0,407.6 L343.0,405.1 L343.5,402.7 L343.5,400.2 L343.5,405.1 L343.5,402.7 
		L343.5,417.5 L343.5,416.2 L343.5,415.2 L343.6,414.4 L343.6,413.6 L344.3,412.9 L344.7,412.3 L344.8,411.7 
		L344.8,411.1 L344.9,410.6 L344.9,410.1 L345.6,409.6 L345.7,409.1 L345.7,408.7 L345.7,408.2 L346.7,407.8 
		L347.0,407.4 L347.0,407.0 L347.4,406.6 L347.4,406.2 L347.4,405.8 L347.5,405.5 L347.5,405.1 L347.5,404.8 
		L347.8,404.4 L347.8,404.1 L348.6,403.7 L348.6,403.4 L348.6,403.1 L348.7,402.8 L348.7,402.5 L348.7,402.2 
		L348.8,401.9 L348.8,401.6 L348.9,401.3 L348.9,401.0 L349.0,400.7 L349.0,400.4 L349.0,400.2 L349.1,399.9 
		L349.7,399.6 L349.7,399.4 L349.7,399.1 L349.7,398.8 L349.8,398.6 L349.8,398.3 L349.8,398.1 L350.1,397.8 
		L350.1,397.6 L350.1,397.4 L350.1,397.1 L350.9,396.9 L350.9,396.6 L350.9,396.4 L350.9,396.2 L351.9,395.9 
		L352.1,395.7 L352.1,395.5 L352.1,395.3 L352.1,395.0 L352.1,394.8 L352.2,394.6 L352.2,394.4 L352.2,394.2 
		L353.2,394.0 L353.2,393.8 L353.2,393.5 L353.3,393.3 L353.3,393.1 L353.3,392.9 L353.3,392.7 L353.3,392.5 
		L353.4,392.3 L353.4,392.1 L353.4,391.9 L353.4,391.7 L353.4,391.5 L353.4,391.3 L353.8,391.1 L353.8,390.9 
		L353.8,390.7 L353.8,390.6 L353.8,390.4 L353.9,390.2 L353.9,390.0 L353.9,389.8 L353.9,389.6 L353.9,389.4 
		L353.9,389.3 L354.0,389.1 L354.0,388.9 L354.0,388.7 L354.0,388.5 L354.0,388.4 L354.0,388.2 L354.0,388.0 
		L354.0,387.8 L354.0,387.7 L354.1,387.5 L354.1,387.3 L354.1,387.1 L354.1,387.0 L354.1,386.8 L354.1,386.6 
		L354.1,386.5 L354.1,386.3 L354.1,386.1 L354.1,386.0 L354.2,385.8 L354.2,385.6 L354.2,385.5 L354.2,385.3 
		L354.2,385.2 L354.2,385.0 L354.2,384.8 L354.2,384.7 L354.2,384.5 L354.2,384.4 L354.3,384.2 L354.3,384.0 
		L354.3,383.9 L354.3,383.7 L354.3,383.6 L354.3,383.4 L354.6,383.3 L354.6,383.1 L354.6,383.0 L354.6,382.8 
		L354.6,382.7 L354.7,382.5 L355.2,382.3 L355.2,382.2 L355.2,382.0 L355.2,381.9 L355.8,381.8 L355.8,381.6 
		L355.8,381.5 L355.8,381.3 L355.8,381.2 L355.8,381.0 L355.8,380.9 L355.8,380.7 L355.8,380.6 L355.9,380.4 
		L355.9,380.3 L355.9,380.2 L355.9,380.0 L355.9,379.9 L355.9,379.7 L355.9,379.6 L355.9,379.5 L355.9,379.3 
		L356.4,379.2 L356.4,379.0 L356.7,378.9 L356.7,378.8 L356.7,378.6 L356.7,378.5 L356.8,378.4 L356.8,378.2 
		L356.8,378.1 L356.8,377.9 L356.9,377.8 L356.9,377.7 L357.1,377.5 L357.1,377.4 L357.1,377.3 L357.1,377.1 
		L357.1,377.0 L357.1,376.9 L357.2,376.7 L357.2,376.6 L357.2,376.5 L357.2,376.4 L357.2,376.2 L357.2,376.1 
		L357.2,376.0 L357.2,375.8 L357.2,375.7 L357.2,375.6 L357.2,375.5 L357.2,375.3 L357.3,375.2 L357.3,375.1 
		L357.3,374.9 L357.3,374.8 L357.3,374.7 L357.3,374.6 L357.3,374.4 L357.3,374.3 L358.3,419.9 L358.3,417.5 
		L359.7,415.0 L359.7,412.5 L359.7,410.1 L359.7,407.6 L359.7,405.1 L359.7,402.7 L359.7,400.2 L359.7,397.7 
		L359.7,397.5 L359.8,402.7 L359.8,400.2 L359.8,397.7 L359.8,395.3 L359.8,392.8 L359.8,390.3 L359.8,387.9 
		L359.8,385.4 L359.8,382.9 L359.8,380.5 L359.8,378.0 L359.8,375.5 L359.8,373.0 L359.8,370.6 L359.8,368.1 
		L359.8,365.6 L359.8,363.2 L359.9,368.1 L359.9,365.6 L359.9,370.6 L359.9,368.1 L359.9,373.0 L359.9,370.6 
		L359.9,375.5 L359.9,373.0 L359.9,410.1 L359.9,409.6 L360.2,409.1 L360.2,408.6 L360.3,408.2 L360.8,407.8 
		L360.8,407.4 L361.0,407.0 L361.0,406.6 L361.0,406.2 L361.0,405.8 L361.6,405.4 L361.6,405.1 L361.6,404.7 
		L361.6,404.4 L361.7,404.1 L361.7,403.7 L361.7,403.4 L362.7,403.1 L362.8,402.8 L362.8,402.5 L362.8,402.2 
		L362.9,401.9 L362.9,401.6 L362.9,401.3 L362.9,401.0 L362.9,400.7 L362.9,400.4 L362.9,400.2 L363.0,399.9 
		L363.0,399.6 L363.0,399.4 L363.0,399.1 L363.1,398.8 L363.1,398.6 L363.9,398.3 L363.9,398.1 L363.9,397.8 
		L364.0,397.6 L364.1,397.3 L364.2,397.1 L364.3,396.9 L364.3,396.6 L364.3,396.4 L364.3,396.2 L364.3,395.9 
		L364.5,395.7 L364.5,395.5 L364.5,395.3 L364.5,395.0 L364.5,394.8 L364.6,394.6 L364.6,394.4 L364.6,394.2 
		L364.6,393.9 L364.6,393.7 L364.7,393.5 L364.7,393.3 L364.7,393.1 L364.7,392.9 L364.7,392.7 L364.8,392.5 
		L364.8,392.3 L364.8,392.1 L364.8,391.9 L364.8,391.7 L364.8,391.5 L364.9,391.3 L364.9,391.1 L365.5,390.9 
		L365.5,390.7 L366.1,390.5 L366.1,390.4 L366.1,390.2 L366.1,390.0 L366.1,389.8 L366.1,389.6 L366.2,389.4 
		L366.2,389.2 L366.2,389.1 L366.7,388.9 L366.7,388.7 L367.7,388.5 L367.8,388.3 L367.8,388.2 L369.2,388.0 
		L369.2,387.8 L369.2,387.6 L369.2,387.5 L369.2,387.3 L369.2,387.1 L369.3,387.0 L369.3,386.8 L369.3,386.6 
		L369.3,386.4 L369.6,386.3 L369.6,386.1 L369.6,386.0 L369.6,385.8 L369.6,385.6 L369.6,385.5 L369.6,385.3 
		L370.4,385.1 L370.4,385.0 L370.4,384.8 L370.4,384.7 L370.4,384.5 L370.4,384.3 L370.4,384.2 L370.5,384.0 
		L370.6,383.9 L370.6,383.7 L370.6,383.6 L370.7,383.4 L370.7,383.2 L370.8,383.1 L370.8,382.9 L370.8,382.8 
		L370.8,382.6 L370.8,382.5 L370.9,382.3 L370.9,382.2 L370.9,382.0 L371.0,381.9 L371.0,381.7 L371.0,381.6 
		L371.0,381.4 L371.0,381.3 L371.0,381.2 L371.0,381.0 L371.0,380.9 L371.0,380.7 L371.0,380.6 L371.0,380.4 
		L371.1,380.3 L371.1,380.1 L371.1,380.0 L371.1,379.9 L371.3,379.7 L371.3,379.6 L371.3,379.4 L371.3,379.3 
		L371.4,379.2 L371.4,379.0 L371.4,378.9 L371.4,378.8 L371.4,378.6 L371.4,378.5 L371.4,378.3 L371.9,378.2 
		L371.9,378.1 L371.9,377.9 L371.9,377.8 L371.9,377.7 L371.9,377.5 L371.9,377.4 L371.9,377.3 L372.0,377.1 
		L372.0,377.0 L372.0,376.9 L372.0,376.7 L372.0,376.6 L372.3,376.5 L372.3,376.3 L372.3,376.2 L372.3,376.1 
		L372.3,376.0 L372.4,375.8 L372.4,375.7 L372.4,375.6 L372.4,375.4 L372.4,375.3 L372.4,375.2 L373.4,419.9 
		L373.4,417.5 L373.7,415.0 L373.7,412.5 L373.7,410.1 L374.1,407.6 L374.1,405.1 L374.1,402.7 L374.1,400.2 
		L374.1,397.7 L374.1,397.5 L374.8,402.7 L374.8,400.2 L374.8,397.7 L374.8,395.3 L374.8,392.8 L374.8,390.3 
		L374.8,387.9 L374.8,385.4 L374.8,382.9 L374.8,380.5 L374.8,378.0 L374.8,375.5 L374.8,373.0 L374.8,370.6 
		L374.8,368.1 L374.8,365.6 L374.8,363.2 L374.9,368.1 L374.9,365.6 L374.9,370.6 L374.9,368.1 L374.9,373.0 
		L374.9,370.6 L374.9,375.5 L374.9,373.0 L374.9,410.1 L374.9,409.6 L374.9,409.1 L374.9,408.6 L374.9,408.2 
		L374.9,407.8 L374.9,407.4 L374.9,407.0 L374.9,406.6 L374.9,406.2 L374.9,405.8 L374.9,405.4 L374.9,405.1 
		L375.0,404.7 L375.0,404.4 L375.0,404.1 L375.1,403.7 L375.1,403.4 L375.1,403.1 L376.1,419.9 L376.1,417.5 
		L377.9,415.0 L377.9,412.5 L378.0,411.9 L378.0,410.1 L378.0,407.6 L378.0,405.1 L378.0,402.7 L378.0,400.2 
		L378.0,405.1 L378.0,402.7 L378.1,417.5 L378.1,416.2 L378.1,415.2 L378.1,414.4 L378.2,413.6 L378.5,412.9 
		L378.7,412.3 L378.8,411.7 L378.8,411.1 L379.8,419.9 L380.1,417.5 L380.1,416.2 L380.3,410.1 L380.3,417.5 
		L380.3,416.2 L380.4,415.2 L381.4,419.9 L381.7,417.5 L381.8,416.2 L382.6,415.2 L382.7,414.4 L382.8,413.6 
		L382.9,412.9 L383.2,412.3 L383.3,411.7 L383.3,411.1 L384.0,410.6 L384.0,410.1 L384.1,409.6 L384.1,409.1 
		L384.2,408.7 L384.2,408.2 L384.3,407.8 L384.3,407.4 L384.4,407.0 L384.4,406.6 L384.4,406.2 L384.5,405.8 
		L384.5,405.5 L384.5,405.1 L385.3,404.8 L385.4,404.4 L386.1,404.1 L386.1,403.7 L386.2,403.4 L387.1,403.1 
		L387.1,402.8 L387.1,402.5 L387.3,402.2 L387.3,401.9 L387.3,401.6 L387.3,401.3 L388.8,401.0 L388.9,400.7 
		L388.9,400.4 L389.6,400.2 L389.6,399.9 L389.6,399.6 L389.6,399.4 L389.7,399.1 L389.7,398.8 L389.7,398.6 
		L389.7,398.3 L389.8,398.1 L389.8,397.8 L389.8,397.6 L389.8,397.4 L390.2,397.1 L390.2,396.9 L390.2,396.6 
		L390.2,396.4 L390.3,396.2 L390.3,395.9 L390.3,395.7 L390.3,395.5 L390.3,395.3 L390.3,395.0 L390.4,394.8 
		L390.4,394.6 L390.4,394.4 L390.4,394.2 L390.4,394.0 L390.4,393.8 L390.5,393.5 L390.8,393.3 L390.8,393.1 
		L390.8,392.9 L390.8,392.7 L390.8,392.5 L390.9,392.3 L390.9,392.1 L390.9,391.9 L390.9,391.7 L390.9,391.5 
		L390.9,391.3 L391.0,391.1 L391.0,390.9 L391.0,390.7 L391.8,390.6 L391.8,390.4 L391.8,390.2 L391.9,390.0 
		L392.0,389.8 L392.0,389.6 L392.0,389.4 L392.0,389.3 L392.0,389.1 L392.0,388.9 L392.0,388.7 L392.1,388.5 
		L392.1,388.4 L392.1,388.2 L392.1,388.0 L392.1,387.8 L392.1,387.7 L392.1,387.5 L393.1,387.3 L393.3,387.1 
		L393.3,387.0 L393.3,386.8 L393.3,386.6 L393.4,386.5 L393.4,386.3 L393.4,386.1 L393.4,386.0 L393.4,385.8 
		L393.4,385.6 L393.4,385.5 L393.4,385.3 L393.4,385.2 L393.4,385.0 L393.5,384.8 L393.5,384.7 L393.5,384.5 
		L393.5,384.4 L393.5,384.2 L393.5,384.0 L393.5,383.9 L393.5,383.7 L393.6,383.6 L393.6,383.4 L394.6,383.3 
		L395.5,383.1 L395.5,383.0 L395.5,382.8 L395.5,382.7 L395.5,382.5 L395.5,382.3 L395.5,382.2 L395.5,382.0 
		L395.6,381.9 L395.6,381.8 L397.2,381.6 L397.2,381.5 L397.2,381.3 L397.2,381.2 L397.2,381.0 L397.2,380.9 
		L397.2,380.7 L397.2,380.6 L397.3,380.4 L397.3,380.3 L397.3,380.2 L397.3,380.0 L397.3,379.9 L397.3,379.7 
		L397.3,379.6 L397.3,379.5 L397.4,379.3 L397.4,379.2 L397.4,379.0 L397.4,378.9 L397.4,378.8 L397.4,378.6 
		L397.4,378.5 L397.4,378.4 L397.6,378.2 L397.6,378.1 L397.6,377.9 L397.6,377.8 L397.6,377.7 L397.6,377.5 
		L397.6,377.4 L397.6,377.3 L397.7,377.1 L397.8,377.0 L397.8,376.9 L397.8,376.7 L397.8,376.6 L397.8,376.5 
		L397.8,376.4 L397.8,376.2 L397.9,376.1 L397.9,376.0 L397.9,375.8 L397.9,375.7 L397.9,375.6 L397.9,375.5 
		L397.9,375.3 L397.9,375.2 L397.9,375.1 L397.9,374.9 L397.9,374.8 L397.9,374.7 L397.9,374.6 L398.0,374.4 
		L398.0,374.3 L398.0,374.2 L398.0,374.1 L398.0,374.0 L398.0,373.8 L398.0,373.7 L398.0,373.6 L399.0,373.5 
		L399.0,373.3 L399.0,373.2 L399.0,373.1 L399.0,373.0 L399.0,372.8 L399.0,372.7 L399.0,372.6 L399.0,372.5 
		L399.0,372.4 L399.0,372.3 L399.1,372.1 L399.1,372.0 L399.1,371.9 L399.1,371.8 L399.1,371.7 L399.1,371.5 
		L399.1,371.4 L399.1,371.3 L399.1,371.2 L399.1,371.1 L399.1,371.0 L399.2,370.8 L399.2,370.7 L399.2,370.6 
		L399.2,370.5 L399.2,370.4 L399.2,370.3 L399.3,370.1 L399.3,370.0 L399.3,369.9 L399.3,369.8 L399.3,369.7 
		L399.3,369.6 L399.3,369.5 L399.3,369.3 L399.3,369.2 L399.3,369.1 L399.3,369.0 L399.4,368.9 L399.4,368.8 
		L399.4,368.7 L399.4,368.6 L399.4,368.5 L399.4,368.4 L399.4,368.2 L399.9,368.1 L399.9,368.0 L400.0,367.9 
		L400.0,367.8 L400.0,367.7 L400.0,367.6 L400.0,367.5 L400.0,367.4 L400.0,367.2 L400.0,367.1 L400.0,367.0 
		L400.0,366.9 L400.1,366.8 L400.1,366.7 L400.1,366.6 L400.5,366.5 L400.5,366.4 L400.5,366.3 L400.5,366.2 
		L400.5,366.1 L400.5,366.0 L400.6,365.9 L400.6,365.8 L400.6,365.7 L400.6,365.6 L401.5,365.4 L401.5,365.3 
		L401.5,365.2 L401.5,365.1 L401.5,365.0 L401.5,364.9 L401.5,364.8 L401.5,364.7 L401.5,364.6 L401.5,364.5 
		L401.5,364.4 L401.6,364.3 L401.6,364.2 L401.6,364.1 L401.6,364.0 L401.6,363.9 L401.6,363.8 L401.6,363.7 
		L401.6,363.6 L401.7,363.5 L401.7,363.4 L401.7,363.3 L401.7,363.2 L401.7,363.1 L401.7,363.0 L401.8,362.9 
		L401.8,362.8 L401.8,362.7 L401.8,362.6 L401.8,362.5 L402.5,362.4 L402.5,362.3 L402.5,362.2 L402.5,362.1 
		L402.5,362.0 L402.5,361.9 L402.5,361.8 L402.5,361.7 L402.6,361.6 L402.6,361.5 L403.2,361.4 L403.2,361.3 
		L403.2,361.2 L403.3,361.1 L403.3,361.0 L403.3,360.9 L403.3,360.8 L403.3,360.7 L403.3,360.6 L403.3,360.5 
		L403.3,360.4 L403.3,360.3 L404.3,360.2 L405.4,360.2 L405.4,360.1 L405.4,360.0 L405.4,359.9 L405.5,359.8 
		L405.5,359.7 L405.5,359.6 L405.5,359.5 L405.5,359.4 L405.5,359.3 L405.5,359.2 L405.5,359.1 L405.5,359.0 
		L405.6,358.9 L405.6,358.8 L405.6,358.7 L406.0,358.6 L406.2,358.5 L406.2,358.4 L406.2,358.3 L406.2,358.2 
		L406.2,358.1 L406.2,358.0 L406.2,357.9 L406.2,357.8 L406.2,357.7 L406.2,357.6 L406.2,357.5 L406.3,357.4 
		L406.3,357.3 L406.3,357.2 L406.3,357.1 L406.3,357.0 L406.3,356.9 L406.3,356.8 L406.3,356.7 L407.3,356.6 
		L407.3,356.5 L407.3,356.4 L407.3,356.3 L407.4,356.2 L407.7,356.2 L407.7,356.1 L407.7,356.0 L407.7,355.9 
		L407.7,355.8 L407.7,355.7 L407.7,355.6 L407.7,355.5 L407.8,355.4 L407.8,355.3 L407.8,355.2 L407.8,355.1 
		L407.8,355.0 L407.8,354.9 L407.8,354.8 L407.8,354.7 L407.8,354.6 L407.9,354.5 L407.9,354.4 L407.9,354.3 
		L407.9,354.2 L407.9,354.1 L408.5,354.1 L408.5,354.0 L408.5,353.9 L408.5,353.8 L408.7,353.7 L408.7,353.6 
		L408.7,353.5 L408.7,353.4 L408.7,353.3 L408.9,353.2 L408.9,353.1 L408.9,353.0 L408.9,352.9 L408.9,352.8 
		L408.9,352.7 L408.9,352.6 L408.9,352.5 L408.9,352.4 L409.0,352.3 L409.0,352.2 L409.0,352.1 L409.0,352.0 
		L409.0,351.9 L409.0,351.8 L409.0,351.7 L409.0,351.6 L409.0,351.5 L409.0,351.4 L409.0,351.3 L409.0,351.2 
		L409.1,351.1 L410.2,419.9 L411.0,417.5 L411.0,415.0 L411.0,412.5 L411.1,410.1 L411.1,407.6 L411.1,405.1 
		L411.1,402.7 L411.1,400.2 L411.1,397.7 L411.1,395.3 L411.1,392.8 L411.2,390.3 L411.2,387.9 L411.2,387.7 
		L411.2,397.7 L411.2,395.3 L411.2,392.8 L411.4,390.3 L411.4,387.9 L411.4,385.4 L411.4,382.9 L411.4,380.5 
		L411.4,378.0 L411.4,375.5 L411.4,373.0 L411.4,370.6 L411.4,368.1 L411.4,365.6 L411.4,363.2 L411.4,360.7 
		L411.4,358.2 L411.5,355.8 L411.5,353.3 L411.5,350.8 L411.5,348.4 L411.5,345.9 L411.5,343.4 L411.5,341.0 
		L411.5,338.5 L411.5,343.4 L411.5,341.0 L411.5,345.9 L411.5,343.4 L411.5,348.4 L411.5,345.9 L411.5,350.8 
		L411.5,348.4 L412.5,350.8 L412.5,348.4 L412.6,353.3 L412.6,350.8 L412.6,355.8 L412.6,353.3 L412.6,405.1 
		L412.6,404.8 L412.6,404.4 L412.6,404.1 L412.6,403.8 L412.6,403.4 L412.6,403.1 L412.8,402.8 L412.8,402.5 
		L412.8,402.2 L412.8,401.9 L412.8,401.6 L413.8,401.3 L413.8,401.0 L413.8,400.7 L413.8,400.5 L413.8,400.2 
		L413.8,399.9 L413.8,399.7 L413.8,399.4 L413.9,399.1 L414.8,398.9 L414.9,398.6 L414.9,398.4 L414.9,398.1 
		L414.9,397.9 L415.0,397.6 L415.0,397.4 L415.0,397.1 L415.0,396.9 L416.3,396.7 L416.3,396.4 L416.3,396.2 
		L416.3,396.0 L416.3,395.7 L416.4,395.5 L416.4,395.3 L416.4,395.1 L416.4,394.8 L416.4,394.6 L416.5,394.4 
		L416.5,394.2 L416.5,394.0 L416.5,393.8 L416.5,393.5 L416.5,393.3 L416.5,393.1 L416.6,392.9 L416.6,392.7 
		L416.6,392.5 L416.6,392.3 L416.6,392.1 L416.6,391.9 L416.6,391.7 L416.6,391.5 L416.6,391.3 L416.6,391.1 
		L416.7,390.9 L416.7,390.8 L416.7,390.6 L416.7,390.4 L416.7,390.2 L416.7,390.0 L416.7,389.8 L416.7,389.6 
		L416.7,389.4 L416.8,389.3 L416.8,389.1 L416.8,388.9 L416.8,388.7 L416.8,388.5 L416.8,388.4 L416.8,388.2 
		L416.8,388.0 L416.8,387.8 L416.9,387.7 L416.9,387.5 L416.9,387.3 L416.9,387.1 L417.1,387.0 L417.1,386.8 
		L417.1,386.6 L417.1,386.5 L417.1,386.3 L417.1,386.1 L417.1,386.0 L417.6,385.8 L417.6,385.6 L417.7,385.5 
		L417.7,385.3 L417.7,385.2 L417.7,385.0 L417.7,384.8 L417.7,384.7 L417.7,384.5 L417.7,384.4 L417.8,384.2 
		L417.8,384.0 L417.8,383.9 L418.8,419.9 L419.8,417.5 L419.8,415.0 L419.8,412.5 L419.8,410.1 L419.8,407.6 
		L419.9,405.1 L419.9,402.7 L419.9,402.4 L419.9,405.1 L419.9,402.7 L419.9,400.2 L419.9,397.7 L419.9,395.3 
		L419.9,392.8 L419.9,390.3 L419.9,387.9 L419.9,385.4 L419.9,382.9 L420.0,380.5 L420.2,385.4 L420.2,382.9 
		L420.2,387.9 L420.2,385.4 L421.2,387.9 L421.2,385.4 L423.2,419.9 L423.3,417.5 L423.3,415.0 L423.7,412.5 
		L423.7,410.1 L424.3,407.6 L424.3,405.1 L424.8,402.7 L424.8,402.4 L424.9,402.1 L424.9,405.1 L424.9,402.7 
		L424.9,400.2 L424.9,397.7 L424.9,395.3 L424.9,392.8 L424.9,390.3 L424.9,387.9 L424.9,385.4 L424.9,382.9 
		L424.9,380.5 L424.9,378.0 L424.9,382.9 L424.9,380.5 L424.9,385.4 L424.9,382.9 L424.9,387.9 L424.9,385.4 
		L424.9,412.5 L424.9,411.9 L424.9,411.3 L425.0,410.8 L425.0,410.3 L425.0,409.8 L425.0,409.3 L425.0,408.8 
		L425.0,408.4 L425.0,407.9 L426.0,419.9 L428.1,417.5 L428.2,415.0 L428.2,414.2 L428.2,410.1 L428.2,407.6 
		L428.3,412.5 L428.3,410.1 L428.3,417.5 L428.3,416.2 L428.4,415.2 L428.4,414.4 L428.5,413.6 L429.4,419.9 
		L429.5,417.5 L429.5,416.2 L429.9,410.1 L429.9,417.5 L429.9,416.2 L430.0,415.2 L430.3,414.4 L430.5,413.6 
		L430.6,412.9 L430.7,412.3 L430.8,411.7 L430.8,411.1 L430.9,410.6 L430.9,410.1 L431.0,409.6 L431.0,409.1 
		L431.1,408.7 L431.1,408.2 L431.2,407.8 L431.2,407.4 L431.3,407.0 L431.5,406.6 L431.5,406.2 L431.5,405.8 
		L431.5,405.5 L431.6,405.1 L431.6,404.8 L431.9,404.4 L431.9,404.1 L431.9,403.7 L432.0,403.4 L432.1,403.1 
		L432.1,402.8 L432.1,402.5 L432.1,402.2 L432.2,401.9 L432.2,401.6 L432.2,401.3 L432.2,401.0 L432.2,400.7 
		L432.3,400.4 L432.3,400.2 L432.3,399.9 L432.3,399.6 L432.6,399.4 L432.6,399.1 L432.6,398.8 L432.7,398.6 
		L432.7,398.3 L432.7,398.1 L432.8,397.8 L432.8,397.6 L432.8,397.4 L432.9,397.1 L432.9,396.9 L432.9,396.6 
		L433.8,396.4 L433.8,396.2 L433.8,395.9 L433.8,395.7 L433.8,395.5 L433.9,395.3 L433.9,395.0 L433.9,394.8 
		L434.0,394.6 L434.0,394.4 L434.0,394.2 L434.0,394.0 L434.0,393.8 L434.1,393.5 L434.1,393.3 L434.1,393.1 
		L434.1,392.9 L434.1,392.7 L434.2,392.5 L434.2,392.3 L434.2,392.1 L434.2,391.9 L434.2,391.7 L434.2,391.5 
		L434.3,391.3 L434.3,391.1 L434.3,390.9 L434.3,390.7 L434.3,390.6 L434.3,390.4 L434.4,390.2 L434.6,390.0 
		L434.6,389.8 L434.6,389.6 L434.6,389.4 L434.6,389.3 L435.4,389.1 L435.4,388.9 L435.4,388.7 L435.4,388.5 
		L435.4,388.4 L435.4,388.2 L435.4,388.0 L435.5,387.8 L435.5,387.7 L435.5,387.5 L435.5,387.3 L435.5,387.1 
		L435.5,387.0 L435.7,386.8 L435.7,386.6 L435.7,386.5 L435.7,386.3 L435.7,386.1 L435.8,386.0 L435.8,385.8 
		L435.8,385.6 L435.8,385.5 L435.8,385.3 L435.9,385.2 L435.9,385.0 L436.5,384.8 L436.5,384.7 L436.5,384.5 
		L436.5,384.4 L437.3,384.2 L437.3,384.0 L437.3,383.9 L437.3,383.7 L437.3,383.6 L437.3,383.4 L437.3,383.3 
		L437.4,383.1 L437.4,383.0 L437.4,382.8 L437.4,382.7 L437.4,382.5 L437.4,382.3 L437.4,382.2 L437.7,382.0 
		L437.7,381.9 L438.7,381.8 L438.9,381.6 L438.9,381.5 L438.9,381.3 L439.2,381.2 L439.3,381.0 L439.8,380.9 
		L439.8,380.7 L439.8,380.6 L439.9,380.4 L440.0,380.3 L440.0,380.2 L440.4,380.0 L440.4,379.9 L440.4,379.7 
		L441.0,379.6 L441.0,379.5 L441.0,379.3 L441.0,379.2 L441.4,379.0 L441.4,378.9 L441.4,378.8 L441.4,378.6 
		L441.4,378.5 L441.4,378.4 L441.4,378.2 L441.4,378.1 L441.5,377.9 L441.5,377.8 L441.5,377.7 L441.5,377.5 
		L441.5,377.4 L441.5,377.3 L441.5,377.1 L441.5,377.0 L441.5,376.9 L441.5,376.7 L441.6,376.6 L441.6,376.5 
		L441.6,376.4 L441.6,376.2 L441.6,376.1 L441.6,376.0 L441.6,375.8 L441.6,375.7 L441.6,375.6 L441.6,375.5 
		L441.6,375.3 L441.7,375.2 L442.5,375.1 L442.6,374.9 L442.6,374.8 L442.6,374.7 L442.6,374.6 L442.6,374.4 
		L442.6,374.3 L442.6,374.2 L442.6,374.1 L442.6,374.0 L442.6,373.8 L442.6,373.7 L442.7,373.6 L442.7,373.5 
		L442.7,373.3 L442.7,373.2 L442.7,373.1 L442.7,373.0 L442.7,372.8 L442.7,372.7 L442.7,372.6 L442.7,372.5 
		L442.7,372.4 L442.7,372.3 L442.7,372.1 L444.1,419.9 L444.5,417.5 L444.5,415.0 L444.5,412.5 L444.9,410.1 
		L444.9,407.6 L444.9,405.1 L444.9,402.7 L444.9,400.2 L444.9,397.7 L444.9,397.5 L444.9,402.7 L444.9,400.2 
		L444.9,397.7 L444.9,395.3 L444.9,392.8 L444.9,390.3 L444.9,387.9 L445.0,385.4 L445.0,382.9 L445.0,380.5 
		L445.0,378.0 L445.0,375.5 L445.0,373.0 L445.0,370.6 L445.0,368.1 L445.0,365.6 L445.0,363.2 L445.0,368.1 
		L445.0,365.6 L445.0,370.6 L445.0,368.1 L445.0,373.0 L445.0,370.6 L445.0,375.5 L445.0,373.0 L445.0,410.1 
		L445.0,409.6 L445.0,409.1 L445.0,408.6 L445.0,408.2 L445.0,407.8 L445.0,407.4 L445.0,407.0 L445.1,406.6 
		L445.1,406.2 L445.1,405.8 L445.1,405.4 L445.1,405.1 L445.1,404.7 L446.1,419.9 L446.1,417.5 L447.8,415.0 
		L447.8,412.5 L447.8,411.9 L449.0,410.1 L449.0,407.6 L449.0,405.1 L449.0,402.7 L449.0,400.2 L449.0,405.1 
		L449.0,402.7 L449.0,417.5 L449.0,416.2 L449.1,415.2 L449.1,414.4 L449.1,413.6 L449.2,412.9 L449.3,412.3 
		L450.2,419.9 L450.2,417.5 L451.1,416.2 L451.1,415.2 L451.5,410.1 L451.5,417.5 L451.5,416.2 L451.6,415.2 
		L451.9,414.4 L452.0,413.6 L452.3,412.9 L452.9,412.3 L453.3,411.7 L453.3,411.1 L453.4,410.6 L453.4,410.1 
		L453.5,409.6 L453.5,409.1 L453.6,408.7 L453.6,408.2 L453.6,407.8 L453.7,407.4 L453.7,407.0 L453.8,406.6 
		L453.8,406.2 L454.7,419.9 L455.4,417.5 L455.4,415.0 L455.4,414.2 L455.5,410.1 L455.5,407.6 L455.5,405.1 
		L455.5,410.1 L455.5,407.6 L456.6,417.5 L456.6,416.2 L456.6,415.2 L457.6,414.4 L457.9,413.6 L458.0,412.9 
		L458.1,412.3 L458.3,411.7 L458.3,411.1 L458.4,410.6 L458.4,410.1 L459.5,409.6 L459.5,409.1 L459.9,408.7 
		L459.9,408.2 L460.0,407.8 L460.0,407.4 L460.1,407.0 L461.0,406.6 L461.1,406.2 L461.1,405.8 L461.1,405.5 
		L461.2,405.1 L461.2,404.8 L461.2,404.4 L461.2,404.1 L461.3,403.7 L461.3,403.4 L461.3,403.1 L461.4,402.8 
		L461.8,402.5 L461.8,402.2 L461.8,401.9 L462.6,401.6 L462.6,401.3 L462.6,401.0 L463.0,400.7 L463.0,400.4 
		L463.0,400.2 L463.0,399.9 L463.4,399.6 L463.4,399.4 L463.4,399.1 L463.4,398.8 L463.5,398.6 L463.5,398.3 
		L463.5,398.1 L463.5,397.8 L463.5,397.6 L464.0,397.4 L464.0,397.1 L464.0,396.9 L465.1,396.6 L465.1,396.4 
		L465.1,396.2 L465.3,395.9 L465.3,395.7 L465.3,395.5 L465.3,395.3 L465.3,395.0 L465.4,394.8 L465.4,394.6 
		L465.4,394.4 L465.4,394.2 L465.4,394.0 L466.4,393.8 L467.1,393.5 L467.1,393.3 L467.1,393.1 L467.1,392.9 
		L467.1,392.7 L467.2,392.5 L467.2,392.3 L467.2,392.1 L467.2,391.9 L467.2,391.7 L467.2,391.5 L467.3,391.3 
		L467.3,391.1 L467.3,390.9 L467.3,390.7 L467.3,390.6 L467.3,390.4 L467.3,390.2 L468.0,390.0 L468.0,389.8 
		L468.1,389.6 L468.1,389.4 L468.2,389.3 L468.2,389.1 L468.3,388.9 L468.3,388.7 L468.3,388.5 L468.3,388.4 
		L468.3,388.2 L468.3,388.0 L468.3,387.8 L468.3,387.7 L468.4,387.5 L468.6,387.3 L468.6,387.1 L468.6,387.0 
		L468.6,386.8 L468.7,386.6 L468.7,386.5 L468.7,386.3 L468.7,386.1 L468.7,386.0 L468.7,385.8 L469.6,385.6 
		L469.6,385.5 L469.6,385.3 L469.6,385.2 L469.6,385.0 L469.7,384.8 L469.7,384.7 L469.7,384.5 L469.7,384.4 
		L469.7,384.2 L469.7,384.0 L469.7,383.9 L469.7,383.7 L469.7,383.6 L469.8,383.4 L469.8,383.3 L469.8,383.1 
		L469.8,383.0 L469.8,382.8 L469.8,382.7 L469.8,382.5 L470.4,382.3 L470.4,382.2 L470.8,382.0 L470.8,381.9 
		L470.8,381.8 L470.8,381.6 L470.8,381.5 L470.8,381.3 L470.8,381.2 L470.8,381.0 L470.9,380.9 L470.9,380.7 
		L471.2,380.6 L471.2,380.4 L471.2,380.3 L472.2,380.2 L473.9,380.0 L473.9,379.9 L473.9,379.7 L473.9,379.6 
		L473.9,379.5 L473.9,379.3 L473.9,379.2 L473.9,379.0 L474.0,378.9 L474.0,378.8 L474.8,378.6 L474.9,378.5 
		L474.9,378.4 L474.9,378.2 L474.9,378.1 L474.9,377.9 L474.9,377.8 L475.4,377.7 L475.4,377.5 L475.5,377.4 
		L475.5,377.3 L475.5,377.1 L475.5,377.0 L475.6,376.9 L475.6,376.7 L475.7,376.6 L475.7,376.5 L475.7,376.4 
		L475.8,376.2 L475.8,376.1 L475.8,376.0 L475.8,375.8 L475.9,375.7 L475.9,375.6 L475.9,375.5 L475.9,375.3 
		L475.9,375.2 L477.4,375.1 L477.4,374.9 L477.4,374.8 L477.4,374.7 L477.4,374.6 L477.4,374.4 L477.4,374.3 
		L477.4,374.2 L477.4,374.1 L477.5,374.0 L477.5,373.8 L477.5,373.7 L477.5,373.6 L477.5,373.5 L477.5,373.3 
		L477.5,373.2 L477.5,373.1 L477.5,373.0 L477.5,372.8 L477.5,372.7 L477.6,372.6 L477.6,372.5 L477.6,372.4 
		L477.6,372.3 L477.8,372.1 L477.8,372.0 L477.8,371.9 L477.8,371.8 L478.0,371.7 L478.0,371.5 L478.0,371.4 
		L478.0,371.3 L478.0,371.2 L478.0,371.1 L478.0,371.0 L478.0,370.8 L478.0,370.7 L478.0,370.6 L478.1,370.5 
		L478.1,370.4 L478.1,370.3 L478.1,370.1 L478.1,370.0 L478.1,369.9 L478.1,369.8 L478.1,369.7 L478.5,369.6 
		L478.6,369.5 L478.6,369.3 L478.6,369.2 L478.6,369.1 L478.6,369.0 L478.6,368.9 L478.6,368.8 L478.6,368.7 
		L478.6,368.6 L478.6,368.5 L478.6,368.4 L478.6,368.2 L478.7,368.1 L478.7,368.0 L478.7,367.9 L478.7,367.8 
		L478.7,367.7 L478.7,367.6 L478.7,367.5 L478.7,367.4 L478.7,367.2 L479.7,419.9 L480.9,417.5 L480.9,415.0 
		L480.9,412.5 L480.9,410.1 L480.9,407.6 L480.9,405.1 L480.9,402.7 L480.9,400.2 L480.9,397.7 L480.9,395.3 
		L480.9,395.0 L481.0,401.4 L481.0,399.0 L481.0,396.5 L481.0,394.0 L481.0,391.6 L481.0,389.1 L481.0,386.6 
		L481.0,384.2 L481.0,381.7 L481.0,379.2 L481.0,376.7 L481.0,374.3 L481.0,371.8 L481.0,369.3 L481.0,366.9 
		L481.0,364.4 L481.0,361.9 L481.0,359.5 L481.0,357.0 L481.0,361.9 L481.0,359.5 L481.0,364.4 L481.0,361.9 
		L481.0,366.9 L481.0,364.4 L481.0,369.3 L481.0,366.9 L481.0,371.8 L481.0,369.3 L481.0,408.8 L481.0,408.4 
		L481.0,407.9 L481.0,407.5 L481.0,407.1 L481.1,406.7 L481.1,406.3 L481.1,406.0 L481.1,405.6 L481.1,405.2 
		L481.1,404.9 L481.1,404.5 L481.1,404.2 L481.1,403.9 L481.2,403.5 L481.2,403.2 L481.2,402.9 L482.1,419.9 
		L482.1,417.5 L482.7,415.0 L482.8,412.5 L483.6,411.9 L483.6,411.3 L483.7,410.8 L483.7,410.3 L484.0,409.8 
		L484.0,409.3 L484.1,408.8 L484.1,408.4 L484.8,407.9 L484.8,407.5 L485.2,407.1 L485.2,406.7 L485.2,406.3 
		L485.3,406.0 L485.3,405.6 L485.3,405.2 L485.6,404.9 L485.6,404.5 L485.6,404.2 L485.7,403.9 L485.7,403.5 
		L485.7,403.2 L485.8,402.9 L485.8,402.6 L486.8,419.9 L486.8,417.5 L488.5,415.0 L488.5,412.5 L488.5,411.9 
		L488.5,411.3 L488.6,410.1 L488.6,407.6 L488.6,405.1 L488.6,402.7 L488.6,400.2 L488.6,405.1 L488.6,402.7 
		L488.6,417.5 L488.6,416.2 L488.7,415.2 L488.7,414.4 L489.4,413.6 L489.5,412.9 L489.6,412.3 L489.7,411.7 
		L489.7,411.1 L489.8,410.6 L490.0,410.1 L490.0,409.6 L490.1,409.1 L490.1,408.7 L491.1,419.9 L491.1,417.5 
		L491.4,415.0 L491.4,414.2 L491.4,410.1 L491.5,407.6 L491.5,405.1 L491.5,410.1 L491.5,407.6 L491.5,417.5 
		L491.5,416.2 L491.6,415.2 L491.6,414.4 L491.6,413.6 L491.8,412.9 L491.9,412.3 L492.9,419.9 L492.9,417.5 
		L493.0,416.2 L493.0,415.2 L493.0,410.1 L493.0,417.5 L493.0,416.2 L494.1,415.2 L494.2,414.4 L494.3,413.6 
		L494.5,412.9 L494.6,412.3 L494.7,411.7 L494.7,411.1 L495.7,419.9 L497.0,417.5 L497.0,416.2 L497.1,410.1 
		L497.1,417.5 L497.1,416.2 L497.2,415.2 L497.6,414.4 L498.6,413.6 L498.7,412.9 L498.8,412.3 L499.8,411.7 
		L499.8,411.1 L499.9,410.6 L499.9,410.1 L499.9,409.6 L500.1,409.1 L500.2,408.7 L500.2,408.2 L500.3,407.8 
		L500.3,407.4 L500.4,407.0 L500.4,406.6 L500.4,406.2 L500.5,405.8 L500.5,405.5 L500.5,405.1 L500.5,404.8 
		L500.6,404.4 L500.7,404.1 L501.1,403.7 L501.1,403.4 L501.2,403.1 L501.2,402.8 L501.2,402.5 L501.3,402.2 
		L501.5,401.9 L501.5,401.6 L501.5,401.3 L501.5,401.0 L501.6,400.7 L501.6,400.4 L501.6,400.2 L502.6,419.9 
		L502.9,417.5 L502.9,415.0 L502.9,412.5 L502.9,410.1 L502.9,409.6 L503.0,408.8 L503.0,406.4 L503.0,403.9 
		L503.0,401.4 L503.0,399.0 L503.0,403.9 L503.0,401.4 L503.0,406.4 L503.0,403.9 L503.0,416.2 L503.0,415.2 
		L503.0,414.4 L503.1,413.6 L503.1,412.9 L503.1,412.3 L504.1,419.9 L504.8,417.5 L504.8,416.2 L505.2,410.1 
		L505.2,417.5 L505.2,416.2 L505.3,415.2 L505.6,414.4 L505.8,413.6 L505.9,412.9 L506.9,419.9 L506.9,417.5 
		L507.7,416.2 L507.8,410.1 L507.8,417.5 L507.8,416.2 L508.0,415.2 L508.1,414.4 L508.3,413.6 L508.4,412.9 
		L508.5,412.3 L508.6,411.7 L508.6,411.1 L508.7,410.6 L508.7,410.1 L508.8,409.6 L508.8,409.1 L509.8,419.9 
		L510.1,417.5 L510.1,415.0 L510.1,414.2 L510.2,410.1 L510.2,415.0 L510.2,412.5 L510.3,417.5 L510.3,416.2 
		L510.3,415.2 L510.5,414.4 L510.6,413.6 L511.5,419.9 L511.5,417.5 L511.8,416.2 L511.8,410.1 L511.9,417.5 
		L511.9,416.2 L512.2,415.2 L512.3,414.4 L513.3,419.9 L514.0,417.5 L514.0,416.2 L514.2,415.2 L514.3,414.4 
		L515.2,419.9 L516.5,417.5 L516.5,416.2 L516.6,415.2 L516.7,414.4 L517.5,413.6 L518.5,419.9 L518.5,417.5 
		L518.8,416.2 L518.9,410.1 L518.9,417.5 L518.9,416.2 L519.8,415.2 L519.9,414.4 L520.0,413.6 L520.1,412.9 
		L520.4,412.3 L520.5,411.7 L520.5,411.1 L521.4,410.6 L521.4,410.1 L521.5,409.6 L521.5,409.1 L521.6,408.7 
		L521.6,408.2 L522.8,419.9 L523.1,417.5 L523.1,415.0 L523.1,414.2 L523.5,410.1 L523.5,415.0 L523.5,412.5 
		L523.6,417.5 L523.6,416.2 L523.6,415.2 L523.6,414.4 L524.1,413.6 L524.2,412.9 L524.7,412.3 L524.8,411.7 
		L524.8,411.1 L524.9,410.6 L525.3,410.1 L525.3,409.6 L525.3,409.1 L525.4,408.7 L526.3,408.2 L526.4,407.8 
		L526.4,407.4 L527.4,407.0 L527.6,406.6 L527.6,406.2 L527.6,405.8 L527.7,405.5 L527.7,405.1 L527.7,404.8 
		L528.6,404.4 L528.6,404.1 L528.6,403.7 L528.7,403.4 L528.7,403.1 L528.7,402.8 L529.0,402.5 L529.0,402.2 
		L529.0,401.9 L529.1,401.6 L529.1,401.3 L529.3,401.0 L529.3,400.7 L529.4,400.4 L529.4,400.2 L529.4,399.9 
		L529.4,399.6 L529.5,399.4 L529.5,399.1 L529.5,398.8 L529.5,398.6 L529.5,398.3 L529.5,398.1 L529.6,397.8 
		L529.6,397.6 L529.6,397.4 L529.6,397.1 L529.7,396.9 L529.7,396.6 L530.7,419.9 L531.3,417.5 L531.3,415.0 
		L531.3,412.5 L531.3,410.1 L531.3,409.6 L531.4,408.8 L531.4,406.4 L531.4,403.9 L531.4,401.4 L531.4,399.0 
		L532.3,396.5 L532.3,394.0 L532.3,399.0 L532.3,396.5 L532.3,401.4 L532.3,399.0 L532.3,416.2 L532.3,415.2 
		L532.3,414.4 L532.3,413.6 L532.3,412.9 L532.4,412.3 L532.4,411.7 L532.4,411.1 L532.5,410.6 L533.6,419.9 
		L533.8,417.5 L533.8,416.2 L533.9,410.1 L533.9,417.5 L533.9,416.2 L534.0,415.2 L534.1,414.4 L535.0,413.6 
		L535.1,412.9 L536.0,412.3 L536.1,411.7 L536.1,411.1 L537.3,410.6 L537.3,410.1 L537.9,409.6 L537.9,409.1 
		L538.1,408.7 L538.1,408.2 L538.2,407.8 L538.2,407.4 L538.3,407.0 L538.3,406.6 L538.3,406.2 L538.4,405.8 
		L538.4,405.5 L538.4,405.1 L539.5,404.8 L540.6,404.4 L540.6,404.1 L540.7,403.7 L540.7,403.4 L540.7,403.1 
		L540.8,402.8 L540.8,402.5 L541.0,402.2 L541.0,401.9 L541.0,401.6 L541.0,401.3 L541.1,401.0 L541.1,400.7 
		L541.1,400.4 L541.1,400.2 L541.4,399.9 L541.4,399.6 L541.6,399.4 L541.6,399.1 L541.6,398.8 L541.6,398.6 
		L541.7,398.3 L541.7,398.1 L541.7,397.8 L541.7,397.6 L541.8,397.4 L541.8,397.1 L541.8,396.9 L541.8,396.6 
		L541.8,396.4 L541.9,396.2 L541.9,395.9 L542.2,395.7 L542.2,395.5 L542.2,395.3 L542.2,395.0 L542.2,394.8 
		L542.3,394.6 L542.3,394.4 L542.3,394.2 L542.3,394.0 L542.6,393.8 L542.6,393.5 L542.8,393.3 L542.8,393.1 
		L543.0,392.9 L543.0,392.7 L543.0,392.5 L543.0,392.3 L543.0,392.1 L543.1,391.9 L543.1,391.7 L543.2,391.5 
		L543.2,391.3 L543.2,391.1 L543.2,390.9 L543.2,390.7 L543.2,390.6 L543.3,390.4 L543.3,390.2 L543.3,390.0 
		L543.3,389.8 L543.3,389.6 L543.3,389.4 L543.9,389.3 L544.0,389.1 L544.9,388.9 L544.9,388.7 L544.9,388.5 
		L544.9,388.4 L544.9,388.2 L544.9,388.0 L545.0,387.8 L545.0,387.7 L545.3,387.5 L545.3,387.3 L545.3,387.1 
		L545.3,387.0 L545.3,386.8 L545.3,386.6 L545.3,386.5 L545.4,386.3 L545.4,386.1 L545.4,386.0 L545.4,385.8 
		L545.4,385.6 L545.4,385.5 L545.4,385.3 L545.5,385.2 L545.5,385.0 L545.5,384.8 L545.5,384.7 L545.5,384.5 
		L545.5,384.4 L545.5,384.2 L545.6,384.0 L545.6,383.9 L545.6,383.7 L545.6,383.6 L545.6,383.4 L545.6,383.3 
		L545.6,383.1 L545.9,383.0 L545.9,382.8 L545.9,382.7 L545.9,382.5 L545.9,382.3 L546.0,382.2 L546.0,382.0 
		L546.0,381.9 L546.0,381.8 L546.0,381.6 L546.0,381.5 L546.0,381.3 L546.0,381.2 L546.0,381.0 L546.0,380.9 
		L546.0,380.7 L546.0,380.6 L546.1,380.4 L546.1,380.3 L546.1,380.2 L546.1,380.0 L546.1,379.9 L546.1,379.7 
		L546.1,379.6 L546.1,379.5 L546.1,379.3 L546.1,379.2 L546.1,379.0 L546.1,378.9 L546.1,378.8 L546.1,378.6 
		L546.2,378.5 L546.2,378.4 L546.2,378.2 L546.2,378.1 L546.2,377.9 L546.2,377.8 L546.2,377.7 L546.2,377.5 
		L546.2,377.4 L546.2,377.3 L546.2,377.1 L546.3,377.0 L546.5,376.9 L546.5,376.7 L546.5,376.6 L546.5,376.5 
		L546.5,376.4 L546.5,376.2 L546.5,376.1 L547.5,419.9 L547.5,417.5 L548.0,415.0 L548.0,412.5 L548.0,410.1 
		L548.1,407.6 L548.1,405.1 L548.1,402.7 L548.1,400.2 L548.1,399.9 L548.4,399.7 L548.4,403.9 L548.4,401.4 
		L548.4,399.0 L548.4,396.5 L548.4,394.0 L548.5,391.6 L548.5,389.1 L548.5,386.6 L548.5,384.2 L548.5,381.7 
		L548.5,379.2 L548.5,376.7 L548.5,374.3 L548.5,371.8 L548.5,369.3 L548.5,374.3 L548.5,371.8 L548.5,376.7 
		L548.5,374.3 L548.5,379.2 L548.5,376.7 L548.5,381.7 L548.5,379.2 L548.5,411.3 L548.5,410.7 L548.5,410.2 
		L548.5,409.7 L548.5,409.3 L548.6,408.8 L548.6,408.3 L548.6,407.9 L548.6,407.5 L548.6,407.1 L548.6,406.7 
		L548.7,406.3 L548.8,405.9 L548.8,405.6 L548.8,405.2 L549.6,404.9 L549.6,404.5 L549.6,404.2 L549.7,403.8 
		L549.7,403.5 L549.7,403.2 L550.7,402.9 L552.0,419.9 L552.5,417.5 L552.5,415.0 L552.5,412.5 L552.5,411.9 
		L552.6,410.1 L552.6,407.6 L552.6,405.1 L552.6,410.1 L552.6,407.6 L552.6,417.5 L552.6,416.2 L552.9,415.2 
		L552.9,414.4 L553.0,413.6 L554.0,412.9 L554.3,412.3 L554.3,411.7 L554.4,411.1 L554.4,410.6 L554.4,410.1 
		L554.5,409.6 L554.5,409.1 L555.8,408.7 L555.8,408.2 L555.9,407.8 L555.9,407.4 L556.0,407.0 L556.0,406.6 
		L556.0,406.2 L557.0,405.8 L557.0,405.5 L557.0,405.1 L557.1,404.8 L557.1,404.4 L557.1,404.1 L557.2,403.7 
		L557.2,403.4 L558.2,403.1 L558.5,402.8 L558.5,402.5 L558.5,402.2 L558.6,401.9 L558.6,401.6 L558.6,401.3 
		L558.6,401.0 L559.7,400.7 L559.7,400.4 L559.7,400.2 L559.9,399.9 L559.9,399.6 L559.9,399.4 L559.9,399.1 
		L560.0,398.8 L560.0,398.6 L560.3,398.3 L560.3,398.1 L560.3,397.8 L560.3,397.6 L560.4,397.4 L560.4,397.1 
		L560.4,396.9 L560.4,396.6 L560.4,396.4 L560.4,396.2 L560.5,395.9 L561.4,395.7 L561.6,395.5 L561.7,395.3 
		L561.7,395.0 L561.7,394.8 L563.0,394.6 L563.0,394.4 L563.0,394.2 L563.0,394.0 L563.0,393.8 L563.1,393.5 
		L563.1,393.3 L563.1,393.1 L563.1,392.9 L563.1,392.7 L564.1,392.5 L566.1,392.3 L566.1,392.1 L566.1,391.9 
		L566.2,391.7 L566.2,391.5 L566.2,391.3 L566.2,391.1 L566.2,390.9 L566.2,390.7 L566.2,390.6 L566.2,390.4 
		L566.2,390.2 L566.3,390.0 L566.3,389.8 L566.3,389.6 L566.3,389.4 L566.3,389.3 L566.3,389.1 L566.3,388.9 
		L566.4,388.7 L566.4,388.5 L566.4,388.4 L566.4,388.2 L566.4,388.0 L566.4,387.8 L566.9,387.7 L566.9,387.5 
		L566.9,387.3 L566.9,387.1 L567.1,387.0 L567.1,386.8 L567.1,386.6 L567.1,386.5 L567.1,386.3 L567.1,386.1 
		L567.2,386.0 L567.2,385.8 L567.2,385.6 L567.2,385.5 L567.2,385.3 L567.2,385.2 L567.2,385.0 L567.2,384.8 
		L567.2,384.7 L567.3,384.5 L567.3,384.4 L567.3,384.2 L567.3,384.0 L567.3,383.9 L567.3,383.7 L567.3,383.6 
		L567.3,383.4 L567.3,383.3 L567.3,383.1 L567.3,383.0 L567.4,382.8 L567.4,382.7 L567.4,382.5 L567.7,382.3 
		L567.7,382.2 L567.7,382.0 L567.7,381.9 L567.7,381.8 L567.7,381.6 L567.7,381.5 L567.8,381.3 L567.8,381.2 
		L567.8,381.0 L567.8,380.9 L567.8,380.7 L568.5,380.6 L568.5,380.4 L569.0,380.3 L569.0,380.2 L569.0,380.0 
		L569.1,379.9 L569.1,379.7 L569.1,379.6 L569.1,379.5 L569.1,379.3 L569.1,379.2 L569.1,379.0 L569.2,378.9 
		L570.1,378.8 L570.2,378.6 L570.2,378.5 L570.2,378.4 L570.2,378.2 L570.2,378.1 L570.2,377.9 L570.2,377.8 
		L570.3,377.7 L570.3,377.5 L570.3,377.4 L570.3,377.3 L570.3,377.1 L570.3,377.0 L570.3,376.9 L570.3,376.7 
		L571.3,376.6 L571.4,376.5 L571.4,376.4 L571.4,376.2 L571.4,376.1 L571.4,376.0 L571.4,375.8 L571.4,375.7 
		L571.4,375.6 L571.4,375.5 L571.4,375.3 L571.4,375.2 L571.4,375.1 L571.5,374.9 L571.5,374.8 L571.5,374.7 
		L571.5,374.6 L571.5,374.4 L571.5,374.3 L571.5,374.2 L571.5,374.1 L571.5,374.0 L571.5,373.8 L571.5,373.7 
		L571.5,373.6 L571.5,373.5 L571.6,373.3 L571.6,373.2 L571.6,373.1 L571.6,373.0 L571.6,372.8 L571.6,372.7 
		L571.6,372.6 L571.6,372.5 L571.6,372.4 L571.6,372.3 L571.6,372.1 L571.6,372.0 L571.6,371.9 L571.6,371.8 
		L571.6,371.7 L571.7,371.5 L571.7,371.4 L571.7,371.3 L571.7,371.2 L571.7,371.1 L571.7,371.0 L571.7,370.8 
		L571.7,370.7 L571.7,370.6 L571.7,370.5 L571.7,370.4 L571.7,370.3 L571.7,370.1 L571.7,370.0 L571.7,369.9 
		L571.7,369.8 L571.8,369.7 L571.8,369.6 L571.8,369.5 L571.8,369.3 L571.8,369.2 L571.8,369.1 L572.7,369.0 
		L572.7,368.9 L572.7,368.8 L572.7,368.7 L572.8,368.6 L572.8,368.5 L572.8,368.4 L572.8,368.2 L572.8,368.1 
		L572.8,368.0 L572.8,367.9 L572.8,367.8 L572.8,367.7 L572.8,367.6 L572.8,367.5 L572.9,367.4 L573.7,367.2 
		L573.7,367.1 L573.7,367.0 L573.7,366.9 L573.7,366.8 L573.7,366.7 L574.7,366.6  h0.01'/></g>
	</g>
	<g id="gnuplot_plot_2" ><title>gnuplot_plot_2</title>
<g style="fill:none; color:green; stroke:currentColor; stroke-width:1.00; stroke-linecap:butt; stroke-linejoin:miter">
	<g transform="translate(507.9,94.6)" style="stroke:none; fill:black; font-family:Arial; font-size:12.00pt; text-anchor:end">
		<text>HARQ retransmittion</text>
	</g>
	<use xlink:href='#gpPt1' transform='translate(158.0,421.9) scale(4.50)'/>
	<use xlink:href='#gpPt1' transform='translate(158.0,421.9) scale(4.50)'/>
	<use xlink:href='#gpPt1' transform='translate(158.0,421.9) scale(4.50)'/>
	<use xlink:href='#gpPt1' transform='translate(158.0,421.9) scale(4.50)'/>
	<use xlink:href='#gpPt1' transform='translate(158.0,421.9) scale(4.50)'/>
	<use xlink:href='#gpPt1' transform='translate(481.3,421.9) scale(4.50)'/>
	<use xlink:href='#gpPt1' transform='translate(481.3,421.9) scale(4.50)'/>
	<use xlink:href='#gpPt1' transform='translate(537.3,90.1) scale(4.50)'/>
</g>
	</g>
	<g id="gnuplot_plot_3" ><title>gnuplot_plot_3</title>
<g style="fill:none; color:blue; stroke:currentColor; stroke-width:1.00; stroke-linecap:butt; stroke-linejoin:miter">
	<g transform="translate(507.9,112.6)" style="stroke:none; fill:black; font-family:Arial; font-size:12.00pt; text-anchor:end">
		<text>TCP timeout</text>
	</g>
	<use xlink:href='#gpPt2' transform='translate(165.6,419.9) scale(4.50)'/>
	<use xlink:href='#gpPt2' transform='translate(171.0,419.9) scale(4.50)'/>
	<use xlink:href='#gpPt2' transform='translate(189.5,419.9) scale(4.50)'/>
	<use xlink:href='#gpPt2' transform='translate(223.2,419.9) scale(4.50)'/>
	<use xlink:href='#gpPt2' transform='translate(234.4,419.9) scale(4.50)'/>
	<use xlink:href='#gpPt2' transform='translate(236.3,419.9) scale(4.50)'/>
	<use xlink:href='#gpPt2' transform='translate(245.8,419.9) scale(4.50)'/>
	<use xlink:href='#gpPt2' transform='translate(249.2,419.9) scale(4.50)'/>
	<use xlink:href='#gpPt2' transform='translate(265.4,419.9) scale(4.50)'/>
	<use xlink:href='#gpPt2' transform='translate(267.9,419.9) scale(4.50)'/>
	<use xlink:href='#gpPt2' transform='translate(281.1,419.9) scale(4.50)'/>
	<use xlink:href='#gpPt2' transform='translate(297.9,419.9) scale(4.50)'/>
	<use xlink:href='#gpPt2' transform='translate(309.2,419.9) scale(4.50)'/>
	<use xlink:href='#gpPt2' transform='translate(312.1,419.9) scale(4.50)'/>
	<use xlink:href='#gpPt2' transform='translate(314.0,419.9) scale(4.50)'/>
	<use xlink:href='#gpPt2' transform='translate(315.7,419.9) scale(4.50)'/>
	<use xlink:href='#gpPt2' transform='translate(319.4,419.9) scale(4.50)'/>
	<use xlink:href='#gpPt2' transform='translate(323.2,419.9) scale(4.50)'/>
	<use xlink:href='#gpPt2' transform='translate(327.2,419.9) scale(4.50)'/>
	<use xlink:href='#gpPt2' transform='translate(337.2,419.9) scale(4.50)'/>
	<use xlink:href='#gpPt2' transform='translate(342.7,419.9) scale(4.50)'/>
	<use xlink:href='#gpPt2' transform='translate(358.3,419.9) scale(4.50)'/>
	<use xlink:href='#gpPt2' transform='translate(373.4,419.9) scale(4.50)'/>
	<use xlink:href='#gpPt2' transform='translate(376.1,419.9) scale(4.50)'/>
	<use xlink:href='#gpPt2' transform='translate(379.8,419.9) scale(4.50)'/>
	<use xlink:href='#gpPt2' transform='translate(381.4,419.9) scale(4.50)'/>
	<use xlink:href='#gpPt2' transform='translate(410.2,419.9) scale(4.50)'/>
	<use xlink:href='#gpPt2' transform='translate(418.8,419.9) scale(4.50)'/>
	<use xlink:href='#gpPt2' transform='translate(423.2,419.9) scale(4.50)'/>
	<use xlink:href='#gpPt2' transform='translate(426.0,419.9) scale(4.50)'/>
	<use xlink:href='#gpPt2' transform='translate(427.9,419.9) scale(4.50)'/>
	<use xlink:href='#gpPt2' transform='translate(429.5,419.9) scale(4.50)'/>
	<use xlink:href='#gpPt2' transform='translate(444.1,419.9) scale(4.50)'/>
	<use xlink:href='#gpPt2' transform='translate(446.1,419.9) scale(4.50)'/>
	<use xlink:href='#gpPt2' transform='translate(450.2,419.9) scale(4.50)'/>
	<use xlink:href='#gpPt2' transform='translate(454.7,419.9) scale(4.50)'/>
	<use xlink:href='#gpPt2' transform='translate(479.7,419.9) scale(4.50)'/>
	<use xlink:href='#gpPt2' transform='translate(482.1,419.9) scale(4.50)'/>
	<use xlink:href='#gpPt2' transform='translate(486.8,419.9) scale(4.50)'/>
	<use xlink:href='#gpPt2' transform='translate(491.1,419.9) scale(4.50)'/>
	<use xlink:href='#gpPt2' transform='translate(492.9,419.9) scale(4.50)'/>
	<use xlink:href='#gpPt2' transform='translate(495.7,419.9) scale(4.50)'/>
	<use xlink:href='#gpPt2' transform='translate(502.6,419.9) scale(4.50)'/>
	<use xlink:href='#gpPt2' transform='translate(504.1,419.9) scale(4.50)'/>
	<use xlink:href='#gpPt2' transform='translate(506.9,419.9) scale(4.50)'/>
	<use xlink:href='#gpPt2' transform='translate(509.8,419.9) scale(4.50)'/>
	<use xlink:href='#gpPt2' transform='translate(511.5,419.9) scale(4.50)'/>
	<use xlink:href='#gpPt2' transform='translate(513.3,419.9) scale(4.50)'/>
	<use xlink:href='#gpPt2' transform='translate(515.2,419.9) scale(4.50)'/>
	<use xlink:href='#gpPt2' transform='translate(518.5,419.9) scale(4.50)'/>
	<use xlink:href='#gpPt2' transform='translate(522.8,419.9) scale(4.50)'/>
	<use xlink:href='#gpPt2' transform='translate(530.7,419.9) scale(4.50)'/>
	<use xlink:href='#gpPt2' transform='translate(533.6,419.9) scale(4.50)'/>
	<use xlink:href='#gpPt2' transform='translate(547.5,419.9) scale(4.50)'/>
	<use xlink:href='#gpPt2' transform='translate(552.0,419.9) scale(4.50)'/>
	<use xlink:href='#gpPt2' transform='translate(537.3,108.1) scale(4.50)'/>
</g>
	</g>
	<g id="gnuplot_plot_4" ><title>gnuplot_plot_4</title>
<g style="fill:none; color:cyan; stroke:currentColor; stroke-width:1.00; stroke-linecap:butt; stroke-linejoin:miter">
	<g transform="translate(507.9,130.6)" style="stroke:none; fill:black; font-family:Arial; font-size:12.00pt; text-anchor:end">
		<text>TCP 3ACKs</text>
	</g>
	<use xlink:href='#gpPt3' transform='translate(169.1,339.7) scale(4.50)'/>
	<use xlink:href='#gpPt3' transform='translate(176.3,350.8) scale(4.50)'/>
	<use xlink:href='#gpPt3' transform='translate(191.2,395.3) scale(4.50)'/>
	<use xlink:href='#gpPt3' transform='translate(224.7,392.8) scale(4.50)'/>
	<use xlink:href='#gpPt3' transform='translate(239.2,403.9) scale(4.50)'/>
	<use xlink:href='#gpPt3' transform='translate(248.1,407.6) scale(4.50)'/>
	<use xlink:href='#gpPt3' transform='translate(249.4,410.1) scale(4.50)'/>
	<use xlink:href='#gpPt3' transform='translate(266.7,400.2) scale(4.50)'/>
	<use xlink:href='#gpPt3' transform='translate(268.1,410.1) scale(4.50)'/>
	<use xlink:href='#gpPt3' transform='translate(283.3,403.9) scale(4.50)'/>
	<use xlink:href='#gpPt3' transform='translate(299.2,403.9) scale(4.50)'/>
	<use xlink:href='#gpPt3' transform='translate(309.7,407.6) scale(4.50)'/>
	<use xlink:href='#gpPt3' transform='translate(312.7,410.1) scale(4.50)'/>
	<use xlink:href='#gpPt3' transform='translate(314.3,410.1) scale(4.50)'/>
	<use xlink:href='#gpPt3' transform='translate(316.3,410.1) scale(4.50)'/>
	<use xlink:href='#gpPt3' transform='translate(320.5,410.1) scale(4.50)'/>
	<use xlink:href='#gpPt3' transform='translate(323.9,410.1) scale(4.50)'/>
	<use xlink:href='#gpPt3' transform='translate(328.2,410.1) scale(4.50)'/>
	<use xlink:href='#gpPt3' transform='translate(337.8,406.4) scale(4.50)'/>
	<use xlink:href='#gpPt3' transform='translate(343.0,410.1) scale(4.50)'/>
	<use xlink:href='#gpPt3' transform='translate(359.8,402.7) scale(4.50)'/>
	<use xlink:href='#gpPt3' transform='translate(374.8,402.7) scale(4.50)'/>
	<use xlink:href='#gpPt3' transform='translate(378.0,410.1) scale(4.50)'/>
	<use xlink:href='#gpPt3' transform='translate(380.3,410.1) scale(4.50)'/>
	<use xlink:href='#gpPt3' transform='translate(411.2,397.7) scale(4.50)'/>
	<use xlink:href='#gpPt3' transform='translate(419.9,405.1) scale(4.50)'/>
	<use xlink:href='#gpPt3' transform='translate(424.9,405.1) scale(4.50)'/>
	<use xlink:href='#gpPt3' transform='translate(428.3,410.1) scale(4.50)'/>
	<use xlink:href='#gpPt3' transform='translate(429.9,410.1) scale(4.50)'/>
	<use xlink:href='#gpPt3' transform='translate(444.9,402.7) scale(4.50)'/>
	<use xlink:href='#gpPt3' transform='translate(449.0,410.1) scale(4.50)'/>
	<use xlink:href='#gpPt3' transform='translate(451.5,410.1) scale(4.50)'/>
	<use xlink:href='#gpPt3' transform='translate(455.5,410.1) scale(4.50)'/>
	<use xlink:href='#gpPt3' transform='translate(481.0,401.4) scale(4.50)'/>
	<use xlink:href='#gpPt3' transform='translate(488.6,410.1) scale(4.50)'/>
	<use xlink:href='#gpPt3' transform='translate(491.4,410.1) scale(4.50)'/>
	<use xlink:href='#gpPt3' transform='translate(493.0,410.1) scale(4.50)'/>
	<use xlink:href='#gpPt3' transform='translate(497.1,410.1) scale(4.50)'/>
	<use xlink:href='#gpPt3' transform='translate(503.0,408.8) scale(4.50)'/>
	<use xlink:href='#gpPt3' transform='translate(505.2,410.1) scale(4.50)'/>
	<use xlink:href='#gpPt3' transform='translate(507.8,410.1) scale(4.50)'/>
	<use xlink:href='#gpPt3' transform='translate(510.2,410.1) scale(4.50)'/>
	<use xlink:href='#gpPt3' transform='translate(511.8,410.1) scale(4.50)'/>
	<use xlink:href='#gpPt3' transform='translate(518.9,410.1) scale(4.50)'/>
	<use xlink:href='#gpPt3' transform='translate(523.5,410.1) scale(4.50)'/>
	<use xlink:href='#gpPt3' transform='translate(531.4,408.8) scale(4.50)'/>
	<use xlink:href='#gpPt3' transform='translate(533.9,410.1) scale(4.50)'/>
	<use xlink:href='#gpPt3' transform='translate(548.4,403.9) scale(4.50)'/>
	<use xlink:href='#gpPt3' transform='translate(552.6,410.1) scale(4.50)'/>
	<use xlink:href='#gpPt3' transform='translate(537.3,126.1) scale(4.50)'/>
</g>
	</g>
	<g id="gnuplot_plot_5" ><title>gnuplot_plot_5</title>
<g style="fill:none; color:#157545; stroke:currentColor; stroke-width:1.00; stroke-linecap:butt; stroke-linejoin:miter">
	<g transform="translate(507.9,148.6)" style="stroke:none; fill:black; font-family:Arial; font-size:12.00pt; text-anchor:end">
		<text>Average queuing delay</text>
	</g>
	<path  d='M516.2,144.1 L558.4,144.1 M88.5,407.8 L88.7,421.6 L88.9,416.5 L89.1,408.5 L90.0,382.1 L91.0,345.0 
		L93.8,299.7 L96.4,187.6 L97.7,186.6 L97.8,292.9 L99.2,368.5 L100.0,335.5 L100.6,310.8 L100.7,374.5 
		L101.8,363.8 L102.1,360.4 L104.8,350.2 L106.5,252.3 L107.8,204.9 L109.1,272.9 L111.6,238.4 L112.2,239.0 
		L113.5,300.0 L113.6,350.1 L116.6,293.5 L117.6,262.0 L119.0,239.4 L120.7,268.8 L122.6,215.8 L124.5,194.2 
		L125.6,239.6 L126.6,282.4 L130.3,246.8 L130.5,222.6 L130.6,357.9 L130.7,409.8 L131.9,406.1 L133.6,294.7 
		L133.7,303.9 L133.9,410.6 L135.1,391.9 L136.7,295.5 L139.6,247.3 L139.7,268.4 L140.6,295.5 L140.7,391.5 
		L140.9,415.2 L143.6,383.2 L143.8,281.1 L144.3,289.1 L145.2,377.7 L146.2,345.6 L146.3,327.0 L149.3,247.9 
		L150.3,227.5 L152.5,291.8 L152.7,326.8 L153.8,375.1 L155.9,289.5 L157.9,271.7 L158.0,288.6 L158.6,318.4 
		L158.9,358.3 L159.0,389.6 L159.2,414.4 L159.3,416.3 L160.4,399.9 L161.5,345.6 L164.2,279.8 L165.4,212.6 
		L166.2,165.5 L167.3,234.8 L168.4,54.1 L170.7,137.3 L171.3,253.7 L171.6,356.7 L171.7,371.9 L173.1,356.9 
		L174.6,319.8 L176.3,183.3 L177.4,222.3 L181.0,323.1 L182.0,404.2 L182.7,415.2 L182.9,420.3 L183.6,416.6 
		L185.4,384.5 L187.7,342.6 L189.6,349.4 L190.3,415.5 L192.7,416.7 L193.4,416.6 L197.7,389.4 L199.8,413.9 
		L200.0,421.7 L201.0,420.7 L201.5,420.3 L203.0,400.2 L204.8,405.4 L205.0,418.9 L205.7,420.7 L207.6,408.6 
		L208.8,412.9 L211.3,368.7 L212.8,389.4 L212.9,416.4 L213.9,406.6 L215.0,417.1 L216.9,390.1 L217.1,420.3 
		L218.0,406.8 L220.5,353.5 L221.6,366.5 L222.7,388.9 L225.5,420.8 L227.3,419.1 L228.5,417.9 L229.0,421.2 
		L234.0,364.1 L237.7,326.9 L240.0,398.0 L241.1,420.5 L245.7,402.6 L249.2,421.7 L251.7,418.1 L252.8,418.9 
		L255.6,406.7 L257.1,411.3 L257.8,419.8 L259.1,418.9 L259.6,420.0 L260.6,414.6 L260.8,422.4 L260.9,422.3 
		L263.3,388.2 L263.4,415.3 L266.0,420.2 L270.4,415.6 L272.0,413.7 L274.6,421.0 L275.0,422.0 L275.3,421.0 
		L276.8,417.1 L281.0,392.0 L282.5,410.7 L287.5,409.0 L290.6,419.8 L293.2,410.3 L293.9,418.2 L296.5,410.4 
		L301.1,411.7 L303.4,419.6 L307.1,416.7 L308.3,422.0 L310.5,417.1 L315.9,414.5 L319.7,418.3 L326.0,405.0 
		L328.9,421.1 L330.5,421.2 L332.3,419.6 L333.6,421.0 L335.9,418.5 L341.5,414.6 L345.9,420.2 L348.3,418.6 
		L351.6,410.3 L352.3,421.5 L352.8,421.0 L354.2,413.7 L355.5,417.5 L358.1,399.7 L358.9,412.3 L361.4,398.4 
		L363.1,414.6 L367.7,406.1 L369.3,419.4 L369.9,421.4 L370.9,418.7 L373.5,396.6 L377.4,420.0 L383.0,417.1 
		L388.5,404.6 L389.3,421.0 L391.0,416.5 L392.5,419.4 L396.3,417.1 L396.9,421.0 L397.1,421.0 L398.3,420.9 
		L399.0,416.8 L400.6,406.8 L400.9,418.9 L404.6,392.8 L405.4,397.8 L407.0,410.1 L408.1,403.5 L410.3,413.6 
		L410.7,379.1 L413.2,401.3 L415.9,418.9 L416.2,422.2 L417.1,420.3 L419.6,408.8 L424.5,364.2 L430.4,410.1 
		L431.8,420.0 L433.5,421.2 L434.3,420.1 L436.3,418.3 L439.7,391.8 L441.4,405.2 L442.5,421.1 L444.9,407.5 
		L449.0,407.5 L453.8,414.8 L458.2,349.5 L462.0,421.3 L465.6,407.4 L467.6,419.8 L469.1,414.7 L471.1,416.6 
		L475.3,412.6 L477.9,403.7 L478.5,418.8 L479.1,420.8 L481.5,419.0 L484.6,421.0 L489.3,417.3 L492.2,417.7 
		L495.1,396.4 L501.2,419.6 L503.8,419.0 L507.9,418.1 L512.7,414.2 L521.3,414.5 L526.0,415.1 L529.1,398.1 
		L531.1,421.6 L534.0,418.6 L540.0,419.9 L542.8,395.5 L543.9,419.2 L545.0,417.5 L547.1,418.6 L547.8,420.1 
		L548.0,422.2 L550.2,386.8 L550.6,417.4 L556.4,413.5 L560.7,419.1 L562.4,393.2 L568.3,407.9 L569.2,417.3 
		L569.5,421.8 L571.3,415.6 L573.6,416.9 L573.9,422.1 L575.0,421.5  h0.01'/></g>
	</g>
<g style="fill:none; color:black; stroke:currentColor; stroke-width:1.00; stroke-linecap:butt; stroke-linejoin:miter">
	<path  d='M88.5,54.1 L88.5,422.4 L575.0,422.4 L575.0,54.1 L88.5,54.1 Z  h0.01'/></g>
</g>
</svg>

