<?xml version="1.0" encoding="utf-8"  standalone="no"?>
<!DOCTYPE svg PUBLIC "-//W3C//DTD SVG 1.1//EN" 
 "http://www.w3.org/Graphics/SVG/1.1/DTD/svg11.dtd">
<svg 
 width="600" height="480" 
 viewBox="0 0 600 480"
 xmlns="http://www.w3.org/2000/svg"
 xmlns:xlink="http://www.w3.org/1999/xlink"
>

<title>Gnuplot</title>
<desc>Produced by GNUPLOT 4.6 patchlevel 1 </desc>

<g id="gnuplot_canvas">

<rect x="0" y="0" width="600" height="480" fill="none"/>
<defs>

	<circle id='gpDot' r='0.5' stroke-width='0.5'/>
	<path id='gpPt0' stroke-width='0.222' stroke='currentColor' d='M-1,0 h2 M0,-1 v2'/>
	<path id='gpPt1' stroke-width='0.222' stroke='currentColor' d='M-1,-1 L1,1 M1,-1 L-1,1'/>
	<path id='gpPt2' stroke-width='0.222' stroke='currentColor' d='M-1,0 L1,0 M0,-1 L0,1 M-1,-1 L1,1 M-1,1 L1,-1'/>
	<rect id='gpPt3' stroke-width='0.222' stroke='currentColor' x='-1' y='-1' width='2' height='2'/>
	<rect id='gpPt4' stroke-width='0.222' stroke='currentColor' fill='currentColor' x='-1' y='-1' width='2' height='2'/>
	<circle id='gpPt5' stroke-width='0.222' stroke='currentColor' cx='0' cy='0' r='1'/>
	<use xlink:href='#gpPt5' id='gpPt6' fill='currentColor' stroke='none'/>
	<path id='gpPt7' stroke-width='0.222' stroke='currentColor' d='M0,-1.33 L-1.33,0.67 L1.33,0.67 z'/>
	<use xlink:href='#gpPt7' id='gpPt8' fill='currentColor' stroke='none'/>
	<use xlink:href='#gpPt7' id='gpPt9' stroke='currentColor' transform='rotate(180)'/>
	<use xlink:href='#gpPt9' id='gpPt10' fill='currentColor' stroke='none'/>
	<use xlink:href='#gpPt3' id='gpPt11' stroke='currentColor' transform='rotate(45)'/>
	<use xlink:href='#gpPt11' id='gpPt12' fill='currentColor' stroke='none'/>
</defs>
<g style="fill:none; color:white; stroke:currentColor; stroke-width:1.00; stroke-linecap:butt; stroke-linejoin:miter">
</g>
<g style="fill:none; color:black; stroke:currentColor; stroke-width:1.00; stroke-linecap:butt; stroke-linejoin:miter">
	<path  d='M80.2,422.4 L89.2,422.4 M575.0,422.4 L566.0,422.4  h0.01'/>	<g transform="translate(71.9,426.9)" style="stroke:none; fill:black; font-family:Arial; font-size:12.00pt; text-anchor:end">
		<text> 0</text>
	</g>
	<path  d='M80.2,385.6 L89.2,385.6 M575.0,385.6 L566.0,385.6  h0.01'/>	<g transform="translate(71.9,390.1)" style="stroke:none; fill:black; font-family:Arial; font-size:12.00pt; text-anchor:end">
		<text> 200</text>
	</g>
	<path  d='M80.2,348.7 L89.2,348.7 M575.0,348.7 L566.0,348.7  h0.01'/>	<g transform="translate(71.9,353.2)" style="stroke:none; fill:black; font-family:Arial; font-size:12.00pt; text-anchor:end">
		<text> 400</text>
	</g>
	<path  d='M80.2,311.9 L89.2,311.9 M575.0,311.9 L566.0,311.9  h0.01'/>	<g transform="translate(71.9,316.4)" style="stroke:none; fill:black; font-family:Arial; font-size:12.00pt; text-anchor:end">
		<text> 600</text>
	</g>
	<path  d='M80.2,275.1 L89.2,275.1 M575.0,275.1 L566.0,275.1  h0.01'/>	<g transform="translate(71.9,279.6)" style="stroke:none; fill:black; font-family:Arial; font-size:12.00pt; text-anchor:end">
		<text> 800</text>
	</g>
	<path  d='M80.2,238.2 L89.2,238.2 M575.0,238.2 L566.0,238.2  h0.01'/>	<g transform="translate(71.9,242.7)" style="stroke:none; fill:black; font-family:Arial; font-size:12.00pt; text-anchor:end">
		<text> 1000</text>
	</g>
	<path  d='M80.2,201.4 L89.2,201.4 M575.0,201.4 L566.0,201.4  h0.01'/>	<g transform="translate(71.9,205.9)" style="stroke:none; fill:black; font-family:Arial; font-size:12.00pt; text-anchor:end">
		<text> 1200</text>
	</g>
	<path  d='M80.2,164.6 L89.2,164.6 M575.0,164.6 L566.0,164.6  h0.01'/>	<g transform="translate(71.9,169.1)" style="stroke:none; fill:black; font-family:Arial; font-size:12.00pt; text-anchor:end">
		<text> 1400</text>
	</g>
	<path  d='M80.2,127.8 L89.2,127.8 M575.0,127.8 L566.0,127.8  h0.01'/>	<g transform="translate(71.9,132.3)" style="stroke:none; fill:black; font-family:Arial; font-size:12.00pt; text-anchor:end">
		<text> 1600</text>
	</g>
	<path  d='M80.2,90.9 L89.2,90.9 M575.0,90.9 L566.0,90.9  h0.01'/>	<g transform="translate(71.9,95.4)" style="stroke:none; fill:black; font-family:Arial; font-size:12.00pt; text-anchor:end">
		<text> 1800</text>
	</g>
	<path  d='M80.2,54.1 L89.2,54.1 M575.0,54.1 L566.0,54.1  h0.01'/>	<g transform="translate(71.9,58.6)" style="stroke:none; fill:black; font-family:Arial; font-size:12.00pt; text-anchor:end">
		<text> 2000</text>
	</g>
	<path  d='M80.2,422.4 L80.2,413.4 M80.2,54.1 L80.2,63.1  h0.01'/>	<g transform="translate(80.2,444.9)" style="stroke:none; fill:black; font-family:Arial; font-size:12.00pt; text-anchor:middle">
		<text> 0</text>
	</g>
	<path  d='M179.2,422.4 L179.2,413.4 M179.2,54.1 L179.2,63.1  h0.01'/>	<g transform="translate(179.2,444.9)" style="stroke:none; fill:black; font-family:Arial; font-size:12.00pt; text-anchor:middle">
		<text> 2</text>
	</g>
	<path  d='M278.1,422.4 L278.1,413.4 M278.1,54.1 L278.1,63.1  h0.01'/>	<g transform="translate(278.1,444.9)" style="stroke:none; fill:black; font-family:Arial; font-size:12.00pt; text-anchor:middle">
		<text> 4</text>
	</g>
	<path  d='M377.1,422.4 L377.1,413.4 M377.1,54.1 L377.1,63.1  h0.01'/>	<g transform="translate(377.1,444.9)" style="stroke:none; fill:black; font-family:Arial; font-size:12.00pt; text-anchor:middle">
		<text> 6</text>
	</g>
	<path  d='M476.0,422.4 L476.0,413.4 M476.0,54.1 L476.0,63.1  h0.01'/>	<g transform="translate(476.0,444.9)" style="stroke:none; fill:black; font-family:Arial; font-size:12.00pt; text-anchor:middle">
		<text> 8</text>
	</g>
	<path  d='M575.0,422.4 L575.0,413.4 M575.0,54.1 L575.0,63.1  h0.01'/>	<g transform="translate(575.0,444.9)" style="stroke:none; fill:black; font-family:Arial; font-size:12.00pt; text-anchor:middle">
		<text> 10</text>
	</g>
	<path  d='M80.2,54.1 L80.2,422.4 L575.0,422.4 L575.0,54.1 L80.2,54.1 Z  h0.01'/>	<g transform="translate(17.6,238.3) rotate(270)" style="stroke:none; fill:black; font-family:Arial; font-size:12.00pt; text-anchor:middle">
		<text>Rate (kbps)</text>
	</g>
	<g transform="translate(327.6,471.9)" style="stroke:none; fill:black; font-family:Arial; font-size:12.00pt; text-anchor:middle">
		<text>Time (s)</text>
	</g>
	<g transform="translate(327.6,31.6)" style="stroke:none; fill:black; font-family:Arial; font-size:12.00pt; text-anchor:middle">
		<text>Rate: TcpTahoe, Buffer 50pkts (28650B)</text>
	</g>
	<path  d='M308.7,413.4 L308.7,323.4 L566.7,323.4 L566.7,413.4 L308.7,413.4 Z  h0.01'/></g>
	<g id="gnuplot_plot_1" ><title>gnuplot_plot_1</title>
<g style="fill:none; color:red; stroke:currentColor; stroke-width:1.00; stroke-linecap:butt; stroke-linejoin:miter">
	<g transform="translate(507.9,336.9)" style="stroke:none; fill:black; font-family:Arial; font-size:12.00pt; text-anchor:end">
		<text>Radio bandwidth</text>
	</g>
	<path  d='M516.2,332.4 L558.4,332.4 M80.2,422.4 L80.4,422.4 L80.7,422.4 L80.9,422.4 L81.2,422.4 L81.4,422.4 
		L81.7,422.4 L81.9,422.4 L82.2,422.4 L82.4,422.4 L82.7,422.4 L82.9,422.4 L83.2,422.4 L83.4,422.4 
		L83.7,422.4 L83.9,422.4 L84.2,422.4 L84.4,422.4 L84.7,422.4 L84.9,422.4 L85.1,422.4 L85.4,422.4 
		L85.6,422.4 L85.9,422.4 L86.1,422.4 L86.4,422.4 L86.6,422.4 L86.9,422.4 L87.1,422.4 L87.4,422.4 
		L87.6,422.4 L87.9,422.4 L88.1,422.4 L88.4,422.4 L88.6,422.4 L88.9,422.4 L89.1,422.4 L89.4,422.4 
		L89.6,422.4 L89.8,422.4 L90.1,422.4 L90.3,422.4 L90.6,422.4 L90.8,422.4 L91.1,422.4 L91.3,422.4 
		L91.6,422.4 L91.8,422.4 L92.1,422.4 L92.3,422.4 L92.6,422.4 L92.8,422.4 L93.1,422.4 L93.3,422.4 
		L93.6,422.4 L93.8,422.4 L94.1,422.4 L94.3,422.4 L94.5,422.4 L94.8,422.4 L95.0,422.4 L95.3,422.4 
		L95.5,422.4 L95.8,422.4 L96.0,422.4 L96.3,422.4 L96.5,422.4 L96.8,422.4 L97.0,422.4 L97.3,422.4 
		L97.5,422.4 L97.8,422.4 L98.0,422.4 L98.3,422.4 L98.5,422.4 L98.8,422.4 L99.0,422.4 L99.2,422.4 
		L99.5,422.4 L99.7,422.4 L100.0,422.4 L100.2,422.4 L100.5,422.4 L100.7,422.4 L101.0,422.4 L101.2,422.4 
		L101.5,422.4 L101.7,422.4 L102.0,422.4 L102.2,422.4 L102.5,422.4 L102.7,422.4 L103.0,422.4 L103.2,422.4 
		L103.5,422.4 L103.7,422.4 L104.0,422.4 L104.2,422.4 L104.4,422.4 L104.7,422.4 L104.9,422.4 L105.2,422.4 
		L105.4,422.4 L105.7,422.4 L105.9,422.4 L106.2,422.4 L106.4,422.4 L106.7,422.4 L106.9,422.4 L107.2,422.4 
		L107.4,54.9 L107.7,54.9 L107.9,146.8 L108.2,177.4 L108.4,177.4 L108.7,192.7 L108.9,201.9 L109.1,201.9 
		L109.4,208.0 L109.6,212.4 L109.9,212.4 L110.1,215.7 L110.4,218.2 L110.6,218.2 L110.9,220.3 L111.1,221.9 
		L111.4,221.9 L111.6,223.3 L111.9,224.5 L112.1,224.5 L112.4,225.5 L112.6,226.4 L112.9,226.4 L113.1,227.2 
		L113.4,227.8 L113.6,227.8 L113.8,228.4 L114.1,229.0 L114.3,229.0 L114.6,229.5 L114.8,229.9 L115.1,229.9 
		L115.3,230.3 L115.6,230.7 L115.8,230.7 L116.1,231.0 L116.3,231.3 L116.6,231.3 L116.8,231.6 L117.1,231.8 
		L117.3,231.8 L117.6,232.1 L117.8,232.3 L118.1,232.3 L118.3,232.5 L118.5,232.7 L118.8,232.7 L119.0,232.9 
		L119.3,233.1 L119.5,233.1 L119.8,233.2 L120.0,233.4 L120.3,233.4 L120.5,233.5 L120.8,233.7 L121.0,233.7 
		L121.3,233.8 L121.5,233.9 L121.8,233.9 L122.0,234.1 L122.3,234.2 L122.5,234.3 L122.8,234.3 L123.0,234.4 
		L123.2,234.5 L123.5,234.5 L123.7,234.6 L124.0,234.7 L124.2,234.7 L124.5,234.7 L124.7,234.8 L125.0,234.8 
		L125.2,234.9 L125.5,235.0 L125.7,235.0 L126.0,235.0 L126.2,235.1 L126.5,235.1 L126.7,235.2 L127.0,235.2 
		L127.2,235.2 L127.5,235.3 L127.7,235.4 L127.9,235.4 L128.2,235.4 L128.4,235.5 L128.7,235.5 L128.9,235.5 
		L129.2,235.6 L129.4,235.6 L129.7,235.6 L129.9,235.7 L130.2,235.7 L130.4,235.7 L130.7,235.8 L130.9,235.8 
		L131.2,235.8 L131.4,235.9 L131.7,235.9 L131.9,235.9 L132.2,235.9 L132.4,235.9 L132.6,236.0 L132.9,236.0 
		L133.1,236.0 L133.4,236.1 L133.6,236.1 L133.9,236.1 L134.1,236.1 L134.4,236.2 L134.6,236.2 L134.9,236.2 
		L135.1,236.2 L135.4,236.2 L135.6,236.3 L135.9,236.3 L136.1,236.3 L136.4,236.3 L136.6,236.3 L136.9,236.3 
		L137.1,236.4 L137.3,236.4 L137.6,236.4 L137.8,236.4 L138.1,236.5 L138.3,236.5 L138.6,236.5 L138.8,236.5 
		L139.1,236.5 L139.3,236.5 L139.6,236.6 L139.8,236.6 L140.1,236.6 L140.3,236.6 L140.6,236.6 L140.8,236.6 
		L141.1,236.6 L141.3,236.7 L141.6,236.7 L141.8,236.7 L142.1,236.7 L142.3,236.7 L142.5,236.7 L142.8,236.8 
		L143.0,236.8 L143.3,236.8 L143.5,236.8 L143.8,236.8 L144.0,236.8 L144.3,236.8 L144.5,236.8 L144.8,236.8 
		L145.0,236.9 L145.3,236.9 L145.5,236.9 L145.8,236.9 L146.0,236.9 L146.3,236.9 L146.5,236.9 L146.8,236.9 
		L147.0,236.9 L147.2,237.0 L147.5,237.0 L147.7,237.0 L148.0,237.0 L148.2,237.0 L148.5,237.0 L148.7,237.0 
		L149.0,237.0 L149.2,237.0 L149.5,237.0 L149.7,237.0 L150.0,237.1 L150.2,237.1 L150.5,237.1 L150.7,237.1 
		L151.0,237.1 L151.2,237.1 L151.5,237.1 L151.7,237.1 L151.9,237.1 L152.2,237.1 L152.4,237.2 L152.7,237.2 
		L152.9,237.2 L153.2,237.2 L153.4,237.2 L153.7,237.2 L153.9,237.2 L154.2,237.2 L154.4,237.2 L154.7,237.2 
		L154.9,237.2 L155.2,237.2 L155.4,237.2 L155.7,237.3 L155.9,237.3 L156.2,237.3 L156.4,237.3 L156.6,237.3 
		L156.9,237.3 L157.1,237.3 L157.4,237.3 L157.6,237.3 L157.9,237.3 L158.1,237.3 L158.4,237.3 L158.6,237.3 
		L158.9,237.3 L159.1,237.3 L159.4,237.4 L159.6,237.4 L159.9,237.4 L160.1,237.4 L160.4,237.4 L160.6,237.4 
		L160.9,237.4 L161.1,237.4 L161.3,237.4 L161.6,237.4 L161.8,237.4 L162.1,237.4 L162.3,237.4 L162.6,237.4 
		L162.8,237.4 L163.1,237.4 L163.3,237.4 L163.6,237.4 L163.8,237.5 L164.1,237.5 L164.3,237.5 L164.6,237.5 
		L164.8,237.5 L165.1,237.5 L165.3,237.5 L165.6,237.5 L165.8,237.5 L166.0,237.5 L166.3,237.5 L166.5,237.5 
		L166.8,237.5 L167.0,237.5 L167.3,237.5 L167.5,237.5 L167.8,237.5 L168.0,237.5 L168.3,237.5 L168.5,237.5 
		L168.8,237.5 L169.0,237.6 L169.3,237.6 L169.5,237.6 L169.8,237.6 L170.0,237.6 L170.3,237.6 L170.5,237.6 
		L170.7,237.6 L171.0,237.6 L171.2,237.6 L171.5,237.6 L171.7,237.6 L172.0,237.6 L172.2,237.6 L172.5,237.6 
		L172.7,237.6 L173.0,237.6 L173.2,237.6 L173.5,237.6 L173.7,237.6 L174.0,237.6 L174.2,237.6 L174.5,237.6 
		L174.7,237.6 L175.0,237.6 L175.2,237.7 L175.4,237.7 L175.7,237.7 L175.9,237.7 L176.2,237.7 L176.4,237.7 
		L176.7,237.7 L176.9,237.7 L177.2,237.7 L177.4,237.7 L177.7,237.7 L177.9,237.7 L178.2,237.7 L178.4,237.7 
		L178.7,237.7 L178.9,237.7 L179.2,237.7 L179.4,237.7 L179.7,237.7 L179.9,237.7 L180.1,237.7 L180.4,237.7 
		L180.6,237.7 L180.9,237.7 L181.1,237.7 L181.4,237.7 L181.6,237.7 L181.9,237.7 L182.1,237.7 L182.4,237.7 
		L182.6,237.7 L182.9,237.7 L183.1,237.8 L183.4,237.8 L183.6,237.8 L183.9,237.8 L184.1,237.8 L184.4,237.8 
		L184.6,237.8 L184.9,237.8 L185.1,237.8 L185.3,237.8 L185.6,237.8 L185.8,237.8 L186.1,237.8 L186.3,237.8 
		L186.6,237.8 L186.8,237.8 L187.1,237.8 L187.3,237.8 L187.6,237.8 L187.8,237.8 L188.1,237.8 L188.3,237.8 
		L188.6,237.8 L188.8,237.8 L189.1,237.8 L189.3,237.8 L189.6,237.8 L189.8,237.8 L190.0,237.8 L190.3,237.8 
		L190.5,237.8 L190.8,237.8 L191.0,237.8 L191.3,237.8 L191.5,237.8 L191.8,237.8 L192.0,237.8 L192.3,237.9 
		L192.5,237.9 L192.8,237.9 L193.0,237.9 L193.3,237.9 L193.5,237.9 L193.8,237.9 L194.0,237.9 L194.3,237.9 
		L194.5,237.9 L194.7,237.9 L195.0,237.9 L195.2,237.9 L195.5,237.9 L195.7,237.9 L196.0,237.9 L196.2,237.9 
		L196.5,237.9 L196.7,237.9 L197.0,237.9 L197.2,237.9 L197.5,237.9 L197.7,237.9 L198.0,237.9 L198.2,237.9 
		L198.5,237.9 L198.7,237.9 L199.0,237.9 L199.2,237.9 L199.4,237.9 L199.7,237.9 L199.9,237.9 L200.2,237.9 
		L200.4,237.9 L200.7,237.9 L200.9,237.9 L201.2,237.9 L201.4,237.9 L201.7,237.9 L201.9,237.9 L202.2,237.9 
		L202.4,237.9 L202.7,237.9 L202.9,237.9 L203.2,237.9 L203.4,237.9 L203.7,237.9 L203.9,237.9 L204.1,237.9 
		L204.4,237.9 L204.6,238.0 L204.9,238.0 L205.1,238.0 L205.4,238.0 L205.6,238.0 L205.9,238.0 L206.1,238.0 
		L206.4,238.0 L206.6,238.0 L206.9,238.0 L207.1,238.0 L207.4,238.0 L207.6,238.0 L207.9,238.0 L208.1,238.0 
		L208.4,238.0 L208.6,238.0 L208.8,238.0 L209.1,238.0 L209.3,238.0 L209.6,238.0 L209.8,238.0 L210.1,238.0 
		L210.3,238.0 L210.6,238.0 L210.8,238.0 L211.1,238.0 L211.3,238.0 L211.6,238.0 L211.8,238.0 L212.1,238.0 
		L212.3,238.0 L212.6,238.0 L212.8,238.0 L213.1,238.0 L213.3,238.0 L213.5,238.0 L213.8,238.0 L214.0,238.0 
		L214.3,238.0 L214.5,238.0 L214.8,238.0 L215.0,238.0 L215.3,238.0 L215.5,238.0 L215.8,238.0 L216.0,238.0 
		L216.3,238.0 L216.5,238.0 L216.8,238.0 L217.0,238.0 L217.3,238.0 L217.5,238.0 L217.8,238.0 L218.0,238.0 
		L218.2,238.0 L218.5,238.0 L218.7,238.0 L219.0,238.0 L219.2,238.0 L219.5,238.0 L219.7,238.0 L220.0,238.0 
		L220.2,238.0 L220.5,238.0 L220.7,238.0 L221.0,238.1 L221.2,238.1 L221.5,238.1 L221.7,238.1 L222.0,238.1 
		L222.2,238.1 L222.5,238.1 L222.7,238.1 L222.9,238.1 L223.2,238.1 L223.4,238.1 L223.7,238.1 L223.9,238.1 
		L224.2,238.1 L224.4,238.1 L224.7,238.1 L224.9,238.1 L225.2,238.1 L225.4,238.1 L225.7,238.1 L225.9,238.1 
		L226.2,238.1 L226.4,238.1 L226.7,238.1 L226.9,238.1 L227.2,238.1 L227.4,238.1 L227.7,238.1 L227.9,238.1 
		L228.1,238.1 L228.4,238.1 L228.6,238.1 L228.9,238.1 L229.1,238.1 L229.4,238.1 L229.6,238.1 L229.9,238.1 
		L230.1,238.1 L230.4,238.1 L230.6,238.1 L230.9,238.1 L231.1,238.1 L231.4,238.1 L231.6,238.1 L231.9,238.1 
		L232.1,238.1 L232.4,238.1 L232.6,238.1 L232.8,238.1 L233.1,238.1 L233.3,238.1 L233.6,238.1 L233.8,238.1 
		L234.1,238.1 L234.3,238.1 L234.6,238.1 L234.8,238.1 L235.1,238.1 L235.3,238.1 L235.6,238.1 L235.8,238.1 
		L236.1,238.1 L236.3,238.1 L236.6,238.1 L236.8,238.1 L237.1,238.1 L237.3,238.1 L237.5,238.1 L237.8,238.1 
		L238.0,238.1 L238.3,238.1 L238.5,238.1 L238.8,238.1 L239.0,238.1 L239.3,238.1 L239.5,238.1 L239.8,238.1 
		L240.0,238.1 L240.3,238.1 L240.5,238.1 L240.8,238.1 L241.0,238.1 L241.3,238.1 L241.5,238.1 L241.8,238.1 
		L242.0,238.1 L242.2,238.1 L242.5,238.1 L242.7,238.1 L243.0,238.1 L243.2,238.1 L243.5,238.1 L243.7,238.2 
		L244.0,238.2 L244.2,238.2 L244.5,238.2 L244.7,238.2 L245.0,238.2 L245.2,238.2 L245.5,238.2 L245.7,238.2 
		L246.0,238.2 L246.2,238.2 L246.5,238.2 L246.7,238.2 L246.9,238.2 L247.2,238.2 L247.4,238.2 L247.7,238.2 
		L247.9,238.2 L248.2,238.2 L248.4,238.2 L248.7,238.2 L248.9,238.2 L249.2,238.2 L249.4,238.2 L249.7,238.2 
		L249.9,238.2 L250.2,238.2 L250.4,238.2 L250.7,238.2 L250.9,238.2 L251.2,238.2 L251.4,238.2 L251.6,238.2 
		L251.9,238.2 L252.1,238.2 L252.4,238.2 L252.6,238.2 L252.9,238.2 L253.1,238.2 L253.4,238.2 L253.6,238.2 
		L253.9,238.2 L254.1,238.2 L254.4,238.2 L254.6,238.2 L254.9,238.2 L255.1,238.2 L255.4,238.2 L255.6,238.2 
		L255.9,238.2 L256.1,238.2 L256.3,238.2 L256.6,238.2 L256.8,238.2 L257.1,238.2 L257.3,238.2 L257.6,238.2 
		L257.8,238.2 L258.1,238.2 L258.3,238.2 L258.6,238.2 L258.8,238.2 L259.1,238.2 L259.3,238.2 L259.6,238.2 
		L259.8,238.2 L260.1,238.2 L260.3,238.2 L260.6,238.2 L260.8,238.2 L261.0,238.2 L261.3,238.2 L261.5,238.2 
		L261.8,238.2 L262.0,238.2 L262.3,238.2 L262.5,238.2 L262.8,238.2 L263.0,238.2 L263.3,238.2 L263.5,238.2 
		L263.8,238.2 L264.0,238.2 L264.3,238.2 L264.5,238.2 L264.8,238.2 L265.0,238.2 L265.3,238.2 L265.5,238.2 
		L265.8,238.2 L266.0,238.2 L266.2,238.2 L266.5,238.2 L266.7,238.2 L267.0,238.2 L267.2,238.2 L267.5,238.2 
		L267.7,238.2 L268.0,238.2 L268.2,238.2 L268.5,238.2 L268.7,238.2 L269.0,238.2 L269.2,238.2 L269.5,238.2 
		L269.7,238.2 L270.0,238.2 L270.2,238.2 L270.5,238.2 L270.7,238.2 L270.9,238.2 L271.2,238.2 L271.4,238.2 
		L271.7,238.2 L271.9,238.2 L272.2,238.2 L272.4,238.2 L272.7,238.2 L272.9,238.2 L273.2,238.2 L273.4,238.2 
		L273.7,238.2 L273.9,238.2 L274.2,238.2 L274.4,238.2 L274.7,238.2 L274.9,238.2 L275.2,238.2 L275.4,238.2 
		L275.6,238.2 L275.9,238.2 L276.1,238.2 L276.4,238.2 L276.6,238.2 L276.9,238.2 L277.1,238.2 L277.4,238.2 
		L277.6,238.2 L277.9,238.2 L278.1,238.2 L278.4,238.3 L278.6,238.3 L278.9,238.3 L279.1,238.3 L279.4,238.3 
		L279.6,238.3 L279.9,238.3 L280.1,238.3 L280.3,238.3 L280.6,238.3 L280.8,238.3 L281.1,238.3 L281.3,238.3 
		L281.6,238.3 L281.8,238.3 L282.1,238.3 L282.3,238.3 L282.6,238.3 L282.8,238.3 L283.1,238.3 L283.3,238.3 
		L283.6,238.3 L283.8,238.3 L284.1,238.3 L284.3,238.3 L284.6,238.3 L284.8,238.3 L285.0,238.3 L285.3,238.3 
		L285.5,238.3 L285.8,238.3 L286.0,238.3 L286.3,238.3 L286.5,238.3 L286.8,238.3 L287.0,238.3 L287.3,238.3 
		L287.5,238.3 L287.8,238.3 L288.0,238.3 L288.3,238.3 L288.5,238.3 L288.8,238.3 L289.0,238.3 L289.3,238.3 
		L289.5,238.3 L289.7,238.3 L290.0,238.3 L290.2,238.3 L290.5,238.3 L290.7,238.3 L291.0,238.3 L291.2,238.3 
		L291.5,238.3 L291.7,238.3 L292.0,238.3 L292.2,238.3 L292.5,238.3 L292.7,238.3 L293.0,238.3 L293.2,238.3 
		L293.5,238.3 L293.7,238.3 L294.0,238.3 L294.2,238.3 L294.4,238.3 L294.7,238.3 L294.9,238.3 L295.2,238.3 
		L295.4,238.3 L295.7,238.3 L295.9,238.3 L296.2,238.3 L296.4,238.3 L296.7,238.3 L296.9,238.3 L297.2,238.3 
		L297.4,238.3 L297.7,238.3 L297.9,238.3 L298.2,238.3 L298.4,238.3 L298.7,238.3 L298.9,238.3 L299.1,238.3 
		L299.4,238.3 L299.6,238.3 L299.9,238.3 L300.1,238.3 L300.4,238.3 L300.6,238.3 L300.9,238.3 L301.1,238.3 
		L301.4,238.3 L301.6,238.3 L301.9,238.3 L302.1,238.3 L302.4,238.3 L302.6,238.3 L302.9,238.3 L303.1,238.3 
		L303.4,238.3 L303.6,238.3 L303.8,238.3 L304.1,238.3 L304.3,238.3 L304.6,238.3 L304.8,238.3 L305.1,238.3 
		L305.3,238.3 L305.6,238.3 L305.8,238.3 L306.1,238.3 L306.3,238.3 L306.6,238.3 L306.8,238.3 L307.1,238.3 
		L307.3,238.3 L307.6,238.3 L307.8,238.3 L308.1,238.3 L308.3,238.3 L308.6,238.3 L308.8,238.3 L309.0,238.3 
		L309.3,238.3 L309.5,238.3 L309.8,238.3 L310.0,238.3 L310.3,238.3 L310.5,238.3 L310.8,238.3 L311.0,238.3 
		L311.3,238.3 L311.5,238.3 L311.8,238.3 L312.0,238.3 L312.3,238.3 L312.5,238.3 L312.8,238.3 L313.0,238.3 
		L313.3,238.3 L313.5,238.3 L313.7,238.3 L314.0,238.3 L314.2,238.3 L314.5,238.3 L314.7,238.3 L315.0,238.3 
		L315.2,238.3 L315.5,238.3 L315.7,238.3 L316.0,238.3 L316.2,238.3 L316.5,238.3 L316.7,238.3 L317.0,238.3 
		L317.2,238.3 L317.5,238.3 L317.7,238.3 L318.0,238.3 L318.2,238.3 L318.4,238.3 L318.7,238.3 L318.9,238.3 
		L319.2,238.3 L319.4,238.3 L319.7,238.3 L319.9,238.3 L320.2,238.3 L320.4,238.3 L320.7,238.3 L320.9,238.3 
		L321.2,238.3 L321.4,238.3 L321.7,238.3 L321.9,238.3 L322.2,238.3 L322.4,238.3 L322.7,238.3 L322.9,238.3 
		L323.1,238.3 L323.4,238.3 L323.6,238.3 L323.9,238.3 L324.1,238.3 L324.4,238.3 L324.6,238.3 L324.9,238.3 
		L325.1,238.3 L325.4,238.3 L325.6,238.3 L325.9,238.3 L326.1,238.3 L326.4,238.3 L326.6,238.3 L326.9,238.3 
		L327.1,238.3 L327.4,238.3 L327.6,238.3 L327.8,238.3 L328.1,238.3 L328.3,238.3 L328.6,238.3 L328.8,238.3 
		L329.1,238.3 L329.3,238.3 L329.6,238.3 L329.8,238.3 L330.1,238.3 L330.3,238.3 L330.6,238.3 L330.8,238.3 
		L331.1,238.3 L331.3,238.3 L331.6,238.3 L331.8,238.3 L332.1,238.3 L332.3,238.3 L332.5,238.3 L332.8,238.3 
		L333.0,238.3 L333.3,238.3 L333.5,238.3 L333.8,238.3 L334.0,238.3 L334.3,238.3 L334.5,238.3 L334.8,238.3 
		L335.0,238.3 L335.3,238.3 L335.5,238.3 L335.8,238.4 L336.0,238.4 L336.3,238.4 L336.5,238.4 L336.8,238.4 
		L337.0,238.4 L337.2,238.4 L337.5,238.4 L337.7,238.4 L338.0,238.4 L338.2,238.4 L338.5,238.4 L338.7,238.4 
		L339.0,238.4 L339.2,238.4 L339.5,238.4 L339.7,238.4 L340.0,238.4 L340.2,238.4 L340.5,238.4 L340.7,238.4 
		L341.0,238.4 L341.2,238.4 L341.5,238.4 L341.7,238.4 L341.9,238.4 L342.2,238.4 L342.4,238.4 L342.7,238.4 
		L342.9,238.4 L343.2,238.4 L343.4,238.4 L343.7,238.4 L343.9,238.4 L344.2,238.4 L344.4,238.4 L344.7,238.4 
		L344.9,238.4 L345.2,238.4 L345.4,238.4 L345.7,238.4 L345.9,238.4 L346.2,238.4 L346.4,238.4 L346.6,238.4 
		L346.9,238.4 L347.1,238.4 L347.4,238.4 L347.6,238.4 L347.9,238.4 L348.1,238.4 L348.4,238.4 L348.6,238.4 
		L348.9,238.4 L349.1,238.4 L349.4,238.4 L349.6,238.4 L349.9,238.4 L350.1,238.4 L350.4,238.4 L350.6,238.4 
		L350.9,238.4 L351.1,238.4 L351.4,238.4 L351.6,238.4 L351.8,238.4 L352.1,238.4 L352.3,238.4 L352.6,238.4 
		L352.8,238.4 L353.1,238.4 L353.3,238.4 L353.6,238.4 L353.8,238.4 L354.1,238.4 L354.3,238.4 L354.6,238.4 
		L354.8,238.4 L355.1,238.4 L355.3,238.4 L355.6,238.4 L355.8,238.4 L356.1,238.4 L356.3,238.4 L356.5,238.4 
		L356.8,238.4 L357.0,238.4 L357.3,238.4 L357.5,238.4 L357.8,238.4 L358.0,238.4 L358.3,238.4 L358.5,238.4 
		L358.8,238.4 L359.0,238.4 L359.3,238.4 L359.5,238.4 L359.8,238.4 L360.0,238.4 L360.3,238.4 L360.5,238.4 
		L360.8,238.4 L361.0,238.4 L361.2,238.4 L361.5,238.4 L361.7,238.4 L362.0,238.4 L362.2,238.4 L362.5,238.4 
		L362.7,238.4 L363.0,238.4 L363.2,238.4 L363.5,238.4 L363.7,238.4 L364.0,238.4 L364.2,238.4 L364.5,238.4 
		L364.7,238.4 L365.0,238.4 L365.2,238.4 L365.5,238.4 L365.7,238.4 L365.9,238.4 L366.2,238.4 L366.4,238.4 
		L366.7,238.4 L366.9,238.4 L367.2,238.4 L367.4,238.4 L367.7,238.4 L367.9,238.4 L368.2,238.4 L368.4,238.4 
		L368.7,238.4 L368.9,238.4 L369.2,238.4 L369.4,238.4 L369.7,238.4 L369.9,238.4 L370.2,238.4 L370.4,238.4 
		L370.6,238.4 L370.9,238.4 L371.1,238.4 L371.4,238.4 L371.6,238.4 L371.9,238.4 L372.1,238.4 L372.4,238.4 
		L372.6,238.4 L372.9,238.4 L373.1,238.4 L373.4,238.4 L373.6,238.4 L373.9,238.4 L374.1,238.4 L374.4,238.4 
		L374.6,238.4 L374.9,238.4 L375.1,238.4 L375.3,238.4 L375.6,238.4 L375.8,238.4 L376.1,238.4 L376.3,238.4 
		L376.6,238.4 L376.8,238.4 L377.1,238.4 L377.3,238.4 L377.6,238.4 L377.8,238.4 L378.1,238.4 L378.3,238.4 
		L378.6,238.4 L378.8,238.4 L379.1,238.4 L379.3,238.4 L379.6,238.4 L379.8,238.4 L380.0,238.4 L380.3,238.4 
		L380.5,238.4 L380.8,238.4 L381.0,238.4 L381.3,238.4 L381.5,238.4 L381.8,238.4 L382.0,238.4 L382.3,238.4 
		L382.5,238.4 L382.8,238.4 L383.0,238.4 L383.3,238.4 L383.5,238.4 L383.8,238.4 L384.0,238.4 L384.3,238.4 
		L384.5,238.4 L384.7,238.4 L385.0,238.4 L385.2,238.4 L385.5,238.4 L385.7,238.4 L386.0,238.4 L386.2,238.4 
		L386.5,238.4 L386.7,238.4 L387.0,238.4 L387.2,238.4 L387.5,238.4 L387.7,238.4 L388.0,238.4 L388.2,238.4 
		L388.5,238.4 L388.7,238.4 L389.0,238.4 L389.2,238.4 L389.5,238.4 L389.7,238.4 L389.9,238.4 L390.2,238.4 
		L390.4,238.4 L390.7,238.4 L390.9,238.4 L391.2,238.4 L391.4,238.4 L391.7,238.4 L391.9,238.4 L392.2,238.4 
		L392.4,238.4 L392.7,238.4 L392.9,238.4 L393.2,238.4 L393.4,238.4 L393.7,238.4 L393.9,238.4 L394.2,238.4 
		L394.4,238.4 L394.6,238.4 L394.9,238.4 L395.1,238.4 L395.4,238.4 L395.6,238.4 L395.9,238.4 L396.1,238.4 
		L396.4,238.4 L396.6,238.4 L396.9,238.4 L397.1,238.4 L397.4,238.4 L397.6,238.4 L397.9,238.4 L398.1,238.4 
		L398.4,238.4 L398.6,238.4 L398.9,238.4 L399.1,238.4 L399.3,238.4 L399.6,238.4 L399.8,238.4 L400.1,238.4 
		L400.3,238.4 L400.6,238.4 L400.8,238.4 L401.1,238.4 L401.3,238.4 L401.6,238.4 L401.8,238.4 L402.1,238.4 
		L402.3,238.4 L402.6,238.4 L402.8,238.4 L403.1,238.4 L403.3,238.4 L403.6,238.4 L403.8,238.4 L404.0,238.4 
		L404.3,238.4 L404.5,238.4 L404.8,238.4 L405.0,238.4 L405.3,238.4 L405.5,238.4 L405.8,238.4 L406.0,238.4 
		L406.3,238.4 L406.5,238.4 L406.8,238.4 L407.0,238.4 L407.3,238.4 L407.5,238.4 L407.8,238.4 L408.0,238.4 
		L408.3,238.4 L408.5,238.4 L408.7,238.4 L409.0,238.4 L409.2,238.4 L409.5,238.4 L409.7,238.4 L410.0,238.4 
		L410.2,238.4 L410.5,238.4 L410.7,238.4 L411.0,238.4 L411.2,238.4 L411.5,238.4 L411.7,238.4 L412.0,238.4 
		L412.2,238.4 L412.5,238.4 L412.7,238.4 L413.0,238.4 L413.2,238.4 L413.4,238.4 L413.7,238.4 L413.9,238.4 
		L414.2,238.4 L414.4,238.4 L414.7,238.4 L414.9,238.4 L415.2,238.4 L415.4,238.4 L415.7,238.4 L415.9,238.4 
		L416.2,238.4 L416.4,238.4 L416.7,238.4 L416.9,238.4 L417.2,238.4 L417.4,238.4 L417.7,238.4 L417.9,238.4 
		L418.1,238.4 L418.4,238.4 L418.6,238.4 L418.9,238.4 L419.1,238.4 L419.4,238.4 L419.6,238.4 L419.9,238.4 
		L420.1,238.4 L420.4,238.4 L420.6,238.4 L420.9,238.4 L421.1,238.4 L421.4,238.4 L421.6,238.4 L421.9,238.4 
		L422.1,238.4 L422.4,238.4 L422.6,238.4 L422.8,238.4 L423.1,238.4 L423.3,238.4 L423.6,238.4 L423.8,238.4 
		L424.1,238.4 L424.3,238.4 L424.6,238.4 L424.8,238.4 L425.1,238.4 L425.3,238.4 L425.6,238.4 L425.8,238.4 
		L426.1,238.4 L426.3,238.4 L426.6,238.4 L426.8,238.4 L427.1,238.4 L427.3,238.4 L427.5,238.4 L427.8,238.4 
		L428.0,238.4 L428.3,238.4 L428.5,238.4 L428.8,238.4 L429.0,238.4 L429.3,238.4 L429.5,238.4 L429.8,238.4 
		L430.0,238.4 L430.3,238.4 L430.5,238.4 L430.8,238.4 L431.0,238.4 L431.3,238.4 L431.5,238.4 L431.8,238.4 
		L432.0,238.4 L432.3,238.4 L432.5,238.4 L432.7,238.4 L433.0,238.4 L433.2,238.4 L433.5,238.4 L433.7,238.4 
		L434.0,238.4 L434.2,238.4 L434.5,238.4 L434.7,238.4 L435.0,238.4 L435.2,238.4 L435.5,238.4 L435.7,238.4 
		L436.0,238.4 L436.2,238.4 L436.5,238.4 L436.7,238.4 L437.0,238.4 L437.2,238.4 L437.4,238.4 L437.7,238.4 
		L437.9,238.4 L438.2,238.4 L438.4,238.4 L438.7,238.4 L438.9,238.4 L439.2,238.4 L439.4,238.4 L439.7,238.4 
		L439.9,238.4 L440.2,238.4 L440.4,238.4 L440.7,238.4 L440.9,238.4 L441.2,238.4 L441.4,238.4 L441.7,238.4 
		L441.9,238.4 L442.1,238.4 L442.4,238.4 L442.6,238.4 L442.9,238.4 L443.1,238.4 L443.4,238.4 L443.6,238.4 
		L443.9,238.4 L444.1,238.4 L444.4,238.4 L444.6,238.4 L444.9,238.4 L445.1,238.4 L445.4,238.4 L445.6,238.4 
		L445.9,238.4 L446.1,238.4 L446.4,238.4 L446.6,238.4 L446.8,238.4 L447.1,238.4 L447.3,238.4 L447.6,238.4 
		L447.8,238.4 L448.1,238.4 L448.3,238.4 L448.6,238.4 L448.8,238.4 L449.1,238.4 L449.3,238.4 L449.6,238.4 
		L449.8,238.4 L450.1,238.4 L450.3,238.4 L450.6,238.4 L450.8,238.4 L451.1,238.4 L451.3,238.4 L451.5,238.4 
		L451.8,238.4 L452.0,238.4 L452.3,238.4 L452.5,238.5 L452.8,238.5 L453.0,238.5 L453.3,238.5 L453.5,238.5 
		L453.8,238.5 L454.0,238.5 L454.3,238.5 L454.5,238.5 L454.8,238.5 L455.0,238.5 L455.3,238.5 L455.5,238.5 
		L455.8,238.5 L456.0,238.5 L456.2,238.5 L456.5,238.5 L456.7,238.5 L457.0,238.5 L457.2,238.5 L457.5,238.5 
		L457.7,238.5 L458.0,238.5 L458.2,238.5 L458.5,238.5 L458.7,238.5 L459.0,238.5 L459.2,238.5 L459.5,238.5 
		L459.7,238.5 L460.0,238.5 L460.2,238.5 L460.5,238.5 L460.7,238.5 L460.9,238.5 L461.2,238.5 L461.4,238.5 
		L461.7,238.5 L461.9,238.5 L462.2,238.5 L462.4,238.5 L462.7,238.5 L462.9,238.5 L463.2,238.5 L463.4,238.5 
		L463.7,238.5 L463.9,238.5 L464.2,238.5 L464.4,238.5 L464.7,238.5 L464.9,238.5 L465.2,238.5 L465.4,238.5 
		L465.6,238.5 L465.9,238.5 L466.1,238.5 L466.4,238.5 L466.6,238.5 L466.9,238.5 L467.1,238.5 L467.4,238.5 
		L467.6,238.5 L467.9,238.5 L468.1,238.5 L468.4,238.5 L468.6,238.5 L468.9,238.5 L469.1,238.5 L469.4,238.5 
		L469.6,238.5 L469.9,238.5 L470.1,238.5 L470.3,238.5 L470.6,238.5 L470.8,238.5 L471.1,238.5 L471.3,238.5 
		L471.6,238.5 L471.8,238.5 L472.1,238.5 L472.3,238.5 L472.6,238.5 L472.8,238.5 L473.1,238.5 L473.3,238.5 
		L473.6,238.5 L473.8,238.5 L474.1,238.5 L474.3,238.5 L474.6,238.5 L474.8,238.5 L475.1,238.5 L475.3,238.5 
		L475.5,238.5 L475.8,238.5 L476.0,238.5 L476.3,238.5 L476.5,238.5 L476.8,238.5 L477.0,238.5 L477.3,238.5 
		L477.5,238.5 L477.8,238.5 L478.0,238.5 L478.3,238.5 L478.5,238.5 L478.8,238.5 L479.0,238.5 L479.3,238.5 
		L479.5,238.5 L479.8,238.5 L480.0,238.5 L480.2,238.5 L480.5,238.5 L480.7,238.5 L481.0,238.5 L481.2,238.5 
		L481.5,238.5 L481.7,238.5 L482.0,238.5 L482.2,238.5 L482.5,238.5 L482.7,238.5 L483.0,238.5 L483.2,238.5 
		L483.5,238.5 L483.7,238.5 L484.0,238.5 L484.2,238.5 L484.5,238.5 L484.7,238.5 L484.9,238.5 L485.2,238.5 
		L485.4,238.5 L485.7,238.5 L485.9,238.5 L486.2,238.5 L486.4,238.5 L486.7,238.5 L486.9,238.5 L487.2,238.5 
		L487.4,238.5 L487.7,238.5 L487.9,238.5 L488.2,238.5 L488.4,238.5 L488.7,238.5 L488.9,238.5 L489.2,238.5 
		L489.4,238.5 L489.6,238.5 L489.9,238.5 L490.1,238.5 L490.4,238.5 L490.6,238.5 L490.9,238.5 L491.1,238.5 
		L491.4,238.5 L491.6,238.5 L491.9,238.5 L492.1,238.5 L492.4,238.5 L492.6,238.5 L492.9,238.5 L493.1,238.5 
		L493.4,238.5 L493.6,238.5 L493.9,238.5 L494.1,238.5 L494.3,238.5 L494.6,238.5 L494.8,238.5 L495.1,238.5 
		L495.3,238.5 L495.6,238.5 L495.8,238.5 L496.1,238.5 L496.3,238.5 L496.6,238.5 L496.8,238.5 L497.1,238.5 
		L497.3,238.5 L497.6,238.5 L497.8,238.5 L498.1,238.5 L498.3,238.5 L498.6,238.5 L498.8,238.5 L499.0,238.5 
		L499.3,238.5 L499.5,238.5 L499.8,238.5 L500.0,238.5 L500.3,238.5 L500.5,238.5 L500.8,238.5 L501.0,238.5 
		L501.3,238.5 L501.5,238.5 L501.8,238.5 L502.0,238.5 L502.3,238.5 L502.5,238.5 L502.8,238.5 L503.0,238.5 
		L503.3,238.5 L503.5,238.5 L503.7,238.5 L504.0,238.5 L504.2,238.5 L504.5,238.5 L504.7,238.5 L505.0,238.5 
		L505.2,238.5 L505.5,238.5 L505.7,238.5 L506.0,238.5 L506.2,238.5 L506.5,238.5 L506.7,238.5 L507.0,238.5 
		L507.2,238.5 L507.5,238.5 L507.7,238.5 L508.0,238.5 L508.2,238.5 L508.4,238.5 L508.7,238.5 L508.9,238.5 
		L509.2,238.5 L509.4,238.5 L509.7,238.5 L509.9,238.5 L510.2,238.5 L510.4,238.5 L510.7,238.5 L510.9,238.5 
		L511.2,238.5 L511.4,238.5 L511.7,238.5 L511.9,238.5 L512.2,238.5 L512.4,238.5 L512.7,238.5 L512.9,238.5 
		L513.2,238.5 L513.4,238.5 L513.6,238.5 L513.9,238.5 L514.1,238.5 L514.4,238.5 L514.6,238.5 L514.9,238.5 
		L515.1,238.5 L515.4,238.5 L515.6,238.5 L515.9,238.5 L516.1,238.5 L516.4,238.5 L516.6,238.5 L516.9,238.5 
		L517.1,238.5 L517.4,238.5 L517.6,238.5 L517.9,238.5 L518.1,238.5 L518.3,238.5 L518.6,238.5 L518.8,238.5 
		L519.1,238.5 L519.3,238.5 L519.6,238.5 L519.8,238.5 L520.1,238.5 L520.3,238.5 L520.6,238.5 L520.8,238.5 
		L521.1,238.5 L521.3,238.5 L521.6,238.5 L521.8,238.5 L522.1,238.5 L522.3,238.5 L522.6,238.5 L522.8,238.5 
		L523.0,238.5 L523.3,238.5 L523.5,238.5 L523.8,238.5 L524.0,238.5 L524.3,238.5 L524.5,238.5 L524.8,238.5 
		L525.0,238.5 L525.3,238.5 L525.5,238.5 L525.8,238.5 L526.0,238.5 L526.3,238.5 L526.5,238.5 L526.8,238.5 
		L527.0,238.5 L527.3,238.5 L527.5,238.5 L527.7,238.5 L528.0,238.5 L528.2,238.5 L528.5,238.5 L528.7,238.5 
		L529.0,238.5 L529.2,238.5 L529.5,238.5 L529.7,238.5 L530.0,238.5 L530.2,238.5 L530.5,238.5 L530.7,238.5 
		L531.0,238.5 L531.2,238.5 L531.5,238.5 L531.7,238.5 L532.0,238.5 L532.2,238.5 L532.4,238.5 L532.7,238.5 
		L532.9,238.5 L533.2,238.5 L533.4,238.5 L533.7,238.5 L533.9,238.5 L534.2,238.5 L534.4,238.5 L534.7,238.5 
		L534.9,238.5 L535.2,238.5 L535.4,238.5 L535.7,238.5 L535.9,238.5 L536.2,238.5 L536.4,238.5 L536.7,238.5 
		L536.9,238.5 L537.1,238.5 L537.4,238.5 L537.6,238.5 L537.9,238.5 L538.1,238.5 L538.4,238.5 L538.6,238.5 
		L538.9,238.5 L539.1,238.5 L539.4,238.5 L539.6,238.5 L539.9,238.5 L540.1,238.5 L540.4,238.5 L540.6,238.5 
		L540.9,238.5 L541.1,238.5 L541.4,238.5 L541.6,238.5 L541.8,238.5 L542.1,238.5 L542.3,238.5 L542.6,238.5 
		L542.8,238.5 L543.1,238.5 L543.3,238.5 L543.6,238.5 L543.8,238.5 L544.1,238.5 L544.3,238.5 L544.6,238.5 
		L544.8,238.5 L545.1,238.5 L545.3,238.5 L545.6,238.5 L545.8,238.5 L546.1,238.5 L546.3,238.5 L546.5,238.5 
		L546.8,238.5 L547.0,238.5 L547.3,238.5 L547.5,238.5 L547.8,238.5 L548.0,238.5 L548.3,238.5 L548.5,238.5 
		L548.8,238.5 L549.0,238.5 L549.3,238.5 L549.5,238.5 L549.8,238.5 L550.0,238.5 L550.3,238.5 L550.5,238.5 
		L550.8,238.5 L551.0,238.5 L551.2,238.5 L551.5,238.5 L551.7,238.5 L552.0,238.5 L552.2,238.5 L552.5,238.5 
		L552.7,238.5 L553.0,238.5 L553.2,238.5 L553.5,238.5 L553.7,238.5 L554.0,238.5 L554.2,238.5 L554.5,238.5 
		L554.7,238.5 L555.0,238.5 L555.2,238.5 L555.5,238.5 L555.7,238.5 L556.0,238.5 L556.2,238.5 L556.4,238.5 
		L556.7,238.5 L556.9,238.5 L557.2,238.5 L557.4,238.5 L557.7,238.5 L557.9,238.5 L558.2,238.5 L558.4,238.5 
		L558.7,238.5 L558.9,238.5 L559.2,238.5 L559.4,238.5 L559.7,238.5 L559.9,238.5 L560.2,238.5 L560.4,238.5 
		L560.7,238.5 L560.9,238.5 L561.1,238.5 L561.4,238.5 L561.6,238.5 L561.9,238.5 L562.1,238.5 L562.4,238.5 
		L562.6,238.5 L562.9,238.5 L563.1,238.5 L563.4,238.5 L563.6,238.5 L563.9,238.5 L564.1,238.5 L564.4,238.5 
		L564.6,238.5 L564.9,238.5 L565.1,238.5 L565.4,238.5 L565.6,238.5 L565.8,238.5 L566.1,238.5 L566.3,238.5 
		L566.6,238.5 L566.8,238.5 L567.1,238.5 L567.3,238.5 L567.6,238.5 L567.8,238.5 L568.1,238.5 L568.3,238.5 
		L568.6,238.5 L568.8,238.5 L569.1,238.5 L569.3,238.5 L569.6,238.5 L569.8,238.5 L570.1,238.5 L570.3,238.5 
		L570.5,238.5 L570.8,238.5 L571.0,238.5 L571.3,238.5 L571.5,238.5 L571.8,238.5 L572.0,238.5 L572.3,238.5 
		L572.5,238.5 L572.8,238.5 L573.0,238.5 L573.3,238.5 L573.5,238.5 L573.8,238.5 L574.0,238.5 L574.3,238.5 
		L574.5,238.5 L574.8,238.5 L575.0,238.5  h0.01'/></g>
	</g>
	<g id="gnuplot_plot_2" ><title>gnuplot_plot_2</title>
<g style="fill:none; color:green; stroke:currentColor; stroke-width:1.00; stroke-linecap:butt; stroke-linejoin:miter">
	<g transform="translate(507.9,354.9)" style="stroke:none; fill:black; font-family:Arial; font-size:12.00pt; text-anchor:end">
		<text>TCP throughput (Rx rate)</text>
	</g>
	<path  d='M516.2,350.4 L558.4,350.4 M131.2,384.2 L131.4,382.8 L131.7,381.5 L131.9,381.5 L132.2,381.5 L132.4,381.5 
		L132.6,381.5 L132.9,381.5 L133.1,381.5 L133.4,381.5 L133.6,383.2 L133.9,381.9 L134.1,380.7 L134.4,379.6 
		L134.6,378.4 L134.9,377.3 L135.1,376.2 L135.4,375.0 L135.6,374.0 L135.9,372.9 L136.1,370.8 L136.4,370.8 
		L136.6,370.8 L136.9,370.8 L137.1,370.8 L137.3,371.5 L137.6,370.5 L137.8,369.5 L138.1,368.5 L138.3,367.6 
		L138.6,366.7 L138.8,365.8 L139.1,364.9 L139.3,364.0 L139.6,363.1 L139.8,361.4 L140.1,360.5 L140.3,359.7 
		L140.6,358.9 L140.8,358.1 L141.1,357.3 L141.3,356.5 L141.6,355.7 L141.8,355.0 L142.1,354.2 L142.3,353.5 
		L142.5,352.7 L142.8,351.3 L143.0,350.6 L143.3,349.9 L143.5,349.2 L143.8,348.5 L144.0,347.8 L144.3,347.2 
		L144.5,346.5 L144.8,345.9 L145.0,345.2 L145.3,344.6 L145.5,344.0 L145.8,342.7 L146.0,342.1 L146.3,341.5 
		L146.5,340.9 L146.8,340.4 L147.0,339.8 L147.2,339.2 L147.5,338.6 L147.7,338.1 L148.0,337.5 L148.2,337.0 
		L148.5,336.4 L148.7,335.9 L149.0,334.9 L149.2,334.3 L149.5,333.8 L149.7,333.3 L150.0,332.8 L150.2,332.3 
		L150.5,331.8 L150.7,331.4 L151.0,330.9 L151.2,330.4 L151.5,329.9 L151.7,329.5 L151.9,328.6 L152.2,328.1 
		L152.4,327.7 L152.7,327.2 L152.9,326.8 L153.2,326.3 L153.4,325.9 L153.7,325.5 L153.9,325.1 L154.2,324.6 
		L154.4,324.2 L154.7,323.8 L154.9,323.0 L155.2,322.6 L155.4,322.2 L155.7,321.8 L155.9,321.5 L156.2,321.1 
		L156.4,320.7 L156.6,320.3 L156.9,319.9 L157.1,319.6 L157.4,319.2 L157.6,318.8 L157.9,318.5 L158.1,317.8 
		L158.4,317.4 L158.6,317.1 L158.9,316.7 L159.1,316.4 L159.4,316.1 L159.6,315.7 L159.9,315.4 L160.1,315.1 
		L160.4,314.7 L160.6,314.4 L160.9,314.1 L161.1,313.5 L161.3,313.2 L161.6,312.8 L161.8,312.5 L162.1,312.2 
		L162.3,311.9 L162.6,311.6 L162.8,311.3 L163.1,311.0 L163.3,310.7 L163.6,310.5 L163.8,310.2 L164.1,309.6 
		L164.3,309.3 L164.6,309.0 L164.8,308.8 L165.1,308.5 L165.3,308.2 L165.6,307.9 L165.8,307.7 L166.0,307.4 
		L166.3,307.2 L166.5,306.9 L166.8,306.6 L167.0,306.4 L167.3,305.9 L167.5,305.6 L167.8,305.4 L168.0,305.1 
		L168.3,304.9 L168.5,304.6 L168.8,304.4 L169.0,304.1 L169.3,303.9 L169.5,303.7 L169.8,303.4 L170.0,303.2 
		L170.3,302.7 L170.5,302.5 L170.7,302.3 L171.0,302.0 L171.2,301.8 L171.5,301.6 L171.7,301.4 L172.0,301.2 
		L172.2,300.9 L172.5,300.7 L172.7,300.5 L173.0,300.3 L173.2,299.9 L173.5,299.7 L173.7,299.5 L174.0,299.3 
		L174.2,299.0 L174.5,298.8 L174.7,298.6 L175.0,298.4 L175.2,298.2 L175.4,298.0 L175.7,297.8 L175.9,297.7 
		L176.2,297.3 L176.4,297.1 L176.7,296.9 L176.9,296.7 L177.2,296.5 L177.4,296.3 L177.7,296.1 L177.9,295.9 
		L178.2,295.8 L178.4,295.6 L178.7,295.4 L178.9,295.2 L179.2,295.0 L179.4,294.7 L179.7,294.5 L179.9,294.3 
		L180.1,294.2 L180.4,294.0 L180.6,293.8 L180.9,293.7 L181.1,293.5 L181.4,293.3 L181.6,293.2 L181.9,293.0 
		L182.1,292.8 L182.4,292.5 L182.6,292.3 L182.9,292.2 L183.1,292.0 L183.4,291.9 L183.6,291.7 L183.9,291.5 
		L184.1,291.4 L184.4,291.2 L184.6,291.1 L184.9,290.9 L185.1,290.8 L185.3,290.5 L185.6,290.3 L185.8,290.2 
		L186.1,290.0 L186.3,289.9 L186.6,289.7 L186.8,289.6 L187.1,289.4 L187.3,289.3 L187.6,289.2 L187.8,289.0 
		L188.1,288.9 L188.3,288.7 L188.6,288.5 L188.8,288.3 L189.1,288.2 L189.3,288.0 L189.6,288.0 L189.8,288.0 
		L190.0,288.0 L190.3,288.0 L190.5,288.0 L190.8,288.0 L191.0,288.0 L191.3,288.0 L191.5,288.0 L191.8,288.0 
		L192.0,288.0 L192.3,288.0 L192.5,288.0 L192.8,288.0 L193.0,293.3 L193.3,293.2 L193.5,293.2 L193.8,293.2 
		L194.0,293.2 L194.3,293.2 L194.5,293.2 L194.7,293.2 L195.0,293.2 L195.2,293.2 L195.5,293.2 L195.7,293.2 
		L196.0,293.2 L196.2,293.2 L196.5,293.2 L196.7,297.7 L197.0,297.6 L197.2,297.4 L197.5,297.4 L197.7,297.4 
		L198.0,297.4 L198.2,297.4 L198.5,297.4 L198.7,297.4 L199.0,297.4 L199.2,297.4 L199.4,297.4 L199.7,297.4 
		L199.9,297.4 L200.2,297.4 L200.4,301.3 L200.7,301.2 L200.9,301.0 L201.2,300.9 L201.4,300.9 L201.7,300.9 
		L201.9,300.9 L202.2,300.9 L202.4,300.9 L202.7,300.9 L202.9,300.9 L203.2,300.9 L203.4,300.9 L203.7,300.9 
		L203.9,300.9 L204.1,304.2 L204.4,304.0 L204.6,303.9 L204.9,303.7 L205.1,303.6 L205.4,303.4 L205.6,303.3 
		L205.9,303.1 L206.1,303.1 L206.4,303.1 L206.6,303.1 L206.9,303.1 L207.1,303.1 L207.4,303.1 L207.6,303.1 
		L207.9,303.1 L208.1,303.1 L208.4,305.7 L208.6,305.6 L208.8,305.4 L209.1,305.3 L209.3,305.1 L209.6,305.0 
		L209.8,304.7 L210.1,304.7 L210.3,304.7 L210.6,304.7 L210.8,304.7 L211.1,304.7 L211.3,304.7 L211.6,304.7 
		L211.8,304.7 L212.1,306.7 L212.3,306.5 L212.6,306.4 L212.8,306.2 L213.1,306.1 L213.3,305.9 L213.5,305.6 
		L213.8,305.5 L214.0,305.4 L214.3,305.2 L214.5,305.1 L214.8,305.1 L215.0,305.1 L215.3,305.1 L215.5,305.1 
		L215.8,305.1 L216.0,306.2 L216.3,306.1 L216.5,305.9 L216.8,305.8 L217.0,305.7 L217.3,305.4 L217.5,305.2 
		L217.8,305.1 L218.0,305.0 L218.2,304.8 L218.5,304.7 L218.7,304.6 L219.0,304.4 L219.2,304.3 L219.5,304.2 
		L219.7,304.2 L220.0,304.3 L220.2,304.2 L220.5,304.1 L220.7,303.9 L221.0,303.7 L221.2,303.5 L221.5,303.4 
		L221.7,303.3 L222.0,303.2 L222.2,303.0 L222.5,302.9 L222.7,302.8 L222.9,302.7 L223.2,302.5 L223.4,302.4 
		L223.7,302.3 L223.9,302.0 L224.2,301.9 L224.4,301.8 L224.7,301.7 L224.9,301.5 L225.2,301.4 L225.4,301.3 
		L225.7,301.2 L225.9,301.1 L226.2,300.9 L226.4,300.8 L226.7,300.7 L226.9,300.6 L227.2,300.4 L227.4,300.2 
		L227.7,300.1 L227.9,300.0 L228.1,299.9 L228.4,299.8 L228.6,299.7 L228.9,299.5 L229.1,299.4 L229.4,299.3 
		L229.6,299.2 L229.9,299.1 L230.1,298.9 L230.4,298.8 L230.6,298.6 L230.9,298.5 L231.1,298.4 L231.4,298.3 
		L231.6,298.2 L231.9,298.1 L232.1,298.0 L232.4,297.9 L232.6,297.8 L232.8,297.7 L233.1,297.5 L233.3,297.4 
		L233.6,297.2 L233.8,297.1 L234.1,297.0 L234.3,296.9 L234.6,296.8 L234.8,296.7 L235.1,296.6 L235.3,296.5 
		L235.6,296.4 L235.8,296.3 L236.1,296.2 L236.3,296.0 L236.6,295.9 L236.8,295.8 L237.1,295.7 L237.3,295.6 
		L237.5,295.5 L237.8,295.4 L238.0,295.3 L238.3,295.2 L238.5,295.1 L238.8,295.0 L239.0,294.9 L239.3,294.7 
		L239.5,294.6 L239.8,294.5 L240.0,294.4 L240.3,294.3 L240.5,294.3 L240.8,294.2 L241.0,294.1 L241.3,294.0 
		L241.5,293.9 L241.8,293.8 L242.0,293.7 L242.2,293.5 L242.5,293.4 L242.7,293.3 L243.0,293.2 L243.2,293.1 
		L243.5,293.0 L243.7,293.0 L244.0,292.9 L244.2,292.8 L244.5,292.7 L244.7,292.6 L245.0,292.5 L245.2,292.4 
		L245.5,292.2 L245.7,292.2 L246.0,292.1 L246.2,292.0 L246.5,291.9 L246.7,291.8 L246.9,291.7 L247.2,291.6 
		L247.4,291.5 L247.7,291.5 L247.9,291.4 L248.2,291.3 L248.4,291.1 L248.7,291.0 L248.9,291.0 L249.2,290.9 
		L249.4,290.8 L249.7,290.7 L249.9,290.6 L250.2,290.5 L250.4,290.5 L250.7,290.4 L250.9,290.3 L251.2,290.2 
		L251.4,290.0 L251.6,290.0 L251.9,289.9 L252.1,289.8 L252.4,289.7 L252.6,289.6 L252.9,289.6 L253.1,289.5 
		L253.4,289.4 L253.6,289.3 L253.9,289.3 L254.1,289.2 L254.4,289.0 L254.6,288.9 L254.9,288.9 L255.1,288.8 
		L255.4,288.7 L255.6,288.6 L255.9,288.6 L256.1,288.5 L256.3,288.4 L256.6,288.3 L256.8,288.3 L257.1,288.2 
		L257.3,288.1 L257.6,288.0 L257.8,287.9 L258.1,287.8 L258.3,287.7 L258.6,287.7 L258.8,287.6 L259.1,287.5 
		L259.3,287.4 L259.6,287.4 L259.8,287.3 L260.1,287.2 L260.3,287.1 L260.6,287.0 L260.8,286.9 L261.0,286.9 
		L261.3,286.8 L261.5,286.7 L261.8,286.7 L262.0,286.6 L262.3,286.5 L262.5,286.4 L262.8,286.4 L263.0,286.3 
		L263.3,286.2 L263.5,286.1 L263.8,286.0 L264.0,286.0 L264.3,285.9 L264.5,285.8 L264.8,285.8 L265.0,285.7 
		L265.3,285.6 L265.5,285.5 L265.8,285.5 L266.0,285.4 L266.2,285.3 L266.5,285.3 L266.7,285.1 L267.0,285.1 
		L267.2,285.0 L267.5,285.0 L267.7,284.9 L268.0,284.8 L268.2,284.8 L268.5,284.7 L268.7,284.6 L269.0,284.6 
		L269.2,284.5 L269.5,284.4 L269.7,284.3 L270.0,284.2 L270.2,284.2 L270.5,284.1 L270.7,284.1 L270.9,284.0 
		L271.2,283.9 L271.4,283.9 L271.7,283.8 L271.9,283.7 L272.2,283.7 L272.4,283.6 L272.7,283.5 L272.9,283.4 
		L273.2,283.4 L273.4,283.3 L273.7,283.2 L273.9,283.2 L274.2,283.1 L274.4,283.1 L274.7,283.0 L274.9,282.9 
		L275.2,282.9 L275.4,282.8 L275.6,282.8 L275.9,282.6 L276.1,282.6 L276.4,282.5 L276.6,282.5 L276.9,282.4 
		L277.1,282.4 L277.4,282.3 L277.6,282.2 L277.9,282.2 L278.1,282.1 L278.4,282.1 L278.6,282.0 L278.9,281.9 
		L279.1,281.8 L279.4,281.8 L279.6,281.7 L279.9,281.7 L280.1,281.6 L280.3,281.5 L280.6,281.5 L280.8,281.4 
		L281.1,281.4 L281.3,281.3 L281.6,281.3 L281.8,281.2 L282.1,281.1 L282.3,281.0 L282.6,281.0 L282.8,280.9 
		L283.1,280.9 L283.3,280.8 L283.6,280.8 L283.8,280.7 L284.1,280.7 L284.3,280.6 L284.6,280.6 L284.8,280.5 
		L285.0,280.4 L285.3,280.3 L285.5,280.3 L285.8,280.2 L286.0,280.2 L286.3,280.1 L286.5,280.1 L286.8,280.0 
		L287.0,280.0 L287.3,279.9 L287.5,279.9 L287.8,279.8 L288.0,279.7 L288.3,279.7 L288.5,279.6 L288.8,279.6 
		L289.0,279.5 L289.3,279.5 L289.5,279.4 L289.7,279.4 L290.0,279.3 L290.2,279.3 L290.5,279.2 L290.7,279.2 
		L291.0,279.1 L291.2,279.0 L291.5,279.0 L291.7,278.9 L292.0,278.9 L292.2,278.8 L292.5,278.8 L292.7,278.7 
		L293.0,278.7 L293.2,278.6 L293.5,278.6 L293.7,278.5 L294.0,278.4 L294.2,278.4 L294.4,278.3 L294.7,278.3 
		L294.9,278.2 L295.2,278.2 L295.4,278.1 L295.7,278.1 L295.9,278.0 L296.2,278.0 L296.4,277.9 L296.7,277.9 
		L296.9,277.9 L297.2,277.8 L297.4,277.7 L297.7,277.7 L297.9,277.6 L298.2,277.6 L298.4,277.5 L298.7,277.5 
		L298.9,277.4 L299.1,277.4 L299.4,277.3 L299.6,277.3 L299.9,277.3 L300.1,277.2 L300.4,277.1 L300.6,277.1 
		L300.9,277.0 L301.1,277.0 L301.4,276.9 L301.6,276.9 L301.9,276.8 L302.1,276.8 L302.4,276.8 L302.6,276.7 
		L302.9,276.7 L303.1,276.6 L303.4,276.5 L303.6,276.5 L303.8,276.4 L304.1,276.4 L304.3,276.4 L304.6,276.3 
		L304.8,276.3 L305.1,276.2 L305.3,276.2 L305.6,276.1 L305.8,276.1 L306.1,276.0 L306.3,276.0 L306.6,275.9 
		L306.8,275.9 L307.1,275.8 L307.3,275.8 L307.6,275.8 L307.8,275.7 L308.1,275.7 L308.3,275.6 L308.6,275.6 
		L308.8,275.6 L309.0,275.5 L309.3,275.4 L309.5,275.4 L309.8,275.3 L310.0,275.3 L310.3,275.3 L310.5,275.2 
		L310.8,275.2 L311.0,275.1 L311.3,275.1 L311.5,275.1 L311.8,275.0 L312.0,275.0 L312.3,274.9 L312.5,274.9 
		L312.8,274.8 L313.0,274.8 L313.3,274.7 L313.5,274.7 L313.7,274.7 L314.0,274.6 L314.2,274.6 L314.5,274.5 
		L314.7,274.5 L315.0,274.5 L315.2,274.4 L315.5,274.3 L315.7,274.3 L316.0,274.3 L316.2,274.2 L316.5,274.2 
		L316.7,274.2 L317.0,274.1 L317.2,274.1 L317.5,274.0 L317.7,274.0 L318.0,274.0 L318.2,273.9 L318.4,273.9 
		L318.7,273.8 L318.9,273.8 L319.2,273.7 L319.4,273.7 L319.7,273.7 L319.9,273.6 L320.2,273.6 L320.4,273.6 
		L320.7,273.5 L320.9,273.5 L321.2,273.4 L321.4,273.4 L321.7,273.3 L321.9,273.3 L322.2,273.3 L322.4,273.2 
		L322.7,273.2 L322.9,273.1 L323.1,273.1 L323.4,273.1 L323.6,273.0 L323.9,273.0 L324.1,273.0 L324.4,272.9 
		L324.6,272.9 L324.9,272.8 L325.1,272.8 L325.4,272.8 L325.6,272.7 L325.9,272.7 L326.1,272.6 L326.4,272.6 
		L326.6,272.6 L326.9,272.5 L327.1,272.5 L327.4,272.5 L327.6,272.4 L327.8,272.4 L328.1,272.3 L328.3,272.3 
		L328.6,272.3 L328.8,272.2 L329.1,272.2 L329.3,272.2 L329.6,272.1 L329.8,272.1 L330.1,272.1 L330.3,272.0 
		L330.6,272.0 L330.8,271.9 L331.1,271.9 L331.3,271.9 L331.6,271.8 L331.8,271.8 L332.1,271.8 L332.3,271.7 
		L332.5,271.7 L332.8,271.7 L333.0,271.6 L333.3,271.6 L333.5,271.5 L333.8,271.5 L334.0,271.5 L334.3,271.4 
		L334.5,271.4 L334.8,271.4 L335.0,271.3 L335.3,271.3 L335.5,271.3 L335.8,271.2 L336.0,271.2 L336.3,271.2 
		L336.5,271.1 L336.8,271.1 L337.0,271.0 L337.2,271.0 L337.5,271.0 L337.7,270.9 L338.0,270.9 L338.2,270.9 
		L338.5,270.8 L338.7,270.8 L339.0,270.8 L339.2,270.8 L339.5,270.7 L339.7,270.7 L340.0,270.6 L340.2,270.6 
		L340.5,270.6 L340.7,270.5 L341.0,270.5 L341.2,270.5 L341.5,270.4 L341.7,270.4 L341.9,270.4 L342.2,270.3 
		L342.4,270.3 L342.7,270.3 L342.9,270.2 L343.2,270.2 L343.4,270.2 L343.7,270.1 L343.9,270.1 L344.2,270.1 
		L344.4,270.0 L344.7,270.0 L344.9,270.0 L345.2,270.0 L345.4,269.9 L345.7,269.9 L345.9,269.8 L346.2,269.8 
		L346.4,269.8 L346.6,269.7 L346.9,269.7 L347.1,269.7 L347.4,269.7 L347.6,269.6 L347.9,269.6 L348.1,269.6 
		L348.4,269.5 L348.6,269.5 L348.9,269.5 L349.1,269.4 L349.4,269.4 L349.6,269.4 L349.9,269.3 L350.1,269.3 
		L350.4,269.3 L350.6,269.3 L350.9,269.2 L351.1,269.2 L351.4,269.2 L351.6,269.1 L351.8,269.1 L352.1,269.1 
		L352.3,269.0 L352.6,269.0 L352.8,269.0 L353.1,268.9 L353.3,268.9 L353.6,268.9 L353.8,268.9 L354.1,268.8 
		L354.3,268.8 L354.6,268.8 L354.8,268.7 L355.1,268.7 L355.3,268.7 L355.6,268.6 L355.8,268.6 L356.1,268.6 
		L356.3,268.6 L356.5,268.5 L356.8,268.5 L357.0,268.5 L357.3,268.5 L357.5,268.4 L357.8,268.4 L358.0,268.3 
		L358.3,268.3 L358.5,268.3 L358.8,268.3 L359.0,268.2 L359.3,268.2 L359.5,268.2 L359.8,268.2 L360.0,268.1 
		L360.3,268.1 L360.5,268.1 L360.8,268.1 L361.0,268.0 L361.2,268.0 L361.5,267.9 L361.7,267.9 L362.0,267.9 
		L362.2,267.9 L362.5,267.8 L362.7,267.8 L363.0,267.8 L363.2,267.8 L363.5,267.7 L363.7,267.7 L364.0,267.7 
		L364.2,267.6 L364.5,267.6 L364.7,267.6 L365.0,267.6 L365.2,267.5 L365.5,267.5 L365.7,267.5 L365.9,267.5 
		L366.2,267.4 L366.4,267.4 L366.7,267.4 L366.9,267.3 L367.2,267.3 L367.4,267.3 L367.7,267.3 L367.9,267.2 
		L368.2,267.2 L368.4,267.2 L368.7,267.2 L368.9,267.1 L369.2,267.1 L369.4,267.1 L369.7,267.1 L369.9,267.0 
		L370.2,267.0 L370.4,267.0 L370.6,266.9 L370.9,266.9 L371.1,266.9 L371.4,266.9 L371.6,266.8 L371.9,266.8 
		L372.1,266.8 L372.4,266.8 L372.6,266.7 L372.9,266.7 L373.1,266.7 L373.4,266.7 L373.6,266.6 L373.9,266.6 
		L374.1,266.6 L374.4,266.6 L374.6,266.5 L374.9,266.5 L375.1,266.5 L375.3,266.5 L375.6,266.4 L375.8,266.4 
		L376.1,266.4 L376.3,266.3 L376.6,266.3 L376.8,266.3 L377.1,266.3 L377.3,266.3 L377.6,266.2 L377.8,266.2 
		L378.1,266.2 L378.3,266.2 L378.6,266.1 L378.8,266.1 L379.1,266.1 L379.3,266.0 L379.6,266.0 L379.8,266.0 
		L380.0,266.0 L380.3,266.0 L380.5,265.9 L380.8,265.9 L381.0,265.9 L381.3,265.9 L381.5,265.8 L381.8,265.8 
		L382.0,265.8 L382.3,265.8 L382.5,265.7 L382.8,265.7 L383.0,265.7 L383.3,265.7 L383.5,265.6 L383.8,265.6 
		L384.0,265.6 L384.3,265.6 L384.5,265.6 L384.7,265.5 L385.0,265.5 L385.2,265.5 L385.5,265.4 L385.7,265.4 
		L386.0,265.4 L386.2,265.4 L386.5,265.4 L386.7,265.3 L387.0,265.3 L387.2,265.3 L387.5,265.3 L387.7,265.2 
		L388.0,265.2 L388.2,265.2 L388.5,265.2 L388.7,265.1 L389.0,265.1 L389.2,265.1 L389.5,265.1 L389.7,265.1 
		L389.9,265.0 L390.2,265.0 L390.4,265.0 L390.7,265.0 L390.9,265.0 L391.2,264.9 L391.4,264.9 L391.7,264.9 
		L391.9,264.8 L392.2,264.8 L392.4,264.8 L392.7,264.8 L392.9,264.8 L393.2,264.7 L393.4,264.7 L393.7,264.7 
		L393.9,264.7 L394.2,264.7 L394.4,264.6 L394.6,264.6 L394.9,264.6 L395.1,264.6 L395.4,264.5 L395.6,264.5 
		L395.9,264.5 L396.1,264.5 L396.4,264.5 L396.6,264.4 L396.9,264.4 L397.1,264.4 L397.4,264.4 L397.6,264.3 
		L397.9,264.3 L398.1,264.3 L398.4,264.3 L398.6,264.3 L398.9,264.2 L399.1,264.2 L399.3,264.2 L399.6,264.2 
		L399.8,264.2 L400.1,264.1 L400.3,264.1 L400.6,264.1 L400.8,264.1 L401.1,264.0 L401.3,264.0 L401.6,264.0 
		L401.8,264.0 L402.1,264.0 L402.3,263.9 L402.6,263.9 L402.8,263.9 L403.1,263.9 L403.3,263.9 L403.6,263.8 
		L403.8,263.8 L404.0,263.8 L404.3,263.8 L404.5,263.8 L404.8,263.7 L405.0,263.7 L405.3,263.7 L405.5,263.7 
		L405.8,263.7 L406.0,263.6 L406.3,263.6 L406.5,263.6 L406.8,263.6 L407.0,263.5 L407.3,263.5 L407.5,263.5 
		L407.8,263.5 L408.0,263.5 L408.3,263.4 L408.5,263.4 L408.7,263.4 L409.0,263.4 L409.2,263.4 L409.5,263.4 
		L409.7,263.3 L410.0,263.3 L410.2,263.3 L410.5,263.3 L410.7,263.2 L411.0,263.2 L411.2,263.2 L411.5,263.2 
		L411.7,263.2 L412.0,263.2 L412.2,263.1 L412.5,263.1 L412.7,263.1 L413.0,263.1 L413.2,263.0 L413.4,263.0 
		L413.7,263.0 L413.9,263.0 L414.2,263.0 L414.4,263.0 L414.7,262.9 L414.9,262.9 L415.2,262.9 L415.4,262.9 
		L415.7,262.8 L415.9,262.8 L416.2,262.8 L416.4,262.8 L416.7,262.8 L416.9,262.8 L417.2,262.7 L417.4,262.7 
		L417.7,262.7 L417.9,262.7 L418.1,262.7 L418.4,262.7 L418.6,262.6 L418.9,262.6 L419.1,262.6 L419.4,262.6 
		L419.6,262.6 L419.9,262.5 L420.1,262.5 L420.4,262.5 L420.6,262.5 L420.9,262.5 L421.1,262.4 L421.4,262.4 
		L421.6,262.4 L421.9,262.4 L422.1,262.4 L422.4,262.3 L422.6,262.3 L422.8,262.3 L423.1,262.3 L423.3,262.3 
		L423.6,262.3 L423.8,262.2 L424.1,262.2 L424.3,262.2 L424.6,262.2 L424.8,262.2 L425.1,262.1 L425.3,262.1 
		L425.6,262.1 L425.8,262.1 L426.1,262.1 L426.3,262.1 L426.6,262.0 L426.8,262.0 L427.1,262.0 L427.3,262.0 
		L427.5,262.0 L427.8,261.9 L428.0,261.9 L428.3,261.9 L428.5,261.9 L428.8,261.9 L429.0,261.9 L429.3,261.8 
		L429.5,261.8 L429.8,261.8 L430.0,261.8 L430.3,261.8 L430.5,261.8 L430.8,261.7 L431.0,261.7 L431.3,261.7 
		L431.5,261.7 L431.8,261.7 L432.0,261.7 L432.3,261.6 L432.5,261.6 L432.7,261.6 L433.0,261.6 L433.2,261.6 
		L433.5,261.6 L433.7,261.5 L434.0,261.5 L434.2,261.5 L434.5,261.5 L434.7,261.5 L435.0,261.4 L435.2,261.4 
		L435.5,261.4 L435.7,261.4 L436.0,261.4 L436.2,261.4 L436.5,261.4 L436.7,261.3 L437.0,261.3 L437.2,261.3 
		L437.4,261.3 L437.7,261.3 L437.9,261.2 L438.2,261.2 L438.4,261.2 L438.7,261.2 L438.9,261.2 L439.2,261.2 
		L439.4,261.1 L439.7,261.1 L439.9,261.1 L440.2,261.1 L440.4,261.1 L440.7,261.1 L440.9,261.0 L441.2,261.0 
		L441.4,261.0 L441.7,261.0 L441.9,261.0 L442.1,261.0 L442.4,261.0 L442.6,260.9 L442.9,260.9 L443.1,260.9 
		L443.4,260.9 L443.6,260.9 L443.9,260.8 L444.1,260.8 L444.4,260.8 L444.6,260.8 L444.9,260.8 L445.1,260.8 
		L445.4,260.8 L445.6,260.7 L445.9,260.7 L446.1,260.7 L446.4,260.7 L446.6,260.7 L446.8,260.7 L447.1,260.6 
		L447.3,260.6 L447.6,260.6 L447.8,260.6 L448.1,260.6 L448.3,260.6 L448.6,260.6 L448.8,260.5 L449.1,260.5 
		L449.3,260.5 L449.6,260.5 L449.8,260.5 L450.1,260.5 L450.3,260.4 L450.6,260.4 L450.8,260.4 L451.1,260.4 
		L451.3,260.4 L451.5,260.4 L451.8,260.4 L452.0,260.3 L452.3,260.3 L452.5,260.3 L452.8,260.3 L453.0,260.3 
		L453.3,260.3 L453.5,260.2 L453.8,260.2 L454.0,260.2 L454.3,260.2 L454.5,260.2 L454.8,260.2 L455.0,260.2 
		L455.3,260.1 L455.5,260.1 L455.8,260.1 L456.0,260.1 L456.2,260.1 L456.5,260.1 L456.7,260.0 L457.0,260.0 
		L457.2,260.0 L457.5,260.0 L457.7,260.0 L458.0,260.0 L458.2,259.9 L458.5,259.9 L458.7,259.9 L459.0,259.9 
		L459.2,259.9 L459.5,259.9 L459.7,259.9 L460.0,259.9 L460.2,259.8 L460.5,259.8 L460.7,259.8 L460.9,259.8 
		L461.2,259.8 L461.4,259.8 L461.7,259.7 L461.9,259.7 L462.2,259.7 L462.4,259.7 L462.7,259.7 L462.9,259.7 
		L463.2,259.7 L463.4,259.7 L463.7,259.6 L463.9,259.6 L464.2,259.6 L464.4,259.6 L464.7,259.6 L464.9,259.6 
		L465.2,259.5 L465.4,259.5 L465.6,259.5 L465.9,259.5 L466.1,259.5 L466.4,259.5 L466.6,259.5 L466.9,259.5 
		L467.1,259.4 L467.4,259.4 L467.6,259.4 L467.9,259.4 L468.1,259.4 L468.4,259.4 L468.6,259.3 L468.9,259.3 
		L469.1,259.3 L469.4,259.3 L469.6,259.3 L469.9,259.3 L470.1,259.3 L470.3,259.3 L470.6,259.2 L470.8,259.2 
		L471.1,259.2 L471.3,259.2 L471.6,259.2 L471.8,259.2 L472.1,259.2 L472.3,259.1 L472.6,259.1 L472.8,259.1 
		L473.1,259.1 L473.3,259.1 L473.6,259.1 L473.8,259.1 L474.1,259.0 L474.3,259.0 L474.6,259.0 L474.8,259.0 
		L475.1,259.0 L475.3,259.0 L475.5,259.0 L475.8,259.0 L476.0,258.9 L476.3,258.9 L476.5,258.9 L476.8,258.9 
		L477.0,258.9 L477.3,258.9 L477.5,258.9 L477.8,258.8 L478.0,258.8 L478.3,258.8 L478.5,258.8 L478.8,258.8 
		L479.0,258.8 L479.3,258.8 L479.5,258.7 L479.8,258.7 L480.0,258.7 L480.2,258.7 L480.5,258.7 L480.7,258.7 
		L481.0,258.7 L481.2,258.7 L481.5,258.6 L481.7,258.6 L482.0,258.6 L482.2,258.6 L482.5,258.6 L482.7,258.6 
		L483.0,258.6 L483.2,258.6 L483.5,258.5 L483.7,258.5 L484.0,258.5 L484.2,258.5 L484.5,258.5 L484.7,258.5 
		L484.9,258.5 L485.2,258.5 L485.4,258.4 L485.7,258.4 L485.9,258.4 L486.2,258.4 L486.4,258.4 L486.7,258.4 
		L486.9,258.4 L487.2,258.4 L487.4,258.3 L487.7,258.3 L487.9,258.3 L488.2,258.3 L488.4,258.3 L488.7,258.3 
		L488.9,258.3 L489.2,258.2 L489.4,258.2 L489.6,258.2 L489.9,258.2 L490.1,258.2 L490.4,258.2 L490.6,258.2 
		L490.9,258.2 L491.1,258.2 L491.4,258.1 L491.6,258.1 L491.9,258.1 L492.1,258.1 L492.4,258.1 L492.6,258.1 
		L492.9,258.1 L493.1,258.1 L493.4,258.0 L493.6,258.0 L493.9,258.0 L494.1,258.0 L494.3,258.0 L494.6,258.0 
		L494.8,258.0 L495.1,257.9 L495.3,257.9 L495.6,257.9 L495.8,257.9 L496.1,257.9 L496.3,257.9 L496.6,257.9 
		L496.8,257.9 L497.1,257.9 L497.3,257.8 L497.6,257.8 L497.8,257.8 L498.1,257.8 L498.3,257.8 L498.6,257.8 
		L498.8,257.8 L499.0,257.8 L499.3,257.7 L499.5,257.7 L499.8,257.7 L500.0,257.7 L500.3,257.7 L500.5,257.7 
		L500.8,257.7 L501.0,257.7 L501.3,257.7 L501.5,257.6 L501.8,257.6 L502.0,257.6 L502.3,257.6 L502.5,257.6 
		L502.8,257.6 L503.0,257.6 L503.3,257.6 L503.5,257.6 L503.7,257.5 L504.0,257.5 L504.2,257.5 L504.5,257.5 
		L504.7,257.5 L505.0,257.5 L505.2,257.5 L505.5,257.5 L505.7,257.4 L506.0,257.4 L506.2,257.4 L506.5,257.4 
		L506.7,257.4 L507.0,257.4 L507.2,257.4 L507.5,257.4 L507.7,257.4 L508.0,257.3 L508.2,257.3 L508.4,257.3 
		L508.7,257.3 L508.9,257.3 L509.2,257.3 L509.4,257.3 L509.7,257.3 L509.9,257.2 L510.2,257.2 L510.4,257.2 
		L510.7,257.2 L510.9,257.2 L511.2,257.2 L511.4,257.2 L511.7,257.2 L511.9,257.2 L512.2,257.2 L512.4,257.1 
		L512.7,257.1 L512.9,257.1 L513.2,257.1 L513.4,257.1 L513.6,257.1 L513.9,257.1 L514.1,257.1 L514.4,257.1 
		L514.6,257.0 L514.9,257.0 L515.1,257.0 L515.4,257.0 L515.6,257.0 L515.9,257.0 L516.1,257.0 L516.4,257.0 
		L516.6,256.9 L516.9,256.9 L517.1,256.9 L517.4,256.9 L517.6,256.9 L517.9,256.9 L518.1,256.9 L518.3,256.9 
		L518.6,256.9 L518.8,256.9 L519.1,256.8 L519.3,256.8 L519.6,256.8 L519.8,256.8 L520.1,256.8 L520.3,256.8 
		L520.6,256.8 L520.8,256.8 L521.1,256.8 L521.3,256.8 L521.6,256.7 L521.8,256.7 L522.1,256.7 L522.3,256.7 
		L522.6,256.7 L522.8,256.7 L523.0,256.7 L523.3,256.7 L523.5,256.7 L523.8,256.6 L524.0,256.6 L524.3,256.6 
		L524.5,256.6 L524.8,256.6 L525.0,256.6 L525.3,256.6 L525.5,256.6 L525.8,256.6 L526.0,256.5 L526.3,256.5 
		L526.5,256.5 L526.8,256.5 L527.0,256.5 L527.3,256.5 L527.5,256.5 L527.7,256.5 L528.0,256.5 L528.2,256.4 
		L528.5,256.4 L528.7,256.4 L529.0,256.4 L529.2,256.4 L529.5,256.4 L529.7,256.4 L530.0,256.4 L530.2,256.4 
		L530.5,256.4 L530.7,256.4 L531.0,256.3 L531.2,256.3 L531.5,256.3 L531.7,256.3 L532.0,256.3 L532.2,256.3 
		L532.4,256.3 L532.7,256.3 L532.9,256.3 L533.2,256.3 L533.4,256.2 L533.7,256.2 L533.9,256.2 L534.2,256.2 
		L534.4,256.2 L534.7,256.2 L534.9,256.2 L535.2,256.2 L535.4,256.2 L535.7,256.1 L535.9,256.1 L536.2,256.1 
		L536.4,256.1 L536.7,256.1 L536.9,256.1 L537.1,256.1 L537.4,256.1 L537.6,256.1 L537.9,256.1 L538.1,256.0 
		L538.4,256.0 L538.6,256.0 L538.9,256.0 L539.1,256.0 L539.4,256.0 L539.6,256.0 L539.9,256.0 L540.1,256.0 
		L540.4,256.0 L540.6,255.9 L540.9,255.9 L541.1,255.9 L541.4,255.9 L541.6,255.9 L541.8,255.9 L542.1,255.9 
		L542.3,255.9 L542.6,255.9 L542.8,255.9 L543.1,255.9 L543.3,255.9 L543.6,255.8 L543.8,255.8 L544.1,255.8 
		L544.3,255.8 L544.6,255.8 L544.8,255.8 L545.1,255.8 L545.3,255.8 L545.6,255.8 L545.8,255.8 L546.1,255.7 
		L546.3,255.7 L546.5,255.7 L546.8,255.7 L547.0,255.7 L547.3,255.7 L547.5,255.7 L547.8,255.7 L548.0,255.7 
		L548.3,255.7 L548.5,255.6 L548.8,255.6 L549.0,255.6 L549.3,255.6 L549.5,255.6 L549.8,255.6 L550.0,255.6 
		L550.3,255.6 L550.5,255.6 L550.8,255.6 L551.0,255.6 L551.2,255.5 L551.5,255.5 L551.7,255.5 L552.0,255.5 
		L552.2,255.5 L552.5,255.5 L552.7,255.5 L553.0,255.5 L553.2,255.5 L553.5,255.5 L553.7,255.5 L554.0,255.4 
		L554.2,255.4 L554.5,255.4 L554.7,255.4 L555.0,255.4 L555.2,255.4 L555.5,255.4 L555.7,255.4 L556.0,255.4 
		L556.2,255.4 L556.4,255.4 L556.7,255.3 L556.9,255.3 L557.2,255.3 L557.4,255.3 L557.7,255.3 L557.9,255.3 
		L558.2,255.3 L558.4,255.3 L558.7,255.3 L558.9,255.3 L559.2,255.3 L559.4,255.2 L559.7,255.2 L559.9,255.2 
		L560.2,255.2 L560.4,255.2 L560.7,255.2 L560.9,255.2 L561.1,255.2 L561.4,255.2 L561.6,255.2 L561.9,255.2 
		L562.1,255.1 L562.4,255.1 L562.6,255.1 L562.9,255.1 L563.1,255.1 L563.4,255.1 L563.6,255.1 L563.9,255.1 
		L564.1,255.1 L564.4,255.1 L564.6,255.1 L564.9,255.0 L565.1,255.0 L565.4,255.0 L565.6,255.0 L565.8,255.0 
		L566.1,255.0 L566.3,255.0 L566.6,255.0 L566.8,255.0 L567.1,255.0 L567.3,255.0 L567.6,255.0 L567.8,254.9 
		L568.1,254.9 L568.3,254.9 L568.6,254.9 L568.8,254.9 L569.1,254.9 L569.3,254.9 L569.6,254.9 L569.8,254.9 
		L570.1,254.9 L570.3,254.9 L570.5,254.9 L570.8,254.8 L571.0,254.8 L571.3,254.8 L571.5,254.8 L571.8,254.8 
		L572.0,254.8 L572.3,254.8 L572.5,254.8 L572.8,254.8 L573.0,254.8 L573.3,254.8 L573.5,254.8 L573.8,254.7 
		L574.0,254.7 L574.3,254.7 L574.5,254.7 L574.8,254.7 L575.0,254.7  h0.01'/></g>
	</g>
	<g id="gnuplot_plot_3" ><title>gnuplot_plot_3</title>
<g style="fill:none; color:blue; stroke:currentColor; stroke-width:1.00; stroke-linecap:butt; stroke-linejoin:miter">
	<g transform="translate(507.9,372.9)" style="stroke:none; fill:black; font-family:Arial; font-size:12.00pt; text-anchor:end">
		<text>TCP Tx rate</text>
	</g>
	<path  d='M516.2,368.4 L558.4,368.4 M80.2,422.4 L80.4,422.4 L80.7,422.4 L80.9,422.4 L81.2,422.4 L81.4,422.4 
		L81.7,422.4 L81.9,422.4 L82.2,422.4 L82.4,422.4 L82.7,422.4 L82.9,422.4 L83.2,422.4 L83.4,422.4 
		L83.7,422.4 L83.9,422.4 L84.2,422.4 L84.4,422.4 L84.7,422.4 L84.9,422.4 L85.1,422.4 L85.4,422.4 
		L85.6,422.4 L85.9,422.4 L86.1,422.4 L86.4,422.4 L86.6,422.4 L86.9,422.4 L87.1,422.4 L87.4,422.4 
		L87.6,422.4 L87.9,422.4 L88.1,422.4 L88.4,422.4 L88.6,422.4 L88.9,422.4 L89.1,422.4 L89.4,422.4 
		L89.6,422.4 L89.8,422.4 L90.1,422.4 L90.3,422.4 L90.6,422.4 L90.8,422.4 L91.1,422.4 L91.3,422.4 
		L91.6,422.4 L91.8,422.4 L92.1,422.4 L92.3,422.4 L92.6,422.4 L92.8,422.4 L93.1,422.4 L93.3,422.4 
		L93.6,422.4 L93.8,422.4 L94.1,422.4 L94.3,422.4 L94.5,422.4 L94.8,422.4 L95.0,422.4 L95.3,422.4 
		L95.5,422.4 L95.8,422.4 L96.0,422.4 L96.3,422.4 L96.5,422.4 L96.8,422.4 L97.0,422.4 L97.3,422.4 
		L97.5,422.4 L97.8,422.4 L98.0,422.4 L98.3,422.4 L98.5,422.4 L98.8,422.4 L99.0,422.4 L99.2,422.4 
		L99.5,422.4 L99.7,422.4 L100.0,422.4 L100.2,422.4 L100.5,422.4 L100.7,422.4 L101.0,422.4 L101.2,422.4 
		L101.5,422.4 L101.7,422.4 L102.0,422.4 L102.2,422.4 L102.5,422.4 L102.7,422.4 L103.0,422.4 L103.2,422.4 
		L103.5,422.4 L103.7,422.4 L104.0,422.4 L104.2,422.4 L104.4,422.4 L104.7,422.4 L104.9,422.4 L105.2,422.4 
		L105.4,422.4 L105.7,422.4 L105.9,422.4 L106.2,422.4 L106.4,422.4 L106.7,422.4 L106.9,422.4 L107.2,422.4 
		L107.4,422.4 L107.7,422.4 L107.9,422.4 L108.2,422.4 L108.4,422.4 L108.7,422.4 L108.9,422.4 L109.1,422.4 
		L109.4,422.4 L109.6,422.4 L109.9,422.4 L110.1,422.4 L110.4,408.7 L110.6,408.7 L110.9,408.7 L111.1,408.7 
		L111.4,408.7 L111.6,408.7 L111.9,408.7 L112.1,408.7 L112.4,404.2 L112.6,404.2 L112.9,404.2 L113.1,404.2 
		L113.4,404.2 L113.6,404.2 L113.8,404.2 L114.1,404.2 L114.3,404.2 L114.6,404.2 L114.8,404.2 L115.1,404.2 
		L115.3,404.2 L115.6,404.2 L115.8,404.2 L116.1,404.2 L116.3,399.3 L116.6,399.3 L116.8,399.3 L117.1,399.3 
		L117.3,399.3 L117.6,399.3 L117.8,399.3 L118.1,399.3 L118.3,399.3 L118.5,399.3 L118.8,399.3 L119.0,399.3 
		L119.3,399.3 L119.5,399.3 L119.8,399.3 L120.0,399.3 L120.3,397.0 L120.5,397.0 L120.8,397.0 L121.0,397.0 
		L121.3,397.0 L121.5,397.0 L121.8,397.0 L122.0,397.0 L122.3,397.0 L122.5,397.0 L122.8,397.0 L123.0,397.0 
		L123.2,397.0 L123.5,397.0 L123.7,397.0 L124.0,395.3 L124.2,389.4 L124.5,389.4 L124.7,389.4 L125.0,389.4 
		L125.2,389.4 L125.5,389.4 L125.7,389.4 L126.0,389.4 L126.2,389.4 L126.5,389.4 L126.7,389.4 L127.0,389.4 
		L127.2,389.4 L127.5,389.4 L127.7,388.9 L127.9,388.9 L128.2,384.1 L128.4,384.1 L128.7,379.6 L128.9,379.6 
		L129.2,379.6 L129.4,379.6 L129.7,379.6 L129.9,379.6 L130.2,379.6 L130.4,379.6 L130.7,379.6 L130.9,379.6 
		L131.2,379.6 L131.4,379.6 L131.7,379.7 L131.9,379.7 L132.2,375.8 L132.4,375.8 L132.6,372.0 L132.9,372.0 
		L133.1,368.3 L133.4,368.3 L133.6,368.3 L133.9,368.3 L134.1,368.3 L134.4,368.3 L134.6,368.3 L134.9,368.3 
		L135.1,368.3 L135.4,368.3 L135.6,368.3 L135.9,365.1 L136.1,365.1 L136.4,361.9 L136.6,361.9 L136.9,358.8 
		L137.1,358.8 L137.3,355.8 L137.6,355.8 L137.8,352.8 L138.1,352.8 L138.3,352.8 L138.6,352.8 L138.8,352.8 
		L139.1,352.1 L139.3,352.1 L139.6,349.3 L139.8,349.3 L140.1,346.7 L140.3,346.7 L140.6,344.1 L140.8,344.1 
		L141.1,341.6 L141.3,341.6 L141.6,339.2 L141.8,336.8 L142.1,336.8 L142.3,334.5 L142.5,334.5 L142.8,332.2 
		L143.0,332.2 L143.3,330.0 L143.5,330.0 L143.8,327.8 L144.0,327.8 L144.3,325.7 L144.5,325.7 L144.8,323.6 
		L145.0,321.6 L145.3,321.6 L145.5,319.6 L145.8,319.6 L146.0,317.7 L146.3,317.7 L146.5,315.8 L146.8,315.8 
		L147.0,314.0 L147.2,314.0 L147.5,312.2 L147.7,310.4 L148.0,310.4 L148.2,308.7 L148.5,308.7 L148.7,307.0 
		L149.0,307.0 L149.2,305.3 L149.5,305.3 L149.7,303.7 L150.0,303.7 L150.2,302.1 L150.5,302.1 L150.7,300.6 
		L151.0,299.1 L151.2,299.1 L151.5,297.6 L151.7,297.6 L151.9,296.1 L152.2,296.1 L152.4,294.6 L152.7,294.6 
		L152.9,293.2 L153.2,293.2 L153.4,291.9 L153.7,291.9 L153.9,290.5 L154.2,289.2 L154.4,289.2 L154.7,287.9 
		L154.9,287.9 L155.2,286.6 L155.4,286.6 L155.7,285.3 L155.9,285.3 L156.2,284.1 L156.4,284.1 L156.6,282.8 
		L156.9,281.7 L157.1,281.7 L157.4,280.5 L157.6,280.5 L157.9,279.3 L158.1,279.3 L158.4,278.2 L158.6,278.2 
		L158.9,277.1 L159.1,277.1 L159.4,276.0 L159.6,276.0 L159.9,274.9 L160.1,273.8 L160.4,273.8 L160.6,272.8 
		L160.9,272.8 L161.1,271.8 L161.3,271.8 L161.6,270.8 L161.8,270.8 L162.1,269.8 L162.3,269.8 L162.6,268.8 
		L162.8,268.8 L163.1,267.8 L163.3,266.9 L163.6,266.9 L163.8,266.0 L164.1,266.0 L164.3,265.0 L164.6,265.0 
		L164.8,264.1 L165.1,264.1 L165.3,263.2 L165.6,263.2 L165.8,262.4 L166.0,261.5 L166.3,261.5 L166.5,260.7 
		L166.8,260.7 L167.0,259.8 L167.3,259.8 L167.5,259.0 L167.8,259.0 L168.0,258.2 L168.3,258.2 L168.5,257.4 
		L168.8,257.4 L169.0,256.6 L169.3,255.8 L169.5,255.8 L169.8,255.0 L170.0,255.0 L170.3,254.3 L170.5,254.3 
		L170.7,253.5 L171.0,253.5 L171.2,252.8 L171.5,252.8 L171.7,252.1 L172.0,252.1 L172.2,251.4 L172.5,250.7 
		L172.7,250.7 L173.0,250.0 L173.2,250.0 L173.5,249.3 L173.7,249.3 L174.0,248.6 L174.2,248.6 L174.5,247.9 
		L174.7,247.9 L175.0,247.3 L175.2,246.6 L175.4,246.6 L175.7,246.0 L175.9,246.0 L176.2,246.0 L176.4,247.1 
		L176.7,247.1 L176.9,247.1 L177.2,247.1 L177.4,247.1 L177.7,247.1 L177.9,247.1 L178.2,247.1 L178.4,247.1 
		L178.7,247.1 L178.9,247.1 L179.2,247.1 L179.4,247.1 L179.7,247.1 L179.9,247.1 L180.1,247.1 L180.4,247.1 
		L180.6,247.1 L180.9,247.1 L181.1,247.1 L181.4,247.1 L181.6,247.1 L181.9,247.1 L182.1,247.1 L182.4,247.1 
		L182.6,247.1 L182.9,247.1 L183.1,247.1 L183.4,247.1 L183.6,247.1 L183.9,247.1 L184.1,247.1 L184.4,247.1 
		L184.6,247.1 L184.9,247.1 L185.1,247.1 L185.3,247.1 L185.6,247.1 L185.8,247.1 L186.1,247.1 L186.3,247.1 
		L186.6,247.1 L186.8,247.1 L187.1,247.1 L187.3,247.1 L187.6,247.1 L187.8,247.1 L188.1,247.1 L188.3,247.1 
		L188.6,247.1 L188.8,247.1 L189.1,247.1 L189.3,247.1 L189.6,247.1 L189.8,247.1 L190.0,247.1 L190.3,247.1 
		L190.5,247.1 L190.8,247.1 L191.0,275.9 L191.3,275.9 L191.5,275.9 L191.8,275.9 L192.0,275.9 L192.3,275.9 
		L192.5,275.9 L192.8,275.9 L193.0,275.9 L193.3,275.9 L193.5,275.9 L193.8,275.9 L194.0,275.9 L194.3,275.9 
		L194.5,275.9 L194.7,280.6 L195.0,280.6 L195.2,280.6 L195.5,280.6 L195.7,280.6 L196.0,280.6 L196.2,280.6 
		L196.5,280.6 L196.7,280.6 L197.0,280.6 L197.2,280.6 L197.5,280.6 L197.7,280.6 L198.0,280.6 L198.2,280.6 
		L198.5,284.4 L198.7,284.4 L199.0,284.4 L199.2,284.4 L199.4,284.4 L199.7,284.4 L199.9,284.4 L200.2,284.4 
		L200.4,284.4 L200.7,284.4 L200.9,284.4 L201.2,284.4 L201.4,284.4 L201.7,284.4 L201.9,284.4 L202.2,288.0 
		L202.4,288.0 L202.7,288.0 L202.9,287.2 L203.2,287.2 L203.4,287.2 L203.7,287.2 L203.9,287.2 L204.1,287.2 
		L204.4,287.2 L204.6,287.2 L204.9,287.2 L205.1,287.2 L205.4,287.2 L205.6,287.2 L205.9,287.2 L206.1,287.2 
		L206.4,290.2 L206.6,290.2 L206.9,290.2 L207.1,289.4 L207.4,289.4 L207.6,289.4 L207.9,289.4 L208.1,289.4 
		L208.4,289.4 L208.6,289.4 L208.8,289.4 L209.1,289.4 L209.3,289.4 L209.6,289.4 L209.8,289.4 L210.1,291.6 
		L210.3,291.6 L210.6,291.6 L210.8,290.9 L211.1,290.9 L211.3,290.9 L211.6,290.2 L211.8,290.2 L212.1,290.2 
		L212.3,290.2 L212.6,290.2 L212.8,290.2 L213.1,290.2 L213.3,290.2 L213.5,290.2 L213.8,290.2 L214.0,291.7 
		L214.3,291.7 L214.5,291.7 L214.8,291.0 L215.0,291.0 L215.3,291.0 L215.5,290.3 L215.8,290.3 L216.0,289.6 
		L216.3,289.6 L216.5,289.6 L216.8,289.6 L217.0,289.6 L217.3,289.6 L217.5,289.6 L217.8,289.6 L218.0,290.3 
		L218.2,290.3 L218.5,290.3 L218.7,289.7 L219.0,289.7 L219.2,289.0 L219.5,289.0 L219.7,289.0 L220.0,288.3 
		L220.2,288.3 L220.5,288.3 L220.7,287.7 L221.0,287.7 L221.2,287.7 L221.5,287.7 L221.7,287.3 L222.0,287.3 
		L222.2,287.3 L222.5,286.7 L222.7,286.7 L222.9,286.1 L223.2,286.1 L223.4,286.1 L223.7,285.4 L223.9,285.4 
		L224.2,285.4 L224.4,284.8 L224.7,284.8 L224.9,284.8 L225.2,284.2 L225.4,284.2 L225.7,284.2 L225.9,283.6 
		L226.2,283.6 L226.4,283.0 L226.7,283.0 L226.9,283.0 L227.2,282.4 L227.4,282.4 L227.7,282.4 L227.9,281.8 
		L228.1,281.8 L228.4,281.8 L228.6,281.3 L228.9,281.3 L229.1,280.7 L229.4,280.7 L229.6,280.7 L229.9,280.1 
		L230.1,280.1 L230.4,280.1 L230.6,279.6 L230.9,279.6 L231.1,279.6 L231.4,279.6 L231.6,279.6 L231.9,279.6 
		L232.1,279.1 L232.4,278.6 L232.6,278.6 L232.8,278.2 L233.1,278.2 L233.3,277.7 L233.6,277.7 L233.8,277.2 
		L234.1,277.2 L234.3,276.8 L234.6,276.8 L234.8,276.3 L235.1,275.9 L235.3,275.9 L235.6,275.4 L235.8,275.4 
		L236.1,275.0 L236.3,275.0 L236.6,274.5 L236.8,274.5 L237.1,274.1 L237.3,274.1 L237.5,273.6 L237.8,273.6 
		L238.0,273.2 L238.3,272.8 L238.5,272.8 L238.8,272.7 L239.0,272.7 L239.3,272.5 L239.5,272.5 L239.8,272.4 
		L240.0,272.4 L240.3,272.3 L240.5,272.3 L240.8,272.2 L241.0,272.2 L241.3,272.1 L241.5,272.0 L241.8,272.0 
		L242.0,271.9 L242.2,271.9 L242.5,271.8 L242.7,271.8 L243.0,271.7 L243.2,271.7 L243.5,271.5 L243.7,271.5 
		L244.0,271.4 L244.2,271.3 L244.5,271.3 L244.7,271.2 L245.0,271.2 L245.2,271.1 L245.5,271.1 L245.7,271.0 
		L246.0,271.0 L246.2,270.9 L246.5,270.9 L246.7,270.8 L246.9,270.8 L247.2,270.7 L247.4,270.6 L247.7,270.6 
		L247.9,270.5 L248.2,270.5 L248.4,270.4 L248.7,270.4 L248.9,270.3 L249.2,270.3 L249.4,270.2 L249.7,270.2 
		L249.9,270.1 L250.2,270.1 L250.4,270.0 L250.7,269.9 L250.9,269.9 L251.2,269.8 L251.4,269.8 L251.6,269.7 
		L251.9,269.7 L252.1,269.6 L252.4,269.6 L252.6,269.5 L252.9,269.5 L253.1,269.4 L253.4,269.3 L253.6,269.3 
		L253.9,269.2 L254.1,269.2 L254.4,269.1 L254.6,269.1 L254.9,269.0 L255.1,269.0 L255.4,269.0 L255.6,269.0 
		L255.9,268.9 L256.1,268.9 L256.3,268.8 L256.6,268.7 L256.8,268.7 L257.1,268.6 L257.3,268.6 L257.6,268.5 
		L257.8,268.5 L258.1,268.4 L258.3,268.4 L258.6,268.3 L258.8,268.3 L259.1,268.2 L259.3,268.2 L259.6,268.2 
		L259.8,268.1 L260.1,268.1 L260.3,268.0 L260.6,268.0 L260.8,267.9 L261.0,267.9 L261.3,267.8 L261.5,267.8 
		L261.8,267.7 L262.0,267.7 L262.3,267.6 L262.5,267.6 L262.8,267.6 L263.0,267.2 L263.3,267.2 L263.5,267.1 
		L263.8,267.1 L264.0,267.0 L264.3,267.0 L264.5,267.0 L264.8,267.0 L265.0,266.9 L265.3,266.9 L265.5,266.8 
		L265.8,266.7 L266.0,266.7 L266.2,266.6 L266.5,266.6 L266.7,266.6 L267.0,266.6 L267.2,266.5 L267.5,266.5 
		L267.7,266.4 L268.0,266.4 L268.2,266.3 L268.5,266.3 L268.7,266.3 L269.0,266.2 L269.2,266.2 L269.5,266.1 
		L269.7,266.1 L270.0,266.0 L270.2,266.0 L270.5,266.0 L270.7,266.0 L270.9,265.9 L271.2,265.9 L271.4,265.8 
		L271.7,265.7 L271.9,265.7 L272.2,265.7 L272.4,265.7 L272.7,265.6 L272.9,265.6 L273.2,265.5 L273.4,265.5 
		L273.7,265.4 L273.9,265.4 L274.2,265.4 L274.4,265.4 L274.7,265.3 L274.9,265.2 L275.2,265.2 L275.4,265.2 
		L275.6,265.2 L275.9,265.1 L276.1,265.1 L276.4,265.0 L276.6,265.0 L276.9,264.9 L277.1,264.9 L277.4,264.9 
		L277.6,264.8 L277.9,264.8 L278.1,264.7 L278.4,264.7 L278.6,264.7 L278.9,264.7 L279.1,264.6 L279.4,264.6 
		L279.6,264.5 L279.9,264.5 L280.1,264.5 L280.3,264.5 L280.6,264.4 L280.8,264.3 L281.1,264.3 L281.3,264.3 
		L281.6,264.3 L281.8,264.2 L282.1,264.2 L282.3,264.1 L282.6,264.1 L282.8,264.1 L283.1,264.1 L283.3,264.0 
		L283.6,264.0 L283.8,263.9 L284.1,263.9 L284.3,263.9 L284.6,263.8 L284.8,263.8 L285.0,263.8 L285.3,263.8 
		L285.5,263.7 L285.8,263.7 L286.0,263.6 L286.3,263.6 L286.5,263.6 L286.8,263.5 L287.0,263.5 L287.3,263.4 
		L287.5,263.4 L287.8,263.2 L288.0,263.2 L288.3,263.1 L288.5,263.1 L288.8,263.0 L289.0,263.0 L289.3,263.0 
		L289.5,263.0 L289.7,262.9 L290.0,262.9 L290.2,262.9 L290.5,262.8 L290.7,262.8 L291.0,262.7 L291.2,262.7 
		L291.5,262.7 L291.7,262.7 L292.0,262.6 L292.2,262.6 L292.5,262.6 L292.7,262.6 L293.0,262.5 L293.2,262.4 
		L293.5,262.4 L293.7,262.4 L294.0,262.4 L294.2,262.3 L294.4,262.3 L294.7,262.3 L294.9,262.3 L295.2,262.2 
		L295.4,262.2 L295.7,262.2 L295.9,262.1 L296.2,262.1 L296.4,262.0 L296.7,262.0 L296.9,262.0 L297.2,262.0 
		L297.4,261.9 L297.7,261.9 L297.9,261.9 L298.2,261.9 L298.4,261.8 L298.7,261.8 L298.9,261.8 L299.1,261.7 
		L299.4,261.7 L299.6,261.7 L299.9,261.7 L300.1,261.6 L300.4,261.6 L300.6,261.6 L300.9,261.6 L301.1,261.5 
		L301.4,261.5 L301.6,261.5 L301.9,261.5 L302.1,261.4 L302.4,261.4 L302.6,261.4 L302.9,261.3 L303.1,261.3 
		L303.4,261.2 L303.6,261.2 L303.8,261.2 L304.1,261.2 L304.3,261.1 L304.6,261.1 L304.8,261.1 L305.1,261.0 
		L305.3,261.0 L305.6,261.0 L305.8,261.0 L306.1,260.9 L306.3,260.9 L306.6,260.9 L306.8,260.9 L307.1,260.8 
		L307.3,260.8 L307.6,260.8 L307.8,260.8 L308.1,260.7 L308.3,260.7 L308.6,260.7 L308.8,260.6 L309.0,260.6 
		L309.3,260.6 L309.5,260.6 L309.8,260.5 L310.0,260.5 L310.3,260.5 L310.5,260.5 L310.8,260.5 L311.0,260.5 
		L311.3,260.4 L311.5,260.4 L311.8,260.4 L312.0,260.1 L312.3,260.1 L312.5,260.1 L312.8,260.1 L313.0,260.0 
		L313.3,260.0 L313.5,260.0 L313.7,260.0 L314.0,259.9 L314.2,259.9 L314.5,259.9 L314.7,259.8 L315.0,259.8 
		L315.2,259.8 L315.5,259.8 L315.7,259.7 L316.0,259.7 L316.2,259.7 L316.5,259.7 L316.7,259.6 L317.0,259.6 
		L317.2,259.6 L317.5,259.6 L317.7,259.6 L318.0,259.5 L318.2,259.5 L318.4,259.5 L318.7,259.5 L318.9,259.4 
		L319.2,259.4 L319.4,259.4 L319.7,259.4 L319.9,259.3 L320.2,259.3 L320.4,259.3 L320.7,259.3 L320.9,259.3 
		L321.2,259.2 L321.4,259.2 L321.7,259.2 L321.9,259.2 L322.2,259.1 L322.4,259.1 L322.7,259.1 L322.9,259.1 
		L323.1,259.0 L323.4,259.0 L323.6,259.0 L323.9,259.0 L324.1,259.0 L324.4,258.9 L324.6,258.9 L324.9,258.9 
		L325.1,258.9 L325.4,258.8 L325.6,258.8 L325.9,258.8 L326.1,258.8 L326.4,258.7 L326.6,258.7 L326.9,258.7 
		L327.1,258.7 L327.4,258.7 L327.6,258.6 L327.8,258.6 L328.1,258.6 L328.3,258.6 L328.6,258.5 L328.8,258.5 
		L329.1,258.5 L329.3,258.5 L329.6,258.5 L329.8,258.4 L330.1,258.4 L330.3,258.4 L330.6,258.4 L330.8,258.3 
		L331.1,258.3 L331.3,258.3 L331.6,258.3 L331.8,258.3 L332.1,258.3 L332.3,258.2 L332.5,258.2 L332.8,258.2 
		L333.0,258.1 L333.3,258.1 L333.5,258.1 L333.8,258.1 L334.0,258.1 L334.3,258.1 L334.5,258.0 L334.8,258.0 
		L335.0,258.0 L335.3,258.0 L335.5,258.0 L335.8,257.9 L336.0,257.9 L336.3,257.9 L336.5,257.9 L336.8,257.8 
		L337.0,257.8 L337.2,257.8 L337.5,257.8 L337.7,257.6 L338.0,257.6 L338.2,257.6 L338.5,257.5 L338.7,257.5 
		L339.0,257.5 L339.2,257.5 L339.5,257.4 L339.7,257.4 L340.0,257.4 L340.2,257.4 L340.5,257.4 L340.7,257.4 
		L341.0,257.3 L341.2,257.3 L341.5,257.3 L341.7,257.3 L341.9,257.3 L342.2,257.2 L342.4,257.2 L342.7,257.2 
		L342.9,257.2 L343.2,257.2 L343.4,257.2 L343.7,257.1 L343.9,257.1 L344.2,257.1 L344.4,257.1 L344.7,257.1 
		L344.9,257.0 L345.2,257.0 L345.4,257.0 L345.7,257.0 L345.9,256.9 L346.2,256.9 L346.4,256.9 L346.6,256.9 
		L346.9,256.9 L347.1,256.9 L347.4,256.8 L347.6,256.8 L347.9,256.8 L348.1,256.8 L348.4,256.8 L348.6,256.7 
		L348.9,256.7 L349.1,256.7 L349.4,256.7 L349.6,256.7 L349.9,256.7 L350.1,256.6 L350.4,256.6 L350.6,256.6 
		L350.9,256.6 L351.1,256.6 L351.4,256.5 L351.6,256.5 L351.8,256.5 L352.1,256.5 L352.3,256.5 L352.6,256.5 
		L352.8,256.4 L353.1,256.4 L353.3,256.4 L353.6,256.4 L353.8,256.4 L354.1,256.4 L354.3,256.4 L354.6,256.3 
		L354.8,256.3 L355.1,256.3 L355.3,256.3 L355.6,256.3 L355.8,256.3 L356.1,256.2 L356.3,256.2 L356.5,256.2 
		L356.8,256.2 L357.0,256.2 L357.3,256.1 L357.5,256.1 L357.8,256.1 L358.0,256.1 L358.3,256.1 L358.5,256.1 
		L358.8,256.0 L359.0,256.0 L359.3,256.0 L359.5,256.0 L359.8,256.0 L360.0,255.9 L360.3,255.9 L360.5,255.9 
		L360.8,255.9 L361.0,255.9 L361.2,255.9 L361.5,255.9 L361.7,255.9 L362.0,255.8 L362.2,255.8 L362.5,255.8 
		L362.7,255.8 L363.0,255.8 L363.2,255.7 L363.5,255.7 L363.7,255.7 L364.0,255.7 L364.2,255.7 L364.5,255.7 
		L364.7,255.6 L365.0,255.6 L365.2,255.5 L365.5,255.5 L365.7,255.4 L365.9,255.4 L366.2,255.4 L366.4,255.4 
		L366.7,255.4 L366.9,255.3 L367.2,255.3 L367.4,255.3 L367.7,255.3 L367.9,255.3 L368.2,255.3 L368.4,255.3 
		L368.7,255.3 L368.9,255.2 L369.2,255.2 L369.4,255.2 L369.7,255.2 L369.9,255.2 L370.2,255.1 L370.4,255.1 
		L370.6,255.1 L370.9,255.1 L371.1,255.1 L371.4,255.1 L371.6,255.1 L371.9,255.1 L372.1,255.0 L372.4,255.0 
		L372.6,255.0 L372.9,255.0 L373.1,255.0 L373.4,254.9 L373.6,254.9 L373.9,254.9 L374.1,254.9 L374.4,254.9 
		L374.6,254.9 L374.9,254.9 L375.1,254.8 L375.3,254.8 L375.6,254.8 L375.8,254.8 L376.1,254.8 L376.3,254.8 
		L376.6,254.8 L376.8,254.8 L377.1,254.7 L377.3,254.7 L377.6,254.7 L377.8,254.7 L378.1,254.7 L378.3,254.6 
		L378.6,254.6 L378.8,254.6 L379.1,254.6 L379.3,254.6 L379.6,254.6 L379.8,254.6 L380.0,254.6 L380.3,254.5 
		L380.5,254.5 L380.8,254.5 L381.0,254.5 L381.3,254.5 L381.5,254.5 L381.8,254.5 L382.0,254.4 L382.3,254.4 
		L382.5,254.4 L382.8,254.4 L383.0,254.4 L383.3,254.4 L383.5,254.4 L383.8,254.4 L384.0,254.3 L384.3,254.3 
		L384.5,254.3 L384.7,254.3 L385.0,254.3 L385.2,254.3 L385.5,254.3 L385.7,254.2 L386.0,254.2 L386.2,254.2 
		L386.5,254.2 L386.7,254.2 L387.0,254.2 L387.2,254.2 L387.5,254.1 L387.7,254.1 L388.0,254.1 L388.2,254.1 
		L388.5,254.1 L388.7,254.1 L389.0,254.1 L389.2,254.1 L389.5,254.0 L389.7,254.0 L389.9,254.0 L390.2,254.0 
		L390.4,254.0 L390.7,254.0 L390.9,254.0 L391.2,253.9 L391.4,253.9 L391.7,253.9 L391.9,253.9 L392.2,253.7 
		L392.4,253.7 L392.7,253.7 L392.9,253.7 L393.2,253.7 L393.4,253.7 L393.7,253.7 L393.9,253.7 L394.2,253.7 
		L394.4,253.6 L394.6,253.6 L394.9,253.6 L395.1,253.6 L395.4,253.6 L395.6,253.6 L395.9,253.6 L396.1,253.6 
		L396.4,253.5 L396.6,253.5 L396.9,253.5 L397.1,253.5 L397.4,253.5 L397.6,253.5 L397.9,253.5 L398.1,253.4 
		L398.4,253.4 L398.6,253.4 L398.9,253.4 L399.1,253.4 L399.3,253.4 L399.6,253.4 L399.8,253.4 L400.1,253.4 
		L400.3,253.3 L400.6,253.3 L400.8,253.3 L401.1,253.3 L401.3,253.3 L401.6,253.3 L401.8,253.3 L402.1,253.3 
		L402.3,253.2 L402.6,253.2 L402.8,253.2 L403.1,253.2 L403.3,253.2 L403.6,253.2 L403.8,253.2 L404.0,253.2 
		L404.3,253.2 L404.5,253.1 L404.8,253.1 L405.0,253.1 L405.3,253.1 L405.5,253.1 L405.8,253.1 L406.0,253.1 
		L406.3,253.0 L406.5,253.0 L406.8,253.0 L407.0,253.0 L407.3,253.0 L407.5,253.0 L407.8,253.0 L408.0,253.0 
		L408.3,253.0 L408.5,252.9 L408.7,252.9 L409.0,252.9 L409.2,252.9 L409.5,252.9 L409.7,252.9 L410.0,252.9 
		L410.2,252.9 L410.5,252.9 L410.7,252.9 L411.0,252.8 L411.2,252.8 L411.5,252.8 L411.7,252.8 L412.0,252.8 
		L412.2,252.8 L412.5,252.8 L412.7,252.8 L413.0,252.8 L413.2,252.7 L413.4,252.7 L413.7,252.7 L413.9,252.7 
		L414.2,252.7 L414.4,252.7 L414.7,252.7 L414.9,252.7 L415.2,252.7 L415.4,252.6 L415.7,252.6 L415.9,252.6 
		L416.2,252.6 L416.4,252.6 L416.7,252.6 L416.9,252.6 L417.2,252.6 L417.4,252.6 L417.7,252.5 L417.9,252.5 
		L418.1,252.5 L418.4,252.5 L418.6,252.5 L418.9,252.5 L419.1,252.5 L419.4,252.5 L419.6,252.3 L419.9,252.3 
		L420.1,252.3 L420.4,252.3 L420.6,252.3 L420.9,252.3 L421.1,252.3 L421.4,252.2 L421.6,252.2 L421.9,252.2 
		L422.1,252.2 L422.4,252.2 L422.6,252.2 L422.8,252.2 L423.1,252.2 L423.3,252.2 L423.6,252.2 L423.8,252.1 
		L424.1,252.1 L424.3,252.1 L424.6,252.1 L424.8,252.1 L425.1,252.1 L425.3,252.1 L425.6,252.1 L425.8,252.1 
		L426.1,252.0 L426.3,252.0 L426.6,252.0 L426.8,252.0 L427.1,252.0 L427.3,252.0 L427.5,252.0 L427.8,252.0 
		L428.0,252.0 L428.3,252.0 L428.5,252.0 L428.8,251.9 L429.0,251.9 L429.3,251.9 L429.5,251.9 L429.8,251.9 
		L430.0,251.9 L430.3,251.9 L430.5,251.9 L430.8,251.9 L431.0,251.8 L431.3,251.8 L431.5,251.8 L431.8,251.8 
		L432.0,251.8 L432.3,251.8 L432.5,251.8 L432.7,251.8 L433.0,251.8 L433.2,251.8 L433.5,251.8 L433.7,251.7 
		L434.0,251.7 L434.2,251.7 L434.5,251.7 L434.7,251.7 L435.0,251.7 L435.2,251.7 L435.5,251.7 L435.7,251.7 
		L436.0,251.6 L436.2,251.6 L436.5,251.6 L436.7,251.6 L437.0,251.6 L437.2,251.6 L437.4,251.6 L437.7,251.6 
		L437.9,251.6 L438.2,251.6 L438.4,251.6 L438.7,251.6 L438.9,251.5 L439.2,251.5 L439.4,251.5 L439.7,251.5 
		L439.9,251.5 L440.2,251.5 L440.4,251.5 L440.7,251.5 L440.9,251.5 L441.2,251.5 L441.4,251.5 L441.7,251.4 
		L441.9,251.4 L442.1,251.4 L442.4,251.4 L442.6,251.4 L442.9,251.4 L443.1,251.4 L443.4,251.4 L443.6,251.4 
		L443.9,251.4 L444.1,251.4 L444.4,251.3 L444.6,251.3 L444.9,251.3 L445.1,251.3 L445.4,251.3 L445.6,251.3 
		L445.9,251.3 L446.1,251.3 L446.4,251.3 L446.6,251.1 L446.8,251.1 L447.1,251.1 L447.3,251.1 L447.6,251.1 
		L447.8,251.1 L448.1,251.1 L448.3,251.1 L448.6,251.1 L448.8,251.1 L449.1,251.1 L449.3,251.0 L449.6,251.0 
		L449.8,251.0 L450.1,251.0 L450.3,251.0 L450.6,251.0 L450.8,251.0 L451.1,251.0 L451.3,251.0 L451.5,251.0 
		L451.8,251.0 L452.0,250.9 L452.3,250.9 L452.5,250.9 L452.8,250.9 L453.0,250.9 L453.3,250.9 L453.5,250.9 
		L453.8,250.9 L454.0,250.9 L454.3,250.9 L454.5,250.9 L454.8,250.8 L455.0,250.8 L455.3,250.8 L455.5,250.8 
		L455.8,250.8 L456.0,250.8 L456.2,250.8 L456.5,250.8 L456.7,250.8 L457.0,250.8 L457.2,250.8 L457.5,250.8 
		L457.7,250.8 L458.0,250.7 L458.2,250.7 L458.5,250.7 L458.7,250.7 L459.0,250.7 L459.2,250.7 L459.5,250.7 
		L459.7,250.7 L460.0,250.7 L460.2,250.7 L460.5,250.7 L460.7,250.6 L460.9,250.6 L461.2,250.6 L461.4,250.6 
		L461.7,250.6 L461.9,250.6 L462.2,250.6 L462.4,250.6 L462.7,250.6 L462.9,250.6 L463.2,250.6 L463.4,250.6 
		L463.7,250.6 L463.9,250.5 L464.2,250.5 L464.4,250.5 L464.7,250.5 L464.9,250.5 L465.2,250.5 L465.4,250.5 
		L465.6,250.5 L465.9,250.5 L466.1,250.5 L466.4,250.5 L466.6,250.5 L466.9,250.5 L467.1,250.4 L467.4,250.4 
		L467.6,250.4 L467.9,250.4 L468.1,250.4 L468.4,250.4 L468.6,250.4 L468.9,250.4 L469.1,250.4 L469.4,250.4 
		L469.6,250.4 L469.9,250.3 L470.1,250.3 L470.3,250.3 L470.6,250.3 L470.8,250.3 L471.1,250.3 L471.3,250.3 
		L471.6,250.3 L471.8,250.3 L472.1,250.3 L472.3,250.3 L472.6,250.3 L472.8,250.3 L473.1,250.2 L473.3,250.2 
		L473.6,250.2 L473.8,250.2 L474.1,250.1 L474.3,250.1 L474.6,250.1 L474.8,250.1 L475.1,250.1 L475.3,250.1 
		L475.5,250.1 L475.8,250.1 L476.0,250.1 L476.3,250.0 L476.5,250.0 L476.8,250.0 L477.0,250.0 L477.3,250.0 
		L477.5,250.0 L477.8,250.0 L478.0,250.0 L478.3,250.0 L478.5,250.0 L478.8,250.0 L479.0,250.0 L479.3,250.0 
		L479.5,249.9 L479.8,249.9 L480.0,249.9 L480.2,249.9 L480.5,249.9 L480.7,249.9 L481.0,249.9 L481.2,249.9 
		L481.5,249.9 L481.7,249.9 L482.0,249.9 L482.2,249.9 L482.5,249.9 L482.7,249.8 L483.0,249.8 L483.2,249.8 
		L483.5,249.8 L483.7,249.8 L484.0,249.8 L484.2,249.8 L484.5,249.8 L484.7,249.8 L484.9,249.8 L485.2,249.8 
		L485.4,249.8 L485.7,249.8 L485.9,249.8 L486.2,249.8 L486.4,249.7 L486.7,249.7 L486.9,249.7 L487.2,249.7 
		L487.4,249.7 L487.7,249.7 L487.9,249.7 L488.2,249.7 L488.4,249.7 L488.7,249.7 L488.9,249.7 L489.2,249.7 
		L489.4,249.7 L489.6,249.7 L489.9,249.7 L490.1,249.6 L490.4,249.6 L490.6,249.6 L490.9,249.6 L491.1,249.6 
		L491.4,249.6 L491.6,249.6 L491.9,249.6 L492.1,249.6 L492.4,249.6 L492.6,249.6 L492.9,249.6 L493.1,249.6 
		L493.4,249.6 L493.6,249.6 L493.9,249.5 L494.1,249.5 L494.3,249.5 L494.6,249.5 L494.8,249.5 L495.1,249.5 
		L495.3,249.5 L495.6,249.5 L495.8,249.5 L496.1,249.5 L496.3,249.5 L496.6,249.5 L496.8,249.5 L497.1,249.5 
		L497.3,249.4 L497.6,249.4 L497.8,249.4 L498.1,249.4 L498.3,249.4 L498.6,249.4 L498.8,249.4 L499.0,249.4 
		L499.3,249.4 L499.5,249.4 L499.8,249.4 L500.0,249.4 L500.3,249.4 L500.5,249.4 L500.8,249.4 L501.0,249.3 
		L501.3,249.3 L501.5,249.3 L501.8,249.3 L502.0,249.3 L502.3,249.3 L502.5,249.3 L502.8,249.2 L503.0,249.2 
		L503.3,249.2 L503.5,249.2 L503.7,249.2 L504.0,249.2 L504.2,249.2 L504.5,249.2 L504.7,249.1 L505.0,249.1 
		L505.2,249.1 L505.5,249.1 L505.7,249.1 L506.0,249.1 L506.2,249.1 L506.5,249.1 L506.7,249.1 L507.0,249.1 
		L507.2,249.1 L507.5,249.1 L507.7,249.1 L508.0,249.1 L508.2,249.1 L508.4,249.0 L508.7,249.0 L508.9,249.0 
		L509.2,249.0 L509.4,249.0 L509.7,249.0 L509.9,249.0 L510.2,249.0 L510.4,249.0 L510.7,249.0 L510.9,249.0 
		L511.2,249.0 L511.4,249.0 L511.7,249.0 L511.9,249.0 L512.2,249.0 L512.4,248.9 L512.7,248.9 L512.9,248.9 
		L513.2,248.9 L513.4,248.9 L513.6,248.9 L513.9,248.9 L514.1,248.9 L514.4,248.9 L514.6,248.9 L514.9,248.9 
		L515.1,248.9 L515.4,248.9 L515.6,248.9 L515.9,248.9 L516.1,248.9 L516.4,248.9 L516.6,248.8 L516.9,248.8 
		L517.1,248.8 L517.4,248.8 L517.6,248.8 L517.9,248.8 L518.1,248.8 L518.3,248.8 L518.6,248.8 L518.8,248.8 
		L519.1,248.8 L519.3,248.8 L519.6,248.8 L519.8,248.8 L520.1,248.8 L520.3,248.8 L520.6,248.8 L520.8,248.7 
		L521.1,248.7 L521.3,248.7 L521.6,248.7 L521.8,248.7 L522.1,248.7 L522.3,248.7 L522.6,248.7 L522.8,248.7 
		L523.0,248.7 L523.3,248.7 L523.5,248.7 L523.8,248.7 L524.0,248.7 L524.3,248.7 L524.5,248.7 L524.8,248.7 
		L525.0,248.7 L525.3,248.6 L525.5,248.6 L525.8,248.6 L526.0,248.6 L526.3,248.6 L526.5,248.6 L526.8,248.6 
		L527.0,248.6 L527.3,248.6 L527.5,248.6 L527.7,248.6 L528.0,248.6 L528.2,248.6 L528.5,248.6 L528.7,248.6 
		L529.0,248.6 L529.2,248.6 L529.5,248.5 L529.7,248.5 L530.0,248.5 L530.2,248.5 L530.5,248.5 L530.7,248.5 
		L531.0,248.5 L531.2,248.5 L531.5,248.5 L531.7,248.5 L532.0,248.5 L532.2,248.5 L532.4,248.5 L532.7,248.5 
		L532.9,248.5 L533.2,248.5 L533.4,248.4 L533.7,248.4 L533.9,248.3 L534.2,248.3 L534.4,248.3 L534.7,248.3 
		L534.9,248.3 L535.2,248.3 L535.4,248.3 L535.7,248.3 L535.9,248.3 L536.2,248.3 L536.4,248.3 L536.7,248.3 
		L536.9,248.3 L537.1,248.3 L537.4,248.3 L537.6,248.3 L537.9,248.3 L538.1,248.3 L538.4,248.3 L538.6,248.2 
		L538.9,248.2 L539.1,248.2 L539.4,248.2 L539.6,248.2 L539.9,248.2 L540.1,248.2 L540.4,248.2 L540.6,248.2 
		L540.9,248.2 L541.1,248.2 L541.4,248.2 L541.6,248.2 L541.8,248.2 L542.1,248.2 L542.3,248.2 L542.6,248.2 
		L542.8,248.2 L543.1,248.1 L543.3,248.1 L543.6,248.1 L543.8,248.1 L544.1,248.1 L544.3,248.1 L544.6,248.1 
		L544.8,248.1 L545.1,248.1 L545.3,248.1 L545.6,248.1 L545.8,248.1 L546.1,248.1 L546.3,248.1 L546.5,248.1 
		L546.8,248.1 L547.0,248.1 L547.3,248.1 L547.5,248.1 L547.8,248.1 L548.0,248.1 L548.3,248.0 L548.5,248.0 
		L548.8,248.0 L549.0,248.0 L549.3,248.0 L549.5,248.0 L549.8,248.0 L550.0,248.0 L550.3,248.0 L550.5,248.0 
		L550.8,248.0 L551.0,248.0 L551.2,248.0 L551.5,248.0 L551.7,248.0 L552.0,248.0 L552.2,248.0 L552.5,248.0 
		L552.7,247.9 L553.0,247.9 L553.2,247.9 L553.5,247.9 L553.7,247.9 L554.0,247.9 L554.2,247.9 L554.5,247.9 
		L554.7,247.9 L555.0,247.9 L555.2,247.9 L555.5,247.9 L555.7,247.9 L556.0,247.9 L556.2,247.9 L556.4,247.9 
		L556.7,247.9 L556.9,247.9 L557.2,247.9 L557.4,247.9 L557.7,247.8 L557.9,247.8 L558.2,247.8 L558.4,247.8 
		L558.7,247.8 L558.9,247.8 L559.2,247.8 L559.4,247.8 L559.7,247.8 L559.9,247.8 L560.2,247.8 L560.4,247.8 
		L560.7,247.8 L560.9,247.8 L561.1,247.8 L561.4,247.8 L561.6,247.8 L561.9,247.8 L562.1,247.8 L562.4,247.8 
		L562.6,247.8 L562.9,247.7 L563.1,247.7 L563.4,247.7 L563.6,247.7 L563.9,247.7 L564.1,247.6 L564.4,247.6 
		L564.6,247.6 L564.9,247.6 L565.1,247.6 L565.4,247.6 L565.6,247.6 L565.8,247.6 L566.1,247.6 L566.3,247.6 
		L566.6,247.6 L566.8,247.6 L567.1,247.6 L567.3,247.6 L567.6,247.6 L567.8,247.6 L568.1,247.6 L568.3,247.6 
		L568.6,247.6 L568.8,247.5 L569.1,247.5 L569.3,247.5 L569.6,247.5 L569.8,247.5 L570.1,247.5 L570.3,247.5 
		L570.5,247.5 L570.8,247.5 L571.0,247.5 L571.3,247.5 L571.5,247.5 L571.8,247.5 L572.0,247.5 L572.3,247.5 
		L572.5,247.5 L572.8,247.5 L573.0,247.5 L573.3,247.5 L573.5,247.5 L573.8,247.5 L574.0,247.5 L574.3,247.4 
		L574.5,247.4 L574.8,247.4 L575.0,247.4  h0.01'/></g>
	</g>
	<g id="gnuplot_plot_4" ><title>gnuplot_plot_4</title>
<g style="fill:none; color:cyan; stroke:currentColor; stroke-width:1.00; stroke-linecap:butt; stroke-linejoin:miter">
	<g transform="translate(507.9,390.9)" style="stroke:none; fill:black; font-family:Arial; font-size:12.00pt; text-anchor:end">
		<text>Tcp Timeout</text>
	</g>
	<use xlink:href='#gpPt3' transform='translate(537.3,386.4) scale(4.50)'/>
</g>
	</g>
	<g id="gnuplot_plot_5" ><title>gnuplot_plot_5</title>
<g style="fill:none; color:#157545; stroke:currentColor; stroke-width:1.00; stroke-linecap:butt; stroke-linejoin:miter">
	<g transform="translate(507.9,408.9)" style="stroke:none; fill:black; font-family:Arial; font-size:12.00pt; text-anchor:end">
		<text>3AKCs</text>
	</g>
	<use xlink:href='#gpPt4' transform='translate(176.3,420.6) scale(4.50)'/>
	<use xlink:href='#gpPt4' transform='translate(537.3,404.4) scale(4.50)'/>
</g>
	</g>
<g style="fill:none; color:black; stroke:currentColor; stroke-width:1.00; stroke-linecap:butt; stroke-linejoin:miter">
	<path  d='M80.2,54.1 L80.2,422.4 L575.0,422.4 L575.0,54.1 L80.2,54.1 Z  h0.01'/></g>
</g>
</svg>

