<?xml version="1.0" encoding="utf-8"  standalone="no"?>
<!DOCTYPE svg PUBLIC "-//W3C//DTD SVG 1.1//EN" 
 "http://www.w3.org/Graphics/SVG/1.1/DTD/svg11.dtd">
<svg 
 width="600" height="480" 
 viewBox="0 0 600 480"
 xmlns="http://www.w3.org/2000/svg"
 xmlns:xlink="http://www.w3.org/1999/xlink"
>

<title>Gnuplot</title>
<desc>Produced by GNUPLOT 4.6 patchlevel 1 </desc>

<g id="gnuplot_canvas">

<rect x="0" y="0" width="600" height="480" fill="none"/>
<defs>

	<circle id='gpDot' r='0.5' stroke-width='0.5'/>
	<path id='gpPt0' stroke-width='0.222' stroke='currentColor' d='M-1,0 h2 M0,-1 v2'/>
	<path id='gpPt1' stroke-width='0.222' stroke='currentColor' d='M-1,-1 L1,1 M1,-1 L-1,1'/>
	<path id='gpPt2' stroke-width='0.222' stroke='currentColor' d='M-1,0 L1,0 M0,-1 L0,1 M-1,-1 L1,1 M-1,1 L1,-1'/>
	<rect id='gpPt3' stroke-width='0.222' stroke='currentColor' x='-1' y='-1' width='2' height='2'/>
	<rect id='gpPt4' stroke-width='0.222' stroke='currentColor' fill='currentColor' x='-1' y='-1' width='2' height='2'/>
	<circle id='gpPt5' stroke-width='0.222' stroke='currentColor' cx='0' cy='0' r='1'/>
	<use xlink:href='#gpPt5' id='gpPt6' fill='currentColor' stroke='none'/>
	<path id='gpPt7' stroke-width='0.222' stroke='currentColor' d='M0,-1.33 L-1.33,0.67 L1.33,0.67 z'/>
	<use xlink:href='#gpPt7' id='gpPt8' fill='currentColor' stroke='none'/>
	<use xlink:href='#gpPt7' id='gpPt9' stroke='currentColor' transform='rotate(180)'/>
	<use xlink:href='#gpPt9' id='gpPt10' fill='currentColor' stroke='none'/>
	<use xlink:href='#gpPt3' id='gpPt11' stroke='currentColor' transform='rotate(45)'/>
	<use xlink:href='#gpPt11' id='gpPt12' fill='currentColor' stroke='none'/>
</defs>
<g style="fill:none; color:white; stroke:currentColor; stroke-width:1.00; stroke-linecap:butt; stroke-linejoin:miter">
</g>
<g style="fill:none; color:black; stroke:currentColor; stroke-width:1.00; stroke-linecap:butt; stroke-linejoin:miter">
	<path  d='M80.2,422.4 L89.2,422.4 M575.0,422.4 L566.0,422.4  h0.01'/>	<g transform="translate(71.9,426.9)" style="stroke:none; fill:black; font-family:Arial; font-size:12.00pt; text-anchor:end">
		<text> 0</text>
	</g>
	<path  d='M80.2,361.0 L89.2,361.0 M575.0,361.0 L566.0,361.0  h0.01'/>	<g transform="translate(71.9,365.5)" style="stroke:none; fill:black; font-family:Arial; font-size:12.00pt; text-anchor:end">
		<text> 500</text>
	</g>
	<path  d='M80.2,299.6 L89.2,299.6 M575.0,299.6 L566.0,299.6  h0.01'/>	<g transform="translate(71.9,304.1)" style="stroke:none; fill:black; font-family:Arial; font-size:12.00pt; text-anchor:end">
		<text> 1000</text>
	</g>
	<path  d='M80.2,238.2 L89.2,238.2 M575.0,238.2 L566.0,238.2  h0.01'/>	<g transform="translate(71.9,242.7)" style="stroke:none; fill:black; font-family:Arial; font-size:12.00pt; text-anchor:end">
		<text> 1500</text>
	</g>
	<path  d='M80.2,176.9 L89.2,176.9 M575.0,176.9 L566.0,176.9  h0.01'/>	<g transform="translate(71.9,181.4)" style="stroke:none; fill:black; font-family:Arial; font-size:12.00pt; text-anchor:end">
		<text> 2000</text>
	</g>
	<path  d='M80.2,115.5 L89.2,115.5 M575.0,115.5 L566.0,115.5  h0.01'/>	<g transform="translate(71.9,120.0)" style="stroke:none; fill:black; font-family:Arial; font-size:12.00pt; text-anchor:end">
		<text> 2500</text>
	</g>
	<path  d='M80.2,54.1 L89.2,54.1 M575.0,54.1 L566.0,54.1  h0.01'/>	<g transform="translate(71.9,58.6)" style="stroke:none; fill:black; font-family:Arial; font-size:12.00pt; text-anchor:end">
		<text> 3000</text>
	</g>
	<path  d='M80.2,422.4 L80.2,413.4 M80.2,54.1 L80.2,63.1  h0.01'/>	<g transform="translate(80.2,444.9)" style="stroke:none; fill:black; font-family:Arial; font-size:12.00pt; text-anchor:middle">
		<text> 0</text>
	</g>
	<path  d='M575.0,422.4 L575.0,413.4 M575.0,54.1 L575.0,63.1  h0.01'/>	<g transform="translate(575.0,444.9)" style="stroke:none; fill:black; font-family:Arial; font-size:12.00pt; text-anchor:middle">
		<text> 100</text>
	</g>
	<path  d='M80.2,54.1 L80.2,422.4 L575.0,422.4 L575.0,54.1 L80.2,54.1 Z  h0.01'/>	<g transform="translate(17.6,238.3) rotate(270)" style="stroke:none; fill:black; font-family:Arial; font-size:12.00pt; text-anchor:middle">
		<text>delay (ms)</text>
	</g>
	<g transform="translate(327.6,471.9)" style="stroke:none; fill:black; font-family:Arial; font-size:12.00pt; text-anchor:middle">
		<text>Time (s)</text>
	</g>
	<g transform="translate(327.6,31.6)" style="stroke:none; fill:black; font-family:Arial; font-size:12.00pt; text-anchor:middle">
		<text>Distance vs TCP performance, pedestrian, 3kmph, PfffMacscheduler</text>
	</g>
	<path  d='M375.1,81.1 L375.1,63.1 L566.7,63.1 L566.7,81.1 L375.1,81.1 Z  h0.01'/></g>
	<g id="gnuplot_plot_1" ><title>gnuplot_plot_1</title>
<g style="fill:none; color:red; stroke:currentColor; stroke-width:1.00; stroke-linecap:butt; stroke-linejoin:miter">
	<g transform="translate(507.9,76.6)" style="stroke:none; fill:black; font-family:Arial; font-size:12.00pt; text-anchor:end">
		<text>delay (averaged)</text>
	</g>
	<use xlink:href='#gpDot' x='83.4' y='416.8' color='red'/>
	<use xlink:href='#gpDot' x='83.7' y='415.5' color='red'/>
	<use xlink:href='#gpDot' x='84.4' y='415.2' color='red'/>
	<use xlink:href='#gpDot' x='84.7' y='415.3' color='red'/>
	<use xlink:href='#gpDot' x='84.9' y='420.2' color='red'/>
	<use xlink:href='#gpDot' x='85.6' y='399.6' color='red'/>
	<use xlink:href='#gpDot' x='85.9' y='396.2' color='red'/>
	<use xlink:href='#gpDot' x='86.9' y='396.3' color='red'/>
	<use xlink:href='#gpDot' x='87.1' y='420.8' color='red'/>
	<use xlink:href='#gpDot' x='87.4' y='416.3' color='red'/>
	<use xlink:href='#gpDot' x='87.6' y='417.6' color='red'/>
	<use xlink:href='#gpDot' x='88.4' y='397.7' color='red'/>
	<use xlink:href='#gpDot' x='88.6' y='393.6' color='red'/>
	<use xlink:href='#gpDot' x='89.4' y='376.9' color='red'/>
	<use xlink:href='#gpDot' x='89.8' y='374.0' color='red'/>
	<use xlink:href='#gpDot' x='90.1' y='382.2' color='red'/>
	<use xlink:href='#gpDot' x='90.6' y='365.4' color='red'/>
	<use xlink:href='#gpDot' x='91.8' y='336.4' color='red'/>
	<use xlink:href='#gpDot' x='92.3' y='326.7' color='red'/>
	<use xlink:href='#gpDot' x='94.5' y='270.2' color='red'/>
	<use xlink:href='#gpDot' x='94.8' y='284.3' color='red'/>
	<use xlink:href='#gpDot' x='95.0' y='297.8' color='red'/>
	<use xlink:href='#gpDot' x='96.0' y='299.6' color='red'/>
	<use xlink:href='#gpDot' x='96.3' y='376.6' color='red'/>
	<use xlink:href='#gpDot' x='97.3' y='393.1' color='red'/>
	<use xlink:href='#gpDot' x='97.5' y='385.0' color='red'/>
	<use xlink:href='#gpDot' x='97.8' y='384.9' color='red'/>
	<use xlink:href='#gpDot' x='98.3' y='367.0' color='red'/>
	<use xlink:href='#gpDot' x='98.5' y='366.1' color='red'/>
	<use xlink:href='#gpDot' x='99.0' y='384.4' color='red'/>
	<use xlink:href='#gpDot' x='99.2' y='405.4' color='red'/>
	<use xlink:href='#gpDot' x='99.7' y='389.8' color='red'/>
	<use xlink:href='#gpDot' x='100.0' y='389.0' color='red'/>
	<use xlink:href='#gpDot' x='100.2' y='381.0' color='red'/>
	<use xlink:href='#gpDot' x='100.5' y='388.3' color='red'/>
	<use xlink:href='#gpDot' x='100.7' y='399.0' color='red'/>
	<use xlink:href='#gpDot' x='102.5' y='358.5' color='red'/>
	<use xlink:href='#gpDot' x='102.7' y='362.1' color='red'/>
	<use xlink:href='#gpDot' x='103.2' y='351.8' color='red'/>
	<use xlink:href='#gpDot' x='103.5' y='344.9' color='red'/>
	<use xlink:href='#gpDot' x='104.2' y='329.6' color='red'/>
	<use xlink:href='#gpDot' x='104.9' y='311.4' color='red'/>
	<use xlink:href='#gpDot' x='105.2' y='307.0' color='red'/>
	<use xlink:href='#gpDot' x='106.2' y='330.3' color='red'/>
	<use xlink:href='#gpDot' x='106.4' y='351.5' color='red'/>
	<use xlink:href='#gpDot' x='107.4' y='339.5' color='red'/>
	<use xlink:href='#gpDot' x='107.7' y='347.0' color='red'/>
	<use xlink:href='#gpDot' x='108.6' y='333.0' color='red'/>
	<use xlink:href='#gpDot' x='109.9' y='305.6' color='red'/>
	<use xlink:href='#gpDot' x='110.1' y='302.6' color='red'/>
	<use xlink:href='#gpDot' x='110.4' y='310.6' color='red'/>
	<use xlink:href='#gpDot' x='110.6' y='324.0' color='red'/>
	<use xlink:href='#gpDot' x='110.9' y='339.8' color='red'/>
	<use xlink:href='#gpDot' x='111.1' y='354.1' color='red'/>
	<use xlink:href='#gpDot' x='111.9' y='380.9' color='red'/>
	<use xlink:href='#gpDot' x='112.1' y='386.6' color='red'/>
	<use xlink:href='#gpDot' x='113.1' y='361.3' color='red'/>
	<use xlink:href='#gpDot' x='114.1' y='344.0' color='red'/>
	<use xlink:href='#gpDot' x='115.1' y='338.0' color='red'/>
	<use xlink:href='#gpDot' x='115.3' y='341.3' color='red'/>
	<use xlink:href='#gpDot' x='116.1' y='321.7' color='red'/>
	<use xlink:href='#gpDot' x='116.3' y='335.1' color='red'/>
	<use xlink:href='#gpDot' x='116.6' y='338.5' color='red'/>
	<use xlink:href='#gpDot' x='116.8' y='330.3' color='red'/>
	<use xlink:href='#gpDot' x='117.3' y='326.2' color='red'/>
	<use xlink:href='#gpDot' x='117.6' y='347.4' color='red'/>
	<use xlink:href='#gpDot' x='118.0' y='345.8' color='red'/>
	<use xlink:href='#gpDot' x='118.3' y='345.2' color='red'/>
	<use xlink:href='#gpDot' x='119.0' y='325.5' color='red'/>
	<use xlink:href='#gpDot' x='120.0' y='300.4' color='red'/>
	<use xlink:href='#gpDot' x='120.3' y='314.0' color='red'/>
	<use xlink:href='#gpDot' x='121.0' y='311.1' color='red'/>
	<use xlink:href='#gpDot' x='122.7' y='293.8' color='red'/>
	<use xlink:href='#gpDot' x='123.0' y='318.7' color='red'/>
	<use xlink:href='#gpDot' x='123.2' y='316.8' color='red'/>
	<use xlink:href='#gpDot' x='124.0' y='328.2' color='red'/>
	<use xlink:href='#gpDot' x='124.7' y='329.5' color='red'/>
	<use xlink:href='#gpDot' x='125.0' y='370.5' color='red'/>
	<use xlink:href='#gpDot' x='125.2' y='361.2' color='red'/>
	<use xlink:href='#gpDot' x='126.0' y='346.3' color='red'/>
	<use xlink:href='#gpDot' x='126.2' y='342.5' color='red'/>
	<use xlink:href='#gpDot' x='126.5' y='333.1' color='red'/>
	<use xlink:href='#gpDot' x='127.0' y='319.5' color='red'/>
	<use xlink:href='#gpDot' x='127.2' y='319.4' color='red'/>
	<use xlink:href='#gpDot' x='128.7' y='308.3' color='red'/>
	<use xlink:href='#gpDot' x='128.9' y='373.9' color='red'/>
	<use xlink:href='#gpDot' x='129.2' y='414.8' color='red'/>
	<use xlink:href='#gpDot' x='130.2' y='389.4' color='red'/>
	<use xlink:href='#gpDot' x='131.9' y='351.4' color='red'/>
	<use xlink:href='#gpDot' x='132.2' y='395.1' color='red'/>
	<use xlink:href='#gpDot' x='132.4' y='414.8' color='red'/>
	<use xlink:href='#gpDot' x='133.4' y='387.1' color='red'/>
	<use xlink:href='#gpDot' x='134.9' y='352.3' color='red'/>
	<use xlink:href='#gpDot' x='135.1' y='350.2' color='red'/>
	<use xlink:href='#gpDot' x='135.9' y='334.0' color='red'/>
	<use xlink:href='#gpDot' x='137.3' y='297.2' color='red'/>
	<use xlink:href='#gpDot' x='137.8' y='292.0' color='red'/>
	<use xlink:href='#gpDot' x='138.1' y='336.7' color='red'/>
	<use xlink:href='#gpDot' x='138.6' y='343.2' color='red'/>
	<use xlink:href='#gpDot' x='138.8' y='345.4' color='red'/>
	<use xlink:href='#gpDot' x='139.1' y='400.0' color='red'/>
	<use xlink:href='#gpDot' x='139.3' y='417.9' color='red'/>
	<use xlink:href='#gpDot' x='139.6' y='409.9' color='red'/>
	<use xlink:href='#gpDot' x='139.8' y='400.8' color='red'/>
	<use xlink:href='#gpDot' x='140.1' y='399.5' color='red'/>
	<use xlink:href='#gpDot' x='141.8' y='352.7' color='red'/>
	<use xlink:href='#gpDot' x='142.1' y='351.3' color='red'/>
	<use xlink:href='#gpDot' x='142.3' y='349.1' color='red'/>
	<use xlink:href='#gpDot' x='142.5' y='355.7' color='red'/>
	<use xlink:href='#gpDot' x='142.8' y='403.8' color='red'/>
	<use xlink:href='#gpDot' x='143.0' y='398.8' color='red'/>
	<use xlink:href='#gpDot' x='143.5' y='386.3' color='red'/>
	<use xlink:href='#gpDot' x='143.8' y='379.3' color='red'/>
	<use xlink:href='#gpDot' x='144.0' y='380.1' color='red'/>
	<use xlink:href='#gpDot' x='144.5' y='373.6' color='red'/>
	<use xlink:href='#gpDot' x='144.8' y='375.4' color='red'/>
	<use xlink:href='#gpDot' x='146.8' y='330.4' color='red'/>
	<use xlink:href='#gpDot' x='147.5' y='324.7' color='red'/>
	<use xlink:href='#gpDot' x='148.0' y='320.7' color='red'/>
	<use xlink:href='#gpDot' x='148.5' y='323.9' color='red'/>
	<use xlink:href='#gpDot' x='148.7' y='338.9' color='red'/>
	<use xlink:href='#gpDot' x='150.7' y='339.7' color='red'/>
	<use xlink:href='#gpDot' x='151.0' y='356.9' color='red'/>
	<use xlink:href='#gpDot' x='151.9' y='393.3' color='red'/>
	<use xlink:href='#gpDot' x='152.2' y='392.8' color='red'/>
	<use xlink:href='#gpDot' x='153.7' y='355.5' color='red'/>
	<use xlink:href='#gpDot' x='154.2' y='342.3' color='red'/>
	<use xlink:href='#gpDot' x='154.4' y='341.2' color='red'/>
	<use xlink:href='#gpDot' x='154.7' y='356.4' color='red'/>
	<use xlink:href='#gpDot' x='156.2' y='320.5' color='red'/>
	<use xlink:href='#gpDot' x='156.4' y='364.3' color='red'/>
	<use xlink:href='#gpDot' x='156.9' y='364.1' color='red'/>
	<use xlink:href='#gpDot' x='157.1' y='394.6' color='red'/>
	<use xlink:href='#gpDot' x='157.4' y='410.7' color='red'/>
	<use xlink:href='#gpDot' x='157.6' y='418.5' color='red'/>
	<use xlink:href='#gpDot' x='158.6' y='392.0' color='red'/>
	<use xlink:href='#gpDot' x='158.9' y='392.2' color='red'/>
	<use xlink:href='#gpDot' x='159.6' y='369.6' color='red'/>
	<use xlink:href='#gpDot' x='159.9' y='367.9' color='red'/>
	<use xlink:href='#gpDot' x='162.1' y='311.7' color='red'/>
	<use xlink:href='#gpDot' x='162.3' y='335.3' color='red'/>
	<use xlink:href='#gpDot' x='162.6' y='328.9' color='red'/>
	<use xlink:href='#gpDot' x='163.1' y='314.9' color='red'/>
	<use xlink:href='#gpDot' x='163.6' y='300.7' color='red'/>
	<use xlink:href='#gpDot' x='163.8' y='299.8' color='red'/>
	<use xlink:href='#gpDot' x='164.6' y='282.0' color='red'/>
	<use xlink:href='#gpDot' x='164.8' y='272.9' color='red'/>
	<use xlink:href='#gpDot' x='165.1' y='268.3' color='red'/>
	<use xlink:href='#gpDot' x='165.3' y='278.5' color='red'/>
	<use xlink:href='#gpDot' x='165.6' y='282.1' color='red'/>
	<use xlink:href='#gpDot' x='166.3' y='263.1' color='red'/>
	<use xlink:href='#gpDot' x='166.5' y='254.0' color='red'/>
	<use xlink:href='#gpDot' x='166.8' y='254.7' color='red'/>
	<use xlink:href='#gpDot' x='167.3' y='295.2' color='red'/>
	<use xlink:href='#gpDot' x='168.8' y='256.0' color='red'/>
	<use xlink:href='#gpDot' x='169.0' y='269.9' color='red'/>
	<use xlink:href='#gpDot' x='169.5' y='300.8' color='red'/>
	<use xlink:href='#gpDot' x='169.8' y='347.9' color='red'/>
	<use xlink:href='#gpDot' x='170.0' y='390.5' color='red'/>
	<use xlink:href='#gpDot' x='170.5' y='382.6' color='red'/>
	<use xlink:href='#gpDot' x='170.7' y='384.1' color='red'/>
	<use xlink:href='#gpDot' x='171.0' y='388.3' color='red'/>
	<use xlink:href='#gpDot' x='171.5' y='374.9' color='red'/>
	<use xlink:href='#gpDot' x='171.7' y='366.8' color='red'/>
	<use xlink:href='#gpDot' x='172.5' y='357.0' color='red'/>
	<use xlink:href='#gpDot' x='173.7' y='327.5' color='red'/>
	<use xlink:href='#gpDot' x='174.0' y='328.1' color='red'/>
	<use xlink:href='#gpDot' x='175.0' y='319.9' color='red'/>
	<use xlink:href='#gpDot' x='175.2' y='315.3' color='red'/>
	<use xlink:href='#gpDot' x='175.4' y='180.2' color='red'/>
	<use xlink:href='#gpDot' x='175.7' y='328.6' color='red'/>
	<use xlink:href='#gpDot' x='175.9' y='416.6' color='red'/>
	<use xlink:href='#gpDot' x='178.9' y='339.8' color='red'/>
	<use xlink:href='#gpDot' x='179.2' y='337.4' color='red'/>
	<use xlink:href='#gpDot' x='179.4' y='411.2' color='red'/>
	<use xlink:href='#gpDot' x='180.1' y='403.2' color='red'/>
	<use xlink:href='#gpDot' x='180.4' y='419.3' color='red'/>
	<use xlink:href='#gpDot' x='180.9' y='406.6' color='red'/>
	<use xlink:href='#gpDot' x='181.1' y='420.9' color='red'/>
	<use xlink:href='#gpDot' x='181.6' y='408.6' color='red'/>
	<use xlink:href='#gpDot' x='181.9' y='417.9' color='red'/>
	<use xlink:href='#gpDot' x='182.1' y='419.0' color='red'/>
	<use xlink:href='#gpDot' x='183.1' y='392.2' color='red'/>
	<use xlink:href='#gpDot' x='183.6' y='378.3' color='red'/>
	<use xlink:href='#gpDot' x='183.9' y='378.5' color='red'/>
	<use xlink:href='#gpDot' x='184.6' y='367.9' color='red'/>
	<use xlink:href='#gpDot' x='185.8' y='366.0' color='red'/>
	<use xlink:href='#gpDot' x='186.1' y='367.2' color='red'/>
	<use xlink:href='#gpDot' x='186.6' y='368.0' color='red'/>
	<use xlink:href='#gpDot' x='186.8' y='399.3' color='red'/>
	<use xlink:href='#gpDot' x='187.3' y='391.0' color='red'/>
	<use xlink:href='#gpDot' x='187.8' y='385.2' color='red'/>
	<use xlink:href='#gpDot' x='188.3' y='415.2' color='red'/>
	<use xlink:href='#gpDot' x='188.6' y='420.9' color='red'/>
	<use xlink:href='#gpDot' x='189.3' y='400.1' color='red'/>
	<use xlink:href='#gpDot' x='189.6' y='412.9' color='red'/>
	<use xlink:href='#gpDot' x='189.8' y='395.8' color='red'/>
	<use xlink:href='#gpDot' x='191.0' y='390.2' color='red'/>
	<use xlink:href='#gpDot' x='191.3' y='381.9' color='red'/>
	<use xlink:href='#gpDot' x='191.5' y='416.4' color='red'/>
	<use xlink:href='#gpDot' x='191.8' y='421.5' color='red'/>
	<use xlink:href='#gpDot' x='193.0' y='389.8' color='red'/>
	<use xlink:href='#gpDot' x='193.8' y='371.0' color='red'/>
	<use xlink:href='#gpDot' x='194.0' y='399.0' color='red'/>
	<use xlink:href='#gpDot' x='194.3' y='416.9' color='red'/>
	<use xlink:href='#gpDot' x='196.0' y='394.4' color='red'/>
	<use xlink:href='#gpDot' x='196.2' y='420.7' color='red'/>
	<use xlink:href='#gpDot' x='197.0' y='399.8' color='red'/>
	<use xlink:href='#gpDot' x='198.0' y='402.2' color='red'/>
	<use xlink:href='#gpDot' x='198.2' y='421.3' color='red'/>
	<use xlink:href='#gpDot' x='199.2' y='412.5' color='red'/>
	<use xlink:href='#gpDot' x='199.4' y='417.4' color='red'/>
	<use xlink:href='#gpDot' x='199.7' y='420.4' color='red'/>
	<use xlink:href='#gpDot' x='199.9' y='416.1' color='red'/>
	<use xlink:href='#gpDot' x='200.2' y='406.9' color='red'/>
	<use xlink:href='#gpDot' x='200.4' y='406.7' color='red'/>
	<use xlink:href='#gpDot' x='200.7' y='400.7' color='red'/>
	<use xlink:href='#gpDot' x='201.2' y='408.4' color='red'/>
	<use xlink:href='#gpDot' x='201.9' y='405.9' color='red'/>
	<use xlink:href='#gpDot' x='202.2' y='413.3' color='red'/>
	<use xlink:href='#gpDot' x='202.4' y='413.6' color='red'/>
	<use xlink:href='#gpDot' x='203.2' y='411.6' color='red'/>
	<use xlink:href='#gpDot' x='203.4' y='420.3' color='red'/>
	<use xlink:href='#gpDot' x='203.9' y='413.9' color='red'/>
	<use xlink:href='#gpDot' x='204.1' y='401.2' color='red'/>
	<use xlink:href='#gpDot' x='204.9' y='401.2' color='red'/>
	<use xlink:href='#gpDot' x='205.9' y='399.0' color='red'/>
	<use xlink:href='#gpDot' x='206.1' y='418.7' color='red'/>
	<use xlink:href='#gpDot' x='206.4' y='414.3' color='red'/>
	<use xlink:href='#gpDot' x='207.1' y='401.5' color='red'/>
	<use xlink:href='#gpDot' x='208.6' y='383.0' color='red'/>
	<use xlink:href='#gpDot' x='208.8' y='382.2' color='red'/>
	<use xlink:href='#gpDot' x='209.6' y='398.0' color='red'/>
	<use xlink:href='#gpDot' x='209.8' y='402.6' color='red'/>
	<use xlink:href='#gpDot' x='210.3' y='403.8' color='red'/>
	<use xlink:href='#gpDot' x='210.6' y='403.6' color='red'/>
	<use xlink:href='#gpDot' x='211.1' y='411.0' color='red'/>
	<use xlink:href='#gpDot' x='211.3' y='418.9' color='red'/>
	<use xlink:href='#gpDot' x='212.1' y='408.5' color='red'/>
	<use xlink:href='#gpDot' x='212.3' y='415.7' color='red'/>
	<use xlink:href='#gpDot' x='213.1' y='396.9' color='red'/>
	<use xlink:href='#gpDot' x='213.3' y='408.0' color='red'/>
	<use xlink:href='#gpDot' x='213.5' y='413.6' color='red'/>
	<use xlink:href='#gpDot' x='214.0' y='399.3' color='red'/>
	<use xlink:href='#gpDot' x='214.3' y='399.6' color='red'/>
	<use xlink:href='#gpDot' x='214.5' y='393.3' color='red'/>
	<use xlink:href='#gpDot' x='215.0' y='383.9' color='red'/>
	<use xlink:href='#gpDot' x='215.3' y='411.1' color='red'/>
	<use xlink:href='#gpDot' x='215.5' y='415.1' color='red'/>
	<use xlink:href='#gpDot' x='215.8' y='414.7' color='red'/>
	<use xlink:href='#gpDot' x='216.0' y='404.6' color='red'/>
	<use xlink:href='#gpDot' x='216.3' y='408.0' color='red'/>
	<use xlink:href='#gpDot' x='217.5' y='387.3' color='red'/>
	<use xlink:href='#gpDot' x='218.0' y='374.8' color='red'/>
	<use xlink:href='#gpDot' x='218.2' y='374.8' color='red'/>
	<use xlink:href='#gpDot' x='218.7' y='376.8' color='red'/>
	<use xlink:href='#gpDot' x='219.7' y='382.6' color='red'/>
	<use xlink:href='#gpDot' x='220.0' y='414.4' color='red'/>
	<use xlink:href='#gpDot' x='221.0' y='403.8' color='red'/>
	<use xlink:href='#gpDot' x='223.2' y='371.0' color='red'/>
	<use xlink:href='#gpDot' x='223.4' y='420.4' color='red'/>
	<use xlink:href='#gpDot' x='223.7' y='417.2' color='red'/>
	<use xlink:href='#gpDot' x='223.9' y='421.4' color='red'/>
	<use xlink:href='#gpDot' x='224.2' y='416.6' color='red'/>
	<use xlink:href='#gpDot' x='224.9' y='398.7' color='red'/>
	<use xlink:href='#gpDot' x='225.2' y='413.4' color='red'/>
	<use xlink:href='#gpDot' x='225.4' y='416.1' color='red'/>
	<use xlink:href='#gpDot' x='225.7' y='420.7' color='red'/>
	<use xlink:href='#gpDot' x='226.7' y='411.7' color='red'/>
	<use xlink:href='#gpDot' x='226.9' y='419.8' color='red'/>
	<use xlink:href='#gpDot' x='227.2' y='419.6' color='red'/>
	<use xlink:href='#gpDot' x='227.4' y='420.8' color='red'/>
	<use xlink:href='#gpDot' x='227.7' y='416.5' color='red'/>
	<use xlink:href='#gpDot' x='231.6' y='319.8' color='red'/>
	<use xlink:href='#gpDot' x='231.9' y='310.6' color='red'/>
	<use xlink:href='#gpDot' x='232.1' y='347.4' color='red'/>
	<use xlink:href='#gpDot' x='233.6' y='381.6' color='red'/>
	<use xlink:href='#gpDot' x='233.8' y='383.8' color='red'/>
	<use xlink:href='#gpDot' x='234.3' y='404.1' color='red'/>
	<use xlink:href='#gpDot' x='235.1' y='407.5' color='red'/>
	<use xlink:href='#gpDot' x='235.8' y='399.2' color='red'/>
	<use xlink:href='#gpDot' x='236.1' y='400.8' color='red'/>
	<use xlink:href='#gpDot' x='236.3' y='414.7' color='red'/>
	<use xlink:href='#gpDot' x='236.6' y='420.6' color='red'/>
	<use xlink:href='#gpDot' x='238.0' y='410.1' color='red'/>
	<use xlink:href='#gpDot' x='238.3' y='420.6' color='red'/>
	<use xlink:href='#gpDot' x='238.5' y='418.5' color='red'/>
	<use xlink:href='#gpDot' x='238.8' y='420.7' color='red'/>
	<use xlink:href='#gpDot' x='239.0' y='412.5' color='red'/>
	<use xlink:href='#gpDot' x='239.3' y='420.6' color='red'/>
	<use xlink:href='#gpDot' x='241.0' y='377.8' color='red'/>
	<use xlink:href='#gpDot' x='241.3' y='377.6' color='red'/>
	<use xlink:href='#gpDot' x='242.7' y='401.1' color='red'/>
	<use xlink:href='#gpDot' x='243.7' y='396.5' color='red'/>
	<use xlink:href='#gpDot' x='244.0' y='416.5' color='red'/>
	<use xlink:href='#gpDot' x='244.7' y='414.4' color='red'/>
	<use xlink:href='#gpDot' x='245.0' y='420.5' color='red'/>
	<use xlink:href='#gpDot' x='245.5' y='415.7' color='red'/>
	<use xlink:href='#gpDot' x='245.7' y='420.6' color='red'/>
	<use xlink:href='#gpDot' x='246.7' y='411.6' color='red'/>
	<use xlink:href='#gpDot' x='246.9' y='420.4' color='red'/>
	<use xlink:href='#gpDot' x='248.4' y='400.6' color='red'/>
	<use xlink:href='#gpDot' x='248.7' y='392.0' color='red'/>
	<use xlink:href='#gpDot' x='248.9' y='415.6' color='red'/>
	<use xlink:href='#gpDot' x='249.7' y='415.4' color='red'/>
	<use xlink:href='#gpDot' x='249.9' y='420.4' color='red'/>
	<use xlink:href='#gpDot' x='250.2' y='420.9' color='red'/>
	<use xlink:href='#gpDot' x='250.4' y='416.1' color='red'/>
	<use xlink:href='#gpDot' x='250.9' y='414.1' color='red'/>
	<use xlink:href='#gpDot' x='251.2' y='417.7' color='red'/>
	<use xlink:href='#gpDot' x='251.6' y='408.2' color='red'/>
	<use xlink:href='#gpDot' x='252.6' y='379.4' color='red'/>
	<use xlink:href='#gpDot' x='252.9' y='382.1' color='red'/>
	<use xlink:href='#gpDot' x='253.6' y='410.8' color='red'/>
	<use xlink:href='#gpDot' x='253.9' y='420.8' color='red'/>
	<use xlink:href='#gpDot' x='254.1' y='413.0' color='red'/>
	<use xlink:href='#gpDot' x='254.6' y='399.1' color='red'/>
	<use xlink:href='#gpDot' x='254.9' y='405.6' color='red'/>
	<use xlink:href='#gpDot' x='255.1' y='410.5' color='red'/>
	<use xlink:href='#gpDot' x='255.4' y='421.2' color='red'/>
	<use xlink:href='#gpDot' x='255.9' y='409.0' color='red'/>
	<use xlink:href='#gpDot' x='256.1' y='408.4' color='red'/>
	<use xlink:href='#gpDot' x='256.8' y='398.7' color='red'/>
	<use xlink:href='#gpDot' x='257.1' y='416.1' color='red'/>
	<use xlink:href='#gpDot' x='257.3' y='416.7' color='red'/>
	<use xlink:href='#gpDot' x='257.6' y='413.6' color='red'/>
	<use xlink:href='#gpDot' x='257.8' y='418.8' color='red'/>
	<use xlink:href='#gpDot' x='258.1' y='420.5' color='red'/>
	<use xlink:href='#gpDot' x='258.3' y='413.1' color='red'/>
	<use xlink:href='#gpDot' x='258.6' y='404.1' color='red'/>
	<use xlink:href='#gpDot' x='258.8' y='417.2' color='red'/>
	<use xlink:href='#gpDot' x='259.1' y='421.3' color='red'/>
	<use xlink:href='#gpDot' x='259.3' y='421.2' color='red'/>
	<use xlink:href='#gpDot' x='260.3' y='394.0' color='red'/>
	<use xlink:href='#gpDot' x='261.0' y='376.9' color='red'/>
	<use xlink:href='#gpDot' x='261.5' y='422.4' color='red'/>
	<use xlink:href='#gpDot' x='263.3' y='405.8' color='red'/>
	<use xlink:href='#gpDot' x='264.5' y='420.6' color='red'/>
	<use xlink:href='#gpDot' x='264.8' y='417.7' color='red'/>
	<use xlink:href='#gpDot' x='265.0' y='413.3' color='red'/>
	<use xlink:href='#gpDot' x='265.5' y='415.6' color='red'/>
	<use xlink:href='#gpDot' x='266.2' y='405.4' color='red'/>
	<use xlink:href='#gpDot' x='267.5' y='404.2' color='red'/>
	<use xlink:href='#gpDot' x='268.0' y='409.0' color='red'/>
	<use xlink:href='#gpDot' x='268.7' y='402.4' color='red'/>
	<use xlink:href='#gpDot' x='269.0' y='418.3' color='red'/>
	<use xlink:href='#gpDot' x='269.2' y='420.4' color='red'/>
	<use xlink:href='#gpDot' x='269.7' y='405.7' color='red'/>
	<use xlink:href='#gpDot' x='270.0' y='418.0' color='red'/>
	<use xlink:href='#gpDot' x='270.2' y='420.6' color='red'/>
	<use xlink:href='#gpDot' x='270.9' y='406.7' color='red'/>
	<use xlink:href='#gpDot' x='271.2' y='420.6' color='red'/>
	<use xlink:href='#gpDot' x='271.7' y='406.2' color='red'/>
	<use xlink:href='#gpDot' x='271.9' y='420.4' color='red'/>
	<use xlink:href='#gpDot' x='272.7' y='400.9' color='red'/>
	<use xlink:href='#gpDot' x='272.9' y='420.7' color='red'/>
	<use xlink:href='#gpDot' x='273.2' y='420.7' color='red'/>
	<use xlink:href='#gpDot' x='274.9' y='405.7' color='red'/>
	<use xlink:href='#gpDot' x='278.4' y='399.2' color='red'/>
	<use xlink:href='#gpDot' x='279.1' y='412.9' color='red'/>
	<use xlink:href='#gpDot' x='279.6' y='410.2' color='red'/>
	<use xlink:href='#gpDot' x='279.8' y='420.6' color='red'/>
	<use xlink:href='#gpDot' x='280.3' y='416.5' color='red'/>
	<use xlink:href='#gpDot' x='280.6' y='415.3' color='red'/>
	<use xlink:href='#gpDot' x='280.8' y='420.4' color='red'/>
	<use xlink:href='#gpDot' x='281.6' y='404.8' color='red'/>
	<use xlink:href='#gpDot' x='283.3' y='357.3' color='red'/>
	<use xlink:href='#gpDot' x='283.6' y='405.1' color='red'/>
	<use xlink:href='#gpDot' x='284.8' y='391.2' color='red'/>
	<use xlink:href='#gpDot' x='285.5' y='386.9' color='red'/>
	<use xlink:href='#gpDot' x='285.8' y='420.5' color='red'/>
	<use xlink:href='#gpDot' x='287.5' y='377.1' color='red'/>
	<use xlink:href='#gpDot' x='287.8' y='420.7' color='red'/>
	<use xlink:href='#gpDot' x='288.3' y='416.5' color='red'/>
	<use xlink:href='#gpDot' x='288.8' y='410.5' color='red'/>
	<use xlink:href='#gpDot' x='289.0' y='406.3' color='red'/>
	<use xlink:href='#gpDot' x='80.2' y='407.3' color='red'/>
	<use xlink:href='#gpDot' x='290.5' y='409.6' color='red'/>
	<use xlink:href='#gpDot' x='291.2' y='395.3' color='red'/>
	<use xlink:href='#gpDot' x='291.5' y='417.5' color='red'/>
	<use xlink:href='#gpDot' x='291.7' y='418.1' color='red'/>
	<use xlink:href='#gpDot' x='292.0' y='413.8' color='red'/>
	<use xlink:href='#gpDot' x='292.2' y='418.7' color='red'/>
	<use xlink:href='#gpDot' x='294.2' y='374.6' color='red'/>
	<use xlink:href='#gpDot' x='294.4' y='380.1' color='red'/>
	<use xlink:href='#gpDot' x='294.7' y='420.7' color='red'/>
	<use xlink:href='#gpDot' x='295.7' y='398.5' color='red'/>
	<use xlink:href='#gpDot' x='297.2' y='387.7' color='red'/>
	<use xlink:href='#gpDot' x='297.4' y='416.5' color='red'/>
	<use xlink:href='#gpDot' x='297.9' y='410.5' color='red'/>
	<use xlink:href='#gpDot' x='299.4' y='410.4' color='red'/>
	<use xlink:href='#gpDot' x='299.6' y='420.5' color='red'/>
	<use xlink:href='#gpDot' x='301.4' y='380.8' color='red'/>
	<use xlink:href='#gpDot' x='301.6' y='420.4' color='red'/>
	<use xlink:href='#gpDot' x='302.4' y='401.5' color='red'/>
	<use xlink:href='#gpDot' x='302.6' y='420.5' color='red'/>
	<use xlink:href='#gpDot' x='303.8' y='400.1' color='red'/>
	<use xlink:href='#gpDot' x='305.1' y='358.0' color='red'/>
	<use xlink:href='#gpDot' x='305.3' y='405.4' color='red'/>
	<use xlink:href='#gpDot' x='305.6' y='420.9' color='red'/>
	<use xlink:href='#gpDot' x='305.8' y='415.1' color='red'/>
	<use xlink:href='#gpDot' x='306.3' y='416.2' color='red'/>
	<use xlink:href='#gpDot' x='306.6' y='418.9' color='red'/>
	<use xlink:href='#gpDot' x='306.8' y='420.7' color='red'/>
	<use xlink:href='#gpDot' x='308.1' y='384.8' color='red'/>
	<use xlink:href='#gpDot' x='308.3' y='391.2' color='red'/>
	<use xlink:href='#gpDot' x='308.5' y='413.0' color='red'/>
	<use xlink:href='#gpDot' x='310.0' y='396.7' color='red'/>
	<use xlink:href='#gpDot' x='310.3' y='420.5' color='red'/>
	<use xlink:href='#gpDot' x='312.0' y='407.1' color='red'/>
	<use xlink:href='#gpDot' x='312.3' y='418.1' color='red'/>
	<use xlink:href='#gpDot' x='312.5' y='420.5' color='red'/>
	<use xlink:href='#gpDot' x='313.0' y='415.3' color='red'/>
	<use xlink:href='#gpDot' x='313.2' y='419.0' color='red'/>
	<use xlink:href='#gpDot' x='314.0' y='413.5' color='red'/>
	<use xlink:href='#gpDot' x='314.2' y='420.2' color='red'/>
	<use xlink:href='#gpDot' x='315.5' y='389.4' color='red'/>
	<use xlink:href='#gpDot' x='316.2' y='404.0' color='red'/>
	<use xlink:href='#gpDot' x='316.5' y='420.8' color='red'/>
	<use xlink:href='#gpDot' x='317.5' y='404.0' color='red'/>
	<use xlink:href='#gpDot' x='317.7' y='420.8' color='red'/>
	<use xlink:href='#gpDot' x='319.7' y='403.9' color='red'/>
	<use xlink:href='#gpDot' x='319.9' y='421.3' color='red'/>
	<use xlink:href='#gpDot' x='320.4' y='406.0' color='red'/>
	<use xlink:href='#gpDot' x='320.7' y='420.7' color='red'/>
	<use xlink:href='#gpDot' x='323.9' y='337.5' color='red'/>
	<use xlink:href='#gpDot' x='324.1' y='388.8' color='red'/>
	<use xlink:href='#gpDot' x='324.6' y='414.1' color='red'/>
	<use xlink:href='#gpDot' x='324.9' y='420.4' color='red'/>
	<use xlink:href='#gpDot' x='325.1' y='420.7' color='red'/>
	<use xlink:href='#gpDot' x='325.9' y='403.7' color='red'/>
	<use xlink:href='#gpDot' x='326.1' y='415.1' color='red'/>
	<use xlink:href='#gpDot' x='326.4' y='415.4' color='red'/>
	<use xlink:href='#gpDot' x='326.6' y='420.4' color='red'/>
	<use xlink:href='#gpDot' x='326.9' y='414.7' color='red'/>
	<use xlink:href='#gpDot' x='327.1' y='419.8' color='red'/>
	<use xlink:href='#gpDot' x='327.3' y='415.5' color='red'/>
	<use xlink:href='#gpDot' x='327.6' y='420.3' color='red'/>
	<use xlink:href='#gpDot' x='327.8' y='408.7' color='red'/>
	<use xlink:href='#gpDot' x='328.1' y='414.8' color='red'/>
	<use xlink:href='#gpDot' x='328.3' y='415.9' color='red'/>
	<use xlink:href='#gpDot' x='328.6' y='420.5' color='red'/>
	<use xlink:href='#gpDot' x='328.8' y='414.1' color='red'/>
	<use xlink:href='#gpDot' x='329.1' y='414.5' color='red'/>
	<use xlink:href='#gpDot' x='329.6' y='409.9' color='red'/>
	<use xlink:href='#gpDot' x='329.8' y='420.0' color='red'/>
	<use xlink:href='#gpDot' x='330.3' y='408.5' color='red'/>
	<use xlink:href='#gpDot' x='330.6' y='421.1' color='red'/>
	<use xlink:href='#gpDot' x='331.6' y='410.3' color='red'/>
	<use xlink:href='#gpDot' x='331.8' y='420.7' color='red'/>
	<use xlink:href='#gpDot' x='333.8' y='406.2' color='red'/>
	<use xlink:href='#gpDot' x='334.0' y='421.1' color='red'/>
	<use xlink:href='#gpDot' x='335.0' y='400.1' color='red'/>
	<use xlink:href='#gpDot' x='336.3' y='389.0' color='red'/>
	<use xlink:href='#gpDot' x='336.5' y='420.3' color='red'/>
	<use xlink:href='#gpDot' x='336.7' y='418.3' color='red'/>
	<use xlink:href='#gpDot' x='339.0' y='372.1' color='red'/>
	<use xlink:href='#gpDot' x='339.2' y='420.4' color='red'/>
	<use xlink:href='#gpDot' x='339.7' y='412.7' color='red'/>
	<use xlink:href='#gpDot' x='340.5' y='405.8' color='red'/>
	<use xlink:href='#gpDot' x='341.0' y='418.8' color='red'/>
	<use xlink:href='#gpDot' x='341.9' y='413.1' color='red'/>
	<use xlink:href='#gpDot' x='343.2' y='396.0' color='red'/>
	<use xlink:href='#gpDot' x='343.7' y='417.2' color='red'/>
	<use xlink:href='#gpDot' x='343.9' y='415.6' color='red'/>
	<use xlink:href='#gpDot' x='344.9' y='412.2' color='red'/>
	<use xlink:href='#gpDot' x='345.2' y='417.8' color='red'/>
	<use xlink:href='#gpDot' x='345.9' y='405.3' color='red'/>
	<use xlink:href='#gpDot' x='346.2' y='420.4' color='red'/>
	<use xlink:href='#gpDot' x='346.4' y='415.6' color='red'/>
	<use xlink:href='#gpDot' x='347.1' y='402.2' color='red'/>
	<use xlink:href='#gpDot' x='348.4' y='404.2' color='red'/>
	<use xlink:href='#gpDot' x='349.6' y='408.4' color='red'/>
	<use xlink:href='#gpDot' x='349.9' y='421.4' color='red'/>
	<use xlink:href='#gpDot' x='350.1' y='412.4' color='red'/>
	<use xlink:href='#gpDot' x='350.4' y='420.8' color='red'/>
	<use xlink:href='#gpDot' x='350.6' y='421.0' color='red'/>
	<use xlink:href='#gpDot' x='350.9' y='413.9' color='red'/>
	<use xlink:href='#gpDot' x='351.1' y='414.1' color='red'/>
	<use xlink:href='#gpDot' x='351.6' y='407.9' color='red'/>
	<use xlink:href='#gpDot' x='352.1' y='406.6' color='red'/>
	<use xlink:href='#gpDot' x='352.3' y='420.8' color='red'/>
	<use xlink:href='#gpDot' x='352.8' y='410.4' color='red'/>
	<use xlink:href='#gpDot' x='353.1' y='404.4' color='red'/>
	<use xlink:href='#gpDot' x='353.3' y='417.8' color='red'/>
	<use xlink:href='#gpDot' x='353.6' y='418.4' color='red'/>
	<use xlink:href='#gpDot' x='353.8' y='420.7' color='red'/>
	<use xlink:href='#gpDot' x='356.0' y='362.5' color='red'/>
	<use xlink:href='#gpDot' x='356.3' y='419.1' color='red'/>
	<use xlink:href='#gpDot' x='356.5' y='411.8' color='red'/>
	<use xlink:href='#gpDot' x='356.8' y='411.8' color='red'/>
	<use xlink:href='#gpDot' x='357.3' y='397.8' color='red'/>
	<use xlink:href='#gpDot' x='357.5' y='397.1' color='red'/>
	<use xlink:href='#gpDot' x='358.0' y='409.0' color='red'/>
	<use xlink:href='#gpDot' x='358.3' y='420.3' color='red'/>
	<use xlink:href='#gpDot' x='359.5' y='420.6' color='red'/>
	<use xlink:href='#gpDot' x='360.5' y='400.4' color='red'/>
	<use xlink:href='#gpDot' x='360.7' y='413.4' color='red'/>
	<use xlink:href='#gpDot' x='361.0' y='420.7' color='red'/>
	<use xlink:href='#gpDot' x='361.2' y='420.7' color='red'/>
	<use xlink:href='#gpDot' x='361.5' y='419.6' color='red'/>
	<use xlink:href='#gpDot' x='362.0' y='405.0' color='red'/>
	<use xlink:href='#gpDot' x='362.5' y='390.9' color='red'/>
	<use xlink:href='#gpDot' x='362.7' y='407.0' color='red'/>
	<use xlink:href='#gpDot' x='363.2' y='408.5' color='red'/>
	<use xlink:href='#gpDot' x='364.5' y='380.1' color='red'/>
	<use xlink:href='#gpDot' x='365.7' y='362.1' color='red'/>
	<use xlink:href='#gpDot' x='365.9' y='413.4' color='red'/>
	<use xlink:href='#gpDot' x='366.2' y='414.8' color='red'/>
	<use xlink:href='#gpDot' x='366.9' y='403.4' color='red'/>
	<use xlink:href='#gpDot' x='367.2' y='417.6' color='red'/>
	<use xlink:href='#gpDot' x='367.4' y='416.0' color='red'/>
	<use xlink:href='#gpDot' x='367.7' y='419.8' color='red'/>
	<use xlink:href='#gpDot' x='367.9' y='415.8' color='red'/>
	<use xlink:href='#gpDot' x='368.2' y='420.3' color='red'/>
	<use xlink:href='#gpDot' x='368.4' y='408.8' color='red'/>
	<use xlink:href='#gpDot' x='368.7' y='414.2' color='red'/>
	<use xlink:href='#gpDot' x='368.9' y='414.2' color='red'/>
	<use xlink:href='#gpDot' x='369.2' y='420.6' color='red'/>
	<use xlink:href='#gpDot' x='370.4' y='389.1' color='red'/>
	<use xlink:href='#gpDot' x='370.6' y='380.2' color='red'/>
	<use xlink:href='#gpDot' x='370.9' y='387.8' color='red'/>
	<use xlink:href='#gpDot' x='371.4' y='391.5' color='red'/>
	<use xlink:href='#gpDot' x='371.6' y='411.8' color='red'/>
	<use xlink:href='#gpDot' x='371.9' y='420.6' color='red'/>
	<use xlink:href='#gpDot' x='374.6' y='355.3' color='red'/>
	<use xlink:href='#gpDot' x='374.8' y='420.5' color='red'/>
	<use xlink:href='#gpDot' x='375.3' y='416.2' color='red'/>
	<use xlink:href='#gpDot' x='375.6' y='420.6' color='red'/>
	<use xlink:href='#gpDot' x='376.8' y='396.7' color='red'/>
	<use xlink:href='#gpDot' x='377.1' y='417.1' color='red'/>
	<use xlink:href='#gpDot' x='378.6' y='408.0' color='red'/>
	<use xlink:href='#gpDot' x='379.5' y='415.0' color='red'/>
	<use xlink:href='#gpDot' x='380.0' y='417.3' color='red'/>
	<use xlink:href='#gpDot' x='380.8' y='409.5' color='red'/>
	<use xlink:href='#gpDot' x='381.0' y='420.6' color='red'/>
	<use xlink:href='#gpDot' x='381.3' y='420.5' color='red'/>
	<use xlink:href='#gpDot' x='382.3' y='400.5' color='red'/>
	<use xlink:href='#gpDot' x='383.0' y='395.9' color='red'/>
	<use xlink:href='#gpDot' x='384.0' y='399.2' color='red'/>
	<use xlink:href='#gpDot' x='384.2' y='418.2' color='red'/>
	<use xlink:href='#gpDot' x='385.7' y='384.4' color='red'/>
	<use xlink:href='#gpDot' x='386.5' y='401.4' color='red'/>
	<use xlink:href='#gpDot' x='386.7' y='399.7' color='red'/>
	<use xlink:href='#gpDot' x='387.2' y='417.2' color='red'/>
	<use xlink:href='#gpDot' x='387.5' y='421.1' color='red'/>
	<use xlink:href='#gpDot' x='387.7' y='413.4' color='red'/>
	<use xlink:href='#gpDot' x='388.0' y='420.8' color='red'/>
	<use xlink:href='#gpDot' x='388.7' y='401.7' color='red'/>
	<use xlink:href='#gpDot' x='389.0' y='416.1' color='red'/>
	<use xlink:href='#gpDot' x='389.2' y='421.2' color='red'/>
	<use xlink:href='#gpDot' x='390.2' y='391.7' color='red'/>
	<use xlink:href='#gpDot' x='390.4' y='412.5' color='red'/>
	<use xlink:href='#gpDot' x='390.7' y='421.3' color='red'/>
	<use xlink:href='#gpDot' x='392.4' y='373.5' color='red'/>
	<use xlink:href='#gpDot' x='392.7' y='400.0' color='red'/>
	<use xlink:href='#gpDot' x='394.1' y='379.8' color='red'/>
	<use xlink:href='#gpDot' x='394.4' y='409.4' color='red'/>
	<use xlink:href='#gpDot' x='394.6' y='417.8' color='red'/>
	<use xlink:href='#gpDot' x='394.9' y='419.7' color='red'/>
	<use xlink:href='#gpDot' x='395.1' y='421.1' color='red'/>
	<use xlink:href='#gpDot' x='396.1' y='411.2' color='red'/>
	<use xlink:href='#gpDot' x='396.4' y='420.2' color='red'/>
	<use xlink:href='#gpDot' x='396.6' y='420.8' color='red'/>
	<use xlink:href='#gpDot' x='397.1' y='411.7' color='red'/>
	<use xlink:href='#gpDot' x='397.6' y='410.0' color='red'/>
	<use xlink:href='#gpDot' x='398.6' y='400.9' color='red'/>
	<use xlink:href='#gpDot' x='398.8' y='419.4' color='red'/>
	<use xlink:href='#gpDot' x='399.6' y='403.0' color='red'/>
	<use xlink:href='#gpDot' x='399.8' y='403.1' color='red'/>
	<use xlink:href='#gpDot' x='400.3' y='402.4' color='red'/>
	<use xlink:href='#gpDot' x='402.6' y='368.1' color='red'/>
	<use xlink:href='#gpDot' x='402.8' y='393.0' color='red'/>
	<use xlink:href='#gpDot' x='403.3' y='407.3' color='red'/>
	<use xlink:href='#gpDot' x='403.5' y='413.9' color='red'/>
	<use xlink:href='#gpDot' x='404.5' y='395.7' color='red'/>
	<use xlink:href='#gpDot' x='405.0' y='409.1' color='red'/>
	<use xlink:href='#gpDot' x='405.3' y='419.3' color='red'/>
	<use xlink:href='#gpDot' x='405.8' y='404.9' color='red'/>
	<use xlink:href='#gpDot' x='406.0' y='400.9' color='red'/>
	<use xlink:href='#gpDot' x='406.3' y='416.2' color='red'/>
	<use xlink:href='#gpDot' x='408.2' y='371.0' color='red'/>
	<use xlink:href='#gpDot' x='408.5' y='380.0' color='red'/>
	<use xlink:href='#gpDot' x='408.7' y='414.2' color='red'/>
	<use xlink:href='#gpDot' x='410.0' y='391.0' color='red'/>
	<use xlink:href='#gpDot' x='410.2' y='389.3' color='red'/>
	<use xlink:href='#gpDot' x='411.2' y='387.5' color='red'/>
	<use xlink:href='#gpDot' x='412.2' y='398.2' color='red'/>
	<use xlink:href='#gpDot' x='412.5' y='420.5' color='red'/>
	<use xlink:href='#gpDot' x='413.7' y='395.5' color='red'/>
	<use xlink:href='#gpDot' x='413.9' y='420.9' color='red'/>
	<use xlink:href='#gpDot' x='414.4' y='417.2' color='red'/>
	<use xlink:href='#gpDot' x='414.9' y='409.1' color='red'/>
	<use xlink:href='#gpDot' x='415.2' y='415.1' color='red'/>
	<use xlink:href='#gpDot' x='417.2' y='371.2' color='red'/>
	<use xlink:href='#gpDot' x='417.4' y='397.3' color='red'/>
	<use xlink:href='#gpDot' x='417.6' y='414.9' color='red'/>
	<use xlink:href='#gpDot' x='420.9' y='337.1' color='red'/>
	<use xlink:href='#gpDot' x='421.1' y='328.6' color='red'/>
	<use xlink:href='#gpDot' x='421.9' y='317.0' color='red'/>
	<use xlink:href='#gpDot' x='422.3' y='389.0' color='red'/>
	<use xlink:href='#gpDot' x='422.6' y='420.7' color='red'/>
	<use xlink:href='#gpDot' x='425.8' y='358.0' color='red'/>
	<use xlink:href='#gpDot' x='426.1' y='418.2' color='red'/>
	<use xlink:href='#gpDot' x='427.0' y='394.0' color='red'/>
	<use xlink:href='#gpDot' x='427.5' y='401.7' color='red'/>
	<use xlink:href='#gpDot' x='427.8' y='413.6' color='red'/>
	<use xlink:href='#gpDot' x='428.0' y='412.0' color='red'/>
	<use xlink:href='#gpDot' x='428.3' y='420.7' color='red'/>
	<use xlink:href='#gpDot' x='428.5' y='420.7' color='red'/>
	<use xlink:href='#gpDot' x='428.8' y='421.2' color='red'/>
	<use xlink:href='#gpDot' x='429.0' y='415.2' color='red'/>
	<use xlink:href='#gpDot' x='429.3' y='420.5' color='red'/>
	<use xlink:href='#gpDot' x='429.5' y='413.4' color='red'/>
	<use xlink:href='#gpDot' x='429.8' y='417.5' color='red'/>
	<use xlink:href='#gpDot' x='430.0' y='421.3' color='red'/>
	<use xlink:href='#gpDot' x='430.3' y='412.6' color='red'/>
	<use xlink:href='#gpDot' x='430.5' y='412.5' color='red'/>
	<use xlink:href='#gpDot' x='431.5' y='397.0' color='red'/>
	<use xlink:href='#gpDot' x='431.8' y='420.1' color='red'/>
	<use xlink:href='#gpDot' x='432.0' y='421.3' color='red'/>
	<use xlink:href='#gpDot' x='432.2' y='415.0' color='red'/>
	<use xlink:href='#gpDot' x='433.0' y='395.7' color='red'/>
	<use xlink:href='#gpDot' x='433.2' y='401.2' color='red'/>
	<use xlink:href='#gpDot' x='433.5' y='416.1' color='red'/>
	<use xlink:href='#gpDot' x='434.2' y='403.4' color='red'/>
	<use xlink:href='#gpDot' x='435.0' y='390.1' color='red'/>
	<use xlink:href='#gpDot' x='435.2' y='420.4' color='red'/>
	<use xlink:href='#gpDot' x='435.5' y='413.6' color='red'/>
	<use xlink:href='#gpDot' x='436.7' y='384.4' color='red'/>
	<use xlink:href='#gpDot' x='436.9' y='376.1' color='red'/>
	<use xlink:href='#gpDot' x='437.7' y='361.0' color='red'/>
	<use xlink:href='#gpDot' x='437.9' y='356.9' color='red'/>
	<use xlink:href='#gpDot' x='438.2' y='351.3' color='red'/>
	<use xlink:href='#gpDot' x='438.7' y='370.0' color='red'/>
	<use xlink:href='#gpDot' x='438.9' y='371.0' color='red'/>
	<use xlink:href='#gpDot' x='439.2' y='397.1' color='red'/>
	<use xlink:href='#gpDot' x='439.4' y='419.7' color='red'/>
	<use xlink:href='#gpDot' x='440.4' y='406.2' color='red'/>
	<use xlink:href='#gpDot' x='440.7' y='421.1' color='red'/>
	<use xlink:href='#gpDot' x='442.4' y='376.5' color='red'/>
	<use xlink:href='#gpDot' x='442.6' y='367.5' color='red'/>
	<use xlink:href='#gpDot' x='442.9' y='407.2' color='red'/>
	<use xlink:href='#gpDot' x='443.1' y='420.2' color='red'/>
	<use xlink:href='#gpDot' x='445.6' y='353.2' color='red'/>
	<use xlink:href='#gpDot' x='445.9' y='352.5' color='red'/>
	<use xlink:href='#gpDot' x='446.8' y='335.7' color='red'/>
	<use xlink:href='#gpDot' x='447.1' y='419.0' color='red'/>
	<use xlink:href='#gpDot' x='449.1' y='371.6' color='red'/>
	<use xlink:href='#gpDot' x='449.6' y='361.5' color='red'/>
	<use xlink:href='#gpDot' x='449.8' y='392.7' color='red'/>
	<use xlink:href='#gpDot' x='450.1' y='412.4' color='red'/>
	<use xlink:href='#gpDot' x='450.3' y='404.8' color='red'/>
	<use xlink:href='#gpDot' x='450.8' y='396.7' color='red'/>
	<use xlink:href='#gpDot' x='451.3' y='394.6' color='red'/>
	<use xlink:href='#gpDot' x='451.5' y='420.8' color='red'/>
	<use xlink:href='#gpDot' x='451.8' y='420.6' color='red'/>
	<use xlink:href='#gpDot' x='453.5' y='399.2' color='red'/>
	<use xlink:href='#gpDot' x='454.5' y='394.2' color='red'/>
	<use xlink:href='#gpDot' x='454.8' y='395.3' color='red'/>
	<use xlink:href='#gpDot' x='456.0' y='382.6' color='red'/>
	<use xlink:href='#gpDot' x='456.2' y='420.7' color='red'/>
	<use xlink:href='#gpDot' x='456.5' y='416.3' color='red'/>
	<use xlink:href='#gpDot' x='457.7' y='393.3' color='red'/>
	<use xlink:href='#gpDot' x='458.0' y='406.1' color='red'/>
	<use xlink:href='#gpDot' x='458.2' y='420.6' color='red'/>
	<use xlink:href='#gpDot' x='459.2' y='406.1' color='red'/>
	<use xlink:href='#gpDot' x='459.5' y='420.9' color='red'/>
	<use xlink:href='#gpDot' x='460.0' y='409.6' color='red'/>
	<use xlink:href='#gpDot' x='460.7' y='400.1' color='red'/>
	<use xlink:href='#gpDot' x='461.2' y='399.4' color='red'/>
	<use xlink:href='#gpDot' x='461.4' y='403.6' color='red'/>
	<use xlink:href='#gpDot' x='461.7' y='415.6' color='red'/>
	<use xlink:href='#gpDot' x='462.2' y='410.9' color='red'/>
	<use xlink:href='#gpDot' x='463.4' y='381.2' color='red'/>
	<use xlink:href='#gpDot' x='463.7' y='410.2' color='red'/>
	<use xlink:href='#gpDot' x='465.4' y='407.0' color='red'/>
	<use xlink:href='#gpDot' x='465.6' y='421.2' color='red'/>
	<use xlink:href='#gpDot' x='466.4' y='403.8' color='red'/>
	<use xlink:href='#gpDot' x='466.6' y='413.0' color='red'/>
	<use xlink:href='#gpDot' x='466.9' y='416.0' color='red'/>
	<use xlink:href='#gpDot' x='467.1' y='420.6' color='red'/>
	<use xlink:href='#gpDot' x='467.9' y='398.4' color='red'/>
	<use xlink:href='#gpDot' x='468.1' y='419.5' color='red'/>
	<use xlink:href='#gpDot' x='469.1' y='401.8' color='red'/>
	<use xlink:href='#gpDot' x='469.4' y='413.2' color='red'/>
	<use xlink:href='#gpDot' x='469.6' y='413.1' color='red'/>
	<use xlink:href='#gpDot' x='472.3' y='359.5' color='red'/>
	<use xlink:href='#gpDot' x='473.3' y='398.3' color='red'/>
	<use xlink:href='#gpDot' x='473.8' y='384.0' color='red'/>
	<use xlink:href='#gpDot' x='474.1' y='396.2' color='red'/>
	<use xlink:href='#gpDot' x='474.3' y='410.1' color='red'/>
	<use xlink:href='#gpDot' x='475.8' y='401.2' color='red'/>
	<use xlink:href='#gpDot' x='476.0' y='420.5' color='red'/>
	<use xlink:href='#gpDot' x='476.3' y='417.8' color='red'/>
	<use xlink:href='#gpDot' x='476.5' y='419.5' color='red'/>
	<use xlink:href='#gpDot' x='477.0' y='416.2' color='red'/>
	<use xlink:href='#gpDot' x='477.3' y='420.6' color='red'/>
	<use xlink:href='#gpDot' x='479.3' y='366.5' color='red'/>
	<use xlink:href='#gpDot' x='479.5' y='408.1' color='red'/>
	<use xlink:href='#gpDot' x='479.7' y='420.6' color='red'/>
	<use xlink:href='#gpDot' x='480.7' y='403.5' color='red'/>
	<use xlink:href='#gpDot' x='481.0' y='420.7' color='red'/>
	<use xlink:href='#gpDot' x='481.2' y='419.6' color='red'/>
	<use xlink:href='#gpDot' x='481.5' y='420.8' color='red'/>
	<use xlink:href='#gpDot' x='482.2' y='410.4' color='red'/>
	<use xlink:href='#gpDot' x='86.6' y='415.5' color='red'/>
	<use xlink:href='#gpDot' x='482.7' y='415.4' color='red'/>
	<use xlink:href='#gpDot' x='483.5' y='403.0' color='red'/>
	<use xlink:href='#gpDot' x='483.7' y='402.2' color='red'/>
	<use xlink:href='#gpDot' x='484.0' y='420.5' color='red'/>
	<use xlink:href='#gpDot' x='484.2' y='418.5' color='red'/>
	<use xlink:href='#gpDot' x='484.4' y='420.7' color='red'/>
	<use xlink:href='#gpDot' x='487.2' y='385.4' color='red'/>
	<use xlink:href='#gpDot' x='487.4' y='419.7' color='red'/>
	<use xlink:href='#gpDot' x='488.2' y='408.4' color='red'/>
	<use xlink:href='#gpDot' x='488.4' y='420.6' color='red'/>
	<use xlink:href='#gpDot' x='488.7' y='416.8' color='red'/>
	<use xlink:href='#gpDot' x='488.9' y='420.6' color='red'/>
	<use xlink:href='#gpDot' x='490.1' y='407.8' color='red'/>
	<use xlink:href='#gpDot' x='490.4' y='419.2' color='red'/>
	<use xlink:href='#gpDot' x='490.6' y='420.4' color='red'/>
	<use xlink:href='#gpDot' x='491.6' y='412.3' color='red'/>
	<use xlink:href='#gpDot' x='491.9' y='420.7' color='red'/>
	<use xlink:href='#gpDot' x='492.9' y='408.4' color='red'/>
	<use xlink:href='#gpDot' x='493.1' y='420.6' color='red'/>
	<use xlink:href='#gpDot' x='493.4' y='419.6' color='red'/>
	<use xlink:href='#gpDot' x='495.8' y='392.4' color='red'/>
	<use xlink:href='#gpDot' x='496.3' y='413.3' color='red'/>
	<use xlink:href='#gpDot' x='497.3' y='398.6' color='red'/>
	<use xlink:href='#gpDot' x='497.6' y='420.5' color='red'/>
	<use xlink:href='#gpDot' x='498.5' y='411.2' color='red'/>
	<use xlink:href='#gpDot' x='498.8' y='420.6' color='red'/>
	<use xlink:href='#gpDot' x='499.0' y='418.8' color='red'/>
	<use xlink:href='#gpDot' x='499.3' y='420.6' color='red'/>
	<use xlink:href='#gpDot' x='499.5' y='420.4' color='red'/>
	<use xlink:href='#gpDot' x='500.0' y='414.5' color='red'/>
	<use xlink:href='#gpDot' x='500.3' y='415.8' color='red'/>
	<use xlink:href='#gpDot' x='500.5' y='420.5' color='red'/>
	<use xlink:href='#gpDot' x='501.8' y='408.2' color='red'/>
	<use xlink:href='#gpDot' x='502.0' y='421.1' color='red'/>
	<use xlink:href='#gpDot' x='503.7' y='383.8' color='red'/>
	<use xlink:href='#gpDot' x='504.2' y='416.4' color='red'/>
	<use xlink:href='#gpDot' x='504.5' y='416.1' color='red'/>
	<use xlink:href='#gpDot' x='504.7' y='418.9' color='red'/>
	<use xlink:href='#gpDot' x='506.7' y='399.7' color='red'/>
	<use xlink:href='#gpDot' x='507.0' y='420.1' color='red'/>
	<use xlink:href='#gpDot' x='507.2' y='417.4' color='red'/>
	<use xlink:href='#gpDot' x='507.5' y='420.7' color='red'/>
	<use xlink:href='#gpDot' x='507.7' y='420.6' color='red'/>
	<use xlink:href='#gpDot' x='509.2' y='411.9' color='red'/>
	<use xlink:href='#gpDot' x='509.4' y='418.6' color='red'/>
	<use xlink:href='#gpDot' x='510.9' y='406.7' color='red'/>
	<use xlink:href='#gpDot' x='511.2' y='415.7' color='red'/>
	<use xlink:href='#gpDot' x='511.4' y='420.4' color='red'/>
	<use xlink:href='#gpDot' x='513.1' y='401.9' color='red'/>
	<use xlink:href='#gpDot' x='513.4' y='420.5' color='red'/>
	<use xlink:href='#gpDot' x='515.6' y='393.5' color='red'/>
	<use xlink:href='#gpDot' x='515.9' y='420.4' color='red'/>
	<use xlink:href='#gpDot' x='516.6' y='404.0' color='red'/>
	<use xlink:href='#gpDot' x='518.1' y='405.8' color='red'/>
	<use xlink:href='#gpDot' x='518.8' y='401.5' color='red'/>
	<use xlink:href='#gpDot' x='519.1' y='417.4' color='red'/>
	<use xlink:href='#gpDot' x='519.3' y='420.5' color='red'/>
	<use xlink:href='#gpDot' x='519.6' y='418.8' color='red'/>
	<use xlink:href='#gpDot' x='520.6' y='404.5' color='red'/>
	<use xlink:href='#gpDot' x='520.8' y='420.3' color='red'/>
	<use xlink:href='#gpDot' x='522.3' y='389.1' color='red'/>
	<use xlink:href='#gpDot' x='522.8' y='417.4' color='red'/>
	<use xlink:href='#gpDot' x='523.5' y='420.6' color='red'/>
	<use xlink:href='#gpDot' x='523.8' y='410.7' color='red'/>
	<use xlink:href='#gpDot' x='524.0' y='416.3' color='red'/>
	<use xlink:href='#gpDot' x='524.5' y='415.9' color='red'/>
	<use xlink:href='#gpDot' x='525.8' y='395.8' color='red'/>
	<use xlink:href='#gpDot' x='526.8' y='367.0' color='red'/>
	<use xlink:href='#gpDot' x='527.0' y='397.4' color='red'/>
	<use xlink:href='#gpDot' x='527.7' y='399.1' color='red'/>
	<use xlink:href='#gpDot' x='528.0' y='410.8' color='red'/>
	<use xlink:href='#gpDot' x='528.2' y='415.1' color='red'/>
	<use xlink:href='#gpDot' x='528.7' y='417.0' color='red'/>
	<use xlink:href='#gpDot' x='529.0' y='420.9' color='red'/>
	<use xlink:href='#gpDot' x='530.7' y='392.7' color='red'/>
	<use xlink:href='#gpDot' x='531.7' y='408.6' color='red'/>
	<use xlink:href='#gpDot' x='531.9' y='420.4' color='red'/>
	<use xlink:href='#gpDot' x='533.2' y='392.3' color='red'/>
	<use xlink:href='#gpDot' x='533.4' y='420.7' color='red'/>
	<use xlink:href='#gpDot' x='533.7' y='420.7' color='red'/>
	<use xlink:href='#gpDot' x='534.4' y='411.3' color='red'/>
	<use xlink:href='#gpDot' x='535.4' y='412.1' color='red'/>
	<use xlink:href='#gpDot' x='536.9' y='293.4' color='red'/>
	<use xlink:href='#gpDot' x='537.4' y='408.3' color='red'/>
	<use xlink:href='#gpDot' x='537.6' y='419.0' color='red'/>
	<use xlink:href='#gpDot' x='537.9' y='420.6' color='red'/>
	<use xlink:href='#gpDot' x='540.1' y='370.4' color='red'/>
	<use xlink:href='#gpDot' x='540.4' y='420.8' color='red'/>
	<use xlink:href='#gpDot' x='540.6' y='418.7' color='red'/>
	<use xlink:href='#gpDot' x='540.9' y='415.4' color='red'/>
	<use xlink:href='#gpDot' x='541.1' y='416.2' color='red'/>
	<use xlink:href='#gpDot' x='541.3' y='420.7' color='red'/>
	<use xlink:href='#gpDot' x='541.6' y='414.1' color='red'/>
	<use xlink:href='#gpDot' x='541.8' y='416.8' color='red'/>
	<use xlink:href='#gpDot' x='542.1' y='414.4' color='red'/>
	<use xlink:href='#gpDot' x='542.3' y='410.8' color='red'/>
	<use xlink:href='#gpDot' x='542.6' y='414.2' color='red'/>
	<use xlink:href='#gpDot' x='542.8' y='419.2' color='red'/>
	<use xlink:href='#gpDot' x='543.6' y='404.3' color='red'/>
	<use xlink:href='#gpDot' x='544.6' y='394.6' color='red'/>
	<use xlink:href='#gpDot' x='544.8' y='414.1' color='red'/>
	<use xlink:href='#gpDot' x='545.1' y='420.7' color='red'/>
	<use xlink:href='#gpDot' x='545.3' y='421.5' color='red'/>
	<use xlink:href='#gpDot' x='545.6' y='418.4' color='red'/>
	<use xlink:href='#gpDot' x='545.8' y='421.5' color='red'/>
	<use xlink:href='#gpDot' x='546.0' y='415.4' color='red'/>
	<use xlink:href='#gpDot' x='547.5' y='378.0' color='red'/>
	<use xlink:href='#gpDot' x='547.8' y='382.6' color='red'/>
	<use xlink:href='#gpDot' x='548.0' y='409.2' color='red'/>
	<use xlink:href='#gpDot' x='548.3' y='419.0' color='red'/>
	<use xlink:href='#gpDot' x='548.5' y='417.7' color='red'/>
	<use xlink:href='#gpDot' x='549.3' y='412.8' color='red'/>
	<use xlink:href='#gpDot' x='552.2' y='393.2' color='red'/>
	<use xlink:href='#gpDot' x='552.7' y='417.6' color='red'/>
	<use xlink:href='#gpDot' x='554.0' y='400.4' color='red'/>
	<use xlink:href='#gpDot' x='554.2' y='420.7' color='red'/>
	<use xlink:href='#gpDot' x='555.7' y='407.8' color='red'/>
	<use xlink:href='#gpDot' x='555.9' y='420.4' color='red'/>
	<use xlink:href='#gpDot' x='556.7' y='399.7' color='red'/>
	<use xlink:href='#gpDot' x='556.9' y='420.5' color='red'/>
	<use xlink:href='#gpDot' x='558.4' y='406.1' color='red'/>
	<use xlink:href='#gpDot' x='559.4' y='396.0' color='red'/>
	<use xlink:href='#gpDot' x='559.7' y='407.2' color='red'/>
	<use xlink:href='#gpDot' x='559.9' y='420.4' color='red'/>
	<use xlink:href='#gpDot' x='560.2' y='417.7' color='red'/>
	<use xlink:href='#gpDot' x='561.6' y='391.7' color='red'/>
	<use xlink:href='#gpDot' x='562.9' y='386.1' color='red'/>
	<use xlink:href='#gpDot' x='563.1' y='420.5' color='red'/>
	<use xlink:href='#gpDot' x='564.1' y='422.4' color='red'/>
	<use xlink:href='#gpDot' x='566.1' y='384.9' color='red'/>
	<use xlink:href='#gpDot' x='566.3' y='420.6' color='red'/>
	<use xlink:href='#gpDot' x='566.8' y='410.3' color='red'/>
	<use xlink:href='#gpDot' x='567.1' y='417.0' color='red'/>
	<use xlink:href='#gpDot' x='567.3' y='421.2' color='red'/>
	<use xlink:href='#gpDot' x='567.6' y='413.7' color='red'/>
	<use xlink:href='#gpDot' x='567.8' y='418.1' color='red'/>
	<use xlink:href='#gpDot' x='568.6' y='404.2' color='red'/>
	<use xlink:href='#gpDot' x='569.1' y='400.7' color='red'/>
	<use xlink:href='#gpDot' x='570.3' y='403.3' color='red'/>
	<use xlink:href='#gpDot' x='571.3' y='394.4' color='red'/>
	<use xlink:href='#gpDot' x='571.5' y='413.1' color='red'/>
	<use xlink:href='#gpDot' x='574.3' y='396.4' color='red'/>
	<use xlink:href='#gpDot' x='537.3' y='72.1' color='red'/>
</g>
	</g>
<g style="fill:none; color:black; stroke:currentColor; stroke-width:1.00; stroke-linecap:butt; stroke-linejoin:miter">
	<path  d='M80.2,54.1 L80.2,422.4 L575.0,422.4 L575.0,54.1 L80.2,54.1 Z  h0.01'/></g>
</g>
</svg>

