<?xml version="1.0" encoding="utf-8"  standalone="no"?>
<!DOCTYPE svg PUBLIC "-//W3C//DTD SVG 1.1//EN" 
 "http://www.w3.org/Graphics/SVG/1.1/DTD/svg11.dtd">
<svg 
 width="600" height="480" 
 viewBox="0 0 600 480"
 xmlns="http://www.w3.org/2000/svg"
 xmlns:xlink="http://www.w3.org/1999/xlink"
>

<title>Gnuplot</title>
<desc>Produced by GNUPLOT 4.6 patchlevel 1 </desc>

<g id="gnuplot_canvas">

<rect x="0" y="0" width="600" height="480" fill="none"/>
<defs>

	<circle id='gpDot' r='0.5' stroke-width='0.5'/>
	<path id='gpPt0' stroke-width='0.222' stroke='currentColor' d='M-1,0 h2 M0,-1 v2'/>
	<path id='gpPt1' stroke-width='0.222' stroke='currentColor' d='M-1,-1 L1,1 M1,-1 L-1,1'/>
	<path id='gpPt2' stroke-width='0.222' stroke='currentColor' d='M-1,0 L1,0 M0,-1 L0,1 M-1,-1 L1,1 M-1,1 L1,-1'/>
	<rect id='gpPt3' stroke-width='0.222' stroke='currentColor' x='-1' y='-1' width='2' height='2'/>
	<rect id='gpPt4' stroke-width='0.222' stroke='currentColor' fill='currentColor' x='-1' y='-1' width='2' height='2'/>
	<circle id='gpPt5' stroke-width='0.222' stroke='currentColor' cx='0' cy='0' r='1'/>
	<use xlink:href='#gpPt5' id='gpPt6' fill='currentColor' stroke='none'/>
	<path id='gpPt7' stroke-width='0.222' stroke='currentColor' d='M0,-1.33 L-1.33,0.67 L1.33,0.67 z'/>
	<use xlink:href='#gpPt7' id='gpPt8' fill='currentColor' stroke='none'/>
	<use xlink:href='#gpPt7' id='gpPt9' stroke='currentColor' transform='rotate(180)'/>
	<use xlink:href='#gpPt9' id='gpPt10' fill='currentColor' stroke='none'/>
	<use xlink:href='#gpPt3' id='gpPt11' stroke='currentColor' transform='rotate(45)'/>
	<use xlink:href='#gpPt11' id='gpPt12' fill='currentColor' stroke='none'/>
</defs>
<g style="fill:none; color:white; stroke:currentColor; stroke-width:1.00; stroke-linecap:butt; stroke-linejoin:miter">
</g>
<g style="fill:none; color:black; stroke:currentColor; stroke-width:1.00; stroke-linecap:butt; stroke-linejoin:miter">
	<path  d='M80.2,422.4 L89.2,422.4 M575.0,422.4 L566.0,422.4  h0.01'/>	<g transform="translate(71.9,426.9)" style="stroke:none; fill:black; font-family:Arial; font-size:12.00pt; text-anchor:end">
		<text> 0</text>
	</g>
	<path  d='M80.2,381.5 L89.2,381.5 M575.0,381.5 L566.0,381.5  h0.01'/>	<g transform="translate(71.9,386.0)" style="stroke:none; fill:black; font-family:Arial; font-size:12.00pt; text-anchor:end">
		<text> 1000</text>
	</g>
	<path  d='M80.2,340.6 L89.2,340.6 M575.0,340.6 L566.0,340.6  h0.01'/>	<g transform="translate(71.9,345.1)" style="stroke:none; fill:black; font-family:Arial; font-size:12.00pt; text-anchor:end">
		<text> 2000</text>
	</g>
	<path  d='M80.2,299.6 L89.2,299.6 M575.0,299.6 L566.0,299.6  h0.01'/>	<g transform="translate(71.9,304.1)" style="stroke:none; fill:black; font-family:Arial; font-size:12.00pt; text-anchor:end">
		<text> 3000</text>
	</g>
	<path  d='M80.2,258.7 L89.2,258.7 M575.0,258.7 L566.0,258.7  h0.01'/>	<g transform="translate(71.9,263.2)" style="stroke:none; fill:black; font-family:Arial; font-size:12.00pt; text-anchor:end">
		<text> 4000</text>
	</g>
	<path  d='M80.2,217.8 L89.2,217.8 M575.0,217.8 L566.0,217.8  h0.01'/>	<g transform="translate(71.9,222.3)" style="stroke:none; fill:black; font-family:Arial; font-size:12.00pt; text-anchor:end">
		<text> 5000</text>
	</g>
	<path  d='M80.2,176.9 L89.2,176.9 M575.0,176.9 L566.0,176.9  h0.01'/>	<g transform="translate(71.9,181.4)" style="stroke:none; fill:black; font-family:Arial; font-size:12.00pt; text-anchor:end">
		<text> 6000</text>
	</g>
	<path  d='M80.2,135.9 L89.2,135.9 M575.0,135.9 L566.0,135.9  h0.01'/>	<g transform="translate(71.9,140.4)" style="stroke:none; fill:black; font-family:Arial; font-size:12.00pt; text-anchor:end">
		<text> 7000</text>
	</g>
	<path  d='M80.2,95.0 L89.2,95.0 M575.0,95.0 L566.0,95.0  h0.01'/>	<g transform="translate(71.9,99.5)" style="stroke:none; fill:black; font-family:Arial; font-size:12.00pt; text-anchor:end">
		<text> 8000</text>
	</g>
	<path  d='M80.2,54.1 L89.2,54.1 M575.0,54.1 L566.0,54.1  h0.01'/>	<g transform="translate(71.9,58.6)" style="stroke:none; fill:black; font-family:Arial; font-size:12.00pt; text-anchor:end">
		<text> 9000</text>
	</g>
	<path  d='M80.2,422.4 L80.2,413.4 M80.2,54.1 L80.2,63.1  h0.01'/>	<g transform="translate(80.2,444.9)" style="stroke:none; fill:black; font-family:Arial; font-size:12.00pt; text-anchor:middle">
		<text> 0</text>
	</g>
	<path  d='M129.7,422.4 L129.7,413.4 M129.7,54.1 L129.7,63.1  h0.01'/>	<g transform="translate(129.7,444.9)" style="stroke:none; fill:black; font-family:Arial; font-size:12.00pt; text-anchor:middle">
		<text> 10</text>
	</g>
	<path  d='M179.2,422.4 L179.2,413.4 M179.2,54.1 L179.2,63.1  h0.01'/>	<g transform="translate(179.2,444.9)" style="stroke:none; fill:black; font-family:Arial; font-size:12.00pt; text-anchor:middle">
		<text> 20</text>
	</g>
	<path  d='M228.6,422.4 L228.6,413.4 M228.6,54.1 L228.6,63.1  h0.01'/>	<g transform="translate(228.6,444.9)" style="stroke:none; fill:black; font-family:Arial; font-size:12.00pt; text-anchor:middle">
		<text> 30</text>
	</g>
	<path  d='M278.1,422.4 L278.1,413.4 M278.1,54.1 L278.1,63.1  h0.01'/>	<g transform="translate(278.1,444.9)" style="stroke:none; fill:black; font-family:Arial; font-size:12.00pt; text-anchor:middle">
		<text> 40</text>
	</g>
	<path  d='M327.6,422.4 L327.6,413.4 M327.6,54.1 L327.6,63.1  h0.01'/>	<g transform="translate(327.6,444.9)" style="stroke:none; fill:black; font-family:Arial; font-size:12.00pt; text-anchor:middle">
		<text> 50</text>
	</g>
	<path  d='M377.1,422.4 L377.1,413.4 M377.1,54.1 L377.1,63.1  h0.01'/>	<g transform="translate(377.1,444.9)" style="stroke:none; fill:black; font-family:Arial; font-size:12.00pt; text-anchor:middle">
		<text> 60</text>
	</g>
	<path  d='M426.6,422.4 L426.6,413.4 M426.6,54.1 L426.6,63.1  h0.01'/>	<g transform="translate(426.6,444.9)" style="stroke:none; fill:black; font-family:Arial; font-size:12.00pt; text-anchor:middle">
		<text> 70</text>
	</g>
	<path  d='M476.0,422.4 L476.0,413.4 M476.0,54.1 L476.0,63.1  h0.01'/>	<g transform="translate(476.0,444.9)" style="stroke:none; fill:black; font-family:Arial; font-size:12.00pt; text-anchor:middle">
		<text> 80</text>
	</g>
	<path  d='M525.5,422.4 L525.5,413.4 M525.5,54.1 L525.5,63.1  h0.01'/>	<g transform="translate(525.5,444.9)" style="stroke:none; fill:black; font-family:Arial; font-size:12.00pt; text-anchor:middle">
		<text> 90</text>
	</g>
	<path  d='M575.0,422.4 L575.0,413.4 M575.0,54.1 L575.0,63.1  h0.01'/>	<g transform="translate(575.0,444.9)" style="stroke:none; fill:black; font-family:Arial; font-size:12.00pt; text-anchor:middle">
		<text> 100</text>
	</g>
	<path  d='M80.2,54.1 L80.2,422.4 L575.0,422.4 L575.0,54.1 L80.2,54.1 Z  h0.01'/>	<g transform="translate(17.6,238.3) rotate(270)" style="stroke:none; fill:black; font-family:Arial; font-size:12.00pt; text-anchor:middle">
		<text>TCP throughput (kbps)</text>
	</g>
	<g transform="translate(327.6,471.9)" style="stroke:none; fill:black; font-family:Arial; font-size:12.00pt; text-anchor:middle">
		<text>Time (s)</text>
	</g>
	<g transform="translate(327.6,31.6)" style="stroke:none; fill:black; font-family:Arial; font-size:12.00pt; text-anchor:middle">
		<text>Distance 300m, 1kmph: TCP throughput vs link capacity Uplink 100RBs PfffScheduler</text>
	</g>
	<path  d='M325.3,413.4 L325.3,377.4 L566.7,377.4 L566.7,413.4 L325.3,413.4 Z  h0.01'/></g>
	<g id="gnuplot_plot_1" ><title>gnuplot_plot_1</title>
<g style="fill:none; color:red; stroke:currentColor; stroke-width:1.00; stroke-linecap:butt; stroke-linejoin:miter">
	<g transform="translate(507.9,390.9)" style="stroke:none; fill:black; font-family:Arial; font-size:12.00pt; text-anchor:end">
		<text>TCP Throughput</text>
	</g>
	<path  d='M516.2,386.4 L558.4,386.4 M83.4,407.2 L83.7,403.6 L83.9,408.9 L84.2,408.9 L84.4,413.9 L84.7,398.9 
		L84.9,389.7 L85.1,389.7 L85.4,398.1 L85.6,350.9 L85.9,308.1 L86.1,306.9 L86.4,319.9 L86.6,295.1 
		L86.9,254.9 L87.1,202.6 L87.4,164.3 L87.6,150.5 L87.9,151.0 L88.1,152.3 L88.4,152.2 L88.6,129.4 
		L88.9,119.0 L89.1,122.4 L89.4,122.4 L89.6,122.4 L89.8,155.5 L90.1,155.7 L90.3,153.3 L90.6,151.4 
		L90.8,156.6 L91.1,138.3 L91.3,119.4 L91.6,117.7 L91.8,117.7 L92.1,117.7 L92.3,117.7 L92.6,150.0 
		L92.8,154.9 L93.1,151.0 L93.3,141.4 L93.6,127.5 L93.8,118.6 L94.0,108.9 L94.3,107.0 L94.5,107.8 
		L94.8,118.4 L95.0,119.2 L95.3,119.2 L95.5,119.2 L95.8,119.2 L96.0,143.4 L96.3,141.8 L96.5,145.6 
		L96.8,133.9 L97.0,117.5 L97.3,103.2 L97.5,96.1 L97.8,99.3 L98.0,99.3 L98.3,102.4 L98.5,99.9 
		L98.8,102.8 L99.0,100.2 L99.2,101.3 L99.5,101.3 L99.7,110.8 L100.0,107.1 L100.2,106.4 L100.5,113.9 
		L100.7,112.5 L101.0,112.8 L101.2,111.7 L101.5,100.8 L101.7,89.0 L102.0,81.3 L102.2,81.1 L102.5,81.3 
		L102.7,88.6 L103.0,90.0 L103.2,95.3 L103.5,93.0 L103.7,85.4 L103.9,79.6 L104.2,74.9 L104.4,71.6 
		L104.7,69.2 L104.9,67.9 L105.2,68.3 L105.4,68.3 L105.7,77.3 L105.9,76.3 L106.2,76.8 L106.4,82.4 
		L106.7,82.1 L106.9,83.6 L107.2,88.0 L107.4,90.7 L107.7,92.3 L107.9,89.2 L108.2,82.7 L108.4,78.3 
		L108.6,74.8 L108.9,72.3 L109.1,70.3 L109.4,70.1 L109.6,70.1 L109.9,75.8 L110.1,76.1 L110.4,76.1 
		L110.6,82.9 L110.9,80.9 L111.1,81.5 L111.4,84.2 L111.6,84.6 L111.9,84.6 L112.1,84.6 L112.4,84.6 
		L112.6,94.9 L112.9,93.3 L113.1,93.5 L113.3,93.5 L113.6,93.5 L113.8,93.5 L114.1,105.2 L114.3,106.3 
		L114.6,108.1 L114.8,107.5 L115.1,107.5 L115.3,107.5 L115.6,113.6 L115.8,113.7 L116.1,116.9 L116.3,117.2 
		L116.6,117.2 L116.8,117.2 L117.1,123.1 L117.3,122.3 L117.6,122.6 L117.8,122.6 L118.0,126.0 L118.3,125.9 
		L118.5,126.6 L118.8,127.3 L119.0,127.4 L119.3,129.4 L119.5,129.4 L119.8,129.4 L120.0,135.4 L120.3,136.6 
		L120.5,137.3 L120.8,137.3 L121.0,139.4 L121.3,138.7 L121.5,139.0 L121.8,139.0 L122.0,139.0 L122.3,145.2 
		L122.5,145.4 L122.7,145.2 L123.0,145.4 L123.2,145.7 L123.5,145.7 L123.7,145.7 L124.0,145.7 L124.2,145.7 
		L124.5,145.7 L124.7,145.7 L125.0,156.8 L125.2,157.1 L125.5,157.1 L125.7,157.1 L126.0,161.9 L126.2,162.1 
		L126.5,162.6 L126.7,163.4 L127.0,164.6 L127.2,165.0 L127.5,165.0 L127.7,165.0 L127.9,165.0 L128.2,169.3 
		L128.4,169.1 L128.7,168.9 L128.9,168.5 L129.2,168.0 L129.4,168.0 L129.7,169.4 L129.9,168.6 L130.2,167.7 
		L130.4,166.8 L130.7,166.8 L130.9,168.6 L131.2,169.7 L131.4,169.9 L131.7,169.9 L131.9,172.2 L132.2,173.5 
		L132.4,173.8 L132.6,172.6 L132.9,171.0 L133.1,169.2 L133.4,167.3 L133.6,165.5 L133.9,165.1 L134.1,165.2 
		L134.4,167.1 L134.6,167.7 L134.9,166.2 L135.1,164.9 L135.4,164.9 L135.6,164.9 L135.9,164.9 L136.1,164.9 
		L136.4,164.9 L136.6,164.9 L136.9,164.9 L137.1,164.9 L137.3,164.9 L137.6,175.6 L137.8,176.6 L138.1,175.8 
		L138.3,175.9 L138.6,177.0 L138.8,177.2 L139.1,177.4 L139.3,178.5 L139.6,178.6 L139.8,178.5 L140.1,178.7 
		L140.3,178.8 L140.6,178.8 L140.8,178.8 L141.1,182.6 L141.3,182.6 L141.6,183.2 L141.8,182.8 L142.1,182.9 
		L142.3,183.8 L142.5,183.6 L142.8,183.7 L143.0,183.9 L143.3,184.9 L143.5,185.6 L143.8,185.6 L144.0,185.6 
		L144.3,188.7 L144.5,188.7 L144.8,189.5 L145.0,189.6 L145.3,190.9 L145.5,190.0 L145.8,188.8 L146.0,187.5 
		L146.3,186.2 L146.5,186.0 L146.8,187.2 L147.0,186.4 L147.2,186.1 L147.5,187.5 L147.7,187.9 L148.0,187.7 
		L148.2,187.8 L148.5,188.4 L148.7,188.4 L149.0,189.5 L149.2,190.4 L149.5,189.4 L149.7,188.7 L150.0,188.2 
		L150.2,188.6 L150.5,188.4 L150.7,188.4 L151.0,189.9 L151.2,189.2 L151.5,189.2 L151.7,189.2 L151.9,190.8 
		L152.2,190.7 L152.4,190.7 L152.7,190.7 L152.9,193.7 L153.2,193.6 L153.4,193.6 L153.7,193.6 L153.9,193.6 
		L154.2,193.6 L154.4,193.6 L154.7,197.1 L154.9,197.1 L155.2,197.1 L155.4,198.9 L155.7,198.3 L155.9,198.4 
		L156.2,198.5 L156.4,198.5 L156.6,198.5 L156.9,200.9 L157.1,201.3 L157.4,201.1 L157.6,201.2 L157.9,201.2 
		L158.1,201.2 L158.4,201.2 L158.6,203.8 L158.9,203.6 L159.1,203.7 L159.4,203.7 L159.6,204.5 L159.9,204.3 
		L160.1,204.2 L160.4,204.1 L160.6,205.2 L160.9,205.1 L161.1,205.4 L161.3,204.7 L161.6,204.6 L161.8,205.3 
		L162.1,205.0 L162.3,205.0 L162.6,205.5 L162.8,204.9 L163.1,204.9 L163.3,204.9 L163.6,205.7 L163.8,205.7 
		L164.1,206.6 L164.3,206.7 L164.6,206.7 L164.8,206.7 L165.1,206.7 L165.3,208.7 L165.6,208.7 L165.8,208.7 
		L166.0,208.7 L166.3,208.7 L166.5,208.7 L166.8,211.8 L167.0,210.8 L167.3,210.9 L167.5,211.0 L167.8,210.9 
		L168.0,211.0 L168.3,211.6 L168.5,212.2 L168.8,212.1 L169.0,211.9 L169.3,211.8 L169.5,211.9 L169.8,211.4 
		L170.0,211.0 L170.3,211.0 L170.5,211.4 L170.7,211.3 L171.0,211.8 L171.2,211.4 L171.5,211.5 L171.7,211.6 
		L172.0,211.6 L172.2,211.6 L172.5,211.6 L172.7,213.8 L173.0,213.8 L173.2,213.8 L173.5,214.7 L173.7,215.4 
		L174.0,215.4 L174.2,215.8 L174.5,215.7 L174.7,215.8 L175.0,215.8 L175.2,216.3 L175.4,216.2 L175.7,216.7 
		L175.9,216.3 L176.2,216.3 L176.4,216.5 L176.7,216.2 L176.9,216.2 L177.2,216.2 L177.4,217.7 L177.7,217.7 
		L177.9,217.7 L178.2,217.7 L178.4,218.7 L178.7,218.0 L178.9,218.0 L179.2,218.5 L179.4,218.3 L179.7,218.0 
		L179.9,218.0 L180.1,218.5 L180.4,217.4 L180.6,217.4 L180.9,217.7 L181.1,216.6 L181.4,216.2 L181.6,216.6 
		L181.9,216.5 L182.1,217.0 L182.4,217.0 L182.6,217.5 L182.9,216.2 L183.1,215.4 L183.4,215.4 L183.6,215.8 
		L183.9,215.8 L184.1,215.8 L184.4,217.0 L184.6,217.0 L184.9,217.0 L185.1,218.0 L185.3,217.4 L185.6,216.7 
		L185.8,216.6 L186.1,216.6 L186.3,216.8 L186.6,216.2 L186.8,216.1 L187.1,216.6 L187.3,216.5 L187.6,216.9 
		L187.8,216.3 L188.1,215.4 L188.3,215.2 L188.6,215.6 L188.8,215.7 L189.1,215.7 L189.3,215.3 L189.6,215.1 
		L189.8,215.6 L190.0,215.6 L190.3,216.3 L190.5,216.3 L190.8,217.1 L191.0,216.9 L191.3,216.8 L191.5,216.9 
		L191.8,217.1 L192.0,216.9 L192.3,216.6 L192.5,216.9 L192.8,215.6 L193.0,213.9 L193.3,212.9 L193.5,212.2 
		L193.8,211.8 L194.0,211.3 L194.3,211.2 L194.5,211.2 L194.7,211.2 L195.0,211.2 L195.2,211.2 L195.5,211.2 
		L195.7,214.3 L196.0,214.3 L196.2,214.8 L196.5,215.2 L196.7,214.3 L197.0,214.3 L197.2,214.4 L197.5,214.4 
		L197.7,214.4 L198.0,214.4 L198.2,215.2 L198.5,214.9 L198.7,214.5 L199.0,214.5 L199.2,214.9 L199.4,214.5 
		L199.7,214.2 L199.9,214.2 L200.2,215.2 L200.4,214.7 L200.7,214.0 L200.9,213.4 L201.2,213.7 L201.4,213.8 
		L201.7,214.0 L201.9,213.3 L202.2,213.2 L202.4,213.8 L202.7,213.8 L202.9,214.3 L203.2,214.4 L203.4,214.4 
		L203.7,214.4 L203.9,215.5 L204.1,215.5 L204.4,215.5 L204.6,215.5 L204.9,215.5 L205.1,217.1 L205.4,217.0 
		L205.6,217.0 L205.9,217.0 L206.1,217.0 L206.4,217.0 L206.6,217.0 L206.9,217.0 L207.1,218.9 L207.4,219.1 
		L207.6,219.5 L207.9,219.5 L208.1,220.3 L208.4,220.5 L208.6,220.5 L208.8,220.5 L209.1,221.5 L209.3,221.6 
		L209.6,221.6 L209.8,222.4 L210.1,222.6 L210.3,222.7 L210.6,222.8 L210.8,223.0 L211.1,223.0 L211.3,223.0 
		L211.6,223.9 L211.8,224.0 L212.1,224.3 L212.3,224.3 L212.6,224.3 L212.8,224.3 L213.1,225.0 L213.3,225.1 
		L213.5,225.2 L213.8,225.2 L214.0,226.0 L214.3,225.9 L214.5,225.7 L214.8,225.6 L215.0,225.9 L215.3,226.0 
		L215.5,226.0 L215.8,226.7 L216.0,226.7 L216.3,227.3 L216.5,227.6 L216.8,227.7 L217.0,227.9 L217.3,227.8 
		L217.5,227.8 L217.8,227.9 L218.0,227.6 L218.2,227.4 L218.5,227.4 L218.7,227.4 L219.0,228.0 L219.2,227.6 
		L219.5,227.0 L219.7,226.3 L220.0,226.1 L220.2,226.4 L220.5,226.6 L220.7,226.6 L221.0,226.9 L221.2,226.9 
		L221.5,226.9 L221.7,227.9 L222.0,227.9 L222.2,228.7 L222.5,228.7 L222.7,227.9 L222.9,227.1 L223.2,226.4 
		L223.4,226.4 L223.7,226.4 L223.9,226.6 L224.2,226.6 L224.4,226.6 L224.7,226.6 L224.9,226.6 L225.2,228.2 
		L225.4,228.2 L225.7,228.2 L225.9,228.3 L226.2,228.3 L226.4,228.2 L226.7,228.7 L226.9,228.7 L227.2,228.7 
		L227.4,228.7 L227.7,228.7 L227.9,228.7 L228.1,230.3 L228.4,230.2 L228.6,230.4 L228.9,230.5 L229.1,231.0 
		L229.4,231.3 L229.6,231.4 L229.9,231.5 L230.1,231.5 L230.4,231.5 L230.6,231.5 L230.9,231.5 L231.1,231.5 
		L231.4,233.5 L231.6,233.6 L231.9,233.9 L232.1,234.1 L232.4,234.4 L232.6,234.6 L232.8,234.9 L233.1,235.0 
		L233.3,235.2 L233.6,235.4 L233.8,235.6 L234.1,235.7 L234.3,235.8 L234.6,235.9 L234.8,235.9 L235.1,236.4 
		L235.3,236.4 L235.6,236.4 L235.8,236.4 L236.1,236.4 L236.3,236.4 L236.6,236.4 L236.8,238.4 L237.1,238.3 
		L237.3,238.5 L237.5,238.5 L237.8,239.0 L238.0,239.2 L238.3,239.3 L238.5,239.5 L238.8,239.6 L239.0,239.8 
		L239.3,239.8 L239.5,239.8 L239.8,239.8 L240.0,239.8 L240.3,239.8 L240.5,240.6 L240.8,241.0 L241.0,241.0 
		L241.3,241.0 L241.5,241.3 L241.8,241.2 L242.0,241.2 L242.2,241.2 L242.5,241.2 L242.7,241.2 L243.0,242.5 
		L243.2,242.5 L243.5,242.6 L243.7,242.8 L244.0,243.0 L244.2,243.1 L244.5,243.3 L244.7,243.3 L245.0,243.3 
		L245.2,243.3 L245.5,243.3 L245.7,243.3 L246.0,244.8 L246.2,244.8 L246.5,245.2 L246.7,245.3 L246.9,245.6 
		L247.2,245.6 L247.4,246.0 L247.7,246.2 L247.9,246.2 L248.2,246.2 L248.4,246.2 L248.7,247.1 L248.9,247.2 
		L249.2,247.3 L249.4,247.4 L249.7,247.4 L249.9,247.4 L250.2,247.4 L250.4,248.4 L250.7,248.3 L250.9,248.3 
		L251.2,248.3 L251.4,248.7 L251.6,248.7 L251.9,249.0 L252.1,249.0 L252.4,248.9 L252.6,248.9 L252.9,248.9 
		L253.1,248.9 L253.4,249.6 L253.6,249.6 L253.9,250.1 L254.1,250.1 L254.4,250.2 L254.6,250.1 L254.9,250.4 
		L255.1,250.1 L255.4,250.1 L255.6,250.3 L255.9,250.6 L256.1,250.3 L256.3,249.9 L256.6,249.5 L256.8,249.0 
		L257.1,248.5 L257.3,248.3 L257.6,248.1 L257.8,247.5 L258.1,246.8 L258.3,246.1 L258.6,245.7 L258.8,245.1 
		L259.1,245.0 L259.3,245.0 L259.6,245.3 L259.8,245.6 L260.1,245.5 L260.3,245.6 L260.6,245.6 L260.8,245.6 
		L261.0,246.2 L261.3,246.3 L261.5,246.7 L261.8,246.3 L262.0,245.7 L262.3,245.0 L262.5,245.1 L262.8,244.9 
		L263.0,244.7 L263.3,244.7 L263.5,244.7 L263.8,244.7 L264.0,244.7 L264.3,244.7 L264.5,244.7 L264.8,244.7 
		L265.0,244.7 L265.3,244.7 L265.5,244.7 L265.8,244.7 L266.0,244.7 L266.2,247.7 L266.5,248.0 L266.7,247.5 
		L267.0,247.3 L267.2,247.3 L267.5,247.6 L267.7,247.6 L268.0,247.6 L268.2,247.6 L268.5,247.9 L268.7,247.8 
		L269.0,247.8 L269.2,248.0 L269.5,247.8 L269.7,247.6 L270.0,247.6 L270.2,247.9 L270.4,247.9 L270.7,248.1 
		L270.9,248.0 L271.2,248.0 L271.4,248.0 L271.7,248.0 L271.9,248.6 L272.2,248.2 L272.4,247.8 L272.7,247.3 
		L272.9,247.3 L273.2,247.4 L273.4,247.4 L273.7,247.8 L273.9,247.9 L274.2,247.9 L274.4,247.9 L274.7,248.5 
		L274.9,248.5 L275.1,248.7 L275.4,248.6 L275.6,248.6 L275.9,248.6 L276.1,248.6 L276.4,248.6 L276.6,248.9 
		L276.9,248.5 L277.1,248.3 L277.4,248.3 L277.6,248.7 L277.9,248.3 L278.1,248.3 L278.4,248.1 L278.6,247.8 
		L278.9,247.7 L279.1,247.7 L279.4,247.9 L279.6,248.2 L279.8,248.2 L280.1,248.2 L280.3,248.3 L280.6,247.8 
		L280.8,247.7 L281.1,247.5 L281.3,246.9 L281.6,246.4 L281.8,246.3 L282.1,246.5 L282.3,246.8 L282.6,246.2 
		L282.8,245.4 L283.1,244.7 L283.3,244.6 L283.6,244.6 L283.8,244.6 L284.1,244.6 L284.3,245.3 L284.5,245.2 
		L284.8,245.4 L285.0,245.4 L285.3,245.3 L285.5,245.0 L285.8,245.1 L286.0,244.9 L286.3,244.6 L286.5,244.0 
		L286.8,243.7 L287.0,243.7 L287.3,243.7 L287.5,243.7 L287.8,244.3 L288.0,244.3 L288.3,244.3 L288.5,244.8 
		L288.8,244.6 L289.0,243.9 L289.2,243.2 L289.5,242.6 L289.7,242.5 L290.0,242.5 L290.2,242.8 L290.5,242.3 
		L290.7,242.0 L291.0,241.5 L291.2,241.1 L291.5,240.7 L291.7,240.4 L292.0,240.4 L292.2,240.5 L292.5,240.5 
		L292.7,240.8 L293.0,240.8 L293.2,240.6 L293.5,240.4 L293.7,240.4 L293.9,240.8 L294.2,240.6 L294.4,240.6 
		L294.7,240.6 L294.9,240.6 L295.2,241.3 L295.4,241.3 L295.7,241.4 L295.9,241.3 L296.2,241.3 L296.4,241.3 
		L296.7,241.8 L296.9,241.8 L297.2,241.8 L297.4,242.1 L297.7,241.9 L297.9,241.9 L298.2,242.4 L298.4,242.4 
		L298.6,242.4 L298.9,242.4 L299.1,242.7 L299.4,242.7 L299.6,242.7 L299.9,243.3 L300.1,243.3 L300.4,243.3 
		L300.6,243.6 L300.9,243.2 L301.1,242.7 L301.4,242.6 L301.6,242.6 L301.9,242.6 L302.1,243.1 L302.4,243.2 
		L302.6,243.2 L302.9,242.6 L303.1,242.5 L303.3,242.7 L303.6,242.4 L303.8,242.3 L304.1,242.5 L304.3,242.5 
		L304.6,242.9 L304.8,242.8 L305.1,243.0 L305.3,243.0 L305.6,243.0 L305.8,243.0 L306.1,243.0 L306.3,243.0 
		L306.6,243.0 L306.8,244.3 L307.1,244.3 L307.3,244.2 L307.6,244.2 L307.8,244.4 L308.1,244.1 L308.3,243.8 
		L308.5,243.6 L308.8,243.6 L309.0,243.6 L309.3,243.6 L309.5,243.6 L309.8,243.6 L310.0,244.4 L310.3,244.4 
		L310.5,244.7 L310.8,244.7 L311.0,244.7 L311.3,245.2 L311.5,245.3 L311.8,245.3 L312.0,245.3 L312.3,245.3 
		L312.5,246.0 L312.8,246.0 L313.0,246.0 L313.2,246.0 L313.5,245.9 L313.7,245.9 L314.0,245.9 L314.2,246.3 
		L314.5,246.3 L314.7,246.3 L315.0,246.3 L315.2,246.9 L315.5,246.9 L315.7,247.1 L316.0,247.0 L316.2,246.8 
		L316.5,246.7 L316.7,246.7 L317.0,246.9 L317.2,246.9 L317.5,246.6 L317.7,246.4 L317.9,246.0 L318.2,245.7 
		L318.4,245.6 L318.7,245.7 L318.9,245.7 L319.2,245.9 L319.4,245.6 L319.7,245.2 L319.9,245.2 L320.2,245.2 
		L320.4,245.5 L320.7,245.4 L320.9,245.6 L321.2,245.5 L321.4,245.6 L321.7,245.6 L321.9,245.1 L322.2,244.7 
		L322.4,244.7 L322.6,244.7 L322.9,245.2 L323.1,244.9 L323.4,244.8 L323.6,244.8 L323.9,244.8 L324.1,245.1 
		L324.4,244.6 L324.6,244.0 L324.9,243.4 L325.1,243.2 L325.4,243.2 L325.6,243.2 L325.9,243.7 L326.1,243.4 
		L326.4,243.1 L326.6,243.1 L326.9,243.4 L327.1,243.4 L327.3,243.3 L327.6,243.3 L327.8,243.1 L328.1,242.8 
		L328.3,242.8 L328.6,242.8 L328.8,242.8 L329.1,242.3 L329.3,241.7 L329.6,241.5 L329.8,241.5 L330.1,241.5 
		L330.3,241.9 L330.6,241.9 L330.8,241.9 L331.1,241.9 L331.3,242.6 L331.6,242.6 L331.8,242.7 L332.0,242.9 
		L332.3,242.7 L332.5,242.9 L332.8,242.9 L333.0,243.3 L333.3,243.1 L333.5,243.2 L333.8,242.6 L334.0,242.0 
		L334.3,241.6 L334.5,241.5 L334.8,241.8 L335.0,241.7 L335.3,241.9 L335.5,242.0 L335.8,242.0 L336.0,242.3 
		L336.3,242.3 L336.5,242.3 L336.7,242.4 L337.0,241.9 L337.2,241.7 L337.5,241.7 L337.7,241.8 L338.0,241.9 
		L338.2,241.9 L338.5,241.9 L338.7,242.3 L339.0,242.0 L339.2,241.8 L339.5,241.6 L339.7,241.4 L340.0,241.5 
		L340.2,241.5 L340.5,241.5 L340.7,241.5 L341.0,242.1 L341.2,242.1 L341.4,242.1 L341.7,242.4 L341.9,242.3 
		L342.2,242.3 L342.4,242.4 L342.7,242.4 L342.9,242.4 L343.2,242.7 L343.4,242.2 L343.7,241.8 L343.9,241.8 
		L344.2,242.0 L344.4,241.8 L344.7,241.6 L344.9,241.6 L345.2,241.6 L345.4,241.2 L345.7,240.8 L345.9,240.4 
		L346.2,240.3 L346.4,240.3 L346.6,240.3 L346.9,240.3 L347.1,240.3 L347.4,241.0 L347.6,241.0 L347.9,241.0 
		L348.1,241.0 L348.4,241.0 L348.6,241.5 L348.9,241.1 L349.1,240.9 L349.4,240.7 L349.6,240.6 L349.9,240.7 
		L350.1,240.7 L350.4,240.7 L350.6,241.1 L350.9,241.1 L351.1,241.1 L351.3,241.1 L351.6,241.1 L351.8,241.1 
		L352.1,241.1 L352.3,242.0 L352.6,241.9 L352.8,241.9 L353.1,242.2 L353.3,242.2 L353.6,242.2 L353.8,242.2 
		L354.1,242.2 L354.3,242.2 L354.6,242.2 L354.8,242.2 L355.1,242.8 L355.3,242.7 L355.6,242.8 L355.8,243.0 
		L356.0,243.0 L356.3,243.0 L356.5,243.2 L356.8,243.2 L357.0,243.2 L357.3,243.8 L357.5,243.8 L357.8,243.8 
		L358.0,243.8 L358.3,243.8 L358.5,243.8 L358.8,243.8 L359.0,244.8 L359.3,244.8 L359.5,244.8 L359.8,244.8 
		L360.0,244.8 L360.3,245.3 L360.5,245.5 L360.7,245.4 L361.0,245.2 L361.2,245.2 L361.5,245.2 L361.7,244.9 
		L362.0,244.7 L362.2,244.4 L362.5,244.3 L362.7,244.2 L363.0,244.2 L363.2,244.4 L363.5,244.3 L363.7,244.2 
		L364.0,244.1 L364.2,244.1 L364.5,244.1 L364.7,244.2 L365.0,244.2 L365.2,243.9 L365.4,243.5 L365.7,243.1 
		L365.9,243.0 L366.2,243.0 L366.4,243.1 L366.7,243.1 L366.9,243.2 L367.2,243.2 L367.4,243.2 L367.7,243.7 
		L367.9,243.7 L368.2,243.7 L368.4,243.8 L368.7,243.7 L368.9,243.9 L369.2,243.9 L369.4,244.2 L369.7,244.3 
		L369.9,244.3 L370.1,244.2 L370.4,244.0 L370.6,243.9 L370.9,244.0 L371.1,244.0 L371.4,244.4 L371.6,244.1 
		L371.9,243.7 L372.1,243.3 L372.4,243.2 L372.6,243.2 L372.9,243.2 L373.1,243.2 L373.4,243.2 L373.6,243.2 
		L373.9,243.2 L374.1,244.0 L374.4,244.0 L374.6,244.2 L374.8,244.3 L375.1,244.1 L375.3,244.0 L375.6,244.0 
		L375.8,244.0 L376.1,244.0 L376.3,244.0 L376.6,244.0 L376.8,244.0 L377.1,244.0 L377.3,244.9 L377.6,244.8 
		L377.8,244.9 L378.1,244.9 L378.3,244.9 L378.6,245.3 L378.8,245.4 L379.1,245.5 L379.3,245.5 L379.5,245.5 
		L379.8,245.8 L380.0,245.9 L380.3,245.9 L380.5,245.9 L380.8,245.9 L381.0,245.9 L381.3,245.9 L381.5,246.3 
		L381.8,246.3 L382.0,246.3 L382.3,246.3 L382.5,246.3 L382.8,246.3 L383.0,246.5 L383.3,246.4 L383.5,246.4 
		L383.8,246.4 L384.0,246.6 L384.2,246.5 L384.5,246.5 L384.7,246.7 L385.0,246.7 L385.2,246.7 L385.5,246.5 
		L385.7,246.5 L386.0,246.5 L386.2,246.7 L386.5,246.9 L386.7,246.8 L387.0,246.9 L387.2,246.8 L387.5,246.8 
		L387.7,246.8 L388.0,247.1 L388.2,247.1 L388.5,247.2 L388.7,247.2 L389.0,247.2 L389.2,247.0 L389.4,246.8 
		L389.7,246.8 L389.9,246.8 L390.2,247.2 L390.4,247.1 L390.7,246.9 L390.9,246.8 L391.2,246.5 L391.4,246.3 
		L391.7,246.3 L391.9,246.3 L392.2,246.4 L392.4,246.2 L392.7,246.2 L392.9,246.2 L393.2,246.3 L393.4,246.3 
		L393.7,246.3 L393.9,246.3 L394.1,246.7 L394.4,246.8 L394.6,246.8 L394.9,246.8 L395.1,246.8 L395.4,246.9 
		L395.6,246.9 L395.9,246.9 L396.1,246.9 L396.4,246.9 L396.6,246.9 L396.9,246.9 L397.1,247.6 L397.4,247.5 
		L397.6,247.5 L397.9,247.7 L398.1,247.7 L398.4,247.7 L398.6,247.7 L398.8,247.7 L399.1,248.4 L399.3,248.4 
		L399.6,248.4 L399.8,248.4 L400.1,248.4 L400.3,248.4 L400.6,248.4 L400.8,249.2 L401.1,249.3 L401.3,249.3 
		L401.6,249.4 L401.8,249.5 L402.1,249.6 L402.3,249.7 L402.6,249.7 L402.8,249.9 L403.1,249.9 L403.3,249.9 
		L403.5,249.9 L403.8,249.9 L404.0,250.5 L404.3,250.5 L404.5,250.6 L404.8,250.6 L405.0,250.6 L405.3,250.6 
		L405.5,251.2 L405.8,251.3 L406.0,251.4 L406.3,251.5 L406.5,251.6 L406.8,251.7 L407.0,251.8 L407.3,251.9 
		L407.5,251.9 L407.8,252.0 L408.0,252.2 L408.2,252.2 L408.5,252.2 L408.7,252.3 L409.0,252.4 L409.2,252.4 
		L409.5,252.5 L409.7,252.4 L410.0,252.5 L410.2,252.5 L410.5,252.5 L410.7,252.8 L411.0,252.8 L411.2,253.1 
		L411.5,253.1 L411.7,253.2 L412.0,253.4 L412.2,253.4 L412.5,253.4 L412.7,253.6 L412.9,253.5 L413.2,253.4 
		L413.4,253.2 L413.7,253.2 L413.9,253.3 L414.2,253.3 L414.4,253.3 L414.7,253.3 L414.9,253.8 L415.2,253.8 
		L415.4,253.8 L415.7,253.8 L415.9,254.0 L416.2,254.1 L416.4,254.2 L416.7,254.2 L416.9,254.3 L417.2,254.3 
		L417.4,254.3 L417.6,254.3 L417.9,254.3 L418.1,255.0 L418.4,255.1 L418.6,255.1 L418.9,255.2 L419.1,255.3 
		L419.4,255.4 L419.6,255.5 L419.9,255.5 L420.1,255.5 L420.4,255.8 L420.6,255.8 L420.9,255.8 L421.1,256.0 
		L421.4,256.1 L421.6,256.1 L421.9,256.1 L422.1,256.1 L422.3,256.1 L422.6,256.1 L422.8,256.1 L423.1,256.7 
		L423.3,256.7 L423.6,256.8 L423.8,256.9 L424.1,257.0 L424.3,257.0 L424.6,257.0 L424.8,257.3 L425.1,257.4 
		L425.3,257.5 L425.6,257.5 L425.8,257.6 L426.1,257.6 L426.3,257.7 L426.6,257.7 L426.8,257.7 L427.0,257.7 
		L427.3,257.7 L427.5,258.1 L427.8,258.1 L428.0,258.0 L428.3,258.0 L428.5,258.1 L428.8,258.0 L429.0,257.9 
		L429.3,257.8 L429.5,257.8 L429.8,257.9 L430.0,257.9 L430.3,257.9 L430.5,258.1 L430.8,257.9 L431.0,257.7 
		L431.3,257.5 L431.5,257.3 L431.8,257.2 L432.0,257.2 L432.2,257.2 L432.5,257.2 L432.7,257.2 L433.0,257.2 
		L433.2,257.8 L433.5,257.7 L433.7,257.7 L434.0,257.9 L434.2,257.9 L434.5,258.0 L434.7,258.0 L435.0,258.3 
		L435.2,258.3 L435.5,258.2 L435.7,258.2 L436.0,258.2 L436.2,258.1 L436.5,258.0 L436.7,258.0 L436.9,258.0 
		L437.2,258.0 L437.4,258.3 L437.7,258.3 L437.9,258.6 L438.2,258.6 L438.4,258.6 L438.7,258.7 L438.9,258.6 
		L439.2,258.5 L439.4,258.6 L439.7,258.4 L439.9,258.3 L440.2,258.3 L440.4,258.3 L440.7,258.3 L440.9,258.8 
		L441.2,258.6 L441.4,258.5 L441.6,258.5 L441.9,258.5 L442.1,258.5 L442.4,258.5 L442.6,258.9 L442.9,259.0 
		L443.1,258.9 L443.4,258.7 L443.6,258.6 L443.9,258.6 L444.1,258.4 L444.4,258.4 L444.6,258.4 L444.9,258.4 
		L445.1,258.7 L445.4,258.7 L445.6,258.7 L445.9,258.7 L446.1,258.7 L446.3,259.2 L446.6,259.0 L446.8,259.0 
		L447.1,259.0 L447.3,259.0 L447.6,259.0 L447.8,259.3 L448.1,259.3 L448.3,259.3 L448.6,259.4 L448.8,259.4 
		L449.1,259.6 L449.3,259.6 L449.6,259.6 L449.8,259.6 L450.1,259.9 L450.3,259.9 L450.6,259.9 L450.8,260.0 
		L451.0,260.0 L451.3,260.1 L451.5,259.9 L451.8,259.9 L452.0,260.0 L452.3,260.0 L452.5,260.0 L452.8,260.0 
		L453.0,260.0 L453.3,260.4 L453.5,260.4 L453.8,260.4 L454.0,260.4 L454.3,260.5 L454.5,260.5 L454.8,260.5 
		L455.0,260.6 L455.3,260.6 L455.5,260.6 L455.7,260.6 L456.0,260.6 L456.2,260.6 L456.5,260.6 L456.7,261.1 
		L457.0,261.1 L457.2,261.2 L457.5,261.3 L457.7,261.3 L458.0,261.4 L458.2,261.4 L458.5,261.6 L458.7,261.7 
		L459.0,261.7 L459.2,261.7 L459.5,261.8 L459.7,261.8 L460.0,262.0 L460.2,262.0 L460.4,262.0 L460.7,262.0 
		L460.9,262.0 L461.2,262.0 L461.4,262.0 L461.7,262.7 L461.9,262.7 L462.2,262.8 L462.4,262.8 L462.7,262.9 
		L462.9,263.0 L463.2,263.0 L463.4,263.1 L463.7,263.1 L463.9,263.2 L464.2,263.2 L464.4,263.3 L464.7,263.3 
		L464.9,263.3 L465.1,263.3 L465.4,263.5 L465.6,263.5 L465.9,263.5 L466.1,263.7 L466.4,263.6 L466.6,263.6 
		L466.9,263.4 L467.1,263.4 L467.4,263.5 L467.6,263.5 L467.9,263.7 L468.1,263.6 L468.4,263.4 L468.6,263.4 
		L468.9,263.6 L469.1,263.6 L469.4,263.6 L469.6,263.7 L469.9,263.7 L470.1,263.7 L470.3,264.0 L470.6,264.0 
		L470.8,264.0 L471.1,264.0 L471.3,264.3 L471.6,264.2 L471.8,264.1 L472.1,264.1 L472.3,264.1 L472.6,264.1 
		L472.8,264.1 L473.1,264.3 L473.3,264.1 L473.6,263.9 L473.8,263.8 L474.1,263.9 L474.3,264.0 L474.6,264.0 
		L474.8,264.0 L475.0,264.0 L475.3,264.0 L475.5,264.0 L475.8,264.0 L476.0,264.6 L476.3,264.6 L476.5,264.6 
		L476.8,264.6 L477.0,264.6 L477.3,264.6 L477.5,265.1 L477.8,265.1 L478.0,265.2 L478.3,265.3 L478.5,265.2 
		L478.8,265.2 L479.0,265.4 L479.3,265.4 L479.5,265.5 L479.7,265.5 L480.0,265.5 L480.2,265.4 L480.5,265.3 
		L480.7,265.3 L481.0,265.2 L481.2,265.1 L481.5,265.1 L481.7,265.1 L482.0,265.2 L482.2,265.2 L482.5,265.2 
		L482.7,265.2 L483.0,265.2 L483.2,265.5 L483.5,265.5 L483.7,265.6 L484.0,265.6 L484.2,265.8 L484.4,265.8 
		L484.7,265.8 L484.9,265.8 L485.2,265.8 L485.4,265.8 L485.7,265.8 L485.9,265.8 L486.2,266.0 L486.4,265.9 
		L486.7,265.8 L486.9,265.8 L487.2,265.9 L487.4,265.9 L487.7,265.9 L487.9,265.9 L488.2,266.1 L488.4,266.1 
		L488.7,266.2 L488.9,266.2 L489.1,266.1 L489.4,266.1 L489.6,266.1 L489.9,266.0 L490.1,265.8 L490.4,265.6 
		L490.6,265.5 L490.9,265.5 L491.1,265.4 L491.4,265.2 L491.6,264.9 L491.9,264.9 L492.1,264.9 L492.4,264.9 
		L492.6,265.0 L492.9,265.0 L493.1,265.1 L493.4,265.0 L493.6,265.0 L493.8,264.9 L494.1,264.9 L494.3,264.9 
		L494.6,265.0 L494.8,265.0 L495.1,265.0 L495.3,265.0 L495.6,265.0 L495.8,265.0 L496.1,265.0 L496.3,265.0 
		L496.6,265.0 L496.8,265.0 L497.1,265.0 L497.3,265.0 L497.6,265.0 L497.8,265.0 L498.1,266.3 L498.3,266.2 
		L498.5,266.2 L498.8,266.2 L499.0,266.3 L499.3,266.3 L499.5,266.3 L499.8,266.3 L500.0,266.5 L500.3,266.5 
		L500.5,266.4 L500.8,266.3 L501.0,266.3 L501.3,266.4 L501.5,266.3 L501.8,266.2 L502.0,266.2 L502.3,266.2 
		L502.5,266.4 L502.8,266.2 L503.0,266.1 L503.2,265.9 L503.5,265.7 L503.7,265.5 L504.0,265.4 L504.2,265.4 
		L504.5,265.4 L504.7,265.4 L505.0,265.4 L505.2,265.4 L505.5,265.4 L505.7,265.4 L506.0,265.4 L506.2,265.4 
		L506.5,265.4 L506.7,265.4 L507.0,266.4 L507.2,266.3 L507.5,266.3 L507.7,266.3 L507.9,266.3 L508.2,266.2 
		L508.4,266.2 L508.7,266.1 L508.9,266.2 L509.2,266.2 L509.4,266.1 L509.7,266.1 L509.9,266.0 L510.2,266.0 
		L510.4,266.0 L510.7,266.1 L510.9,266.0 L511.2,266.0 L511.4,266.0 L511.7,266.3 L511.9,266.1 L512.2,266.1 
		L512.4,266.1 L512.7,266.1 L512.9,266.3 L513.1,266.3 L513.4,266.4 L513.6,266.4 L513.9,266.6 L514.1,266.6 
		L514.4,266.6 L514.6,266.7 L514.9,266.8 L515.1,266.8 L515.4,266.7 L515.6,266.7 L515.9,266.7 L516.1,266.8 
		L516.4,266.6 L516.6,266.6 L516.9,266.7 L517.1,266.5 L517.4,266.4 L517.6,266.4 L517.8,266.5 L518.1,266.5 
		L518.3,266.6 L518.6,266.5 L518.8,266.7 L519.1,266.5 L519.3,266.4 L519.6,266.4 L519.8,266.1 L520.1,266.0 
		L520.3,266.0 L520.6,266.0 L520.8,265.8 L521.1,265.8 L521.3,265.8 L521.6,265.6 L521.8,265.4 L522.1,265.4 
		L522.3,265.4 L522.5,265.2 L522.8,265.2 L523.0,265.4 L523.3,265.4 L523.5,265.4 L523.8,265.6 L524.0,265.4 
		L524.3,265.3 L524.5,265.3 L524.8,265.4 L525.0,265.3 L525.3,265.0 L525.5,264.7 L525.8,264.6 L526.0,264.7 
		L526.3,264.5 L526.5,264.5 L526.8,264.5 L527.0,264.5 L527.2,264.5 L527.5,264.5 L527.7,264.9 L528.0,264.7 
		L528.2,264.7 L528.5,264.7 L528.7,264.9 L529.0,264.9 L529.2,264.9 L529.5,264.9 L529.7,264.9 L530.0,264.8 
		L530.2,264.8 L530.5,264.8 L530.7,264.9 L531.0,264.9 L531.2,264.9 L531.5,264.9 L531.7,265.3 L531.9,265.2 
		L532.2,265.2 L532.4,265.2 L532.7,265.2 L532.9,265.2 L533.2,265.2 L533.4,265.2 L533.7,265.7 L533.9,265.7 
		L534.2,265.7 L534.4,265.7 L534.7,265.7 L534.9,266.0 L535.2,266.0 L535.4,266.0 L535.7,266.0 L535.9,266.0 
		L536.2,266.2 L536.4,266.2 L536.6,266.2 L536.9,266.3 L537.1,266.3 L537.4,266.3 L537.6,266.3 L537.9,266.3 
		L538.1,266.3 L538.4,266.6 L538.6,266.6 L538.9,266.7 L539.1,266.7 L539.4,266.7 L539.6,266.6 L539.9,266.5 
		L540.1,266.4 L540.4,266.4 L540.6,266.4 L540.9,266.4 L541.1,266.4 L541.3,266.4 L541.6,266.6 L541.8,266.6 
		L542.1,266.7 L542.3,266.5 L542.6,266.5 L542.8,266.6 L543.1,266.6 L543.3,266.6 L543.6,266.8 L543.8,266.8 
		L544.1,266.8 L544.3,266.9 L544.6,266.9 L544.8,266.9 L545.1,266.9 L545.3,266.9 L545.6,266.9 L545.8,266.9 
		L546.0,266.9 L546.3,267.5 L546.5,267.4 L546.8,267.4 L547.0,267.4 L547.3,267.4 L547.5,267.5 L547.8,267.5 
		L548.0,267.6 L548.3,267.6 L548.5,267.6 L548.8,267.6 L549.0,267.6 L549.3,267.6 L549.5,267.6 L549.8,267.6 
		L550.0,267.6 L550.3,267.6 L550.5,267.6 L550.7,268.2 L551.0,268.2 L551.2,268.2 L551.5,268.5 L551.7,268.5 
		L552.0,268.5 L552.2,268.6 L552.5,268.6 L552.7,268.6 L553.0,268.6 L553.2,268.6 L553.5,268.6 L553.7,268.6 
		L554.0,268.6 L554.2,268.6 L554.5,268.6 L554.7,268.6 L555.0,269.3 L555.2,269.3 L555.5,269.3 L555.7,269.3 
		L555.9,269.7 L556.2,269.7 L556.4,269.8 L556.7,269.8 L556.9,269.9 L557.2,270.0 L557.4,270.0 L557.7,270.1 
		L557.9,270.1 L558.2,270.2 L558.4,270.2 L558.7,270.2 L558.9,270.3 L559.2,270.3 L559.4,270.4 L559.7,270.3 
		L559.9,270.3 L560.2,270.2 L560.4,270.2 L560.6,270.3 L560.9,270.2 L561.1,270.2 L561.4,270.2 L561.6,270.1 
		L561.9,270.0 L562.1,270.0 L562.4,270.0 L562.6,270.2 L562.9,270.1 L563.1,270.0 L563.4,269.8 L563.6,269.6 
		L563.9,269.4 L564.1,269.3 L564.4,269.3 L564.6,269.5 L564.9,269.5 L565.1,269.5 L565.3,269.5 L565.6,269.5 
		L565.8,269.6 L566.1,269.5 L566.3,269.5 L566.6,269.5 L566.8,269.5 L567.1,269.8 L567.3,269.8 L567.6,269.8 
		L567.8,269.8 L568.1,269.8 L568.3,269.8 L568.6,269.8 L568.8,270.3 L569.1,270.3 L569.3,270.3 L569.6,270.3 
		L569.8,270.3 L570.0,270.3 L570.3,270.6 L570.5,270.6 L570.8,270.6 L571.0,270.6 L571.3,270.6 L571.5,270.6 
		L571.8,270.6 L572.0,270.6 L572.3,270.6 L572.5,270.6 L572.8,270.6 L573.0,271.3 L573.3,271.2 L573.5,271.2 
		L573.8,271.2 L574.0,271.3 L574.3,271.4 L574.5,271.4 L574.7,271.5 L575.0,271.5  h0.01'/></g>
	</g>
	<g id="gnuplot_plot_2" ><title>gnuplot_plot_2</title>
<g style="fill:none; color:green; stroke:currentColor; stroke-width:1.00; stroke-linecap:butt; stroke-linejoin:miter">
	<g transform="translate(507.9,408.9)" style="stroke:none; fill:black; font-family:Arial; font-size:12.00pt; text-anchor:end">
		<text>Radio maximum capacity</text>
	</g>
	<path  d='M516.2,404.4 L558.4,404.4 M83.4,95.3 L83.7,151.3 L83.9,290.5 L84.2,290.5 L84.4,350.4 L84.7,296.1 
		L84.9,290.5 L85.1,290.5 L85.4,327.1 L85.6,278.0 L85.9,241.9 L86.1,242.1 L86.4,255.5 L86.6,243.3 
		L86.9,206.0 L87.1,156.9 L87.4,121.1 L87.6,109.7 L87.9,112.4 L88.1,113.8 L88.4,117.1 L88.6,96.0 
		L88.9,86.9 L89.1,91.6 L89.4,91.6 L89.6,91.6 L89.8,127.9 L90.1,128.4 L90.3,127.8 L90.6,126.5 
		L90.8,132.8 L91.1,115.1 L91.3,96.9 L91.6,95.7 L91.8,95.7 L92.1,95.7 L92.3,95.7 L92.6,130.1 
		L92.8,135.8 L93.1,132.3 L93.3,123.1 L93.6,109.7 L93.8,101.2 L94.0,91.8 L94.3,90.2 L94.5,91.2 
		L94.8,102.4 L95.0,103.4 L95.3,103.4 L95.5,103.4 L95.8,103.4 L96.0,128.9 L96.3,127.5 L96.5,131.7 
		L96.8,120.2 L97.0,104.0 L97.3,89.8 L97.5,82.9 L97.8,86.2 L98.0,86.2 L98.3,89.9 L98.5,87.5 
		L98.8,90.7 L99.0,88.2 L99.2,89.3 L99.5,89.3 L99.7,99.4 L100.0,95.8 L100.2,95.2 L100.5,102.9 
		L100.7,101.7 L101.0,101.9 L101.2,101.2 L101.5,90.3 L101.7,78.7 L102.0,71.0 L102.2,70.9 L102.5,71.2 
		L102.7,78.7 L103.0,80.2 L103.2,80.2 L103.5,83.6 L103.7,76.0 L103.9,70.2 L104.2,65.6 L104.4,62.4 
		L104.7,60.1 L104.9,58.9 L105.2,59.2 L105.4,59.2 L105.7,68.7 L105.9,67.6 L106.2,68.1 L106.4,74.0 
		L106.7,73.8 L106.9,75.2 L107.2,79.8 L107.4,82.6 L107.7,84.3 L107.9,81.3 L108.2,74.8 L108.4,70.4 
		L108.6,67.0 L108.9,64.5 L109.1,62.6 L109.4,62.5 L109.6,62.5 L109.9,68.2 L110.1,68.7 L110.4,68.7 
		L110.6,75.7 L110.9,73.7 L111.1,74.4 L111.4,77.1 L111.6,77.6 L111.9,77.6 L112.1,77.6 L112.4,77.6 
		L112.6,88.1 L112.9,86.5 L113.1,86.8 L113.3,86.8 L113.6,86.8 L113.8,86.8 L114.1,86.8 L114.3,99.8 
		L114.6,101.7 L114.8,101.1 L115.1,101.1 L115.3,101.1 L115.6,107.4 L115.8,107.5 L116.1,107.5 L116.3,111.1 
		L116.6,111.1 L116.8,111.1 L117.1,117.2 L117.3,116.4 L117.6,116.7 L117.8,116.7 L118.0,120.2 L118.3,120.2 
		L118.5,120.9 L118.8,121.6 L119.0,123.7 L119.3,123.8 L119.5,123.8 L119.8,123.8 L120.0,129.9 L120.3,131.1 
		L120.5,131.9 L120.8,131.9 L121.0,134.1 L121.3,133.4 L121.5,133.7 L121.8,133.7 L122.0,133.7 L122.3,140.0 
		L122.5,140.2 L122.7,140.1 L123.0,140.3 L123.2,140.6 L123.5,140.6 L123.7,140.6 L124.0,140.6 L124.2,140.6 
		L124.5,140.6 L124.7,140.6 L125.0,152.0 L125.2,152.3 L125.5,152.3 L125.7,152.3 L126.0,157.2 L126.2,155.5 
		L126.5,152.7 L126.7,150.6 L127.0,151.0 L127.2,151.1 L127.5,151.1 L127.7,151.1 L127.9,151.1 L128.2,154.9 
		L128.4,152.3 L128.7,149.5 L128.9,146.8 L129.2,145.5 L129.4,145.6 L129.7,146.3 L129.9,142.9 L130.2,139.0 
		L130.4,136.8 L130.7,136.8 L130.9,136.8 L131.2,140.0 L131.4,140.3 L131.7,140.3 L131.9,142.9 L132.2,144.5 
		L132.4,144.9 L132.6,143.7 L132.9,141.0 L133.1,137.3 L133.4,134.2 L133.6,132.4 L133.9,132.1 L134.1,132.3 
		L134.4,134.4 L134.6,135.2 L134.9,133.7 L135.1,132.6 L135.4,132.7 L135.6,132.7 L135.9,132.7 L136.1,132.7 
		L136.4,132.7 L136.6,132.7 L136.9,132.7 L137.1,132.7 L137.3,132.7 L137.6,144.7 L137.8,144.8 L138.1,145.2 
		L138.3,145.3 L138.6,145.2 L138.8,142.5 L139.1,142.3 L139.3,143.1 L139.6,141.6 L139.8,141.5 L140.1,141.8 
		L140.3,141.9 L140.6,141.9 L140.8,141.9 L141.1,146.3 L141.3,146.4 L141.6,146.4 L141.8,145.4 L142.1,145.6 
		L142.3,146.6 L142.5,146.5 L142.8,146.7 L143.0,147.0 L143.3,148.2 L143.5,149.1 L143.8,149.1 L144.0,149.1 
		L144.3,152.6 L144.5,152.7 L144.8,153.7 L145.0,153.8 L145.3,155.4 L145.5,154.4 L145.8,152.4 L146.0,150.4 
		L146.3,148.8 L146.5,148.7 L146.8,150.1 L147.0,149.4 L147.2,149.2 L147.5,150.8 L147.7,151.3 L148.0,151.3 
		L148.2,151.5 L148.5,152.3 L148.7,152.3 L149.0,153.5 L149.2,154.6 L149.5,153.7 L149.7,153.2 L150.0,152.9 
		L150.2,153.4 L150.5,153.2 L150.7,153.3 L151.0,155.1 L151.2,154.5 L151.5,154.6 L151.7,154.6 L151.9,156.4 
		L152.2,156.3 L152.4,156.3 L152.7,156.3 L152.9,159.8 L153.2,159.8 L153.4,159.9 L153.7,159.9 L153.9,159.9 
		L154.2,159.9 L154.4,159.9 L154.7,164.0 L154.9,164.0 L155.2,164.0 L155.4,166.2 L155.7,165.7 L155.9,165.5 
		L156.2,165.7 L156.4,165.7 L156.6,165.7 L156.9,168.5 L157.1,168.8 L157.4,168.7 L157.6,168.8 L157.9,168.8 
		L158.1,168.8 L158.4,168.8 L158.6,171.9 L158.9,171.8 L159.1,172.0 L159.4,172.0 L159.6,171.4 L159.9,169.3 
		L160.1,168.0 L160.4,168.0 L160.6,169.3 L160.9,169.1 L161.1,169.6 L161.3,168.8 L161.6,168.8 L161.8,169.6 
		L162.1,169.3 L162.3,169.3 L162.6,170.1 L162.8,169.6 L163.1,169.7 L163.3,169.7 L163.6,170.7 L163.8,170.8 
		L164.1,171.8 L164.3,172.1 L164.6,172.1 L164.8,172.1 L165.1,172.1 L165.3,174.5 L165.6,174.5 L165.8,174.5 
		L166.0,174.5 L166.3,174.5 L166.5,174.5 L166.8,178.2 L167.0,175.8 L167.3,172.6 L167.5,169.2 L167.8,167.2 
		L168.0,167.1 L168.3,167.8 L168.5,168.6 L168.8,168.0 L169.0,167.6 L169.3,167.7 L169.5,167.7 L169.8,166.7 
		L170.0,166.0 L170.3,166.1 L170.5,166.4 L170.7,166.4 L171.0,167.2 L171.2,166.9 L171.5,167.1 L171.7,167.3 
		L172.0,167.3 L172.2,167.3 L172.5,167.3 L172.7,170.0 L173.0,170.1 L173.2,170.1 L173.5,171.2 L173.7,172.1 
		L174.0,172.1 L174.2,172.7 L174.5,172.5 L174.7,172.9 L175.0,172.9 L175.2,173.6 L175.4,173.6 L175.7,174.2 
		L175.9,173.9 L176.2,173.9 L176.4,174.3 L176.7,174.1 L176.9,174.1 L177.2,174.1 L177.4,175.9 L177.7,175.9 
		L177.9,175.9 L178.2,175.9 L178.4,177.2 L178.7,176.7 L178.9,176.7 L179.2,177.3 L179.4,177.3 L179.7,177.1 
		L179.9,177.1 L180.1,177.8 L180.4,176.8 L180.6,176.8 L180.9,177.1 L181.1,176.2 L181.4,175.9 L181.6,176.4 
		L181.9,176.3 L182.1,177.0 L182.4,177.0 L182.6,177.6 L182.9,176.3 L183.1,175.6 L183.4,175.6 L183.6,176.2 
		L183.9,176.2 L184.1,176.2 L184.4,177.6 L184.6,177.6 L184.9,177.6 L185.1,179.0 L185.3,178.4 L185.6,177.9 
		L185.8,177.8 L186.1,177.8 L186.3,178.2 L186.6,177.7 L186.8,177.7 L187.1,178.3 L187.3,178.3 L187.6,178.8 
		L187.8,178.3 L188.1,177.4 L188.3,177.3 L188.6,177.8 L188.8,177.9 L189.1,177.9 L189.3,177.8 L189.6,177.6 
		L189.8,178.2 L190.0,178.2 L190.3,179.1 L190.5,179.1 L190.8,180.1 L191.0,180.0 L191.3,180.0 L191.5,180.1 
		L191.8,180.4 L192.0,180.3 L192.3,180.0 L192.5,180.4 L192.8,179.2 L193.0,177.6 L193.3,176.7 L193.5,176.1 
		L193.8,175.7 L194.0,175.4 L194.3,175.3 L194.5,175.3 L194.7,175.3 L195.0,175.3 L195.2,175.3 L195.5,175.3 
		L195.7,178.8 L196.0,178.9 L196.2,179.5 L196.5,180.0 L196.7,179.2 L197.0,179.2 L197.2,179.2 L197.5,179.1 
		L197.7,179.1 L198.0,179.1 L198.2,179.8 L198.5,179.3 L198.7,179.0 L199.0,179.0 L199.2,179.5 L199.4,178.8 
		L199.7,178.5 L199.9,178.5 L200.2,178.5 L200.4,179.1 L200.7,177.6 L200.9,176.6 L201.2,177.0 L201.4,177.1 
		L201.7,177.2 L201.9,176.0 L202.2,176.0 L202.4,176.6 L202.7,176.7 L202.9,177.3 L203.2,177.4 L203.4,177.4 
		L203.7,177.4 L203.9,178.9 L204.1,178.9 L204.4,178.9 L204.6,178.9 L204.9,178.9 L205.1,180.8 L205.4,180.8 
		L205.6,180.9 L205.9,180.9 L206.1,180.9 L206.4,180.9 L206.6,180.9 L206.9,180.9 L207.1,182.7 L207.4,182.2 
		L207.6,182.3 L207.9,182.3 L208.1,183.3 L208.4,183.4 L208.6,183.4 L208.8,183.4 L209.1,183.9 L209.3,183.9 
		L209.6,183.9 L209.8,184.5 L210.1,183.6 L210.3,182.5 L210.6,181.5 L210.8,180.8 L211.1,180.9 L211.3,180.9 
		L211.6,182.0 L211.8,182.0 L212.1,182.0 L212.3,181.1 L212.6,181.0 L212.8,181.0 L213.1,181.9 L213.3,182.1 
		L213.5,182.2 L213.8,182.2 L214.0,183.2 L214.3,182.3 L214.5,181.5 L214.8,181.4 L215.0,181.4 L215.3,181.8 
		L215.5,181.8 L215.8,182.8 L216.0,183.4 L216.3,183.6 L216.5,184.0 L216.8,184.1 L217.0,184.4 L217.3,184.4 
		L217.5,184.4 L217.8,184.0 L218.0,183.2 L218.2,183.0 L218.5,183.0 L218.7,183.0 L219.0,183.8 L219.2,183.5 
		L219.5,182.9 L219.7,182.1 L220.0,181.9 L220.2,182.4 L220.5,182.6 L220.7,182.6 L221.0,183.1 L221.2,183.1 
		L221.5,183.1 L221.7,184.3 L222.0,184.3 L222.2,185.2 L222.5,185.1 L222.7,183.7 L222.9,182.5 L223.2,181.7 
		L223.4,181.7 L223.7,181.7 L223.9,182.2 L224.2,182.2 L224.4,182.2 L224.7,182.2 L224.9,182.2 L225.2,184.1 
		L225.4,184.2 L225.7,184.3 L225.9,184.3 L226.2,184.1 L226.4,183.9 L226.7,184.3 L226.9,184.1 L227.2,184.1 
		L227.4,184.1 L227.7,184.1 L227.9,184.1 L228.1,186.1 L228.4,185.9 L228.6,185.9 L228.9,186.1 L229.1,186.7 
		L229.4,186.6 L229.6,186.5 L229.9,186.6 L230.1,186.6 L230.4,186.6 L230.6,186.6 L230.9,186.6 L231.1,186.6 
		L231.4,189.0 L231.6,188.9 L231.9,189.3 L232.1,188.9 L232.4,188.3 L232.6,188.2 L232.8,188.2 L233.1,188.5 
		L233.3,188.4 L233.6,188.3 L233.8,187.1 L234.1,185.8 L234.3,185.1 L234.6,184.8 L234.8,184.8 L235.1,185.4 
		L235.3,185.4 L235.6,185.4 L235.8,185.4 L236.1,185.4 L236.3,185.4 L236.6,185.4 L236.8,185.4 L237.1,188.0 
		L237.3,188.1 L237.5,188.1 L237.8,188.2 L238.0,187.2 L238.3,186.3 L238.5,185.6 L238.8,185.5 L239.0,185.5 
		L239.3,185.0 L239.5,184.8 L239.8,184.9 L240.0,184.9 L240.3,184.9 L240.5,186.0 L240.8,186.5 L241.0,186.5 
		L241.3,186.4 L241.5,186.9 L241.8,186.9 L242.0,186.9 L242.2,186.9 L242.5,186.9 L242.7,186.9 L243.0,188.6 
		L243.2,188.7 L243.5,188.8 L243.7,189.0 L244.0,188.9 L244.2,188.7 L244.5,188.7 L244.7,188.7 L245.0,188.7 
		L245.2,188.7 L245.5,188.7 L245.7,188.7 L246.0,190.6 L246.2,190.5 L246.5,190.8 L246.7,190.4 L246.9,190.4 
		L247.2,190.4 L247.4,190.8 L247.7,190.5 L247.9,190.5 L248.2,190.5 L248.4,190.5 L248.7,191.5 L248.9,191.4 
		L249.2,191.2 L249.4,191.1 L249.7,191.1 L249.9,191.1 L250.2,191.1 L250.4,192.3 L250.7,192.3 L250.9,192.3 
		L251.2,192.3 L251.4,192.7 L251.6,192.6 L251.9,192.9 L252.1,192.4 L252.4,192.2 L252.6,192.3 L252.9,192.3 
		L253.1,192.3 L253.4,193.3 L253.6,193.3 L253.9,194.0 L254.1,194.0 L254.4,194.2 L254.6,194.1 L254.9,194.5 
		L255.1,194.1 L255.4,194.1 L255.6,194.4 L255.9,194.9 L256.1,194.5 L256.3,193.5 L256.6,192.1 L256.8,190.7 
		L257.1,189.3 L257.3,189.1 L257.6,189.0 L257.8,188.0 L258.1,186.5 L258.3,185.0 L258.6,184.1 L258.8,183.7 
		L259.1,183.6 L259.3,183.6 L259.6,184.1 L259.8,184.5 L260.1,184.5 L260.3,184.6 L260.6,184.6 L260.8,184.6 
		L261.0,185.5 L261.3,185.7 L261.5,186.2 L261.8,185.9 L262.0,185.4 L262.3,184.8 L262.5,184.7 L262.8,184.8 
		L263.0,184.6 L263.3,184.6 L263.5,184.6 L263.8,184.6 L264.0,184.6 L264.3,184.6 L264.5,184.6 L264.8,184.6 
		L265.0,184.6 L265.3,184.6 L265.5,184.6 L265.8,184.6 L266.0,184.6 L266.2,188.7 L266.5,189.1 L266.7,188.7 
		L267.0,188.3 L267.2,188.4 L267.5,188.4 L267.7,188.8 L268.0,188.9 L268.2,188.9 L268.5,188.9 L268.7,188.6 
		L269.0,188.6 L269.2,188.9 L269.5,188.7 L269.7,188.6 L270.0,188.6 L270.2,189.1 L270.4,189.1 L270.7,189.4 
		L270.9,189.4 L271.2,189.4 L271.4,189.4 L271.7,189.4 L271.9,190.3 L272.2,189.9 L272.4,189.3 L272.7,188.8 
		L272.9,188.8 L273.2,189.1 L273.4,189.1 L273.7,189.7 L273.9,189.8 L274.2,189.8 L274.4,189.8 L274.7,190.6 
		L274.9,190.6 L275.1,191.0 L275.4,190.9 L275.6,191.0 L275.9,191.1 L276.1,191.1 L276.4,191.2 L276.6,191.6 
		L276.9,191.3 L277.1,191.2 L277.4,191.2 L277.6,191.7 L277.9,191.4 L278.1,191.4 L278.4,191.3 L278.6,191.0 
		L278.9,191.0 L279.1,191.0 L279.4,191.4 L279.6,191.8 L279.8,191.8 L280.1,191.8 L280.3,192.1 L280.6,191.6 
		L280.8,191.5 L281.1,191.3 L281.3,190.8 L281.6,190.4 L281.8,190.3 L282.1,190.5 L282.3,190.9 L282.6,190.4 
		L282.8,189.7 L283.1,189.0 L283.3,189.0 L283.6,189.0 L283.8,189.0 L284.1,189.0 L284.3,190.0 L284.5,189.9 
		L284.8,190.2 L285.0,190.2 L285.3,190.3 L285.5,190.0 L285.8,190.1 L286.0,190.1 L286.3,189.8 L286.5,189.3 
		L286.8,189.0 L287.0,189.0 L287.3,189.0 L287.5,189.0 L287.8,189.9 L288.0,189.9 L288.3,189.9 L288.5,190.6 
		L288.8,190.4 L289.0,189.9 L289.2,189.1 L289.5,188.6 L289.7,188.6 L290.0,188.6 L290.2,189.0 L290.5,188.6 
		L290.7,188.3 L291.0,187.9 L291.2,187.5 L291.5,187.2 L291.7,187.0 L292.0,187.0 L292.2,187.2 L292.5,187.2 
		L292.7,187.7 L293.0,187.7 L293.2,187.6 L293.5,187.5 L293.7,187.5 L293.9,187.9 L294.2,187.9 L294.4,187.9 
		L294.7,187.9 L294.9,187.9 L295.2,188.8 L295.4,188.8 L295.7,189.0 L295.9,188.9 L296.2,188.9 L296.4,188.9 
		L296.7,189.7 L296.9,189.7 L297.2,189.7 L297.4,190.1 L297.7,190.0 L297.9,190.0 L298.2,190.6 L298.4,190.7 
		L298.6,190.7 L298.9,190.7 L299.1,191.2 L299.4,191.2 L299.6,191.2 L299.9,191.9 L300.1,191.9 L300.4,191.9 
		L300.6,192.4 L300.9,192.0 L301.1,191.6 L301.4,191.5 L301.6,191.6 L301.9,191.6 L302.1,192.2 L302.4,192.3 
		L302.6,192.4 L302.9,191.9 L303.1,191.9 L303.3,192.1 L303.6,191.8 L303.8,191.8 L304.1,192.0 L304.3,192.0 
		L304.6,192.6 L304.8,192.5 L305.1,192.5 L305.3,192.8 L305.6,192.8 L305.8,192.8 L306.1,192.8 L306.3,192.8 
		L306.6,192.8 L306.8,194.5 L307.1,194.5 L307.3,194.5 L307.6,194.5 L307.8,194.8 L308.1,194.6 L308.3,194.1 
		L308.5,193.8 L308.8,193.8 L309.0,193.8 L309.3,193.8 L309.5,193.8 L309.8,193.8 L310.0,194.9 L310.3,194.9 
		L310.5,195.1 L310.8,195.2 L311.0,195.2 L311.3,195.8 L311.5,195.9 L311.8,195.9 L312.0,195.9 L312.3,195.9 
		L312.5,196.8 L312.8,196.5 L313.0,196.2 L313.2,195.8 L313.5,195.4 L313.7,195.5 L314.0,195.5 L314.2,195.9 
		L314.5,195.8 L314.7,195.8 L315.0,195.8 L315.2,196.6 L315.5,196.6 L315.7,196.7 L316.0,196.0 L316.2,195.4 
		L316.5,195.2 L316.7,195.2 L317.0,195.5 L317.2,195.5 L317.5,195.3 L317.7,194.5 L317.9,194.1 L318.2,193.5 
		L318.4,193.5 L318.7,193.6 L318.9,193.6 L319.2,194.0 L319.4,193.5 L319.7,193.1 L319.9,193.1 L320.2,193.1 
		L320.4,193.6 L320.7,193.5 L320.9,193.7 L321.2,193.7 L321.4,193.8 L321.7,193.9 L321.9,193.4 L322.2,193.1 
		L322.4,193.1 L322.6,193.1 L322.9,193.7 L323.1,193.5 L323.4,193.4 L323.6,193.4 L323.9,193.4 L324.1,193.8 
		L324.4,193.4 L324.6,192.8 L324.9,192.3 L325.1,192.1 L325.4,192.1 L325.6,192.1 L325.9,192.8 L326.1,192.5 
		L326.4,192.3 L326.6,192.3 L326.9,192.7 L327.1,192.8 L327.3,192.7 L327.6,192.7 L327.8,192.6 L328.1,192.2 
		L328.3,192.3 L328.6,192.3 L328.8,192.4 L329.1,192.0 L329.3,191.5 L329.6,191.3 L329.8,191.3 L330.1,191.3 
		L330.3,191.9 L330.6,191.9 L330.8,191.9 L331.1,191.9 L331.3,192.7 L331.6,192.7 L331.8,193.0 L332.0,193.1 
		L332.3,193.1 L332.5,193.2 L332.8,193.2 L333.0,193.7 L333.3,193.7 L333.5,193.7 L333.8,193.3 L334.0,192.7 
		L334.3,192.3 L334.5,192.3 L334.8,192.6 L335.0,192.6 L335.3,192.9 L335.5,193.0 L335.8,193.0 L336.0,193.4 
		L336.3,193.4 L336.5,193.4 L336.7,193.6 L337.0,193.2 L337.2,193.0 L337.5,193.0 L337.7,193.2 L338.0,193.4 
		L338.2,193.4 L338.5,193.4 L338.7,193.9 L339.0,193.6 L339.2,193.4 L339.5,193.3 L339.7,193.2 L340.0,193.2 
		L340.2,193.2 L340.5,193.2 L340.7,193.2 L341.0,194.1 L341.2,194.1 L341.4,194.1 L341.7,194.5 L341.9,194.4 
		L342.2,194.4 L342.4,194.7 L342.7,194.7 L342.9,194.7 L343.2,195.1 L343.4,194.7 L343.7,194.3 L343.9,194.3 
		L344.2,194.5 L344.4,194.4 L344.7,194.3 L344.9,194.3 L345.2,194.4 L345.4,194.0 L345.7,193.6 L345.9,193.3 
		L346.2,193.2 L346.4,193.2 L346.6,193.2 L346.9,193.2 L347.1,193.2 L347.4,194.2 L347.6,194.2 L347.9,194.2 
		L348.1,194.2 L348.4,194.2 L348.6,194.8 L348.9,194.4 L349.1,193.9 L349.4,193.5 L349.6,193.3 L349.9,193.5 
		L350.1,193.5 L350.4,193.5 L350.6,194.1 L350.9,194.1 L351.1,194.1 L351.3,194.1 L351.6,194.1 L351.8,194.1 
		L352.1,194.1 L352.3,195.2 L352.6,195.2 L352.8,195.2 L353.1,195.5 L353.3,195.4 L353.6,195.1 L353.8,194.7 
		L354.1,194.6 L354.3,194.7 L354.6,194.7 L354.8,194.7 L355.1,195.2 L355.3,194.8 L355.6,194.8 L355.8,195.1 
		L356.0,195.2 L356.3,195.2 L356.5,195.5 L356.8,195.5 L357.0,195.5 L357.3,196.1 L357.5,196.1 L357.8,196.1 
		L358.0,196.1 L358.3,196.1 L358.5,196.1 L358.8,196.1 L359.0,197.5 L359.3,197.5 L359.5,197.6 L359.8,197.6 
		L360.0,197.6 L360.3,198.1 L360.5,198.4 L360.7,198.1 L361.0,197.6 L361.2,197.6 L361.5,197.6 L361.7,197.3 
		L362.0,196.5 L362.2,195.9 L362.5,195.8 L362.7,195.8 L363.0,195.8 L363.2,196.1 L363.5,196.0 L363.7,196.0 
		L364.0,195.9 L364.2,195.9 L364.5,195.9 L364.7,196.1 L365.0,196.1 L365.2,195.9 L365.4,195.2 L365.7,194.8 
		L365.9,194.7 L366.2,194.7 L366.4,194.9 L366.7,194.9 L366.9,195.1 L367.2,195.1 L367.4,195.1 L367.7,195.7 
		L367.9,195.7 L368.2,195.7 L368.4,195.9 L368.7,195.9 L368.9,196.1 L369.2,196.1 L369.4,196.1 L369.7,196.7 
		L369.9,196.6 L370.1,196.6 L370.4,196.4 L370.6,196.4 L370.9,196.5 L371.1,196.5 L371.4,197.0 L371.6,196.8 
		L371.9,196.4 L372.1,196.0 L372.4,195.9 L372.6,196.0 L372.9,196.0 L373.1,196.0 L373.4,196.0 L373.6,196.0 
		L373.9,196.0 L374.1,197.1 L374.4,197.3 L374.6,197.3 L374.8,197.5 L375.1,197.3 L375.3,197.2 L375.6,197.2 
		L375.8,197.3 L376.1,197.3 L376.3,197.3 L376.6,197.3 L376.8,197.3 L377.1,197.3 L377.3,198.4 L377.6,198.3 
		L377.8,198.2 L378.1,198.2 L378.3,198.2 L378.6,198.7 L378.8,198.7 L379.1,198.6 L379.3,198.6 L379.5,198.6 
		L379.8,199.0 L380.0,199.0 L380.3,199.1 L380.5,199.1 L380.8,199.2 L381.0,199.2 L381.3,199.2 L381.5,199.7 
		L381.8,199.3 L382.0,198.9 L382.3,198.8 L382.5,198.8 L382.8,198.8 L383.0,199.1 L383.3,198.9 L383.5,198.9 
		L383.8,198.9 L384.0,199.2 L384.2,199.1 L384.5,199.1 L384.7,199.4 L385.0,199.3 L385.2,199.4 L385.5,199.2 
		L385.7,199.2 L386.0,199.2 L386.2,199.5 L386.5,199.8 L386.7,199.7 L387.0,199.8 L387.2,199.8 L387.5,199.8 
		L387.7,199.8 L388.0,200.2 L388.2,200.2 L388.5,200.4 L388.7,200.4 L389.0,200.4 L389.2,200.3 L389.4,200.2 
		L389.7,200.2 L389.9,200.2 L390.2,200.2 L390.4,200.6 L390.7,200.5 L390.9,200.3 L391.2,200.1 L391.4,199.9 
		L391.7,199.9 L391.9,199.9 L392.2,200.1 L392.4,200.0 L392.7,200.0 L392.9,200.0 L393.2,200.2 L393.4,200.2 
		L393.7,200.2 L393.9,200.2 L394.1,200.7 L394.4,200.9 L394.6,200.9 L394.9,201.0 L395.1,201.0 L395.4,201.0 
		L395.6,201.0 L395.9,201.0 L396.1,201.0 L396.4,201.0 L396.6,201.0 L396.9,201.0 L397.1,202.0 L397.4,201.9 
		L397.6,201.9 L397.9,202.2 L398.1,202.2 L398.4,202.2 L398.6,202.2 L398.8,202.2 L399.1,203.1 L399.3,203.1 
		L399.6,203.1 L399.8,203.1 L400.1,203.1 L400.3,203.1 L400.6,203.1 L400.8,204.2 L401.1,204.1 L401.3,204.1 
		L401.6,204.1 L401.8,204.1 L402.1,203.8 L402.3,203.7 L402.6,203.7 L402.8,204.0 L403.1,204.0 L403.3,204.0 
		L403.5,204.0 L403.8,204.0 L404.0,204.0 L404.3,204.8 L404.5,204.9 L404.8,204.9 L405.0,204.9 L405.3,204.9 
		L405.5,205.4 L405.8,204.8 L406.0,204.3 L406.3,203.9 L406.5,203.8 L406.8,203.8 L407.0,203.3 L407.3,202.9 
		L407.5,202.9 L407.8,202.9 L408.0,203.0 L408.2,202.5 L408.5,202.0 L408.7,201.8 L409.0,201.9 L409.2,201.7 
		L409.5,201.3 L409.7,200.9 L410.0,200.8 L410.2,200.8 L410.5,200.8 L410.7,201.2 L411.0,201.2 L411.2,201.6 
		L411.5,201.6 L411.7,201.8 L412.0,202.1 L412.2,202.1 L412.5,202.1 L412.7,202.3 L412.9,202.2 L413.2,202.0 
		L413.4,201.9 L413.7,202.0 L413.9,202.0 L414.2,202.0 L414.4,202.0 L414.7,202.0 L414.9,202.0 L415.2,202.8 
		L415.4,202.8 L415.7,202.8 L415.9,203.0 L416.2,203.2 L416.4,203.3 L416.7,203.3 L416.9,203.5 L417.2,203.5 
		L417.4,203.5 L417.6,203.5 L417.9,203.5 L418.1,204.4 L418.4,204.2 L418.6,203.8 L418.9,203.4 L419.1,203.1 
		L419.4,202.9 L419.6,202.7 L419.9,202.7 L420.1,202.7 L420.4,203.0 L420.6,203.0 L420.9,203.0 L421.1,203.3 
		L421.4,203.2 L421.6,203.3 L421.9,203.4 L422.1,203.4 L422.3,203.4 L422.6,203.4 L422.8,203.4 L423.1,204.1 
		L423.3,204.2 L423.6,204.3 L423.8,204.3 L424.1,204.3 L424.3,204.2 L424.6,204.2 L424.8,204.7 L425.1,204.7 
		L425.3,204.7 L425.6,204.2 L425.8,203.6 L426.1,203.3 L426.3,203.4 L426.6,203.1 L426.8,203.1 L427.0,203.1 
		L427.3,203.1 L427.5,203.5 L427.8,203.2 L428.0,202.9 L428.3,202.9 L428.5,203.1 L428.8,202.9 L429.0,202.8 
		L429.3,202.7 L429.5,202.7 L429.8,202.9 L430.0,202.9 L430.3,202.9 L430.5,203.1 L430.8,202.5 L431.0,202.0 
		L431.3,201.7 L431.5,201.4 L431.8,201.4 L432.0,201.4 L432.2,201.4 L432.5,201.4 L432.7,201.4 L433.0,201.4 
		L433.2,202.2 L433.5,202.1 L433.7,202.1 L434.0,202.4 L434.2,202.4 L434.5,202.5 L434.7,202.5 L435.0,202.9 
		L435.2,202.8 L435.5,202.5 L435.7,202.2 L436.0,201.8 L436.2,201.3 L436.5,200.7 L436.7,200.6 L436.9,200.6 
		L437.2,200.6 L437.4,201.1 L437.7,201.1 L437.9,201.4 L438.2,201.5 L438.4,201.5 L438.7,201.4 L438.9,201.1 
		L439.2,201.1 L439.4,201.2 L439.7,201.0 L439.9,201.0 L440.2,201.0 L440.4,201.0 L440.7,201.0 L440.9,201.5 
		L441.2,201.4 L441.4,201.4 L441.6,201.3 L441.9,201.3 L442.1,201.3 L442.4,201.3 L442.6,202.0 L442.9,202.1 
		L443.1,202.0 L443.4,201.9 L443.6,201.8 L443.9,201.8 L444.1,201.7 L444.4,201.7 L444.6,201.7 L444.9,201.7 
		L445.1,202.2 L445.4,202.2 L445.6,202.2 L445.9,202.2 L446.1,202.2 L446.3,202.8 L446.6,202.5 L446.8,202.3 
		L447.1,202.3 L447.3,202.3 L447.6,202.3 L447.8,202.7 L448.1,202.7 L448.3,202.7 L448.6,202.7 L448.8,202.8 
		L449.1,203.0 L449.3,203.1 L449.6,203.1 L449.8,203.1 L450.1,203.5 L450.3,203.4 L450.6,203.4 L450.8,203.7 
		L451.0,203.7 L451.3,203.8 L451.5,203.6 L451.8,203.5 L452.0,203.7 L452.3,203.7 L452.5,203.7 L452.8,203.7 
		L453.0,203.7 L453.3,204.2 L453.5,203.7 L453.8,203.0 L454.0,202.7 L454.3,202.3 L454.5,201.8 L454.8,201.2 
		L455.0,200.9 L455.3,200.8 L455.5,200.8 L455.7,200.8 L456.0,200.8 L456.2,200.8 L456.5,200.8 L456.7,201.5 
		L457.0,201.5 L457.2,201.6 L457.5,201.7 L457.7,201.7 L458.0,201.5 L458.2,201.5 L458.5,201.5 L458.7,201.9 
		L459.0,201.8 L459.2,201.5 L459.5,201.5 L459.7,201.5 L460.0,201.8 L460.2,201.8 L460.4,201.8 L460.7,201.8 
		L460.9,201.8 L461.2,201.8 L461.4,201.8 L461.7,202.8 L461.9,202.8 L462.2,202.9 L462.4,202.5 L462.7,202.2 
		L462.9,202.2 L463.2,202.2 L463.4,202.1 L463.7,201.7 L463.9,201.6 L464.2,201.6 L464.4,201.1 L464.7,200.6 
		L464.9,200.3 L465.1,200.3 L465.4,200.6 L465.6,200.6 L465.9,200.6 L466.1,200.8 L466.4,200.8 L466.6,200.5 
		L466.9,200.3 L467.1,200.3 L467.4,200.4 L467.6,200.4 L467.9,200.6 L468.1,200.2 L468.4,200.1 L468.6,200.1 
		L468.9,200.3 L469.1,200.3 L469.4,200.3 L469.6,200.6 L469.9,200.6 L470.1,200.6 L470.3,201.0 L470.6,201.0 
		L470.8,201.0 L471.1,201.0 L471.3,201.5 L471.6,201.4 L471.8,201.3 L472.1,201.3 L472.3,201.3 L472.6,201.3 
		L472.8,201.3 L473.1,201.7 L473.3,201.4 L473.6,201.0 L473.8,201.0 L474.1,201.1 L474.3,201.2 L474.6,201.2 
		L474.8,201.2 L475.0,201.2 L475.3,201.2 L475.5,201.2 L475.8,201.2 L476.0,202.1 L476.3,202.1 L476.5,202.1 
		L476.8,202.1 L477.0,202.1 L477.3,202.1 L477.5,202.8 L477.8,202.8 L478.0,203.0 L478.3,203.2 L478.5,203.0 
		L478.8,202.9 L479.0,203.1 L479.3,203.1 L479.5,203.4 L479.7,203.3 L480.0,203.1 L480.2,202.9 L480.5,202.6 
		L480.7,202.1 L481.0,201.6 L481.2,201.5 L481.5,201.5 L481.7,201.5 L482.0,201.7 L482.2,201.7 L482.5,201.7 
		L482.7,201.7 L483.0,201.7 L483.2,202.2 L483.5,201.9 L483.7,201.9 L484.0,201.9 L484.2,202.1 L484.4,202.0 
		L484.7,201.9 L484.9,201.8 L485.2,201.8 L485.4,201.8 L485.7,201.8 L485.9,201.8 L486.2,202.1 L486.4,202.0 
		L486.7,202.0 L486.9,202.0 L487.2,202.1 L487.4,202.1 L487.7,202.1 L487.9,202.1 L488.2,202.5 L488.4,202.5 
		L488.7,202.6 L488.9,202.7 L489.1,202.6 L489.4,202.5 L489.6,202.6 L489.9,202.3 L490.1,202.1 L490.4,201.8 
		L490.6,201.8 L490.9,201.8 L491.1,201.7 L491.4,201.2 L491.6,200.8 L491.9,200.7 L492.1,200.8 L492.4,200.8 
		L492.6,201.0 L492.9,201.0 L493.1,201.1 L493.4,201.1 L493.6,201.1 L493.8,201.1 L494.1,201.1 L494.3,201.1 
		L494.6,201.3 L494.8,201.3 L495.1,201.3 L495.3,201.3 L495.6,201.3 L495.8,201.3 L496.1,201.3 L496.3,201.3 
		L496.6,201.3 L496.8,201.3 L497.1,201.3 L497.3,201.3 L497.6,201.3 L497.8,201.3 L498.1,203.2 L498.3,203.1 
		L498.5,203.1 L498.8,203.1 L499.0,203.1 L499.3,202.8 L499.5,202.5 L499.8,202.4 L500.0,202.6 L500.3,202.6 
		L500.5,202.7 L500.8,202.4 L501.0,202.3 L501.3,202.5 L501.5,202.4 L501.8,202.3 L502.0,202.4 L502.3,202.4 
		L502.5,202.5 L502.8,202.3 L503.0,202.1 L503.2,201.9 L503.5,201.7 L503.7,201.3 L504.0,201.3 L504.2,201.3 
		L504.5,201.3 L504.7,201.3 L505.0,201.3 L505.2,201.3 L505.5,201.3 L505.7,201.3 L506.0,201.3 L506.2,201.3 
		L506.5,201.3 L506.7,201.3 L507.0,202.7 L507.2,202.6 L507.5,202.4 L507.7,202.0 L507.9,201.7 L508.2,201.4 
		L508.4,201.4 L508.7,201.4 L508.9,201.4 L509.2,201.5 L509.4,201.5 L509.7,201.5 L509.9,201.5 L510.2,201.5 
		L510.4,201.5 L510.7,201.5 L510.9,201.5 L511.2,201.5 L511.4,201.5 L511.7,201.8 L511.9,201.6 L512.2,201.6 
		L512.4,201.6 L512.7,201.6 L512.9,201.9 L513.1,201.9 L513.4,202.1 L513.6,202.1 L513.9,202.1 L514.1,202.4 
		L514.4,202.4 L514.6,202.6 L514.9,202.8 L515.1,202.7 L515.4,202.7 L515.6,202.7 L515.9,202.7 L516.1,202.9 
		L516.4,202.8 L516.6,202.8 L516.9,202.9 L517.1,202.8 L517.4,202.7 L517.6,202.7 L517.8,202.7 L518.1,202.9 
		L518.3,203.0 L518.6,203.0 L518.8,203.2 L519.1,203.0 L519.3,203.0 L519.6,203.0 L519.8,202.8 L520.1,202.6 
		L520.3,202.6 L520.6,202.7 L520.8,202.6 L521.1,202.6 L521.3,202.7 L521.6,202.5 L521.8,202.3 L522.1,202.3 
		L522.3,202.4 L522.5,202.3 L522.8,202.3 L523.0,202.5 L523.3,202.6 L523.5,202.6 L523.8,202.8 L524.0,202.7 
		L524.3,202.5 L524.5,202.5 L524.8,202.8 L525.0,202.7 L525.3,202.4 L525.5,202.1 L525.8,202.0 L526.0,202.2 
		L526.3,202.1 L526.5,202.1 L526.8,202.1 L527.0,202.1 L527.2,202.1 L527.5,202.1 L527.7,202.7 L528.0,202.5 
		L528.2,202.5 L528.5,202.5 L528.7,202.8 L529.0,202.8 L529.2,202.9 L529.5,202.9 L529.7,202.9 L530.0,202.8 
		L530.2,202.8 L530.5,202.8 L530.7,203.0 L531.0,203.0 L531.2,203.0 L531.5,203.0 L531.7,203.0 L531.9,203.5 
		L532.2,203.5 L532.4,203.5 L532.7,203.5 L532.9,203.5 L533.2,203.5 L533.4,203.5 L533.7,203.5 L533.9,204.2 
		L534.2,204.2 L534.4,204.2 L534.7,204.2 L534.9,204.6 L535.2,204.5 L535.4,204.2 L535.7,204.2 L535.9,204.2 
		L536.2,204.4 L536.4,204.3 L536.6,204.3 L536.9,204.5 L537.1,204.4 L537.4,204.4 L537.6,204.4 L537.9,204.4 
		L538.1,204.4 L538.4,204.8 L538.6,204.8 L538.9,205.0 L539.1,205.0 L539.4,205.0 L539.6,204.9 L539.9,204.8 
		L540.1,204.8 L540.4,204.9 L540.6,204.9 L540.9,204.8 L541.1,204.8 L541.3,204.8 L541.6,205.1 L541.8,205.1 
		L542.1,205.3 L542.3,205.1 L542.6,205.1 L542.8,205.2 L543.1,205.2 L543.3,205.2 L543.6,205.6 L543.8,205.6 
		L544.1,205.6 L544.3,205.8 L544.6,205.8 L544.8,205.8 L545.1,205.8 L545.3,205.8 L545.6,205.8 L545.8,205.8 
		L546.0,205.8 L546.3,206.5 L546.5,206.3 L546.8,206.1 L547.0,205.9 L547.3,205.9 L547.5,206.1 L547.8,206.1 
		L548.0,206.2 L548.3,206.0 L548.5,205.9 L548.8,205.9 L549.0,205.9 L549.3,205.9 L549.5,205.9 L549.8,205.9 
		L550.0,205.9 L550.3,205.9 L550.5,205.9 L550.7,206.7 L551.0,206.7 L551.2,206.7 L551.5,207.2 L551.7,207.1 
		L552.0,207.1 L552.2,207.1 L552.5,206.9 L552.7,206.5 L553.0,206.5 L553.2,206.6 L553.5,206.6 L553.7,206.6 
		L554.0,206.6 L554.2,206.6 L554.5,207.1 L554.7,207.1 L555.0,207.1 L555.2,207.1 L555.5,207.4 L555.7,207.3 
		L555.9,207.4 L556.2,207.3 L556.4,207.1 L556.7,207.1 L556.9,207.1 L557.2,207.0 L557.4,207.0 L557.7,207.2 
		L557.9,207.1 L558.2,207.2 L558.4,207.3 L558.7,207.3 L558.9,207.3 L559.2,207.3 L559.4,207.5 L559.7,207.3 
		L559.9,207.0 L560.2,206.8 L560.4,206.8 L560.6,207.0 L560.9,206.9 L561.1,206.8 L561.4,206.9 L561.6,206.7 
		L561.9,206.7 L562.1,206.7 L562.4,206.7 L562.6,207.0 L562.9,206.8 L563.1,206.6 L563.4,206.4 L563.6,206.2 
		L563.9,206.0 L564.1,205.9 L564.4,205.9 L564.6,206.1 L564.9,206.1 L565.1,206.1 L565.3,206.3 L565.6,206.3 
		L565.8,206.4 L566.1,206.4 L566.3,206.4 L566.6,206.4 L566.8,206.4 L567.1,206.8 L567.3,206.8 L567.6,206.8 
		L567.8,206.8 L568.1,206.8 L568.3,206.8 L568.6,206.8 L568.8,207.5 L569.1,207.5 L569.3,207.5 L569.6,207.5 
		L569.8,207.5 L570.0,207.5 L570.3,208.0 L570.5,208.0 L570.8,208.0 L571.0,208.0 L571.3,208.0 L571.5,208.0 
		L571.8,208.0 L572.0,208.0 L572.3,208.0 L572.5,208.0 L572.8,208.0 L573.0,209.0 L573.3,208.7 L573.5,208.6 
		L573.8,208.6 L574.0,208.8 L574.3,208.9 L574.5,208.9 L574.7,209.0 L575.0,208.7  h0.01'/></g>
	</g>
<g style="fill:none; color:black; stroke:currentColor; stroke-width:1.00; stroke-linecap:butt; stroke-linejoin:miter">
	<path  d='M80.2,54.1 L80.2,422.4 L575.0,422.4 L575.0,54.1 L80.2,54.1 Z  h0.01'/></g>
</g>
</svg>

