<?xml version="1.0" encoding="utf-8"  standalone="no"?>
<!DOCTYPE svg PUBLIC "-//W3C//DTD SVG 1.1//EN" 
 "http://www.w3.org/Graphics/SVG/1.1/DTD/svg11.dtd">
<svg 
 width="600" height="480" 
 viewBox="0 0 600 480"
 xmlns="http://www.w3.org/2000/svg"
 xmlns:xlink="http://www.w3.org/1999/xlink"
>

<title>Gnuplot</title>
<desc>Produced by GNUPLOT 4.6 patchlevel 1 </desc>

<g id="gnuplot_canvas">

<rect x="0" y="0" width="600" height="480" fill="none"/>
<defs>

	<circle id='gpDot' r='0.5' stroke-width='0.5'/>
	<path id='gpPt0' stroke-width='0.222' stroke='currentColor' d='M-1,0 h2 M0,-1 v2'/>
	<path id='gpPt1' stroke-width='0.222' stroke='currentColor' d='M-1,-1 L1,1 M1,-1 L-1,1'/>
	<path id='gpPt2' stroke-width='0.222' stroke='currentColor' d='M-1,0 L1,0 M0,-1 L0,1 M-1,-1 L1,1 M-1,1 L1,-1'/>
	<rect id='gpPt3' stroke-width='0.222' stroke='currentColor' x='-1' y='-1' width='2' height='2'/>
	<rect id='gpPt4' stroke-width='0.222' stroke='currentColor' fill='currentColor' x='-1' y='-1' width='2' height='2'/>
	<circle id='gpPt5' stroke-width='0.222' stroke='currentColor' cx='0' cy='0' r='1'/>
	<use xlink:href='#gpPt5' id='gpPt6' fill='currentColor' stroke='none'/>
	<path id='gpPt7' stroke-width='0.222' stroke='currentColor' d='M0,-1.33 L-1.33,0.67 L1.33,0.67 z'/>
	<use xlink:href='#gpPt7' id='gpPt8' fill='currentColor' stroke='none'/>
	<use xlink:href='#gpPt7' id='gpPt9' stroke='currentColor' transform='rotate(180)'/>
	<use xlink:href='#gpPt9' id='gpPt10' fill='currentColor' stroke='none'/>
	<use xlink:href='#gpPt3' id='gpPt11' stroke='currentColor' transform='rotate(45)'/>
	<use xlink:href='#gpPt11' id='gpPt12' fill='currentColor' stroke='none'/>
</defs>
<g style="fill:none; color:white; stroke:currentColor; stroke-width:1.00; stroke-linecap:butt; stroke-linejoin:miter">
</g>
<g style="fill:none; color:black; stroke:currentColor; stroke-width:1.00; stroke-linecap:butt; stroke-linejoin:miter">
	<path  d='M80.2,422.4 L89.2,422.4 M575.0,422.4 L566.0,422.4  h0.01'/>	<g transform="translate(71.9,426.9)" style="stroke:none; fill:black; font-family:Arial; font-size:12.00pt; text-anchor:end">
		<text> 0</text>
	</g>
	<path  d='M80.2,376.4 L89.2,376.4 M575.0,376.4 L566.0,376.4  h0.01'/>	<g transform="translate(71.9,380.9)" style="stroke:none; fill:black; font-family:Arial; font-size:12.00pt; text-anchor:end">
		<text> 500</text>
	</g>
	<path  d='M80.2,330.3 L89.2,330.3 M575.0,330.3 L566.0,330.3  h0.01'/>	<g transform="translate(71.9,334.8)" style="stroke:none; fill:black; font-family:Arial; font-size:12.00pt; text-anchor:end">
		<text> 1000</text>
	</g>
	<path  d='M80.2,284.3 L89.2,284.3 M575.0,284.3 L566.0,284.3  h0.01'/>	<g transform="translate(71.9,288.8)" style="stroke:none; fill:black; font-family:Arial; font-size:12.00pt; text-anchor:end">
		<text> 1500</text>
	</g>
	<path  d='M80.2,238.2 L89.2,238.2 M575.0,238.2 L566.0,238.2  h0.01'/>	<g transform="translate(71.9,242.7)" style="stroke:none; fill:black; font-family:Arial; font-size:12.00pt; text-anchor:end">
		<text> 2000</text>
	</g>
	<path  d='M80.2,192.2 L89.2,192.2 M575.0,192.2 L566.0,192.2  h0.01'/>	<g transform="translate(71.9,196.7)" style="stroke:none; fill:black; font-family:Arial; font-size:12.00pt; text-anchor:end">
		<text> 2500</text>
	</g>
	<path  d='M80.2,146.2 L89.2,146.2 M575.0,146.2 L566.0,146.2  h0.01'/>	<g transform="translate(71.9,150.7)" style="stroke:none; fill:black; font-family:Arial; font-size:12.00pt; text-anchor:end">
		<text> 3000</text>
	</g>
	<path  d='M80.2,100.1 L89.2,100.1 M575.0,100.1 L566.0,100.1  h0.01'/>	<g transform="translate(71.9,104.6)" style="stroke:none; fill:black; font-family:Arial; font-size:12.00pt; text-anchor:end">
		<text> 3500</text>
	</g>
	<path  d='M80.2,54.1 L89.2,54.1 M575.0,54.1 L566.0,54.1  h0.01'/>	<g transform="translate(71.9,58.6)" style="stroke:none; fill:black; font-family:Arial; font-size:12.00pt; text-anchor:end">
		<text> 4000</text>
	</g>
	<path  d='M80.2,422.4 L80.2,413.4 M80.2,54.1 L80.2,63.1  h0.01'/>	<g transform="translate(80.2,444.9)" style="stroke:none; fill:black; font-family:Arial; font-size:12.00pt; text-anchor:middle">
		<text> 0</text>
	</g>
	<path  d='M129.7,422.4 L129.7,413.4 M129.7,54.1 L129.7,63.1  h0.01'/>	<g transform="translate(129.7,444.9)" style="stroke:none; fill:black; font-family:Arial; font-size:12.00pt; text-anchor:middle">
		<text> 10</text>
	</g>
	<path  d='M179.2,422.4 L179.2,413.4 M179.2,54.1 L179.2,63.1  h0.01'/>	<g transform="translate(179.2,444.9)" style="stroke:none; fill:black; font-family:Arial; font-size:12.00pt; text-anchor:middle">
		<text> 20</text>
	</g>
	<path  d='M228.6,422.4 L228.6,413.4 M228.6,54.1 L228.6,63.1  h0.01'/>	<g transform="translate(228.6,444.9)" style="stroke:none; fill:black; font-family:Arial; font-size:12.00pt; text-anchor:middle">
		<text> 30</text>
	</g>
	<path  d='M278.1,422.4 L278.1,413.4 M278.1,54.1 L278.1,63.1  h0.01'/>	<g transform="translate(278.1,444.9)" style="stroke:none; fill:black; font-family:Arial; font-size:12.00pt; text-anchor:middle">
		<text> 40</text>
	</g>
	<path  d='M327.6,422.4 L327.6,413.4 M327.6,54.1 L327.6,63.1  h0.01'/>	<g transform="translate(327.6,444.9)" style="stroke:none; fill:black; font-family:Arial; font-size:12.00pt; text-anchor:middle">
		<text> 50</text>
	</g>
	<path  d='M377.1,422.4 L377.1,413.4 M377.1,54.1 L377.1,63.1  h0.01'/>	<g transform="translate(377.1,444.9)" style="stroke:none; fill:black; font-family:Arial; font-size:12.00pt; text-anchor:middle">
		<text> 60</text>
	</g>
	<path  d='M426.6,422.4 L426.6,413.4 M426.6,54.1 L426.6,63.1  h0.01'/>	<g transform="translate(426.6,444.9)" style="stroke:none; fill:black; font-family:Arial; font-size:12.00pt; text-anchor:middle">
		<text> 70</text>
	</g>
	<path  d='M476.0,422.4 L476.0,413.4 M476.0,54.1 L476.0,63.1  h0.01'/>	<g transform="translate(476.0,444.9)" style="stroke:none; fill:black; font-family:Arial; font-size:12.00pt; text-anchor:middle">
		<text> 80</text>
	</g>
	<path  d='M525.5,422.4 L525.5,413.4 M525.5,54.1 L525.5,63.1  h0.01'/>	<g transform="translate(525.5,444.9)" style="stroke:none; fill:black; font-family:Arial; font-size:12.00pt; text-anchor:middle">
		<text> 90</text>
	</g>
	<path  d='M575.0,422.4 L575.0,413.4 M575.0,54.1 L575.0,63.1  h0.01'/>	<g transform="translate(575.0,444.9)" style="stroke:none; fill:black; font-family:Arial; font-size:12.00pt; text-anchor:middle">
		<text> 100</text>
	</g>
	<path  d='M80.2,54.1 L80.2,422.4 L575.0,422.4 L575.0,54.1 L80.2,54.1 Z  h0.01'/>	<g transform="translate(17.6,238.3) rotate(270)" style="stroke:none; fill:black; font-family:Arial; font-size:12.00pt; text-anchor:middle">
		<text>TCP throughput (kbps)</text>
	</g>
	<g transform="translate(327.6,471.9)" style="stroke:none; fill:black; font-family:Arial; font-size:12.00pt; text-anchor:middle">
		<text>Time (s)</text>
	</g>
	<g transform="translate(327.6,31.6)" style="stroke:none; fill:black; font-family:Arial; font-size:12.00pt; text-anchor:middle">
		<text>Distance 1300m, 1kmph: TCP throughput vs link capacity Uplink 100RBs PfffScheduler</text>
	</g>
	<path  d='M325.3,413.4 L325.3,377.4 L566.7,377.4 L566.7,413.4 L325.3,413.4 Z  h0.01'/></g>
	<g id="gnuplot_plot_1" ><title>gnuplot_plot_1</title>
<g style="fill:none; color:red; stroke:currentColor; stroke-width:1.00; stroke-linecap:butt; stroke-linejoin:miter">
	<g transform="translate(507.9,390.9)" style="stroke:none; fill:black; font-family:Arial; font-size:12.00pt; text-anchor:end">
		<text>TCP Throughput</text>
	</g>
	<path  d='M516.2,386.4 L558.4,386.4 M86.9,398.8 L87.1,382.7 L87.4,372.0 L87.6,372.0 L87.9,372.0 L88.1,372.0 
		L88.4,372.0 L88.6,383.5 L88.9,383.5 L89.1,383.5 L89.4,383.5 L89.6,383.5 L89.8,383.5 L90.1,383.5 
		L90.3,398.3 L90.6,398.3 L90.8,398.3 L91.1,400.8 L91.3,398.6 L91.6,398.6 L91.8,398.6 L92.1,398.6 
		L92.3,398.6 L92.6,398.6 L92.8,398.6 L93.1,398.6 L93.3,398.6 L93.6,403.0 L93.8,402.7 L94.0,402.7 
		L94.3,402.7 L94.5,402.7 L94.8,402.7 L95.0,402.7 L95.3,402.7 L95.5,402.7 L95.8,402.7 L96.0,402.7 
		L96.3,402.7 L96.5,402.7 L96.8,407.9 L97.0,406.7 L97.3,406.2 L97.5,405.2 L97.8,405.2 L98.0,405.2 
		L98.3,405.2 L98.5,405.8 L98.8,405.8 L99.0,405.8 L99.2,405.8 L99.5,405.8 L99.7,405.8 L100.0,405.8 
		L100.2,405.8 L100.5,405.8 L100.7,405.8 L101.0,405.8 L101.2,405.8 L101.5,407.0 L101.7,406.5 L102.0,405.9 
		L102.2,405.7 L102.5,405.7 L102.7,405.7 L103.0,405.7 L103.2,405.7 L103.5,405.7 L103.7,406.7 L103.9,406.0 
		L104.2,405.7 L104.4,405.7 L104.7,405.7 L104.9,405.7 L105.2,405.7 L105.4,405.7 L105.7,405.7 L105.9,405.7 
		L106.2,405.7 L106.4,405.7 L106.7,405.7 L106.9,405.7 L107.2,405.7 L107.4,405.7 L107.7,405.7 L107.9,405.7 
		L108.2,407.6 L108.4,407.3 L108.6,407.1 L108.9,407.1 L109.1,407.1 L109.4,407.1 L109.6,407.1 L109.9,407.1 
		L110.1,407.1 L110.4,407.1 L110.6,407.1 L110.9,407.1 L111.1,407.1 L111.4,407.1 L111.6,407.1 L111.9,407.1 
		L112.1,407.1 L112.4,407.1 L112.6,407.1 L112.9,407.1 L113.1,407.1 L113.3,407.1 L113.6,407.1 L113.8,407.1 
		L114.1,407.1 L114.3,407.1 L114.6,407.1 L114.8,407.1 L115.1,407.1 L115.3,407.1 L115.6,407.1 L115.8,407.1 
		L116.1,407.1 L116.3,407.1 L116.6,407.1 L116.8,407.1 L117.1,407.1 L117.3,407.1 L117.6,407.1 L117.8,407.1 
		L118.0,407.1 L118.3,407.1 L118.5,407.1 L118.8,407.1 L119.0,407.1 L119.3,407.1 L119.5,407.1 L119.8,407.1 
		L120.0,407.1 L120.3,407.1 L120.5,407.1 L120.8,407.1 L121.0,407.1 L121.3,407.1 L121.5,407.1 L121.8,407.1 
		L122.0,407.1 L122.3,407.1 L122.5,407.1 L122.7,407.1 L123.0,407.1 L123.2,407.1 L123.5,407.1 L123.7,407.1 
		L124.0,407.1 L124.2,407.1 L124.5,407.1 L124.7,407.1 L125.0,407.1 L125.2,407.1 L125.5,407.1 L125.7,407.1 
		L126.0,407.1 L126.2,407.1 L126.5,407.1 L126.7,407.1 L127.0,407.1 L127.2,407.1 L127.5,407.1 L127.7,407.1 
		L127.9,407.1 L128.2,407.1 L128.4,414.0 L128.7,413.4 L128.9,413.2 L129.2,413.2 L129.4,413.2 L129.7,413.2 
		L129.9,413.1 L130.2,412.5 L130.4,412.2 L130.7,412.2 L130.9,412.2 L131.2,412.2 L131.4,412.2 L131.7,412.2 
		L131.9,412.2 L132.2,412.2 L132.4,412.2 L132.6,412.2 L132.9,412.2 L133.1,411.8 L133.4,411.7 L133.6,411.6 
		L133.9,411.6 L134.1,411.6 L134.4,411.6 L134.6,411.6 L134.9,411.6 L135.1,411.6 L135.4,411.6 L135.6,411.6 
		L135.9,411.6 L136.1,411.6 L136.4,411.6 L136.6,411.6 L136.9,411.6 L137.1,411.6 L137.3,411.6 L137.6,411.6 
		L137.8,411.6 L138.1,411.6 L138.3,411.6 L138.6,411.6 L138.8,412.2 L139.1,412.2 L139.3,412.2 L139.6,412.2 
		L139.8,412.2 L140.1,412.2 L140.3,412.2 L140.6,412.2 L140.8,412.2 L141.1,412.2 L141.3,412.2 L141.6,412.2 
		L141.8,412.2 L142.1,412.2 L142.3,412.2 L142.5,412.2 L142.8,412.2 L143.0,412.2 L143.3,412.2 L143.5,412.2 
		L143.8,412.2 L144.0,412.2 L144.3,412.2 L144.5,412.2 L144.8,412.2 L145.0,412.2 L145.3,412.2 L145.5,412.2 
		L145.8,412.2 L146.0,413.1 L146.3,413.0 L146.5,413.0 L146.8,413.0 L147.0,413.0 L147.2,413.0 L147.5,413.0 
		L147.7,413.0 L148.0,413.0 L148.2,413.0 L148.5,413.0 L148.7,413.0 L149.0,413.0 L149.2,413.0 L149.5,413.0 
		L149.7,413.0 L150.0,413.0 L150.2,413.0 L150.5,413.0 L150.7,413.0 L151.0,413.0 L151.2,413.0 L151.5,413.0 
		L151.7,413.0 L151.9,413.0 L152.2,413.0 L152.4,413.0 L152.7,413.0 L152.9,413.0 L153.2,413.0 L153.4,413.0 
		L153.7,413.0 L153.9,413.0 L154.2,413.0 L154.4,413.0 L154.7,413.0 L154.9,413.0 L155.2,413.0 L155.4,413.0 
		L155.7,413.0 L155.9,413.0 L156.2,413.0 L156.4,413.0 L156.6,413.0 L156.9,413.0 L157.1,413.0 L157.4,413.0 
		L157.6,413.0 L157.9,413.0 L158.1,413.0 L158.4,413.0 L158.6,413.0 L158.9,413.0 L159.1,413.0 L159.4,413.0 
		L159.6,414.5 L159.9,414.4 L160.1,414.3 L160.4,414.3 L160.6,414.3 L160.9,414.3 L161.1,414.3 L161.3,414.3 
		L161.6,414.3 L161.8,414.3 L162.1,414.3 L162.3,414.3 L162.6,414.3 L162.8,414.3 L163.1,414.3 L163.3,414.3 
		L163.6,414.3 L163.8,414.3 L164.1,414.3 L164.3,414.3 L164.6,414.3 L164.8,414.3 L165.1,414.3 L165.3,414.3 
		L165.6,414.3 L165.8,414.3 L166.0,414.3 L166.3,414.3 L166.5,414.3 L166.8,414.3 L167.0,414.8 L167.3,414.5 
		L167.5,414.3 L167.8,414.2 L168.0,414.2 L168.3,414.2 L168.5,414.2 L168.8,414.2 L169.0,414.2 L169.3,414.2 
		L169.5,414.2 L169.8,414.2 L170.0,414.2 L170.3,414.2 L170.5,414.2 L170.7,414.2 L171.0,414.2 L171.2,414.2 
		L171.5,414.2 L171.7,414.2 L172.0,414.2 L172.2,414.2 L172.5,414.2 L172.7,414.2 L173.0,414.2 L173.2,414.2 
		L173.5,414.2 L173.7,414.2 L174.0,414.2 L174.2,414.2 L174.5,414.2 L174.7,414.2 L175.0,414.2 L175.2,414.2 
		L175.4,414.2 L175.7,414.2 L175.9,414.2 L176.2,414.2 L176.4,414.2 L176.7,414.2 L176.9,414.2 L177.2,414.2 
		L177.4,414.2 L177.7,414.2 L177.9,414.2 L178.2,414.2 L178.4,414.2 L178.7,414.2 L178.9,414.2 L179.2,414.2 
		L179.4,414.2 L179.7,414.2 L179.9,414.2 L180.1,414.2 L180.4,414.2 L180.6,414.2 L180.9,414.2 L181.1,414.2 
		L181.4,414.2 L181.6,414.2 L181.9,414.2 L182.1,414.2 L182.4,414.2 L182.6,414.2 L182.9,415.4 L183.1,415.4 
		L183.4,415.4 L183.6,415.4 L183.9,415.4 L184.1,415.4 L184.4,415.4 L184.6,415.4 L184.9,415.4 L185.1,415.4 
		L185.3,415.4 L185.6,415.4 L185.8,415.4 L186.1,415.4 L186.3,415.4 L186.6,415.4 L186.8,415.4 L187.1,415.4 
		L187.3,415.4 L187.6,415.4 L187.8,415.4 L188.1,415.4 L188.3,415.4 L188.6,415.4 L188.8,415.4 L189.1,415.4 
		L189.3,415.4 L189.6,415.4 L189.8,415.4 L190.0,415.4 L190.3,415.4 L190.5,415.4 L190.8,415.4 L191.0,415.4 
		L191.3,415.4 L191.5,415.4 L191.8,415.4 L192.0,415.4 L192.3,415.4 L192.5,415.4 L192.8,415.9 L193.0,415.7 
		L193.3,415.6 L193.5,415.6 L193.8,415.6 L194.0,415.6 L194.3,415.6 L194.5,415.6 L194.7,415.6 L195.0,415.6 
		L195.2,415.6 L195.5,415.6 L195.7,415.6 L196.0,415.6 L196.2,415.6 L196.5,415.6 L196.7,415.6 L197.0,415.6 
		L197.2,415.6 L197.5,415.6 L197.7,415.6 L198.0,415.6 L198.2,415.6 L198.5,415.6 L198.7,415.6 L199.0,415.6 
		L199.2,415.6 L199.4,415.6 L199.7,415.6 L199.9,415.6 L200.2,415.6 L200.4,415.6 L200.7,415.9 L200.9,415.8 
		L201.2,415.8 L201.4,415.8 L201.7,415.8 L201.9,415.7 L202.2,415.7 L202.4,415.7 L202.7,415.7 L202.9,415.7 
		L203.2,415.7 L203.4,415.7 L203.7,415.7 L203.9,415.7 L204.1,415.7 L204.4,415.7 L204.6,415.7 L204.9,415.7 
		L205.1,415.7 L205.4,415.7 L205.6,415.7 L205.9,415.7 L206.1,415.7 L206.4,415.7 L206.6,415.7 L206.9,415.7 
		L207.1,415.7 L207.4,415.7 L207.6,415.7 L207.9,415.7 L208.1,415.7 L208.4,415.7 L208.6,415.7 L208.8,415.7 
		L209.1,415.7 L209.3,415.7 L209.6,415.7 L209.8,415.7 L210.1,415.7 L210.3,415.9 L210.6,415.9 L210.8,415.9 
		L211.1,415.9 L211.3,415.9 L211.6,415.9 L211.8,415.9 L212.1,415.9 L212.3,415.8 L212.6,415.8 L212.8,415.8 
		L213.1,415.8 L213.3,415.8 L213.5,415.8 L213.8,415.8 L214.0,415.8 L214.3,415.9 L214.5,415.8 L214.8,415.8 
		L215.0,415.8 L215.3,415.8 L215.5,415.8 L215.8,415.8 L216.0,415.8 L216.3,415.8 L216.5,415.8 L216.8,415.8 
		L217.0,415.8 L217.3,415.8 L217.5,415.8 L217.8,415.9 L218.0,415.8 L218.2,415.8 L218.5,415.8 L218.7,415.8 
		L219.0,415.8 L219.2,415.8 L219.5,415.8 L219.7,415.8 L220.0,415.8 L220.2,415.8 L220.5,415.8 L220.7,415.8 
		L221.0,415.8 L221.2,415.8 L221.5,415.8 L221.7,415.8 L222.0,415.8 L222.2,415.8 L222.5,415.8 L222.7,415.9 
		L222.9,415.7 L223.2,415.7 L223.4,415.7 L223.7,415.7 L223.9,415.7 L224.2,415.7 L224.4,415.7 L224.7,415.7 
		L224.9,415.7 L225.2,415.7 L225.4,415.7 L225.7,415.7 L225.9,415.7 L226.2,415.7 L226.4,415.7 L226.7,415.7 
		L226.9,415.7 L227.2,415.7 L227.4,415.7 L227.7,415.7 L227.9,415.7 L228.1,415.7 L228.4,415.7 L228.6,415.7 
		L228.9,415.7 L229.1,415.7 L229.4,415.7 L229.6,415.7 L229.9,415.7 L230.1,415.7 L230.4,415.7 L230.6,415.7 
		L230.9,415.7 L231.1,415.7 L231.4,415.7 L231.6,415.7 L231.9,415.7 L232.1,415.7 L232.4,415.7 L232.6,415.7 
		L232.8,415.7 L233.1,415.7 L233.3,415.7 L233.6,415.7 L233.8,416.0 L234.1,415.8 L234.3,415.7 L234.6,415.7 
		L234.8,415.7 L235.1,415.7 L235.3,415.7 L235.6,415.7 L235.8,415.7 L236.1,415.7 L236.3,415.7 L236.6,415.7 
		L236.8,415.7 L237.1,415.7 L237.3,415.7 L237.5,415.7 L237.8,415.7 L238.0,415.8 L238.3,415.7 L238.5,415.7 
		L238.8,415.7 L239.0,415.7 L239.3,415.7 L239.5,415.7 L239.8,415.7 L240.0,415.7 L240.3,415.7 L240.5,415.7 
		L240.8,415.7 L241.0,415.7 L241.3,415.7 L241.5,415.7 L241.8,415.7 L242.0,415.7 L242.2,415.7 L242.5,415.7 
		L242.7,415.7 L243.0,415.7 L243.2,415.7 L243.5,415.7 L243.7,415.7 L244.0,415.7 L244.2,415.7 L244.5,415.7 
		L244.7,415.7 L245.0,415.7 L245.2,415.7 L245.5,415.7 L245.7,415.7 L246.0,415.7 L246.2,415.7 L246.5,415.7 
		L246.7,415.7 L246.9,415.7 L247.2,415.7 L247.4,415.7 L247.7,415.7 L247.9,415.7 L248.2,415.7 L248.4,415.7 
		L248.7,415.7 L248.9,415.7 L249.2,415.7 L249.4,415.7 L249.7,415.7 L249.9,415.7 L250.2,415.7 L250.4,415.7 
		L250.7,415.7 L250.9,415.7 L251.2,415.7 L251.4,415.7 L251.6,415.7 L251.9,415.7 L252.1,415.7 L252.4,415.7 
		L252.6,415.7 L252.9,415.7 L253.1,415.7 L253.4,415.7 L253.6,415.7 L253.9,415.7 L254.1,415.7 L254.4,415.7 
		L254.6,415.7 L254.9,415.7 L255.1,415.7 L255.4,415.7 L255.6,415.7 L255.9,415.7 L256.1,415.7 L256.3,416.2 
		L256.6,416.2 L256.8,416.1 L257.1,416.0 L257.3,415.9 L257.6,415.9 L257.8,415.9 L258.1,415.8 L258.3,415.6 
		L258.6,415.4 L258.8,415.4 L259.1,415.4 L259.3,415.4 L259.6,415.4 L259.8,415.4 L260.1,415.4 L260.3,415.4 
		L260.6,415.4 L260.8,415.4 L261.0,415.4 L261.3,415.4 L261.5,415.4 L261.8,415.4 L262.0,415.4 L262.3,415.5 
		L262.5,415.5 L262.8,415.5 L263.0,415.5 L263.3,415.5 L263.5,415.5 L263.8,415.5 L264.0,415.5 L264.3,415.5 
		L264.5,415.5 L264.8,415.5 L265.0,415.5 L265.3,415.5 L265.5,415.5 L265.8,415.5 L266.0,415.5 L266.2,415.5 
		L266.5,415.5 L266.7,415.5 L267.0,415.5 L267.2,415.5 L267.5,415.5 L267.7,415.5 L268.0,415.5 L268.2,415.5 
		L268.5,415.5 L268.7,415.5 L269.0,415.5 L269.2,415.5 L269.5,415.5 L269.7,415.5 L270.0,415.5 L270.2,415.5 
		L270.4,415.5 L270.7,415.5 L270.9,415.5 L271.2,415.5 L271.4,415.5 L271.7,415.5 L271.9,415.5 L272.2,415.5 
		L272.4,415.5 L272.7,415.5 L272.9,415.5 L273.2,415.5 L273.4,415.5 L273.7,415.5 L273.9,415.5 L274.2,415.5 
		L274.4,415.5 L274.7,415.5 L274.9,415.5 L275.1,415.5 L275.4,415.5 L275.6,415.5 L275.9,415.5 L276.1,415.5 
		L276.4,415.5 L276.6,415.5 L276.9,415.5 L277.1,415.5 L277.4,415.5 L277.6,415.5 L277.9,415.5 L278.1,415.5 
		L278.4,415.5 L278.6,415.5 L278.9,415.5 L279.1,415.5 L279.4,415.5 L279.6,415.5 L279.8,415.5 L280.1,415.5 
		L280.3,415.5 L280.6,415.5 L280.8,415.5 L281.1,416.0 L281.3,415.9 L281.6,415.9 L281.8,415.9 L282.1,415.9 
		L282.3,415.9 L282.6,415.9 L282.8,415.9 L283.1,415.8 L283.3,415.8 L283.6,415.8 L283.8,415.8 L284.1,415.8 
		L284.3,415.8 L284.5,415.8 L284.8,415.8 L285.0,415.8 L285.3,415.8 L285.5,415.8 L285.8,415.8 L286.0,415.8 
		L286.3,415.8 L286.5,415.8 L286.8,415.8 L287.0,415.8 L287.3,415.8 L287.5,415.8 L287.8,415.8 L288.0,415.8 
		L288.3,415.8 L288.5,415.8 L288.8,415.8 L289.0,415.8 L289.2,415.9 L289.5,415.9 L289.7,415.9 L290.0,415.9 
		L290.2,415.9 L290.5,415.9 L290.7,415.9 L291.0,415.9 L291.2,415.9 L291.5,415.9 L291.7,415.9 L292.0,415.9 
		L292.2,415.9 L292.5,415.9 L292.7,415.9 L293.0,415.9 L293.2,415.9 L293.5,415.9 L293.7,415.9 L293.9,415.9 
		L294.2,415.9 L294.4,415.9 L294.7,415.9 L294.9,415.9 L295.2,415.9 L295.4,415.9 L295.7,416.0 L295.9,416.0 
		L296.2,416.0 L296.4,416.0 L296.7,416.0 L296.9,416.0 L297.2,416.0 L297.4,416.0 L297.7,416.0 L297.9,416.0 
		L298.2,416.0 L298.4,416.0 L298.6,416.0 L298.9,416.0 L299.1,416.0 L299.4,416.0 L299.6,416.0 L299.9,416.0 
		L300.1,416.0 L300.4,416.0 L300.6,416.0 L300.9,416.0 L301.1,416.0 L301.4,416.0 L301.6,416.0 L301.9,416.0 
		L302.1,416.0 L302.4,416.0 L302.6,416.0 L302.9,416.0 L303.1,416.0 L303.3,416.0 L303.6,416.0 L303.8,416.0 
		L304.1,416.0 L304.3,416.0 L304.6,416.0 L304.8,416.0 L305.1,416.0 L305.3,416.0 L305.6,416.0 L305.8,416.0 
		L306.1,416.0 L306.3,416.0 L306.6,416.0 L306.8,416.0 L307.1,416.0 L307.3,416.0 L307.6,416.0 L307.8,416.0 
		L308.1,416.0 L308.3,416.0 L308.5,416.0 L308.8,416.0 L309.0,416.0 L309.3,416.0 L309.5,416.0 L309.8,416.0 
		L310.0,416.0 L310.3,416.0 L310.5,416.0 L310.8,416.0 L311.0,416.0 L311.3,416.0 L311.5,416.0 L311.8,416.0 
		L312.0,416.0 L312.3,416.0 L312.5,416.0 L312.8,416.0 L313.0,416.0 L313.2,416.0 L313.5,416.0 L313.7,416.0 
		L314.0,416.0 L314.2,416.0 L314.5,416.0 L314.7,416.0 L315.0,416.0 L315.2,416.0 L315.5,416.0 L315.7,416.0 
		L316.0,416.5 L316.2,416.4 L316.5,416.4 L316.7,416.4 L317.0,416.4 L317.2,416.4 L317.5,416.4 L317.7,416.4 
		L317.9,416.4 L318.2,416.4 L318.4,416.4 L318.7,416.4 L318.9,416.4 L319.2,416.4 L319.4,416.4 L319.7,416.4 
		L319.9,416.4 L320.2,416.4 L320.4,416.4 L320.7,416.4 L320.9,416.4 L321.2,416.4 L321.4,416.4 L321.7,416.4 
		L321.9,416.4 L322.2,416.4 L322.4,416.4 L322.6,416.4 L322.9,416.4 L323.1,416.4 L323.4,416.4 L323.6,416.4 
		L323.9,416.4 L324.1,416.4 L324.4,416.4 L324.6,416.4 L324.9,416.4 L325.1,416.4 L325.4,416.4 L325.6,416.4 
		L325.9,416.4 L326.1,416.4 L326.4,416.4 L326.6,416.4 L326.9,416.4 L327.1,416.4 L327.3,416.4 L327.6,416.4 
		L327.8,416.4 L328.1,416.4 L328.3,416.4 L328.6,416.4 L328.8,416.4 L329.1,416.4 L329.3,416.4 L329.6,416.4 
		L329.8,416.4 L330.1,416.4 L330.3,416.4 L330.6,416.4 L330.8,416.4 L331.1,416.4 L331.3,416.4 L331.6,416.4 
		L331.8,416.4 L332.0,416.4 L332.3,416.4 L332.5,416.4 L332.8,416.4 L333.0,416.4 L333.3,416.4 L333.5,416.4 
		L333.8,416.4 L334.0,416.5 L334.3,416.4 L334.5,416.4 L334.8,416.4 L335.0,416.4 L335.3,416.4 L335.5,416.4 
		L335.8,416.4 L336.0,416.4 L336.3,416.4 L336.5,416.4 L336.7,416.4 L337.0,416.4 L337.2,416.4 L337.5,416.4 
		L337.7,416.4 L338.0,416.4 L338.2,416.4 L338.5,416.4 L338.7,416.4 L339.0,416.4 L339.2,416.4 L339.5,416.4 
		L339.7,416.4 L340.0,416.4 L340.2,416.4 L340.5,416.4 L340.7,416.4 L341.0,416.4 L341.2,416.4 L341.4,416.4 
		L341.7,416.4 L341.9,416.4 L342.2,416.4 L342.4,416.4 L342.7,416.4 L342.9,416.4 L343.2,416.4 L343.4,416.4 
		L343.7,416.4 L343.9,416.4 L344.2,416.4 L344.4,416.4 L344.7,416.4 L344.9,416.4 L345.2,416.4 L345.4,416.4 
		L345.7,416.4 L345.9,416.4 L346.2,416.4 L346.4,416.4 L346.6,416.4 L346.9,416.4 L347.1,416.4 L347.4,416.4 
		L347.6,416.4 L347.9,416.4 L348.1,416.4 L348.4,416.4 L348.6,416.4 L348.9,416.7 L349.1,416.7 L349.4,416.7 
		L349.6,416.7 L349.9,416.7 L350.1,416.7 L350.4,416.7 L350.6,416.7 L350.9,416.7 L351.1,416.7 L351.3,416.7 
		L351.6,416.7 L351.8,416.7 L352.1,416.7 L352.3,416.7 L352.6,416.7 L352.8,416.7 L353.1,416.7 L353.3,416.7 
		L353.6,416.7 L353.8,416.7 L354.1,416.7 L354.3,416.7 L354.6,416.7 L354.8,416.7 L355.1,416.7 L355.3,416.7 
		L355.6,416.7 L355.8,416.7 L356.0,416.7 L356.3,416.7 L356.5,416.7 L356.8,416.7 L357.0,416.7 L357.3,416.7 
		L357.5,416.7 L357.8,416.7 L358.0,416.7 L358.3,416.7 L358.5,416.7 L358.8,416.7 L359.0,416.7 L359.3,416.7 
		L359.5,416.7 L359.8,416.7 L360.0,416.7 L360.3,416.7 L360.5,416.7 L360.7,416.9 L361.0,416.8 L361.2,416.8 
		L361.5,416.8 L361.7,416.8 L362.0,416.8 L362.2,416.8 L362.5,416.8 L362.7,416.8 L363.0,416.8 L363.2,416.8 
		L363.5,416.8 L363.7,416.8 L364.0,416.8 L364.2,416.8 L364.5,416.8 L364.7,416.8 L365.0,416.8 L365.2,416.8 
		L365.4,416.8 L365.7,416.7 L365.9,416.7 L366.2,416.7 L366.4,416.7 L366.7,416.7 L366.9,416.7 L367.2,416.7 
		L367.4,416.7 L367.7,416.7 L367.9,416.7 L368.2,416.7 L368.4,416.7 L368.7,416.7 L368.9,416.7 L369.2,416.7 
		L369.4,416.7 L369.7,416.7 L369.9,416.7 L370.1,416.7 L370.4,416.7 L370.6,416.7 L370.9,416.7 L371.1,416.7 
		L371.4,416.7 L371.6,416.7 L371.9,416.8 L372.1,416.7 L372.4,416.7 L372.6,416.7 L372.9,416.7 L373.1,416.7 
		L373.4,416.7 L373.6,416.7 L373.9,416.7 L374.1,416.7 L374.4,416.7 L374.6,416.7 L374.8,416.7 L375.1,416.7 
		L375.3,416.7 L375.6,416.7 L375.8,416.7 L376.1,416.7 L376.3,416.7 L376.6,416.7 L376.8,416.7 L377.1,416.7 
		L377.3,416.7 L377.6,416.7 L377.8,416.7 L378.1,416.7 L378.3,416.7 L378.6,416.7 L378.8,416.7 L379.1,416.7 
		L379.3,416.7 L379.5,416.7 L379.8,416.7 L380.0,416.7 L380.3,416.7 L380.5,416.7 L380.8,416.7 L381.0,416.7 
		L381.3,416.7 L381.5,416.7 L381.8,416.7 L382.0,416.9 L382.3,416.9 L382.5,416.9 L382.8,416.9 L383.0,416.9 
		L383.3,416.9 L383.5,416.9 L383.8,416.9 L384.0,416.9 L384.2,416.9 L384.5,416.9 L384.7,416.9 L385.0,416.9 
		L385.2,416.9 L385.5,416.9 L385.7,416.9 L386.0,416.9 L386.2,416.9 L386.5,416.9 L386.7,416.9 L387.0,416.9 
		L387.2,416.9 L387.5,416.9 L387.7,416.9 L388.0,416.9 L388.2,416.9 L388.5,416.9 L388.7,416.9 L389.0,416.9 
		L389.2,416.9 L389.4,416.9 L389.7,416.9 L389.9,416.9 L390.2,416.9 L390.4,416.9 L390.7,416.9 L390.9,416.9 
		L391.2,416.9 L391.4,416.9 L391.7,416.9 L391.9,416.9 L392.2,416.9 L392.4,416.9 L392.7,416.9 L392.9,416.9 
		L393.2,416.9 L393.4,416.9 L393.7,416.9 L393.9,416.9 L394.1,416.9 L394.4,416.9 L394.6,416.9 L394.9,416.9 
		L395.1,416.9 L395.4,416.9 L395.6,416.9 L395.9,416.9 L396.1,416.9 L396.4,416.9 L396.6,416.9 L396.9,416.9 
		L397.1,416.9 L397.4,416.9 L397.6,416.9 L397.9,416.9 L398.1,416.9 L398.4,416.9 L398.6,416.9 L398.8,416.9 
		L399.1,416.9 L399.3,416.9 L399.6,416.9 L399.8,416.9 L400.1,416.9 L400.3,416.9 L400.6,416.9 L400.8,416.9 
		L401.1,416.9 L401.3,416.9 L401.6,416.9 L401.8,416.9 L402.1,416.9 L402.3,416.9 L402.6,416.9 L402.8,416.9 
		L403.1,416.9 L403.3,416.9 L403.5,416.9 L403.8,416.9 L404.0,416.9 L404.3,416.9 L404.5,416.9 L404.8,416.9 
		L405.0,416.9 L405.3,416.9 L405.5,416.9 L405.8,417.2 L406.0,417.2 L406.3,417.2 L406.5,417.2 L406.8,417.2 
		L407.0,417.2 L407.3,417.1 L407.5,417.1 L407.8,417.1 L408.0,417.1 L408.2,417.1 L408.5,417.0 L408.7,417.0 
		L409.0,417.0 L409.2,417.0 L409.5,417.0 L409.7,417.0 L410.0,417.0 L410.2,417.0 L410.5,417.0 L410.7,417.0 
		L411.0,417.0 L411.2,417.0 L411.5,417.0 L411.7,417.0 L412.0,417.0 L412.2,417.0 L412.5,417.0 L412.7,417.0 
		L412.9,417.0 L413.2,417.0 L413.4,417.0 L413.7,417.0 L413.9,417.0 L414.2,417.0 L414.4,417.0 L414.7,417.0 
		L414.9,417.0 L415.2,417.0 L415.4,417.0 L415.7,417.0 L415.9,417.0 L416.2,417.0 L416.4,417.0 L416.7,417.0 
		L416.9,417.0 L417.2,417.0 L417.4,417.0 L417.6,417.0 L417.9,417.0 L418.1,417.0 L418.4,417.0 L418.6,417.0 
		L418.9,417.0 L419.1,417.0 L419.4,417.0 L419.6,417.0 L419.9,417.0 L420.1,417.0 L420.4,417.0 L420.6,417.0 
		L420.9,417.0 L421.1,417.0 L421.4,417.0 L421.6,417.0 L421.9,417.0 L422.1,417.0 L422.3,417.0 L422.6,417.0 
		L422.8,417.0 L423.1,417.0 L423.3,417.0 L423.6,417.0 L423.8,417.0 L424.1,417.0 L424.3,417.0 L424.6,417.0 
		L424.8,417.0 L425.1,417.0 L425.3,417.0 L425.6,417.0 L425.8,417.0 L426.1,417.0 L426.3,417.0 L426.6,417.0 
		L426.8,417.0 L427.0,417.0 L427.3,417.0 L427.5,417.0 L427.8,417.0 L428.0,417.0 L428.3,417.0 L428.5,417.0 
		L428.8,417.0 L429.0,417.0 L429.3,417.0 L429.5,417.0 L429.8,417.0 L430.0,417.0 L430.3,417.0 L430.5,417.0 
		L430.8,417.0 L431.0,416.9 L431.3,416.9 L431.5,416.9 L431.8,416.9 L432.0,416.9 L432.2,416.9 L432.5,416.9 
		L432.7,416.9 L433.0,416.9 L433.2,416.9 L433.5,416.9 L433.7,416.9 L434.0,416.9 L434.2,416.9 L434.5,416.9 
		L434.7,416.9 L435.0,416.9 L435.2,416.9 L435.5,416.9 L435.7,416.9 L436.0,416.9 L436.2,416.9 L436.5,416.8 
		L436.7,416.8 L436.9,416.8 L437.2,416.8 L437.4,416.8 L437.7,416.8 L437.9,416.8 L438.2,416.8 L438.4,416.8 
		L438.7,416.8 L438.9,416.8 L439.2,416.8 L439.4,416.8 L439.7,416.8 L439.9,416.8 L440.2,416.8 L440.4,416.8 
		L440.7,416.8 L440.9,416.8 L441.2,416.8 L441.4,416.8 L441.6,416.8 L441.9,416.8 L442.1,416.8 L442.4,416.8 
		L442.6,416.8 L442.9,416.8 L443.1,416.8 L443.4,416.8 L443.6,416.8 L443.9,416.8 L444.1,416.8 L444.4,416.8 
		L444.6,416.8 L444.9,416.8 L445.1,416.8 L445.4,416.8 L445.6,416.8 L445.9,416.8 L446.1,416.8 L446.3,416.8 
		L446.6,416.9 L446.8,416.9 L447.1,416.9 L447.3,416.9 L447.6,416.9 L447.8,416.9 L448.1,416.9 L448.3,416.9 
		L448.6,416.9 L448.8,416.9 L449.1,416.9 L449.3,416.9 L449.6,416.9 L449.8,416.9 L450.1,416.9 L450.3,416.9 
		L450.6,416.9 L450.8,416.9 L451.0,416.9 L451.3,416.9 L451.5,416.9 L451.8,416.9 L452.0,416.9 L452.3,416.9 
		L452.5,416.9 L452.8,416.9 L453.0,416.9 L453.3,416.9 L453.5,416.9 L453.8,416.9 L454.0,416.9 L454.3,416.9 
		L454.5,416.8 L454.8,416.8 L455.0,416.7 L455.3,416.7 L455.5,416.7 L455.7,416.7 L456.0,416.7 L456.2,416.7 
		L456.5,416.7 L456.7,416.7 L457.0,416.7 L457.2,416.7 L457.5,416.7 L457.7,416.7 L458.0,416.7 L458.2,416.7 
		L458.5,416.7 L458.7,416.7 L459.0,416.7 L459.2,416.7 L459.5,416.7 L459.7,416.7 L460.0,416.7 L460.2,416.7 
		L460.4,416.7 L460.7,416.7 L460.9,416.7 L461.2,416.7 L461.4,416.7 L461.7,416.7 L461.9,416.7 L462.2,416.7 
		L462.4,416.7 L462.7,416.7 L462.9,416.7 L463.2,416.7 L463.4,416.7 L463.7,416.7 L463.9,416.7 L464.2,416.7 
		L464.4,416.7 L464.7,416.6 L464.9,416.6 L465.1,416.6 L465.4,416.6 L465.6,416.6 L465.9,416.6 L466.1,416.6 
		L466.4,416.6 L466.6,416.6 L466.9,416.6 L467.1,416.6 L467.4,416.6 L467.6,416.6 L467.9,416.6 L468.1,416.6 
		L468.4,416.6 L468.6,416.6 L468.9,416.6 L469.1,416.6 L469.4,416.6 L469.6,416.6 L469.9,416.6 L470.1,416.6 
		L470.3,416.6 L470.6,416.6 L470.8,416.6 L471.1,416.6 L471.3,416.6 L471.6,416.6 L471.8,416.6 L472.1,416.6 
		L472.3,416.6 L472.6,416.6 L472.8,416.6 L473.1,416.6 L473.3,416.6 L473.6,416.5 L473.8,416.5 L474.1,416.5 
		L474.3,416.5 L474.6,416.5 L474.8,416.5 L475.0,416.5 L475.3,416.5 L475.5,416.5 L475.8,416.5 L476.0,416.5 
		L476.3,416.5 L476.5,416.5 L476.8,416.5 L477.0,416.5 L477.3,416.5 L477.5,416.5 L477.8,416.5 L478.0,416.5 
		L478.3,416.5 L478.5,416.5 L478.8,416.5 L479.0,416.5 L479.3,416.5 L479.5,416.5 L479.7,416.5 L480.0,416.5 
		L480.2,416.5 L480.5,416.6 L480.7,416.6 L481.0,416.5 L481.2,416.5 L481.5,416.5 L481.7,416.5 L482.0,416.5 
		L482.2,416.5 L482.5,416.5 L482.7,416.5 L483.0,416.5 L483.2,416.5 L483.5,416.6 L483.7,416.6 L484.0,416.6 
		L484.2,416.6 L484.4,416.6 L484.7,416.6 L484.9,416.6 L485.2,416.6 L485.4,416.6 L485.7,416.6 L485.9,416.6 
		L486.2,416.6 L486.4,416.6 L486.7,416.6 L486.9,416.6 L487.2,416.6 L487.4,416.6 L487.7,416.6 L487.9,416.6 
		L488.2,416.6 L488.4,416.6 L488.7,416.6 L488.9,416.6 L489.1,416.6 L489.4,416.6 L489.6,416.6 L489.9,416.6 
		L490.1,416.6 L490.4,416.6 L490.6,416.6 L490.9,416.6 L491.1,416.6 L491.4,416.6 L491.6,416.6 L491.9,416.6 
		L492.1,416.6 L492.4,416.6 L492.6,416.6 L492.9,416.6 L493.1,416.6 L493.4,416.6 L493.6,416.6 L493.8,416.6 
		L494.1,416.6 L494.3,416.6 L494.6,416.6 L494.8,416.6 L495.1,416.6 L495.3,416.6 L495.6,416.6 L495.8,416.6 
		L496.1,416.6 L496.3,416.6 L496.6,416.6 L496.8,416.6 L497.1,416.6 L497.3,416.6 L497.6,416.6 L497.8,416.6 
		L498.1,416.6 L498.3,416.6 L498.5,416.6 L498.8,416.6 L499.0,416.6 L499.3,416.6 L499.5,416.6 L499.8,416.6 
		L500.0,416.6 L500.3,416.6 L500.5,416.6 L500.8,416.6 L501.0,416.6 L501.3,416.6 L501.5,416.6 L501.8,416.6 
		L502.0,416.6 L502.3,416.6 L502.5,416.6 L502.8,416.6 L503.0,416.6 L503.2,416.6 L503.5,416.6 L503.7,416.6 
		L504.0,416.6 L504.2,416.6 L504.5,416.6 L504.7,416.6 L505.0,416.6 L505.2,416.6 L505.5,416.6 L505.7,416.6 
		L506.0,416.6 L506.2,416.6 L506.5,416.6 L506.7,416.6 L507.0,416.6 L507.2,416.6 L507.5,416.6 L507.7,416.6 
		L507.9,416.6 L508.2,416.5 L508.4,416.5 L508.7,416.5 L508.9,416.5 L509.2,416.5 L509.4,416.5 L509.7,416.5 
		L509.9,416.5 L510.2,416.5 L510.4,416.5 L510.7,416.5 L510.9,416.5 L511.2,416.5 L511.4,416.5 L511.7,416.5 
		L511.9,416.5 L512.2,416.5 L512.4,416.5 L512.7,416.5 L512.9,416.5 L513.1,416.5 L513.4,416.5 L513.6,416.5 
		L513.9,416.5 L514.1,416.5 L514.4,416.5 L514.6,416.5 L514.9,416.5 L515.1,416.5 L515.4,416.5 L515.6,416.5 
		L515.9,416.5 L516.1,416.5 L516.4,416.5 L516.6,416.5 L516.9,416.5 L517.1,416.5 L517.4,416.5 L517.6,416.5 
		L517.8,416.5 L518.1,416.5 L518.3,416.5 L518.6,416.5 L518.8,416.5 L519.1,416.5 L519.3,416.5 L519.6,416.5 
		L519.8,416.5 L520.1,416.5 L520.3,416.5 L520.6,416.5 L520.8,416.5 L521.1,416.5 L521.3,416.5 L521.6,416.5 
		L521.8,416.7 L522.1,416.7 L522.3,416.7 L522.5,416.7 L522.8,416.7 L523.0,416.7 L523.3,416.7 L523.5,416.7 
		L523.8,416.7 L524.0,416.7 L524.3,416.7 L524.5,416.7 L524.8,416.7 L525.0,416.7 L525.3,416.7 L525.5,416.7 
		L525.8,416.7 L526.0,416.7 L526.3,416.7 L526.5,416.7 L526.8,416.7 L527.0,416.7 L527.2,416.7 L527.5,416.7 
		L527.7,416.7 L528.0,416.7 L528.2,416.7 L528.5,416.7 L528.7,416.7 L529.0,416.7 L529.2,416.7 L529.5,416.7 
		L529.7,416.7 L530.0,416.7 L530.2,416.7 L530.5,416.7 L530.7,416.7 L531.0,416.7 L531.2,416.7 L531.5,416.7 
		L531.7,416.7 L531.9,416.7 L532.2,416.7 L532.4,416.7 L532.7,416.7 L532.9,416.7 L533.2,416.7 L533.4,416.7 
		L533.7,416.7 L533.9,416.7 L534.2,416.7 L534.4,416.7 L534.7,416.7 L534.9,416.7 L535.2,416.7 L535.4,416.8 
		L535.7,416.8 L535.9,416.8 L536.2,416.8 L536.4,416.8 L536.6,416.8 L536.9,416.8 L537.1,416.8 L537.4,416.8 
		L537.6,416.8 L537.9,416.8 L538.1,416.8 L538.4,416.8 L538.6,416.8 L538.9,416.8 L539.1,416.8 L539.4,416.8 
		L539.6,416.8 L539.9,416.8 L540.1,416.8 L540.4,416.8 L540.6,416.8 L540.9,416.8 L541.1,416.8 L541.3,416.8 
		L541.6,416.8 L541.8,416.8 L542.1,416.8 L542.3,416.8 L542.6,416.8 L542.8,416.8 L543.1,416.8 L543.3,416.8 
		L543.6,416.8 L543.8,416.8 L544.1,416.8 L544.3,416.8 L544.6,416.8 L544.8,416.8 L545.1,416.8 L545.3,416.8 
		L545.6,416.8 L545.8,416.8 L546.0,416.8 L546.3,416.8 L546.5,416.8 L546.8,416.9 L547.0,416.9 L547.3,416.9 
		L547.5,416.9 L547.8,416.9 L548.0,416.9 L548.3,416.9 L548.5,416.9 L548.8,416.9 L549.0,416.9 L549.3,416.9 
		L549.5,416.9 L549.8,416.9 L550.0,416.9 L550.3,416.9 L550.5,416.9 L550.7,416.9 L551.0,416.9 L551.2,416.9 
		L551.5,416.9 L551.7,416.9 L552.0,416.9 L552.2,416.9 L552.5,416.9 L552.7,416.9 L553.0,416.9 L553.2,416.9 
		L553.5,416.9 L553.7,416.9 L554.0,416.9 L554.2,416.9 L554.5,416.9 L554.7,416.9 L555.0,416.9 L555.2,416.9 
		L555.5,416.9 L555.7,416.9 L555.9,416.9 L556.2,416.9 L556.4,416.9 L556.7,416.9 L556.9,416.9 L557.2,416.9 
		L557.4,416.9 L557.7,416.9 L557.9,416.9 L558.2,416.9 L558.4,416.9 L558.7,416.9 L558.9,416.9 L559.2,416.9 
		L559.4,416.9 L559.7,416.9 L559.9,416.9 L560.2,416.9 L560.4,416.9 L560.6,416.9 L560.9,416.9 L561.1,416.9 
		L561.4,416.9 L561.6,416.9 L561.9,416.9 L562.1,416.9 L562.4,416.9 L562.6,417.0 L562.9,416.9 L563.1,416.9 
		L563.4,416.9 L563.6,416.9 L563.9,416.9 L564.1,416.9 L564.4,416.9 L564.6,416.9 L564.9,416.9 L565.1,416.9 
		L565.3,416.9 L565.6,416.9 L565.8,416.9 L566.1,416.9 L566.3,416.9 L566.6,416.9 L566.8,416.9 L567.1,416.9 
		L567.3,416.9 L567.6,416.9 L567.8,416.9 L568.1,416.9 L568.3,416.9 L568.6,416.9 L568.8,416.9 L569.1,416.9 
		L569.3,416.9 L569.6,416.9 L569.8,416.9 L570.0,416.9 L570.3,416.9 L570.5,416.9 L570.8,416.9 L571.0,416.9 
		L571.3,416.9 L571.5,416.9 L571.8,416.9 L572.0,416.9 L572.3,416.9 L572.5,416.9 L572.8,416.9 L573.0,416.9 
		L573.3,417.0 L573.5,417.0 L573.8,417.0 L574.0,417.0 L574.3,417.0 L574.5,417.0 L574.7,417.0 L575.0,417.0 
		 h0.01'/></g>
	</g>
	<g id="gnuplot_plot_2" ><title>gnuplot_plot_2</title>
<g style="fill:none; color:green; stroke:currentColor; stroke-width:1.00; stroke-linecap:butt; stroke-linejoin:miter">
	<g transform="translate(507.9,408.9)" style="stroke:none; fill:black; font-family:Arial; font-size:12.00pt; text-anchor:end">
		<text>Radio maximum capacity</text>
	</g>
	<path  d='M516.2,404.4 L558.4,404.4 M86.9,130.3 L87.1,98.4 L87.4,98.2 L87.6,98.2 L87.9,98.2 L88.1,98.2 
		L88.4,313.2 L88.6,300.7 L88.9,300.7 L89.1,300.7 L89.4,300.7 L89.6,300.7 L89.8,300.7 L90.1,300.7 
		L90.3,354.1 L90.6,354.1 L90.8,354.1 L91.1,356.3 L91.3,344.4 L91.6,344.4 L91.8,344.4 L92.1,344.4 
		L92.3,344.4 L92.6,344.4 L92.8,344.4 L93.1,344.4 L93.3,368.2 L93.6,361.3 L93.8,359.9 L94.0,359.9 
		L94.3,359.9 L94.5,359.9 L94.8,359.9 L95.0,359.9 L95.3,359.9 L95.5,359.9 L95.8,359.9 L96.0,359.9 
		L96.3,359.9 L96.5,359.9 L96.8,375.4 L97.0,366.6 L97.3,358.4 L97.5,356.1 L97.8,356.1 L98.0,356.1 
		L98.3,356.1 L98.5,360.6 L98.8,360.6 L99.0,360.6 L99.2,360.6 L99.5,360.6 L99.7,360.6 L100.0,360.6 
		L100.2,360.6 L100.5,360.6 L100.7,360.6 L101.0,360.6 L101.2,373.0 L101.5,366.8 L101.7,361.1 L102.0,357.0 
		L102.2,357.0 L102.5,357.0 L102.7,357.0 L103.0,357.0 L103.2,357.0 L103.5,357.0 L103.7,362.2 L103.9,359.6 
		L104.2,358.6 L104.4,358.6 L104.7,358.6 L104.9,358.6 L105.2,358.6 L105.4,358.6 L105.7,358.6 L105.9,358.6 
		L106.2,358.6 L106.4,358.6 L106.7,358.6 L106.9,358.6 L107.2,358.6 L107.4,358.6 L107.7,358.6 L107.9,358.6 
		L108.2,368.4 L108.4,366.3 L108.6,365.9 L108.9,365.9 L109.1,365.9 L109.4,365.9 L109.6,365.9 L109.9,365.9 
		L110.1,365.9 L110.4,365.9 L110.6,365.9 L110.9,365.9 L111.1,365.9 L111.4,365.9 L111.6,365.9 L111.9,365.9 
		L112.1,365.9 L112.4,365.9 L112.6,365.9 L112.9,365.9 L113.1,365.9 L113.3,365.9 L113.6,365.9 L113.8,365.9 
		L114.1,365.9 L114.3,365.9 L114.6,365.9 L114.8,365.9 L115.1,365.9 L115.3,365.9 L115.6,365.9 L115.8,365.9 
		L116.1,365.9 L116.3,365.9 L116.6,365.9 L116.8,365.9 L117.1,365.9 L117.3,365.9 L117.6,365.9 L117.8,365.9 
		L118.0,365.9 L118.3,365.9 L118.5,365.9 L118.8,365.9 L119.0,365.9 L119.3,365.9 L119.5,365.9 L119.8,365.9 
		L120.0,365.9 L120.3,365.9 L120.5,365.9 L120.8,365.9 L121.0,365.9 L121.3,365.9 L121.5,365.9 L121.8,365.9 
		L122.0,365.9 L122.3,365.9 L122.5,365.9 L122.7,365.9 L123.0,365.9 L123.2,365.9 L123.5,365.9 L123.7,365.9 
		L124.0,365.9 L124.2,365.9 L124.5,365.9 L124.7,365.9 L125.0,365.9 L125.2,365.9 L125.5,365.9 L125.7,365.9 
		L126.0,365.9 L126.2,365.9 L126.5,365.9 L126.7,365.9 L127.0,365.9 L127.2,365.9 L127.5,365.9 L127.7,365.9 
		L127.9,365.9 L128.2,365.9 L128.4,392.4 L128.7,391.2 L128.9,390.3 L129.2,390.3 L129.4,390.3 L129.7,390.3 
		L129.9,389.2 L130.2,387.2 L130.4,386.6 L130.7,386.6 L130.9,386.6 L131.2,386.6 L131.4,386.6 L131.7,386.6 
		L131.9,386.6 L132.2,386.6 L132.4,386.6 L132.6,386.6 L132.9,386.6 L133.1,386.6 L133.4,385.1 L133.6,384.9 
		L133.9,384.9 L134.1,384.9 L134.4,384.9 L134.6,384.9 L134.9,385.6 L135.1,385.6 L135.4,385.6 L135.6,385.6 
		L135.9,385.6 L136.1,385.6 L136.4,385.6 L136.6,385.6 L136.9,385.6 L137.1,385.6 L137.3,385.6 L137.6,385.6 
		L137.8,385.6 L138.1,385.6 L138.3,385.6 L138.6,385.6 L138.8,387.6 L139.1,387.6 L139.3,387.6 L139.6,387.6 
		L139.8,387.6 L140.1,387.6 L140.3,387.6 L140.6,387.6 L140.8,387.6 L141.1,387.6 L141.3,387.6 L141.6,387.6 
		L141.8,387.6 L142.1,387.6 L142.3,387.6 L142.5,387.6 L142.8,387.6 L143.0,387.6 L143.3,387.6 L143.5,387.6 
		L143.8,387.6 L144.0,387.6 L144.3,387.6 L144.5,387.6 L144.8,387.6 L145.0,387.6 L145.3,387.6 L145.5,387.6 
		L145.8,391.7 L146.0,390.8 L146.3,390.7 L146.5,390.7 L146.8,390.7 L147.0,390.7 L147.2,390.7 L147.5,390.7 
		L147.7,390.7 L148.0,390.7 L148.2,390.7 L148.5,390.7 L148.7,390.7 L149.0,390.7 L149.2,390.7 L149.5,390.7 
		L149.7,390.7 L150.0,390.7 L150.2,390.7 L150.5,390.7 L150.7,390.7 L151.0,390.7 L151.2,390.7 L151.5,390.7 
		L151.7,390.7 L151.9,390.7 L152.2,390.7 L152.4,390.7 L152.7,390.7 L152.9,390.7 L153.2,390.7 L153.4,390.7 
		L153.7,390.7 L153.9,390.7 L154.2,390.7 L154.4,390.7 L154.7,390.7 L154.9,390.7 L155.2,390.7 L155.4,390.7 
		L155.7,390.7 L155.9,390.7 L156.2,390.7 L156.4,390.7 L156.6,390.7 L156.9,390.7 L157.1,390.7 L157.4,390.7 
		L157.6,390.7 L157.9,390.7 L158.1,390.7 L158.4,390.7 L158.6,390.7 L158.9,390.7 L159.1,390.7 L159.4,390.7 
		L159.6,395.9 L159.9,395.1 L160.1,394.9 L160.4,394.9 L160.6,394.9 L160.9,394.9 L161.1,394.9 L161.3,394.9 
		L161.6,394.9 L161.8,394.9 L162.1,394.9 L162.3,394.9 L162.6,394.9 L162.8,394.9 L163.1,394.9 L163.3,394.9 
		L163.6,394.9 L163.8,394.9 L164.1,394.9 L164.3,394.9 L164.6,394.9 L164.8,394.9 L165.1,394.9 L165.3,394.9 
		L165.6,394.9 L165.8,394.9 L166.0,394.9 L166.3,394.9 L166.5,394.9 L166.8,394.9 L167.0,396.5 L167.3,394.6 
		L167.5,392.7 L167.8,391.8 L168.0,391.8 L168.3,391.8 L168.5,391.8 L168.8,391.8 L169.0,391.8 L169.3,391.8 
		L169.5,391.8 L169.8,391.8 L170.0,391.8 L170.3,391.8 L170.5,391.8 L170.7,391.8 L171.0,391.8 L171.2,391.8 
		L171.5,391.8 L171.7,391.8 L172.0,391.8 L172.2,391.8 L172.5,391.8 L172.7,391.8 L173.0,391.8 L173.2,391.8 
		L173.5,391.8 L173.7,391.8 L174.0,391.8 L174.2,391.8 L174.5,391.8 L174.7,391.8 L175.0,391.8 L175.2,391.8 
		L175.4,391.8 L175.7,391.8 L175.9,391.8 L176.2,391.8 L176.4,391.8 L176.7,391.8 L176.9,391.8 L177.2,391.8 
		L177.4,391.8 L177.7,391.8 L177.9,391.8 L178.2,391.8 L178.4,391.8 L178.7,391.8 L178.9,391.8 L179.2,391.8 
		L179.4,391.8 L179.7,391.8 L179.9,391.8 L180.1,391.8 L180.4,391.8 L180.6,391.8 L180.9,391.8 L181.1,391.8 
		L181.4,391.8 L181.6,391.8 L181.9,391.8 L182.1,391.8 L182.4,391.8 L182.6,391.8 L182.9,396.5 L183.1,396.5 
		L183.4,396.5 L183.6,396.5 L183.9,396.5 L184.1,396.5 L184.4,396.5 L184.6,396.5 L184.9,396.5 L185.1,396.5 
		L185.3,396.5 L185.6,396.5 L185.8,396.5 L186.1,396.5 L186.3,396.5 L186.6,396.5 L186.8,396.5 L187.1,396.5 
		L187.3,396.5 L187.6,396.5 L187.8,396.5 L188.1,396.5 L188.3,396.5 L188.6,396.5 L188.8,396.5 L189.1,396.5 
		L189.3,396.5 L189.6,396.5 L189.8,396.5 L190.0,396.5 L190.3,396.5 L190.5,396.5 L190.8,396.5 L191.0,396.5 
		L191.3,396.5 L191.5,396.5 L191.8,396.5 L192.0,396.5 L192.3,396.5 L192.5,396.5 L192.8,398.7 L193.0,397.9 
		L193.3,397.8 L193.5,397.8 L193.8,397.8 L194.0,397.8 L194.3,397.8 L194.5,397.8 L194.7,397.8 L195.0,397.8 
		L195.2,397.8 L195.5,397.8 L195.7,397.8 L196.0,397.8 L196.2,397.8 L196.5,397.8 L196.7,397.8 L197.0,397.8 
		L197.2,397.8 L197.5,397.8 L197.7,397.8 L198.0,397.8 L198.2,397.8 L198.5,397.8 L198.7,397.8 L199.0,397.8 
		L199.2,397.8 L199.4,397.8 L199.7,397.8 L199.9,397.8 L200.2,397.8 L200.4,397.8 L200.7,399.1 L200.9,398.8 
		L201.2,398.8 L201.4,398.8 L201.7,398.8 L201.9,398.8 L202.2,398.8 L202.4,398.8 L202.7,398.8 L202.9,398.8 
		L203.2,398.8 L203.4,398.8 L203.7,398.8 L203.9,398.8 L204.1,398.8 L204.4,398.8 L204.6,398.8 L204.9,398.8 
		L205.1,398.8 L205.4,398.8 L205.6,398.8 L205.9,398.8 L206.1,398.8 L206.4,398.8 L206.6,398.8 L206.9,398.8 
		L207.1,398.8 L207.4,398.8 L207.6,398.8 L207.9,398.8 L208.1,398.8 L208.4,398.8 L208.6,398.8 L208.8,398.8 
		L209.1,398.8 L209.3,398.8 L209.6,398.8 L209.8,398.8 L210.1,400.4 L210.3,399.9 L210.6,399.6 L210.8,399.6 
		L211.1,399.6 L211.3,399.6 L211.6,399.6 L211.8,399.6 L212.1,399.9 L212.3,399.7 L212.6,399.7 L212.8,399.7 
		L213.1,399.7 L213.3,399.7 L213.5,399.7 L213.8,399.7 L214.0,399.7 L214.3,400.0 L214.5,399.9 L214.8,399.9 
		L215.0,399.9 L215.3,399.9 L215.5,399.9 L215.8,399.9 L216.0,399.9 L216.3,399.9 L216.5,399.9 L216.8,399.9 
		L217.0,399.9 L217.3,399.9 L217.5,399.9 L217.8,400.1 L218.0,399.9 L218.2,399.9 L218.5,399.9 L218.7,399.9 
		L219.0,399.9 L219.2,399.9 L219.5,399.9 L219.7,400.1 L220.0,400.1 L220.2,400.1 L220.5,400.1 L220.7,400.1 
		L221.0,400.1 L221.2,400.1 L221.5,400.1 L221.7,400.1 L222.0,400.1 L222.2,400.1 L222.5,400.1 L222.7,400.1 
		L222.9,399.5 L223.2,399.4 L223.4,399.4 L223.7,399.4 L223.9,399.4 L224.2,399.4 L224.4,399.4 L224.7,399.4 
		L224.9,399.4 L225.2,399.4 L225.4,399.4 L225.7,399.4 L225.9,399.4 L226.2,399.4 L226.4,399.4 L226.7,399.4 
		L226.9,399.4 L227.2,399.4 L227.4,399.4 L227.7,399.4 L227.9,399.4 L228.1,399.4 L228.4,399.4 L228.6,399.4 
		L228.9,399.4 L229.1,399.4 L229.4,399.4 L229.6,399.4 L229.9,399.4 L230.1,399.4 L230.4,399.4 L230.6,399.4 
		L230.9,399.4 L231.1,399.4 L231.4,399.4 L231.6,399.4 L231.9,399.4 L232.1,399.4 L232.4,399.4 L232.6,399.4 
		L232.8,399.4 L233.1,399.4 L233.3,399.4 L233.6,399.4 L233.8,400.5 L234.1,400.0 L234.3,399.8 L234.6,399.8 
		L234.8,399.8 L235.1,399.8 L235.3,399.8 L235.6,399.8 L235.8,399.8 L236.1,399.8 L236.3,399.8 L236.6,399.8 
		L236.8,399.8 L237.1,399.8 L237.3,399.8 L237.5,399.8 L237.8,399.8 L238.0,399.9 L238.3,399.6 L238.5,399.4 
		L238.8,399.4 L239.0,399.4 L239.3,399.4 L239.5,399.4 L239.8,399.4 L240.0,399.4 L240.3,399.4 L240.5,399.4 
		L240.8,399.4 L241.0,399.4 L241.3,399.4 L241.5,399.4 L241.8,399.4 L242.0,399.4 L242.2,399.4 L242.5,399.4 
		L242.7,399.4 L243.0,399.4 L243.2,399.4 L243.5,399.4 L243.7,399.4 L244.0,399.4 L244.2,399.4 L244.5,399.4 
		L244.7,399.4 L245.0,399.4 L245.2,399.4 L245.5,399.4 L245.7,399.4 L246.0,399.4 L246.2,399.4 L246.5,399.4 
		L246.7,399.4 L246.9,399.4 L247.2,399.4 L247.4,399.4 L247.7,399.4 L247.9,399.4 L248.2,399.4 L248.4,399.4 
		L248.7,399.4 L248.9,399.4 L249.2,399.4 L249.4,399.4 L249.7,399.4 L249.9,399.4 L250.2,399.4 L250.4,399.4 
		L250.7,399.4 L250.9,399.4 L251.2,399.4 L251.4,399.4 L251.6,399.4 L251.9,399.4 L252.1,399.4 L252.4,399.4 
		L252.6,399.4 L252.9,399.4 L253.1,399.4 L253.4,399.4 L253.6,399.4 L253.9,399.4 L254.1,399.4 L254.4,399.4 
		L254.6,399.4 L254.9,399.4 L255.1,399.4 L255.4,399.4 L255.6,399.4 L255.9,399.4 L256.1,399.4 L256.3,401.5 
		L256.6,400.8 L256.8,399.9 L257.1,399.2 L257.3,399.1 L257.6,399.1 L257.8,399.1 L258.1,398.3 L258.3,397.4 
		L258.6,397.1 L258.8,397.1 L259.1,397.1 L259.3,397.1 L259.6,397.1 L259.8,397.1 L260.1,397.1 L260.3,397.1 
		L260.6,397.1 L260.8,397.1 L261.0,397.1 L261.3,397.1 L261.5,397.1 L261.8,397.1 L262.0,397.1 L262.3,397.5 
		L262.5,397.5 L262.8,397.5 L263.0,397.5 L263.3,397.5 L263.5,397.5 L263.8,397.5 L264.0,397.5 L264.3,397.5 
		L264.5,397.5 L264.8,397.5 L265.0,397.5 L265.3,397.5 L265.5,397.5 L265.8,397.5 L266.0,397.5 L266.2,397.5 
		L266.5,397.5 L266.7,397.5 L267.0,397.5 L267.2,397.5 L267.5,397.5 L267.7,397.5 L268.0,397.5 L268.2,397.5 
		L268.5,397.5 L268.7,397.5 L269.0,397.5 L269.2,397.5 L269.5,397.5 L269.7,397.5 L270.0,397.5 L270.2,397.5 
		L270.4,397.5 L270.7,397.5 L270.9,397.5 L271.2,397.5 L271.4,397.5 L271.7,397.5 L271.9,397.5 L272.2,397.5 
		L272.4,397.5 L272.7,397.5 L272.9,397.5 L273.2,397.5 L273.4,397.5 L273.7,397.5 L273.9,397.5 L274.2,397.5 
		L274.4,397.5 L274.7,397.5 L274.9,397.5 L275.1,397.5 L275.4,397.5 L275.6,397.5 L275.9,397.5 L276.1,397.5 
		L276.4,397.5 L276.6,397.5 L276.9,397.5 L277.1,397.5 L277.4,397.5 L277.6,397.5 L277.9,397.5 L278.1,397.5 
		L278.4,397.5 L278.6,397.5 L278.9,397.5 L279.1,397.5 L279.4,397.5 L279.6,397.5 L279.8,397.5 L280.1,397.5 
		L280.3,397.5 L280.6,397.5 L280.8,397.5 L281.1,399.8 L281.3,399.6 L281.6,399.6 L281.8,399.6 L282.1,399.6 
		L282.3,399.6 L282.6,399.6 L282.8,399.7 L283.1,399.4 L283.3,399.4 L283.6,399.4 L283.8,399.4 L284.1,399.4 
		L284.3,399.4 L284.5,399.4 L284.8,399.4 L285.0,399.4 L285.3,399.4 L285.5,399.4 L285.8,399.4 L286.0,399.4 
		L286.3,399.4 L286.5,399.4 L286.8,399.4 L287.0,399.4 L287.3,399.4 L287.5,399.4 L287.8,399.4 L288.0,399.4 
		L288.3,399.4 L288.5,399.4 L288.8,399.4 L289.0,399.4 L289.2,399.9 L289.5,399.8 L289.7,399.8 L290.0,399.8 
		L290.2,399.8 L290.5,399.8 L290.7,399.8 L291.0,399.8 L291.2,399.8 L291.5,399.8 L291.7,399.8 L292.0,399.8 
		L292.2,399.8 L292.5,399.8 L292.7,399.8 L293.0,399.8 L293.2,399.8 L293.5,399.8 L293.7,399.8 L293.9,399.8 
		L294.2,399.8 L294.4,399.8 L294.7,399.8 L294.9,399.8 L295.2,399.8 L295.4,399.8 L295.7,400.4 L295.9,400.4 
		L296.2,400.4 L296.4,400.4 L296.7,400.4 L296.9,400.4 L297.2,400.4 L297.4,400.4 L297.7,400.4 L297.9,400.4 
		L298.2,400.4 L298.4,400.4 L298.6,400.4 L298.9,400.4 L299.1,400.4 L299.4,400.4 L299.6,400.4 L299.9,400.4 
		L300.1,400.4 L300.4,400.4 L300.6,400.4 L300.9,400.4 L301.1,400.4 L301.4,400.4 L301.6,400.4 L301.9,400.4 
		L302.1,400.4 L302.4,400.4 L302.6,400.4 L302.9,400.4 L303.1,400.4 L303.3,400.4 L303.6,400.4 L303.8,400.4 
		L304.1,400.4 L304.3,400.4 L304.6,400.4 L304.8,400.4 L305.1,400.4 L305.3,400.4 L305.6,400.4 L305.8,400.4 
		L306.1,400.4 L306.3,400.4 L306.6,400.4 L306.8,400.4 L307.1,400.4 L307.3,400.4 L307.6,400.4 L307.8,400.4 
		L308.1,400.4 L308.3,400.4 L308.5,400.4 L308.8,400.4 L309.0,400.4 L309.3,400.4 L309.5,400.4 L309.8,400.4 
		L310.0,400.4 L310.3,400.4 L310.5,400.4 L310.8,400.4 L311.0,400.4 L311.3,400.4 L311.5,400.4 L311.8,400.4 
		L312.0,400.4 L312.3,400.4 L312.5,400.4 L312.8,400.4 L313.0,400.4 L313.2,400.4 L313.5,400.4 L313.7,400.4 
		L314.0,400.4 L314.2,400.4 L314.5,400.4 L314.7,400.4 L315.0,400.4 L315.2,400.4 L315.5,400.4 L315.7,400.4 
		L316.0,402.1 L316.2,401.8 L316.5,401.8 L316.7,401.8 L317.0,401.8 L317.2,401.8 L317.5,401.8 L317.7,401.7 
		L317.9,401.6 L318.2,401.6 L318.4,401.6 L318.7,401.6 L318.9,401.6 L319.2,401.6 L319.4,401.7 L319.7,401.6 
		L319.9,401.6 L320.2,401.6 L320.4,401.6 L320.7,401.6 L320.9,401.6 L321.2,401.6 L321.4,401.6 L321.7,401.6 
		L321.9,401.6 L322.2,401.8 L322.4,401.8 L322.6,401.8 L322.9,401.8 L323.1,401.8 L323.4,401.8 L323.6,401.8 
		L323.9,401.8 L324.1,401.8 L324.4,401.8 L324.6,401.8 L324.9,401.6 L325.1,401.6 L325.4,401.6 L325.6,401.6 
		L325.9,401.6 L326.1,401.6 L326.4,401.6 L326.6,401.6 L326.9,401.6 L327.1,401.6 L327.3,401.6 L327.6,401.6 
		L327.8,401.8 L328.1,401.8 L328.3,401.8 L328.6,401.8 L328.8,401.8 L329.1,401.8 L329.3,401.8 L329.6,401.8 
		L329.8,401.8 L330.1,401.8 L330.3,401.8 L330.6,401.8 L330.8,401.8 L331.1,401.8 L331.3,401.8 L331.6,401.8 
		L331.8,401.8 L332.0,401.8 L332.3,401.8 L332.5,401.8 L332.8,401.8 L333.0,401.8 L333.3,401.8 L333.5,401.8 
		L333.8,402.2 L334.0,402.0 L334.3,401.9 L334.5,401.9 L334.8,401.9 L335.0,401.9 L335.3,401.9 L335.5,401.9 
		L335.8,401.9 L336.0,401.9 L336.3,401.9 L336.5,401.9 L336.7,401.9 L337.0,401.9 L337.2,401.9 L337.5,401.9 
		L337.7,401.9 L338.0,401.9 L338.2,401.9 L338.5,401.9 L338.7,401.9 L339.0,401.9 L339.2,401.9 L339.5,401.9 
		L339.7,401.9 L340.0,401.9 L340.2,401.9 L340.5,401.9 L340.7,401.9 L341.0,401.9 L341.2,401.9 L341.4,401.9 
		L341.7,401.9 L341.9,401.9 L342.2,401.9 L342.4,401.9 L342.7,401.9 L342.9,401.9 L343.2,401.9 L343.4,401.9 
		L343.7,401.9 L343.9,401.9 L344.2,401.9 L344.4,401.9 L344.7,401.9 L344.9,401.9 L345.2,401.9 L345.4,401.9 
		L345.7,401.9 L345.9,401.9 L346.2,401.9 L346.4,401.9 L346.6,401.9 L346.9,401.9 L347.1,401.9 L347.4,401.9 
		L347.6,401.9 L347.9,401.9 L348.1,401.9 L348.4,401.9 L348.6,401.9 L348.9,403.0 L349.1,402.8 L349.4,402.7 
		L349.6,402.7 L349.9,402.7 L350.1,402.7 L350.4,402.7 L350.6,402.7 L350.9,402.7 L351.1,402.7 L351.3,402.7 
		L351.6,402.7 L351.8,402.7 L352.1,402.7 L352.3,402.7 L352.6,402.7 L352.8,402.7 L353.1,402.7 L353.3,402.7 
		L353.6,402.7 L353.8,402.7 L354.1,402.7 L354.3,402.7 L354.6,402.7 L354.8,402.7 L355.1,402.7 L355.3,402.7 
		L355.6,402.7 L355.8,402.7 L356.0,402.7 L356.3,402.7 L356.5,402.7 L356.8,402.7 L357.0,402.7 L357.3,402.7 
		L357.5,402.7 L357.8,402.7 L358.0,402.7 L358.3,402.7 L358.5,402.7 L358.8,402.7 L359.0,402.7 L359.3,402.7 
		L359.5,402.7 L359.8,402.7 L360.0,402.7 L360.3,402.7 L360.5,402.7 L360.7,403.5 L361.0,403.4 L361.2,403.4 
		L361.5,403.4 L361.7,403.4 L362.0,403.0 L362.2,402.7 L362.5,402.7 L362.7,402.7 L363.0,402.7 L363.2,402.7 
		L363.5,402.7 L363.7,402.7 L364.0,402.7 L364.2,402.7 L364.5,402.7 L364.7,402.7 L365.0,402.7 L365.2,402.7 
		L365.4,402.7 L365.7,402.5 L365.9,402.5 L366.2,402.5 L366.4,402.5 L366.7,402.5 L366.9,402.5 L367.2,402.5 
		L367.4,402.5 L367.7,402.5 L367.9,402.5 L368.2,402.5 L368.4,402.5 L368.7,402.5 L368.9,402.5 L369.2,402.5 
		L369.4,402.5 L369.7,402.5 L369.9,402.5 L370.1,402.5 L370.4,402.5 L370.6,402.5 L370.9,402.5 L371.1,402.5 
		L371.4,402.5 L371.6,402.5 L371.9,402.9 L372.1,402.8 L372.4,402.8 L372.6,402.8 L372.9,402.8 L373.1,402.8 
		L373.4,402.8 L373.6,402.8 L373.9,402.8 L374.1,402.8 L374.4,402.8 L374.6,402.8 L374.8,402.8 L375.1,402.8 
		L375.3,402.8 L375.6,402.8 L375.8,402.8 L376.1,402.8 L376.3,402.8 L376.6,402.8 L376.8,402.8 L377.1,402.8 
		L377.3,402.8 L377.6,402.8 L377.8,402.8 L378.1,402.8 L378.3,402.8 L378.6,402.8 L378.8,402.8 L379.1,402.8 
		L379.3,402.8 L379.5,402.8 L379.8,402.8 L380.0,402.8 L380.3,402.8 L380.5,402.8 L380.8,402.8 L381.0,402.8 
		L381.3,402.8 L381.5,402.8 L381.8,402.8 L382.0,403.4 L382.3,403.3 L382.5,403.3 L382.8,403.3 L383.0,403.3 
		L383.3,403.3 L383.5,403.3 L383.8,403.3 L384.0,403.3 L384.2,403.3 L384.5,403.3 L384.7,403.3 L385.0,403.3 
		L385.2,403.3 L385.5,403.3 L385.7,403.3 L386.0,403.3 L386.2,403.3 L386.5,403.3 L386.7,403.3 L387.0,403.3 
		L387.2,403.3 L387.5,403.3 L387.7,403.3 L388.0,403.3 L388.2,403.3 L388.5,403.3 L388.7,403.3 L389.0,403.3 
		L389.2,403.3 L389.4,403.3 L389.7,403.3 L389.9,403.3 L390.2,403.3 L390.4,403.3 L390.7,403.3 L390.9,403.3 
		L391.2,403.3 L391.4,403.3 L391.7,403.3 L391.9,403.3 L392.2,403.3 L392.4,403.3 L392.7,403.3 L392.9,403.3 
		L393.2,403.3 L393.4,403.3 L393.7,403.3 L393.9,403.3 L394.1,403.3 L394.4,403.3 L394.6,403.3 L394.9,403.3 
		L395.1,403.3 L395.4,403.3 L395.6,403.3 L395.9,403.3 L396.1,403.3 L396.4,403.3 L396.6,403.3 L396.9,403.3 
		L397.1,403.3 L397.4,403.3 L397.6,403.3 L397.9,403.3 L398.1,403.3 L398.4,403.3 L398.6,403.3 L398.8,403.3 
		L399.1,403.3 L399.3,403.3 L399.6,403.3 L399.8,403.3 L400.1,403.3 L400.3,403.3 L400.6,403.3 L400.8,403.3 
		L401.1,403.3 L401.3,403.3 L401.6,403.3 L401.8,403.3 L402.1,403.3 L402.3,403.3 L402.6,403.3 L402.8,403.3 
		L403.1,403.3 L403.3,403.3 L403.5,403.3 L403.8,403.3 L404.0,403.3 L404.3,403.3 L404.5,403.3 L404.8,403.3 
		L405.0,403.3 L405.3,403.3 L405.5,403.3 L405.8,404.5 L406.0,404.3 L406.3,404.2 L406.5,404.2 L406.8,404.2 
		L407.0,403.9 L407.3,403.7 L407.5,403.7 L407.8,403.7 L408.0,403.7 L408.2,403.7 L408.5,403.5 L408.7,403.5 
		L409.0,403.5 L409.2,403.5 L409.5,403.4 L409.7,403.3 L410.0,403.3 L410.2,403.3 L410.5,403.3 L410.7,403.3 
		L411.0,403.3 L411.2,403.3 L411.5,403.3 L411.7,403.3 L412.0,403.3 L412.2,403.3 L412.5,403.3 L412.7,403.3 
		L412.9,403.3 L413.2,403.3 L413.4,403.3 L413.7,403.3 L413.9,403.3 L414.2,403.3 L414.4,403.3 L414.7,403.3 
		L414.9,403.3 L415.2,403.3 L415.4,403.3 L415.7,403.3 L415.9,403.3 L416.2,403.3 L416.4,403.3 L416.7,403.3 
		L416.9,403.3 L417.2,403.3 L417.4,403.3 L417.6,403.3 L417.9,403.3 L418.1,403.3 L418.4,403.3 L418.6,403.7 
		L418.9,403.5 L419.1,403.4 L419.4,403.4 L419.6,403.4 L419.9,403.4 L420.1,403.4 L420.4,403.4 L420.6,403.4 
		L420.9,403.4 L421.1,403.4 L421.4,403.4 L421.6,403.4 L421.9,403.4 L422.1,403.4 L422.3,403.4 L422.6,403.4 
		L422.8,403.4 L423.1,403.4 L423.3,403.4 L423.6,403.4 L423.8,403.4 L424.1,403.4 L424.3,403.4 L424.6,403.4 
		L424.8,403.4 L425.1,403.4 L425.3,403.4 L425.6,403.6 L425.8,403.3 L426.1,403.3 L426.3,403.3 L426.6,403.3 
		L426.8,403.3 L427.0,403.3 L427.3,403.3 L427.5,403.3 L427.8,403.3 L428.0,403.3 L428.3,403.3 L428.5,403.3 
		L428.8,403.3 L429.0,403.3 L429.3,403.3 L429.5,403.3 L429.8,403.3 L430.0,403.3 L430.3,403.3 L430.5,403.3 
		L430.8,403.3 L431.0,403.0 L431.3,402.9 L431.5,402.9 L431.8,402.9 L432.0,402.9 L432.2,402.9 L432.5,402.9 
		L432.7,402.9 L433.0,402.9 L433.2,402.9 L433.5,402.9 L433.7,402.9 L434.0,402.9 L434.2,402.9 L434.5,402.9 
		L434.7,402.9 L435.0,402.9 L435.2,402.9 L435.5,402.9 L435.7,402.9 L436.0,403.1 L436.2,402.8 L436.5,402.6 
		L436.7,402.5 L436.9,402.5 L437.2,402.5 L437.4,402.5 L437.7,402.5 L437.9,402.5 L438.2,402.5 L438.4,402.5 
		L438.7,402.5 L438.9,402.5 L439.2,402.5 L439.4,402.5 L439.7,402.5 L439.9,402.5 L440.2,402.5 L440.4,402.5 
		L440.7,402.5 L440.9,402.5 L441.2,402.5 L441.4,402.5 L441.6,402.5 L441.9,402.5 L442.1,402.5 L442.4,402.5 
		L442.6,402.5 L442.9,402.5 L443.1,402.5 L443.4,402.5 L443.6,402.5 L443.9,402.5 L444.1,402.5 L444.4,402.5 
		L444.6,402.5 L444.9,402.5 L445.1,402.5 L445.4,402.5 L445.6,402.5 L445.9,402.5 L446.1,402.5 L446.3,402.5 
		L446.6,402.7 L446.8,402.7 L447.1,402.7 L447.3,402.7 L447.6,402.7 L447.8,402.7 L448.1,402.7 L448.3,402.7 
		L448.6,402.7 L448.8,402.7 L449.1,402.7 L449.3,402.7 L449.6,402.7 L449.8,402.7 L450.1,402.7 L450.3,402.7 
		L450.6,402.7 L450.8,402.7 L451.0,402.7 L451.3,402.7 L451.5,402.7 L451.8,402.7 L452.0,402.7 L452.3,402.7 
		L452.5,402.7 L452.8,402.7 L453.0,402.7 L453.3,402.7 L453.5,402.9 L453.8,402.6 L454.0,402.5 L454.3,402.4 
		L454.5,402.1 L454.8,401.9 L455.0,401.7 L455.3,401.7 L455.5,401.7 L455.7,401.7 L456.0,401.7 L456.2,401.7 
		L456.5,401.7 L456.7,401.7 L457.0,401.7 L457.2,401.7 L457.5,401.7 L457.7,401.7 L458.0,401.7 L458.2,401.7 
		L458.5,401.7 L458.7,401.7 L459.0,401.7 L459.2,401.7 L459.5,401.7 L459.7,401.7 L460.0,401.7 L460.2,401.7 
		L460.4,401.7 L460.7,401.7 L460.9,401.7 L461.2,401.7 L461.4,401.7 L461.7,401.7 L461.9,401.7 L462.2,401.7 
		L462.4,401.7 L462.7,402.1 L462.9,402.1 L463.2,402.1 L463.4,402.1 L463.7,401.9 L463.9,401.9 L464.2,401.9 
		L464.4,401.8 L464.7,401.5 L464.9,401.4 L465.1,401.4 L465.4,401.4 L465.6,401.4 L465.9,401.4 L466.1,401.4 
		L466.4,401.4 L466.6,401.4 L466.9,401.4 L467.1,401.4 L467.4,401.4 L467.6,401.4 L467.9,401.4 L468.1,401.5 
		L468.4,401.5 L468.6,401.5 L468.9,401.5 L469.1,401.5 L469.4,401.5 L469.6,401.5 L469.9,401.5 L470.1,401.5 
		L470.3,401.5 L470.6,401.5 L470.8,401.5 L471.1,401.5 L471.3,401.5 L471.6,401.5 L471.8,401.5 L472.1,401.5 
		L472.3,401.5 L472.6,401.5 L472.8,401.5 L473.1,401.5 L473.3,401.5 L473.6,401.6 L473.8,401.6 L474.1,401.6 
		L474.3,401.6 L474.6,401.6 L474.8,401.6 L475.0,401.6 L475.3,401.6 L475.5,401.6 L475.8,401.6 L476.0,401.6 
		L476.3,401.6 L476.5,401.6 L476.8,401.6 L477.0,401.6 L477.3,401.6 L477.5,401.6 L477.8,401.6 L478.0,401.6 
		L478.3,401.6 L478.5,401.6 L478.8,401.6 L479.0,401.6 L479.3,401.6 L479.5,401.6 L479.7,401.6 L480.0,401.6 
		L480.2,401.6 L480.5,401.9 L480.7,401.7 L481.0,401.5 L481.2,401.4 L481.5,401.4 L481.7,401.4 L482.0,401.4 
		L482.2,401.4 L482.5,401.4 L482.7,401.4 L483.0,401.4 L483.2,401.4 L483.5,401.5 L483.7,401.5 L484.0,401.5 
		L484.2,401.5 L484.4,401.5 L484.7,401.5 L484.9,401.5 L485.2,401.5 L485.4,401.5 L485.7,401.5 L485.9,401.5 
		L486.2,401.5 L486.4,401.5 L486.7,401.5 L486.9,401.5 L487.2,401.5 L487.4,401.5 L487.7,401.5 L487.9,401.5 
		L488.2,401.5 L488.4,401.5 L488.7,401.5 L488.9,401.5 L489.1,401.5 L489.4,401.5 L489.6,401.5 L489.9,401.7 
		L490.1,401.7 L490.4,401.7 L490.6,401.7 L490.9,401.7 L491.1,401.8 L491.4,401.5 L491.6,401.3 L491.9,401.3 
		L492.1,401.3 L492.4,401.3 L492.6,401.3 L492.9,401.3 L493.1,401.3 L493.4,401.3 L493.6,401.3 L493.8,401.3 
		L494.1,401.3 L494.3,401.3 L494.6,401.3 L494.8,401.3 L495.1,401.3 L495.3,401.3 L495.6,401.3 L495.8,401.3 
		L496.1,401.3 L496.3,401.3 L496.6,401.3 L496.8,401.3 L497.1,401.3 L497.3,401.3 L497.6,401.3 L497.8,401.3 
		L498.1,401.3 L498.3,401.3 L498.5,401.3 L498.8,401.3 L499.0,401.3 L499.3,401.5 L499.5,401.5 L499.8,401.5 
		L500.0,401.5 L500.3,401.5 L500.5,401.5 L500.8,401.5 L501.0,401.5 L501.3,401.5 L501.5,401.5 L501.8,401.5 
		L502.0,401.5 L502.3,401.5 L502.5,401.5 L502.8,401.5 L503.0,401.5 L503.2,401.5 L503.5,401.6 L503.7,401.4 
		L504.0,401.4 L504.2,401.4 L504.5,401.4 L504.7,401.4 L505.0,401.4 L505.2,401.4 L505.5,401.4 L505.7,401.4 
		L506.0,401.4 L506.2,401.4 L506.5,401.4 L506.7,401.4 L507.0,401.4 L507.2,401.4 L507.5,401.4 L507.7,401.5 
		L507.9,401.3 L508.2,401.2 L508.4,401.2 L508.7,401.2 L508.9,401.2 L509.2,401.2 L509.4,401.2 L509.7,401.2 
		L509.9,401.2 L510.2,401.2 L510.4,401.2 L510.7,401.2 L510.9,401.2 L511.2,401.2 L511.4,401.2 L511.7,401.2 
		L511.9,401.2 L512.2,401.2 L512.4,401.2 L512.7,401.2 L512.9,401.2 L513.1,401.2 L513.4,401.2 L513.6,401.2 
		L513.9,401.2 L514.1,401.2 L514.4,401.2 L514.6,401.2 L514.9,401.2 L515.1,401.2 L515.4,401.2 L515.6,401.2 
		L515.9,401.2 L516.1,401.2 L516.4,401.2 L516.6,401.2 L516.9,401.2 L517.1,401.2 L517.4,401.2 L517.6,401.2 
		L517.8,401.2 L518.1,401.2 L518.3,401.2 L518.6,401.2 L518.8,401.2 L519.1,401.2 L519.3,401.2 L519.6,401.2 
		L519.8,401.2 L520.1,401.2 L520.3,401.2 L520.6,401.2 L520.8,401.2 L521.1,401.2 L521.3,401.2 L521.6,401.2 
		L521.8,401.9 L522.1,401.9 L522.3,401.9 L522.5,401.9 L522.8,401.9 L523.0,401.9 L523.3,401.9 L523.5,401.9 
		L523.8,401.9 L524.0,401.9 L524.3,401.9 L524.5,401.9 L524.8,401.9 L525.0,401.9 L525.3,401.9 L525.5,401.9 
		L525.8,401.9 L526.0,401.9 L526.3,401.9 L526.5,401.9 L526.8,401.9 L527.0,401.9 L527.2,401.9 L527.5,401.9 
		L527.7,401.9 L528.0,401.9 L528.2,401.9 L528.5,401.9 L528.7,401.9 L529.0,401.9 L529.2,401.9 L529.5,401.9 
		L529.7,401.9 L530.0,401.9 L530.2,401.9 L530.5,401.9 L530.7,401.9 L531.0,401.9 L531.2,401.9 L531.5,401.9 
		L531.7,401.9 L531.9,401.9 L532.2,401.9 L532.4,401.9 L532.7,401.9 L532.9,401.9 L533.2,401.9 L533.4,401.9 
		L533.7,401.9 L533.9,401.9 L534.2,401.9 L534.4,401.9 L534.7,401.9 L534.9,401.9 L535.2,401.9 L535.4,402.3 
		L535.7,402.3 L535.9,402.3 L536.2,402.3 L536.4,402.3 L536.6,402.3 L536.9,402.3 L537.1,402.3 L537.4,402.3 
		L537.6,402.3 L537.9,402.3 L538.1,402.3 L538.4,402.3 L538.6,402.3 L538.9,402.3 L539.1,402.3 L539.4,402.3 
		L539.6,402.3 L539.9,402.3 L540.1,402.3 L540.4,402.3 L540.6,402.3 L540.9,402.3 L541.1,402.3 L541.3,402.3 
		L541.6,402.3 L541.8,402.3 L542.1,402.3 L542.3,402.3 L542.6,402.3 L542.8,402.3 L543.1,402.3 L543.3,402.3 
		L543.6,402.3 L543.8,402.3 L544.1,402.3 L544.3,402.3 L544.6,402.3 L544.8,402.3 L545.1,402.3 L545.3,402.3 
		L545.6,402.3 L545.8,402.3 L546.0,402.3 L546.3,402.3 L546.5,402.3 L546.8,402.7 L547.0,402.7 L547.3,402.7 
		L547.5,402.7 L547.8,402.7 L548.0,402.7 L548.3,402.7 L548.5,402.7 L548.8,402.7 L549.0,402.7 L549.3,402.7 
		L549.5,402.7 L549.8,402.7 L550.0,402.7 L550.3,402.7 L550.5,402.7 L550.7,402.7 L551.0,402.7 L551.2,402.7 
		L551.5,402.7 L551.7,402.7 L552.0,402.7 L552.2,402.7 L552.5,403.0 L552.7,402.8 L553.0,402.8 L553.2,402.8 
		L553.5,402.8 L553.7,402.8 L554.0,402.8 L554.2,402.8 L554.5,402.8 L554.7,402.8 L555.0,402.8 L555.2,402.8 
		L555.5,402.8 L555.7,402.8 L555.9,402.8 L556.2,402.8 L556.4,402.8 L556.7,402.8 L556.9,402.8 L557.2,402.8 
		L557.4,402.8 L557.7,402.8 L557.9,402.8 L558.2,402.8 L558.4,402.8 L558.7,402.8 L558.9,402.8 L559.2,402.8 
		L559.4,402.8 L559.7,402.8 L559.9,403.1 L560.2,403.0 L560.4,403.0 L560.6,403.0 L560.9,403.0 L561.1,403.0 
		L561.4,403.0 L561.6,403.0 L561.9,403.0 L562.1,403.0 L562.4,403.0 L562.6,403.1 L562.9,403.1 L563.1,403.1 
		L563.4,403.0 L563.6,403.0 L563.9,403.0 L564.1,403.0 L564.4,403.0 L564.6,403.0 L564.9,403.0 L565.1,403.0 
		L565.3,403.0 L565.6,403.0 L565.8,403.0 L566.1,403.0 L566.3,403.0 L566.6,403.0 L566.8,403.0 L567.1,403.0 
		L567.3,403.0 L567.6,403.0 L567.8,403.0 L568.1,403.0 L568.3,403.0 L568.6,403.0 L568.8,403.0 L569.1,403.0 
		L569.3,403.0 L569.6,403.0 L569.8,403.0 L570.0,403.0 L570.3,403.0 L570.5,403.0 L570.8,403.0 L571.0,403.0 
		L571.3,403.0 L571.5,403.0 L571.8,403.0 L572.0,403.0 L572.3,403.0 L572.5,403.0 L572.8,403.0 L573.0,403.0 
		L573.3,403.3 L573.5,403.2 L573.8,403.2 L574.0,403.2 L574.3,403.2 L574.5,403.2 L574.7,403.2 L575.0,403.2 
		 h0.01'/></g>
	</g>
<g style="fill:none; color:black; stroke:currentColor; stroke-width:1.00; stroke-linecap:butt; stroke-linejoin:miter">
	<path  d='M80.2,54.1 L80.2,422.4 L575.0,422.4 L575.0,54.1 L80.2,54.1 Z  h0.01'/></g>
</g>
</svg>

