<?xml version="1.0" encoding="utf-8"  standalone="no"?>
<!DOCTYPE svg PUBLIC "-//W3C//DTD SVG 1.1//EN" 
 "http://www.w3.org/Graphics/SVG/1.1/DTD/svg11.dtd">
<svg 
 width="600" height="480" 
 viewBox="0 0 600 480"
 xmlns="http://www.w3.org/2000/svg"
 xmlns:xlink="http://www.w3.org/1999/xlink"
>

<title>Gnuplot</title>
<desc>Produced by GNUPLOT 4.6 patchlevel 1 </desc>

<g id="gnuplot_canvas">

<rect x="0" y="0" width="600" height="480" fill="none"/>
<defs>

	<circle id='gpDot' r='0.5' stroke-width='0.5'/>
	<path id='gpPt0' stroke-width='0.222' stroke='currentColor' d='M-1,0 h2 M0,-1 v2'/>
	<path id='gpPt1' stroke-width='0.222' stroke='currentColor' d='M-1,-1 L1,1 M1,-1 L-1,1'/>
	<path id='gpPt2' stroke-width='0.222' stroke='currentColor' d='M-1,0 L1,0 M0,-1 L0,1 M-1,-1 L1,1 M-1,1 L1,-1'/>
	<rect id='gpPt3' stroke-width='0.222' stroke='currentColor' x='-1' y='-1' width='2' height='2'/>
	<rect id='gpPt4' stroke-width='0.222' stroke='currentColor' fill='currentColor' x='-1' y='-1' width='2' height='2'/>
	<circle id='gpPt5' stroke-width='0.222' stroke='currentColor' cx='0' cy='0' r='1'/>
	<use xlink:href='#gpPt5' id='gpPt6' fill='currentColor' stroke='none'/>
	<path id='gpPt7' stroke-width='0.222' stroke='currentColor' d='M0,-1.33 L-1.33,0.67 L1.33,0.67 z'/>
	<use xlink:href='#gpPt7' id='gpPt8' fill='currentColor' stroke='none'/>
	<use xlink:href='#gpPt7' id='gpPt9' stroke='currentColor' transform='rotate(180)'/>
	<use xlink:href='#gpPt9' id='gpPt10' fill='currentColor' stroke='none'/>
	<use xlink:href='#gpPt3' id='gpPt11' stroke='currentColor' transform='rotate(45)'/>
	<use xlink:href='#gpPt11' id='gpPt12' fill='currentColor' stroke='none'/>
</defs>
<g style="fill:none; color:white; stroke:currentColor; stroke-width:1.00; stroke-linecap:butt; stroke-linejoin:miter">
</g>
<g style="fill:none; color:black; stroke:currentColor; stroke-width:1.00; stroke-linecap:butt; stroke-linejoin:miter">
	<path  d='M88.5,422.4 L97.5,422.4 M575.0,422.4 L566.0,422.4  h0.01'/>	<g transform="translate(80.2,426.9)" style="stroke:none; fill:black; font-family:Arial; font-size:12.00pt; text-anchor:end">
		<text> 0</text>
	</g>
	<path  d='M88.5,369.8 L97.5,369.8 M575.0,369.8 L566.0,369.8  h0.01'/>	<g transform="translate(80.2,374.3)" style="stroke:none; fill:black; font-family:Arial; font-size:12.00pt; text-anchor:end">
		<text> 2000</text>
	</g>
	<path  d='M88.5,317.2 L97.5,317.2 M575.0,317.2 L566.0,317.2  h0.01'/>	<g transform="translate(80.2,321.7)" style="stroke:none; fill:black; font-family:Arial; font-size:12.00pt; text-anchor:end">
		<text> 4000</text>
	</g>
	<path  d='M88.5,264.6 L97.5,264.6 M575.0,264.6 L566.0,264.6  h0.01'/>	<g transform="translate(80.2,269.1)" style="stroke:none; fill:black; font-family:Arial; font-size:12.00pt; text-anchor:end">
		<text> 6000</text>
	</g>
	<path  d='M88.5,211.9 L97.5,211.9 M575.0,211.9 L566.0,211.9  h0.01'/>	<g transform="translate(80.2,216.4)" style="stroke:none; fill:black; font-family:Arial; font-size:12.00pt; text-anchor:end">
		<text> 8000</text>
	</g>
	<path  d='M88.5,159.3 L97.5,159.3 M575.0,159.3 L566.0,159.3  h0.01'/>	<g transform="translate(80.2,163.8)" style="stroke:none; fill:black; font-family:Arial; font-size:12.00pt; text-anchor:end">
		<text> 10000</text>
	</g>
	<path  d='M88.5,106.7 L97.5,106.7 M575.0,106.7 L566.0,106.7  h0.01'/>	<g transform="translate(80.2,111.2)" style="stroke:none; fill:black; font-family:Arial; font-size:12.00pt; text-anchor:end">
		<text> 12000</text>
	</g>
	<path  d='M88.5,54.1 L97.5,54.1 M575.0,54.1 L566.0,54.1  h0.01'/>	<g transform="translate(80.2,58.6)" style="stroke:none; fill:black; font-family:Arial; font-size:12.00pt; text-anchor:end">
		<text> 14000</text>
	</g>
	<path  d='M88.5,422.4 L88.5,413.4 M88.5,54.1 L88.5,63.1  h0.01'/>	<g transform="translate(88.5,444.9)" style="stroke:none; fill:black; font-family:Arial; font-size:12.00pt; text-anchor:middle">
		<text> 0</text>
	</g>
	<path  d='M137.2,422.4 L137.2,413.4 M137.2,54.1 L137.2,63.1  h0.01'/>	<g transform="translate(137.2,444.9)" style="stroke:none; fill:black; font-family:Arial; font-size:12.00pt; text-anchor:middle">
		<text> 10</text>
	</g>
	<path  d='M185.8,422.4 L185.8,413.4 M185.8,54.1 L185.8,63.1  h0.01'/>	<g transform="translate(185.8,444.9)" style="stroke:none; fill:black; font-family:Arial; font-size:12.00pt; text-anchor:middle">
		<text> 20</text>
	</g>
	<path  d='M234.5,422.4 L234.5,413.4 M234.5,54.1 L234.5,63.1  h0.01'/>	<g transform="translate(234.5,444.9)" style="stroke:none; fill:black; font-family:Arial; font-size:12.00pt; text-anchor:middle">
		<text> 30</text>
	</g>
	<path  d='M283.1,422.4 L283.1,413.4 M283.1,54.1 L283.1,63.1  h0.01'/>	<g transform="translate(283.1,444.9)" style="stroke:none; fill:black; font-family:Arial; font-size:12.00pt; text-anchor:middle">
		<text> 40</text>
	</g>
	<path  d='M331.8,422.4 L331.8,413.4 M331.8,54.1 L331.8,63.1  h0.01'/>	<g transform="translate(331.8,444.9)" style="stroke:none; fill:black; font-family:Arial; font-size:12.00pt; text-anchor:middle">
		<text> 50</text>
	</g>
	<path  d='M380.4,422.4 L380.4,413.4 M380.4,54.1 L380.4,63.1  h0.01'/>	<g transform="translate(380.4,444.9)" style="stroke:none; fill:black; font-family:Arial; font-size:12.00pt; text-anchor:middle">
		<text> 60</text>
	</g>
	<path  d='M429.1,422.4 L429.1,413.4 M429.1,54.1 L429.1,63.1  h0.01'/>	<g transform="translate(429.1,444.9)" style="stroke:none; fill:black; font-family:Arial; font-size:12.00pt; text-anchor:middle">
		<text> 70</text>
	</g>
	<path  d='M477.7,422.4 L477.7,413.4 M477.7,54.1 L477.7,63.1  h0.01'/>	<g transform="translate(477.7,444.9)" style="stroke:none; fill:black; font-family:Arial; font-size:12.00pt; text-anchor:middle">
		<text> 80</text>
	</g>
	<path  d='M526.4,422.4 L526.4,413.4 M526.4,54.1 L526.4,63.1  h0.01'/>	<g transform="translate(526.4,444.9)" style="stroke:none; fill:black; font-family:Arial; font-size:12.00pt; text-anchor:middle">
		<text> 90</text>
	</g>
	<path  d='M575.0,422.4 L575.0,413.4 M575.0,54.1 L575.0,63.1  h0.01'/>	<g transform="translate(575.0,444.9)" style="stroke:none; fill:black; font-family:Arial; font-size:12.00pt; text-anchor:middle">
		<text> 100</text>
	</g>
	<path  d='M88.5,54.1 L88.5,422.4 L575.0,422.4 L575.0,54.1 L88.5,54.1 Z  h0.01'/>	<g transform="translate(17.6,238.3) rotate(270)" style="stroke:none; fill:black; font-family:Arial; font-size:12.00pt; text-anchor:middle">
		<text>TCP throughput (kbps)</text>
	</g>
	<g transform="translate(331.7,471.9)" style="stroke:none; fill:black; font-family:Arial; font-size:12.00pt; text-anchor:middle">
		<text>Time (s)</text>
	</g>
	<g transform="translate(331.7,31.6)" style="stroke:none; fill:black; font-family:Arial; font-size:12.00pt; text-anchor:middle">
		<text>Distance 400m, 1kmph: TCP throughput vs link capacity Uplink 100RBs PfffScheduler</text>
	</g>
	<path  d='M325.3,413.4 L325.3,377.4 L566.7,377.4 L566.7,413.4 L325.3,413.4 Z  h0.01'/></g>
	<g id="gnuplot_plot_1" ><title>gnuplot_plot_1</title>
<g style="fill:none; color:red; stroke:currentColor; stroke-width:1.00; stroke-linecap:butt; stroke-linejoin:miter">
	<g transform="translate(507.9,390.9)" style="stroke:none; fill:black; font-family:Arial; font-size:12.00pt; text-anchor:end">
		<text>TCP Throughput</text>
	</g>
	<path  d='M516.2,386.4 L558.4,386.4 M91.7,416.1 L91.9,411.2 L92.1,411.2 L92.4,411.2 L92.6,418.9 L92.9,412.3 
		L93.1,410.4 L93.4,410.4 L93.6,413.5 L93.9,392.2 L94.1,372.4 L94.3,371.8 L94.6,371.8 L94.8,368.0 
		L95.1,347.7 L95.3,323.2 L95.6,303.9 L95.8,297.7 L96.0,301.2 L96.3,301.5 L96.5,301.8 L96.8,290.9 
		L97.0,286.0 L97.3,286.9 L97.5,286.9 L97.7,286.9 L98.0,286.9 L98.2,286.9 L98.5,302.6 L98.7,301.7 
		L99.0,304.5 L99.2,295.3 L99.4,287.5 L99.7,286.6 L99.9,286.6 L100.2,286.6 L100.4,286.6 L100.7,286.6 
		L100.9,303.9 L101.1,302.2 L101.4,301.6 L101.6,302.1 L101.9,302.1 L102.1,301.7 L102.4,301.5 L102.6,301.6 
		L102.8,301.6 L103.1,301.6 L103.3,301.6 L103.6,301.6 L103.8,301.6 L104.1,316.3 L104.3,316.1 L104.5,318.0 
		L104.8,319.3 L105.0,320.0 L105.3,321.0 L105.5,322.0 L105.8,321.8 L106.0,321.8 L106.3,325.4 L106.5,325.8 
		L106.7,326.9 L107.0,326.7 L107.2,326.7 L107.5,326.7 L107.7,329.7 L108.0,328.6 L108.2,328.4 L108.4,330.5 
		L108.7,329.6 L108.9,329.5 L109.2,329.9 L109.4,328.2 L109.7,326.4 L109.9,324.7 L110.1,324.1 L110.4,324.1 
		L110.6,326.2 L110.9,326.3 L111.1,326.3 L111.4,326.6 L111.6,324.1 L111.8,321.4 L112.1,318.6 L112.3,316.4 
		L112.6,314.6 L112.8,313.7 L113.1,313.7 L113.3,313.7 L113.5,316.3 L113.8,315.4 L114.0,315.4 L114.3,317.2 
		L114.5,316.6 L114.8,316.7 L115.0,316.7 L115.3,319.4 L115.5,319.3 L115.7,319.1 L116.0,316.1 L116.2,313.3 
		L116.5,310.9 L116.7,309.3 L117.0,307.9 L117.2,307.6 L117.4,307.6 L117.7,307.6 L117.9,307.6 L118.2,307.6 
		L118.4,312.0 L118.7,310.5 L118.9,310.4 L119.1,311.5 L119.4,311.6 L119.6,311.6 L119.9,311.6 L120.1,311.6 
		L120.4,315.2 L120.6,314.8 L120.8,314.7 L121.1,314.7 L121.3,314.7 L121.6,314.7 L121.8,314.7 L122.1,314.7 
		L122.3,319.8 L122.6,319.5 L122.8,319.5 L123.0,319.5 L123.3,321.9 L123.5,322.1 L123.8,322.1 L124.0,323.5 
		L124.3,323.5 L124.5,323.5 L124.7,325.6 L125.0,325.9 L125.2,326.2 L125.5,326.2 L125.7,327.7 L126.0,327.8 
		L126.2,328.0 L126.4,328.1 L126.7,328.1 L126.9,328.1 L127.2,328.1 L127.4,328.1 L127.7,330.7 L127.9,330.7 
		L128.1,330.7 L128.4,330.7 L128.6,332.6 L128.9,333.1 L129.1,333.1 L129.4,333.1 L129.6,333.1 L129.8,335.2 
		L130.1,335.5 L130.3,335.6 L130.6,335.7 L130.8,335.7 L131.1,335.7 L131.3,335.7 L131.6,335.7 L131.8,335.7 
		L132.0,335.7 L132.3,335.7 L132.5,339.3 L132.8,339.4 L133.0,339.4 L133.3,339.4 L133.5,341.1 L133.7,341.3 
		L134.0,341.6 L134.2,341.7 L134.5,341.9 L134.7,342.5 L135.0,342.5 L135.2,342.5 L135.4,342.5 L135.7,344.1 
		L135.9,344.2 L136.2,344.3 L136.4,344.3 L136.7,344.4 L136.9,344.4 L137.2,344.8 L137.4,344.7 L137.6,344.6 
		L137.9,344.4 L138.1,344.4 L138.4,344.4 L138.6,345.3 L138.9,345.3 L139.1,345.3 L139.3,346.1 L139.6,346.5 
		L139.8,346.6 L140.1,346.0 L140.3,345.3 L140.6,344.5 L140.8,343.5 L141.0,342.6 L141.3,342.3 L141.5,342.3 
		L141.8,342.3 L142.0,342.3 L142.3,342.8 L142.5,342.1 L142.7,342.0 L143.0,342.0 L143.2,342.0 L143.5,342.0 
		L143.7,342.0 L144.0,342.0 L144.2,342.0 L144.4,342.0 L144.7,342.0 L144.9,342.0 L145.2,345.9 L145.4,345.4 
		L145.7,345.4 L145.9,345.5 L146.2,345.5 L146.4,345.7 L146.6,346.0 L146.9,345.9 L147.1,345.8 L147.4,345.8 
		L147.6,345.8 L147.9,345.8 L148.1,345.8 L148.3,347.1 L148.6,347.0 L148.8,347.2 L149.1,347.4 L149.3,347.5 
		L149.6,347.8 L149.8,348.0 L150.0,348.1 L150.3,348.1 L150.5,348.1 L150.8,348.1 L151.0,348.1 L151.3,348.1 
		L151.5,348.1 L151.7,349.9 L152.0,350.1 L152.2,350.1 L152.5,350.6 L152.7,350.8 L153.0,350.9 L153.2,351.1 
		L153.4,351.3 L153.7,351.3 L153.9,351.3 L154.2,351.7 L154.4,351.7 L154.7,351.7 L154.9,351.7 L155.2,352.4 
		L155.4,352.4 L155.6,352.6 L155.9,352.6 L156.1,352.6 L156.4,353.3 L156.6,353.2 L156.9,352.9 L157.1,352.6 
		L157.3,352.6 L157.6,352.9 L157.8,352.9 L158.1,353.4 L158.3,353.0 L158.6,352.9 L158.8,352.9 L159.0,353.4 
		L159.3,353.3 L159.5,353.3 L159.8,353.3 L160.0,353.3 L160.3,354.3 L160.5,354.3 L160.7,354.3 L161.0,354.3 
		L161.2,354.3 L161.5,354.3 L161.7,355.3 L162.0,355.3 L162.2,355.3 L162.4,355.8 L162.7,355.4 L162.9,355.1 
		L163.2,355.1 L163.4,355.1 L163.7,355.1 L163.9,355.9 L164.2,355.8 L164.4,356.0 L164.6,356.0 L164.9,356.0 
		L165.1,356.0 L165.4,356.0 L165.6,356.9 L165.9,356.8 L166.1,356.8 L166.3,356.8 L166.6,356.7 L166.8,355.9 
		L167.1,355.3 L167.3,355.2 L167.6,355.5 L167.8,355.4 L168.0,355.4 L168.3,355.4 L168.5,355.3 L168.8,355.6 
		L169.0,355.4 L169.3,355.4 L169.5,355.4 L169.7,355.0 L170.0,355.0 L170.2,355.0 L170.5,355.5 L170.7,355.4 
		L171.0,355.4 L171.2,355.9 L171.4,355.8 L171.7,355.8 L171.9,355.8 L172.2,356.4 L172.4,356.3 L172.7,356.3 
		L172.9,356.3 L173.2,356.3 L173.4,356.3 L173.6,357.3 L173.9,356.5 L174.1,355.5 L174.4,354.5 L174.6,353.5 
		L174.9,353.5 L175.1,353.6 L175.3,353.8 L175.6,353.4 L175.8,353.2 L176.1,353.1 L176.3,353.4 L176.6,352.6 
		L176.8,352.1 L177.0,352.1 L177.3,352.1 L177.5,352.0 L177.8,352.2 L178.0,352.0 L178.3,352.0 L178.5,352.2 
		L178.7,352.2 L179.0,352.2 L179.2,352.2 L179.5,352.9 L179.7,352.9 L180.0,352.9 L180.2,353.2 L180.4,353.2 
		L180.7,353.2 L180.9,353.5 L181.2,353.4 L181.4,353.6 L181.7,353.6 L181.9,353.6 L182.2,353.9 L182.4,354.1 
		L182.6,353.8 L182.9,353.8 L183.1,353.8 L183.4,353.7 L183.6,353.7 L183.9,353.7 L184.1,353.7 L184.3,353.7 
		L184.6,353.7 L184.8,353.7 L185.1,354.3 L185.3,353.9 L185.6,353.9 L185.8,354.1 L186.0,354.0 L186.3,353.8 
		L186.5,353.8 L186.8,354.0 L187.0,353.6 L187.3,353.6 L187.5,353.7 L187.7,353.4 L188.0,353.2 L188.2,353.3 
		L188.5,353.3 L188.7,353.4 L189.0,353.4 L189.2,353.5 L189.4,353.1 L189.7,352.7 L189.9,352.6 L190.2,352.6 
		L190.4,352.6 L190.7,352.6 L190.9,353.2 L191.2,353.2 L191.4,353.2 L191.6,353.6 L191.9,353.3 L192.1,352.9 
		L192.4,352.8 L192.6,352.8 L192.9,352.9 L193.1,352.6 L193.3,352.6 L193.6,352.7 L193.8,352.6 L194.1,352.6 
		L194.3,352.7 L194.6,352.2 L194.8,352.1 L195.0,352.2 L195.3,352.2 L195.5,352.2 L195.8,352.0 L196.0,351.8 
		L196.3,351.8 L196.5,351.8 L196.7,352.3 L197.0,352.3 L197.2,352.5 L197.5,352.4 L197.7,352.4 L198.0,352.5 
		L198.2,352.5 L198.4,352.5 L198.7,352.4 L198.9,352.5 L199.2,351.8 L199.4,351.0 L199.7,350.4 L199.9,350.1 
		L200.2,349.8 L200.4,349.6 L200.6,349.6 L200.9,349.6 L201.1,349.6 L201.4,349.6 L201.6,349.6 L201.9,349.6 
		L202.1,349.6 L202.3,349.6 L202.6,350.8 L202.8,351.0 L203.1,350.5 L203.3,350.5 L203.6,350.5 L203.8,350.4 
		L204.0,350.4 L204.3,350.4 L204.5,350.7 L204.8,350.5 L205.0,350.3 L205.3,350.3 L205.5,350.4 L205.7,350.2 
		L206.0,350.0 L206.2,350.0 L206.5,350.0 L206.7,350.4 L207.0,350.1 L207.2,349.9 L207.4,350.0 L207.7,350.0 
		L207.9,350.1 L208.2,349.6 L208.4,349.6 L208.7,349.8 L208.9,349.8 L209.2,349.9 L209.4,349.9 L209.6,349.9 
		L209.9,349.9 L210.1,349.9 L210.4,350.5 L210.6,350.5 L210.9,350.5 L211.1,350.5 L211.3,351.1 L211.6,351.0 
		L211.8,351.0 L212.1,351.0 L212.3,351.0 L212.6,351.0 L212.8,351.0 L213.0,351.0 L213.3,351.5 L213.5,351.2 
		L213.8,351.2 L214.0,351.2 L214.3,351.5 L214.5,351.5 L214.7,351.5 L215.0,351.5 L215.2,351.5 L215.5,351.5 
		L215.7,351.5 L216.0,351.6 L216.2,351.1 L216.4,350.5 L216.7,349.9 L216.9,349.5 L217.2,349.5 L217.4,349.5 
		L217.7,349.9 L217.9,349.9 L218.2,349.7 L218.4,349.2 L218.6,349.1 L218.9,349.1 L219.1,349.1 L219.4,349.5 
		L219.6,349.5 L219.9,349.5 L220.1,349.9 L220.3,349.4 L220.6,349.0 L220.8,348.8 L221.1,348.8 L221.3,348.8 
		L221.6,348.8 L221.8,348.8 L222.0,348.8 L222.3,348.8 L222.5,349.7 L222.8,349.7 L223.0,349.8 L223.3,349.8 
		L223.5,349.8 L223.7,349.6 L224.0,349.5 L224.2,349.4 L224.5,349.4 L224.7,349.4 L225.0,349.7 L225.2,349.5 
		L225.4,349.3 L225.7,349.0 L225.9,348.9 L226.2,348.9 L226.4,348.9 L226.7,348.9 L226.9,349.4 L227.2,349.4 
		L227.4,349.4 L227.6,349.7 L227.9,349.7 L228.1,350.0 L228.4,350.0 L228.6,349.7 L228.9,349.4 L229.1,349.1 
		L229.3,349.1 L229.6,349.1 L229.8,349.1 L230.1,349.1 L230.3,349.1 L230.6,349.1 L230.8,349.1 L231.0,349.1 
		L231.3,349.1 L231.5,349.8 L231.8,349.8 L232.0,349.8 L232.3,349.8 L232.5,349.9 L232.7,349.9 L233.0,349.9 
		L233.2,349.9 L233.5,349.9 L233.7,349.9 L234.0,350.5 L234.2,350.5 L234.5,350.5 L234.7,350.5 L234.9,350.8 
		L235.2,350.9 L235.4,350.9 L235.7,350.9 L235.9,350.9 L236.2,350.9 L236.4,350.9 L236.6,350.9 L236.9,350.9 
		L237.1,351.7 L237.4,351.8 L237.6,351.9 L237.9,352.0 L238.1,352.1 L238.3,352.1 L238.6,352.1 L238.8,352.3 
		L239.1,352.3 L239.3,352.4 L239.6,352.5 L239.8,352.5 L240.0,352.5 L240.3,352.5 L240.5,352.5 L240.8,352.5 
		L241.0,352.5 L241.3,352.5 L241.5,352.5 L241.7,352.5 L242.0,352.5 L242.2,352.5 L242.5,352.5 L242.7,353.6 
		L243.0,353.6 L243.2,353.6 L243.5,353.7 L243.7,353.8 L243.9,353.8 L244.2,353.8 L244.4,353.9 L244.7,354.0 
		L244.9,354.0 L245.2,354.0 L245.4,354.0 L245.6,354.0 L245.9,354.0 L246.1,354.0 L246.4,354.6 L246.6,354.5 
		L246.9,354.5 L247.1,354.7 L247.3,354.7 L247.6,354.7 L247.8,354.7 L248.1,354.7 L248.3,354.7 L248.6,355.2 
		L248.8,355.3 L249.0,355.3 L249.3,355.3 L249.5,355.5 L249.8,355.6 L250.0,355.7 L250.3,355.7 L250.5,355.7 
		L250.7,355.7 L251.0,355.7 L251.2,355.7 L251.5,356.3 L251.7,356.3 L252.0,356.4 L252.2,356.5 L252.5,356.5 
		L252.7,356.5 L252.9,356.7 L253.2,356.8 L253.4,356.8 L253.7,356.8 L253.9,356.8 L254.2,357.1 L254.4,357.1 
		L254.6,357.1 L254.9,357.1 L255.1,357.1 L255.4,357.1 L255.6,357.1 L255.9,357.1 L256.1,357.5 L256.3,357.5 
		L256.6,357.5 L256.8,357.7 L257.1,357.8 L257.3,357.8 L257.6,357.9 L257.8,357.9 L258.0,357.9 L258.3,357.9 
		L258.5,357.9 L258.8,357.9 L259.0,357.9 L259.3,358.4 L259.5,358.4 L259.7,358.5 L260.0,358.6 L260.2,358.7 
		L260.5,358.7 L260.7,358.7 L261.0,358.8 L261.2,359.0 L261.5,359.0 L261.7,359.0 L261.9,359.0 L262.2,359.0 
		L262.4,359.0 L262.7,359.0 L262.9,359.0 L263.2,358.9 L263.4,358.8 L263.6,358.7 L263.9,358.6 L264.1,358.4 
		L264.4,358.3 L264.6,358.3 L264.9,358.3 L265.1,358.6 L265.3,358.6 L265.6,358.6 L265.8,358.6 L266.1,358.6 
		L266.3,358.8 L266.6,358.8 L266.8,359.0 L267.0,358.8 L267.3,358.6 L267.5,358.3 L267.8,358.3 L268.0,358.4 
		L268.3,358.2 L268.5,358.2 L268.7,358.2 L269.0,358.2 L269.2,358.2 L269.5,358.2 L269.7,358.2 L270.0,358.2 
		L270.2,358.2 L270.5,358.2 L270.7,358.2 L270.9,358.2 L271.2,358.2 L271.4,359.3 L271.7,359.4 L271.9,359.2 
		L272.1,359.2 L272.4,359.1 L272.6,359.1 L272.9,359.3 L273.1,359.4 L273.4,359.4 L273.6,359.5 L273.9,359.4 
		L274.1,359.4 L274.3,359.5 L274.6,359.4 L274.8,359.3 L275.1,359.3 L275.3,359.3 L275.6,359.5 L275.8,359.5 
		L276.0,359.6 L276.3,359.6 L276.5,359.6 L276.8,359.6 L277.0,359.8 L277.3,359.7 L277.5,359.5 L277.7,359.2 
		L278.0,359.2 L278.2,359.3 L278.5,359.3 L278.7,359.4 L279.0,359.4 L279.2,359.4 L279.4,359.4 L279.7,359.4 
		L279.9,359.4 L280.2,359.8 L280.4,359.7 L280.7,359.7 L280.9,359.7 L281.1,359.7 L281.4,359.7 L281.6,359.9 
		L281.9,359.7 L282.1,359.6 L282.4,359.6 L282.6,359.7 L282.9,359.6 L283.1,359.5 L283.3,359.4 L283.6,359.3 
		L283.8,359.2 L284.1,359.2 L284.3,359.3 L284.6,359.4 L284.8,359.4 L285.0,359.4 L285.3,359.4 L285.5,359.1 
		L285.8,359.0 L286.0,358.9 L286.3,358.6 L286.5,358.4 L286.7,358.3 L287.0,358.4 L287.2,358.5 L287.5,358.2 
		L287.7,357.8 L288.0,357.4 L288.2,357.4 L288.4,357.4 L288.7,357.4 L288.9,357.4 L289.2,357.7 L289.4,357.7 
		L289.7,357.7 L289.9,357.7 L290.1,357.7 L290.4,357.5 L290.6,357.6 L290.9,357.5 L291.1,357.4 L291.4,357.3 
		L291.6,357.1 L291.9,357.1 L292.1,357.1 L292.3,357.1 L292.6,357.3 L292.8,357.3 L293.1,357.3 L293.3,357.3 
		L293.6,357.6 L293.8,357.4 L294.0,357.2 L294.3,357.0 L294.5,356.9 L294.8,356.9 L295.0,357.0 L295.3,356.8 
		L295.5,356.7 L295.7,356.5 L296.0,356.2 L296.2,356.1 L296.5,355.9 L296.7,355.9 L297.0,355.9 L297.2,355.9 
		L297.4,356.1 L297.7,356.1 L297.9,356.0 L298.2,355.9 L298.4,355.9 L298.7,355.9 L298.9,355.9 L299.1,355.9 
		L299.4,355.9 L299.6,355.9 L299.9,355.9 L300.1,355.9 L300.4,356.2 L300.6,356.1 L300.9,356.1 L301.1,356.1 
		L301.3,356.3 L301.6,356.3 L301.8,356.3 L302.1,356.5 L302.3,356.5 L302.6,356.5 L302.8,356.5 L303.0,356.7 
		L303.3,356.7 L303.5,356.7 L303.8,356.8 L304.0,356.8 L304.3,356.8 L304.5,356.8 L304.7,356.8 L305.0,356.8 
		L305.2,357.2 L305.5,357.2 L305.7,357.2 L306.0,357.2 L306.2,357.3 L306.4,357.3 L306.7,357.3 L306.9,357.5 
		L307.2,357.6 L307.4,357.6 L307.7,357.6 L307.9,357.6 L308.1,357.6 L308.4,357.6 L308.6,357.6 L308.9,357.6 
		L309.1,357.8 L309.4,357.8 L309.6,357.8 L309.9,357.9 L310.1,357.9 L310.3,357.9 L310.6,357.9 L310.8,357.9 
		L311.1,357.9 L311.3,357.9 L311.6,358.4 L311.8,358.4 L312.0,358.4 L312.3,358.5 L312.5,358.5 L312.8,358.5 
		L313.0,358.6 L313.3,358.6 L313.5,358.6 L313.7,358.6 L314.0,358.6 L314.2,358.6 L314.5,358.9 L314.7,358.9 
		L315.0,359.0 L315.2,359.0 L315.4,359.0 L315.7,359.0 L315.9,359.0 L316.2,359.0 L316.4,359.0 L316.7,359.0 
		L316.9,359.5 L317.2,359.6 L317.4,359.6 L317.6,359.7 L317.9,359.7 L318.1,359.7 L318.4,359.7 L318.6,359.9 
		L318.9,359.9 L319.1,359.9 L319.3,359.9 L319.6,359.9 L319.8,359.9 L320.1,360.2 L320.3,360.2 L320.6,360.3 
		L320.8,360.3 L321.0,360.3 L321.3,360.4 L321.5,360.5 L321.8,360.5 L322.0,360.5 L322.3,360.5 L322.5,360.5 
		L322.7,360.5 L323.0,360.5 L323.2,360.5 L323.5,360.7 L323.7,360.7 L324.0,360.6 L324.2,360.6 L324.4,360.6 
		L324.7,360.6 L324.9,360.8 L325.2,360.9 L325.4,360.9 L325.7,360.9 L325.9,360.9 L326.2,360.8 L326.4,360.7 
		L326.6,360.7 L326.9,360.7 L327.1,360.8 L327.4,360.7 L327.6,360.6 L327.9,360.6 L328.1,360.6 L328.3,360.7 
		L328.6,360.6 L328.8,360.4 L329.1,360.1 L329.3,360.0 L329.6,360.0 L329.8,360.0 L330.0,360.0 L330.3,360.0 
		L330.5,359.9 L330.8,359.9 L331.0,360.0 L331.3,360.0 L331.5,360.0 L331.7,360.0 L332.0,359.8 L332.2,359.6 
		L332.5,359.6 L332.7,359.6 L333.0,359.6 L333.2,359.3 L333.4,359.0 L333.7,358.9 L333.9,358.9 L334.2,358.9 
		L334.4,359.0 L334.7,359.0 L334.9,359.0 L335.2,359.0 L335.4,359.3 L335.6,359.3 L335.9,359.3 L336.1,359.4 
		L336.4,359.3 L336.6,359.3 L336.9,359.3 L337.1,359.5 L337.3,359.4 L337.6,359.4 L337.8,359.3 L338.1,359.0 
		L338.3,358.7 L338.6,358.7 L338.8,358.8 L339.0,358.7 L339.3,358.8 L339.5,358.8 L339.8,358.8 L340.0,358.9 
		L340.3,358.9 L340.5,358.9 L340.7,358.9 L341.0,358.7 L341.2,358.6 L341.5,358.6 L341.7,358.6 L342.0,358.7 
		L342.2,358.7 L342.4,358.7 L342.7,358.8 L342.9,358.6 L343.2,358.5 L343.4,358.5 L343.7,358.4 L343.9,358.4 
		L344.2,358.4 L344.4,358.4 L344.6,358.4 L344.9,358.4 L345.1,358.4 L345.4,358.4 L345.6,358.7 L345.9,358.7 
		L346.1,358.7 L346.3,358.7 L346.6,358.7 L346.8,358.7 L347.1,358.8 L347.3,358.7 L347.6,358.6 L347.8,358.5 
		L348.0,358.6 L348.3,358.5 L348.5,358.4 L348.8,358.4 L349.0,358.4 L349.3,358.3 L349.5,358.1 L349.7,357.9 
		L350.0,357.9 L350.2,357.9 L350.5,357.9 L350.7,357.9 L351.0,357.9 L351.2,358.1 L351.4,358.1 L351.7,358.1 
		L351.9,358.1 L352.2,358.1 L352.4,358.3 L352.7,358.3 L352.9,358.3 L353.2,358.3 L353.4,358.3 L353.6,358.3 
		L353.9,358.3 L354.1,358.3 L354.4,358.5 L354.6,358.5 L354.9,358.5 L355.1,358.5 L355.3,358.5 L355.6,358.5 
		L355.8,358.5 L356.1,358.8 L356.3,358.8 L356.6,358.8 L356.8,358.8 L357.0,358.8 L357.3,358.7 L357.5,358.5 
		L357.8,358.5 L358.0,358.5 L358.3,358.5 L358.5,358.5 L358.7,358.6 L359.0,358.5 L359.2,358.5 L359.5,358.5 
		L359.7,358.5 L360.0,358.5 L360.2,358.7 L360.4,358.7 L360.7,358.7 L360.9,358.7 L361.2,358.7 L361.4,358.7 
		L361.7,358.7 L361.9,358.7 L362.2,358.7 L362.4,358.7 L362.6,359.3 L362.9,359.3 L363.1,359.3 L363.4,359.3 
		L363.6,359.3 L363.9,359.3 L364.1,359.6 L364.3,359.5 L364.6,359.5 L364.8,359.5 L365.1,359.5 L365.3,359.5 
		L365.6,359.4 L365.8,359.4 L366.0,359.4 L366.3,359.4 L366.5,359.4 L366.8,359.4 L367.0,359.4 L367.3,359.3 
		L367.5,359.3 L367.7,359.3 L368.0,359.3 L368.2,359.3 L368.5,359.3 L368.7,359.2 L369.0,359.0 L369.2,358.9 
		L369.4,358.8 L369.7,358.8 L369.9,358.8 L370.2,358.8 L370.4,358.8 L370.7,358.8 L370.9,358.8 L371.2,358.8 
		L371.4,358.8 L371.6,358.8 L371.9,359.1 L372.1,359.0 L372.4,359.0 L372.6,359.0 L372.9,359.0 L373.1,359.0 
		L373.3,359.3 L373.6,359.3 L373.8,359.3 L374.1,359.4 L374.3,359.4 L374.6,359.4 L374.8,359.4 L375.0,359.5 
		L375.3,359.6 L375.5,359.6 L375.8,359.6 L376.0,359.6 L376.3,359.6 L376.5,359.6 L376.7,359.6 L377.0,359.6 
		L377.2,359.6 L377.5,359.9 L377.7,359.9 L378.0,359.9 L378.2,360.0 L378.4,360.1 L378.7,360.1 L378.9,360.1 
		L379.2,360.1 L379.4,360.1 L379.7,360.1 L379.9,360.1 L380.2,360.1 L380.4,360.1 L380.6,360.5 L380.9,360.5 
		L381.1,360.5 L381.4,360.5 L381.6,360.5 L381.9,360.7 L382.1,360.7 L382.3,360.7 L382.6,360.7 L382.8,360.7 
		L383.1,360.7 L383.3,360.9 L383.6,360.9 L383.8,360.9 L384.0,360.9 L384.3,360.9 L384.5,360.9 L384.8,361.1 
		L385.0,361.1 L385.3,361.1 L385.5,361.1 L385.7,361.1 L386.0,361.1 L386.2,361.2 L386.5,361.1 L386.7,361.1 
		L387.0,361.1 L387.2,361.2 L387.4,361.1 L387.7,361.1 L387.9,361.2 L388.2,361.2 L388.4,361.2 L388.7,361.0 
		L388.9,361.0 L389.2,361.0 L389.4,361.0 L389.6,361.2 L389.9,361.2 L390.1,361.2 L390.4,361.2 L390.6,361.2 
		L390.9,361.2 L391.1,361.2 L391.3,361.3 L391.6,361.3 L391.8,361.4 L392.1,361.4 L392.3,361.3 L392.6,361.2 
		L392.8,361.2 L393.0,361.2 L393.3,361.3 L393.5,361.3 L393.8,361.2 L394.0,361.1 L394.3,361.0 L394.5,360.9 
		L394.7,360.9 L395.0,360.9 L395.2,360.9 L395.5,360.8 L395.7,360.8 L396.0,360.8 L396.2,360.8 L396.4,360.8 
		L396.7,360.8 L396.9,360.8 L397.2,360.9 L397.4,361.0 L397.7,361.0 L397.9,361.0 L398.2,361.0 L398.4,361.0 
		L398.6,361.0 L398.9,361.0 L399.1,361.0 L399.4,361.0 L399.6,361.0 L399.9,361.0 L400.1,361.2 L400.3,361.2 
		L400.6,361.2 L400.8,361.2 L401.1,361.2 L401.3,361.2 L401.6,361.2 L401.8,361.2 L402.0,361.2 L402.3,361.2 
		L402.5,361.2 L402.8,361.2 L403.0,361.2 L403.3,361.2 L403.5,361.2 L403.7,361.2 L404.0,361.8 L404.2,361.9 
		L404.5,361.9 L404.7,361.9 L405.0,361.9 L405.2,362.0 L405.4,362.0 L405.7,362.0 L405.9,362.0 L406.2,362.0 
		L406.4,362.0 L406.7,362.0 L406.9,362.0 L407.2,362.3 L407.4,362.3 L407.6,362.3 L407.9,362.3 L408.1,362.3 
		L408.4,362.5 L408.6,362.5 L408.9,362.6 L409.1,362.6 L409.3,362.6 L409.6,362.6 L409.8,362.7 L410.1,362.7 
		L410.3,362.7 L410.6,362.7 L410.8,362.8 L411.0,362.7 L411.3,362.7 L411.5,362.7 L411.8,362.8 L412.0,362.7 
		L412.3,362.7 L412.5,362.7 L412.7,362.6 L413.0,362.6 L413.2,362.6 L413.5,362.8 L413.7,362.8 L414.0,362.9 
		L414.2,362.9 L414.5,362.9 L414.7,363.0 L414.9,363.0 L415.2,363.0 L415.4,363.0 L415.7,362.9 L415.9,362.8 
		L416.2,362.8 L416.4,362.8 L416.6,362.8 L416.9,362.8 L417.1,362.8 L417.4,362.8 L417.6,363.0 L417.9,363.0 
		L418.1,363.0 L418.3,363.0 L418.6,363.1 L418.8,363.1 L419.1,363.1 L419.3,363.1 L419.6,363.1 L419.8,363.1 
		L420.0,363.1 L420.3,363.1 L420.5,363.1 L420.8,363.5 L421.0,363.5 L421.3,363.5 L421.5,363.5 L421.7,363.4 
		L422.0,363.4 L422.2,363.4 L422.5,363.4 L422.7,363.4 L423.0,363.5 L423.2,363.5 L423.5,363.6 L423.7,363.5 
		L423.9,363.5 L424.2,363.5 L424.4,363.5 L424.7,363.5 L424.9,363.5 L425.2,363.5 L425.4,363.5 L425.6,363.5 
		L425.9,363.5 L426.1,363.8 L426.4,363.8 L426.6,363.8 L426.9,363.8 L427.1,363.8 L427.3,363.8 L427.6,363.9 
		L427.8,363.9 L428.1,363.9 L428.3,363.9 L428.6,363.9 L428.8,363.9 L429.0,364.0 L429.3,364.0 L429.5,364.0 
		L429.8,364.0 L430.0,364.1 L430.3,364.0 L430.5,364.0 L430.7,364.0 L431.0,364.0 L431.2,364.0 L431.5,363.9 
		L431.7,363.9 L432.0,363.9 L432.2,363.9 L432.5,363.9 L432.7,363.9 L432.9,363.9 L433.2,363.8 L433.4,363.6 
		L433.7,363.5 L433.9,363.3 L434.2,363.3 L434.4,363.3 L434.6,363.3 L434.9,363.3 L435.1,363.3 L435.4,363.3 
		L435.6,363.3 L435.9,363.5 L436.1,363.5 L436.3,363.6 L436.6,363.5 L436.8,363.5 L437.1,363.5 L437.3,363.7 
		L437.6,363.6 L437.8,363.6 L438.0,363.6 L438.3,363.5 L438.5,363.5 L438.8,363.4 L439.0,363.4 L439.3,363.4 
		L439.5,363.4 L439.7,363.4 L440.0,363.4 L440.2,363.4 L440.5,363.4 L440.7,363.4 L441.0,363.6 L441.2,363.6 
		L441.5,363.6 L441.7,363.7 L441.9,363.7 L442.2,363.7 L442.4,363.7 L442.7,363.7 L442.9,363.7 L443.2,363.8 
		L443.4,363.8 L443.6,363.8 L443.9,363.8 L444.1,363.8 L444.4,363.8 L444.6,363.8 L444.9,363.9 L445.1,364.0 
		L445.3,363.9 L445.6,364.0 L445.8,364.0 L446.1,364.0 L446.3,364.0 L446.6,364.0 L446.8,364.0 L447.0,364.0 
		L447.3,364.0 L447.5,364.0 L447.8,364.0 L448.0,364.0 L448.3,364.0 L448.5,364.3 L448.7,364.3 L449.0,364.3 
		L449.2,364.4 L449.5,364.4 L449.7,364.4 L450.0,364.5 L450.2,364.5 L450.5,364.5 L450.7,364.6 L450.9,364.6 
		L451.2,364.6 L451.4,364.6 L451.7,364.6 L451.9,364.6 L452.2,364.6 L452.4,364.8 L452.6,364.8 L452.9,364.8 
		L453.1,364.8 L453.4,364.9 L453.6,364.9 L453.9,364.8 L454.1,364.8 L454.3,364.8 L454.6,364.8 L454.8,364.8 
		L455.1,364.8 L455.3,365.0 L455.6,365.0 L455.8,365.0 L456.0,365.0 L456.3,365.0 L456.5,365.0 L456.8,365.0 
		L457.0,365.0 L457.3,365.0 L457.5,365.0 L457.7,365.0 L458.0,365.0 L458.2,365.0 L458.5,365.0 L458.7,365.3 
		L459.0,365.3 L459.2,365.3 L459.5,365.3 L459.7,365.3 L459.9,365.3 L460.2,365.3 L460.4,365.3 L460.7,365.4 
		L460.9,365.5 L461.2,365.4 L461.4,365.5 L461.6,365.5 L461.9,365.5 L462.1,365.5 L462.4,365.5 L462.6,365.5 
		L462.9,365.5 L463.1,365.5 L463.3,365.5 L463.6,365.5 L463.8,365.5 L464.1,365.8 L464.3,365.8 L464.6,365.8 
		L464.8,365.8 L465.0,365.8 L465.3,365.9 L465.5,365.9 L465.8,365.9 L466.0,365.9 L466.3,365.9 L466.5,365.9 
		L466.7,365.9 L467.0,365.9 L467.2,366.0 L467.5,366.0 L467.7,366.0 L468.0,366.0 L468.2,366.1 L468.5,366.0 
		L468.7,366.0 L468.9,366.0 L469.2,366.0 L469.4,366.0 L469.7,366.0 L469.9,366.0 L470.2,365.9 L470.4,365.9 
		L470.6,365.9 L470.9,366.0 L471.1,366.0 L471.4,366.0 L471.6,366.0 L471.9,366.0 L472.1,366.0 L472.3,366.0 
		L472.6,366.0 L472.8,366.0 L473.1,366.3 L473.3,366.2 L473.6,366.2 L473.8,366.2 L474.0,366.2 L474.3,366.2 
		L474.5,366.2 L474.8,366.3 L475.0,366.3 L475.3,366.3 L475.5,366.3 L475.7,366.3 L476.0,366.3 L476.2,366.3 
		L476.5,366.3 L476.7,366.3 L477.0,366.3 L477.2,366.3 L477.5,366.3 L477.7,366.3 L477.9,366.3 L478.2,366.3 
		L478.4,366.3 L478.7,366.3 L478.9,366.3 L479.2,366.3 L479.4,366.3 L479.6,366.9 L479.9,366.9 L480.1,366.9 
		L480.4,366.9 L480.6,366.9 L480.9,366.9 L481.1,366.9 L481.3,367.0 L481.6,367.0 L481.8,367.1 L482.1,367.1 
		L482.3,367.1 L482.6,367.1 L482.8,367.1 L483.0,367.1 L483.3,367.1 L483.5,367.2 L483.8,367.2 L484.0,367.2 
		L484.3,367.2 L484.5,367.2 L484.7,367.3 L485.0,367.3 L485.2,367.3 L485.5,367.3 L485.7,367.3 L486.0,367.3 
		L486.2,367.3 L486.5,367.3 L486.7,367.5 L486.9,367.5 L487.2,367.5 L487.4,367.5 L487.7,367.7 L487.9,367.7 
		L488.2,367.7 L488.4,367.7 L488.6,367.8 L488.9,367.8 L489.1,367.8 L489.4,367.8 L489.6,367.8 L489.9,367.9 
		L490.1,368.0 L490.3,368.0 L490.6,368.0 L490.8,368.0 L491.1,368.0 L491.3,368.0 L491.6,368.0 L491.8,368.0 
		L492.0,368.0 L492.3,368.0 L492.5,368.0 L492.8,368.0 L493.0,368.0 L493.3,368.0 L493.5,368.0 L493.7,368.0 
		L494.0,368.0 L494.2,368.0 L494.5,368.0 L494.7,368.0 L495.0,368.0 L495.2,368.0 L495.5,367.9 L495.7,367.9 
		L495.9,367.9 L496.2,367.9 L496.4,367.9 L496.7,367.9 L496.9,367.9 L497.2,367.9 L497.4,367.9 L497.6,367.9 
		L497.9,367.9 L498.1,367.9 L498.4,367.9 L498.6,367.9 L498.9,367.9 L499.1,367.9 L499.3,367.9 L499.6,368.4 
		L499.8,368.4 L500.1,368.4 L500.3,368.4 L500.6,368.4 L500.8,368.4 L501.0,368.4 L501.3,368.5 L501.5,368.5 
		L501.8,368.5 L502.0,368.4 L502.3,368.4 L502.5,368.4 L502.7,368.5 L503.0,368.4 L503.2,368.4 L503.5,368.4 
		L503.7,368.4 L504.0,368.4 L504.2,368.3 L504.5,368.2 L504.7,368.1 L504.9,368.0 L505.2,368.0 L505.4,368.0 
		L505.7,368.0 L505.9,368.0 L506.2,368.0 L506.4,368.0 L506.6,368.0 L506.9,368.0 L507.1,368.0 L507.4,368.0 
		L507.6,368.0 L507.9,368.0 L508.1,368.3 L508.3,368.2 L508.6,368.2 L508.8,368.2 L509.1,368.1 L509.3,368.1 
		L509.6,368.1 L509.8,368.0 L510.0,368.0 L510.3,368.1 L510.5,368.0 L510.8,368.0 L511.0,368.0 L511.3,368.0 
		L511.5,368.0 L511.8,368.0 L512.0,368.0 L512.2,368.0 L512.5,368.0 L512.7,368.0 L513.0,367.9 L513.2,367.9 
		L513.5,367.9 L513.7,367.9 L513.9,368.0 L514.2,368.0 L514.4,368.0 L514.7,368.0 L514.9,368.0 L515.2,368.1 
		L515.4,368.1 L515.6,368.1 L515.9,368.2 L516.1,368.1 L516.4,368.1 L516.6,368.1 L516.9,368.1 L517.1,368.2 
		L517.3,368.1 L517.6,368.1 L517.8,368.1 L518.1,368.0 L518.3,368.0 L518.6,368.0 L518.8,368.0 L519.0,368.0 
		L519.3,368.0 L519.5,368.0 L519.8,368.0 L520.0,368.0 L520.3,367.9 L520.5,367.9 L520.8,367.9 L521.0,367.8 
		L521.2,367.8 L521.5,367.8 L521.7,367.7 L522.0,367.6 L522.2,367.7 L522.5,367.6 L522.7,367.4 L522.9,367.4 
		L523.2,367.4 L523.4,367.3 L523.7,367.3 L523.9,367.3 L524.2,367.4 L524.4,367.4 L524.6,367.5 L524.9,367.4 
		L525.1,367.3 L525.4,367.3 L525.6,367.3 L525.9,367.3 L526.1,367.1 L526.3,366.9 L526.6,366.9 L526.8,366.9 
		L527.1,366.9 L527.3,366.8 L527.6,366.8 L527.8,366.8 L528.0,366.8 L528.3,366.8 L528.5,367.0 L528.8,366.9 
		L529.0,366.9 L529.3,366.9 L529.5,367.0 L529.8,366.9 L530.0,366.9 L530.2,367.0 L530.5,367.0 L530.7,367.0 
		L531.0,366.9 L531.2,366.9 L531.5,367.0 L531.7,367.0 L531.9,367.0 L532.2,367.0 L532.4,367.0 L532.7,367.1 
		L532.9,367.1 L533.2,367.1 L533.4,367.1 L533.6,367.1 L533.9,367.1 L534.1,367.1 L534.4,367.1 L534.6,367.3 
		L534.9,367.3 L535.1,367.3 L535.3,367.3 L535.6,367.4 L535.8,367.4 L536.1,367.4 L536.3,367.4 L536.6,367.4 
		L536.8,367.4 L537.0,367.4 L537.3,367.4 L537.5,367.4 L537.8,367.5 L538.0,367.5 L538.3,367.5 L538.5,367.5 
		L538.8,367.5 L539.0,367.5 L539.2,367.6 L539.5,367.6 L539.7,367.6 L540.0,367.7 L540.2,367.7 L540.5,367.7 
		L540.7,367.7 L540.9,367.7 L541.2,367.8 L541.4,367.8 L541.7,367.8 L541.9,367.8 L542.2,367.8 L542.4,367.8 
		L542.6,367.9 L542.9,367.9 L543.1,367.9 L543.4,367.9 L543.6,367.9 L543.9,367.9 L544.1,367.9 L544.3,368.0 
		L544.6,368.0 L544.8,368.0 L545.1,368.0 L545.3,368.0 L545.6,368.0 L545.8,368.0 L546.0,368.0 L546.3,368.0 
		L546.5,368.0 L546.8,368.3 L547.0,368.3 L547.3,368.3 L547.5,368.4 L547.8,368.4 L548.0,368.4 L548.2,368.4 
		L548.5,368.4 L548.7,368.4 L549.0,368.5 L549.2,368.5 L549.5,368.5 L549.7,368.5 L549.9,368.5 L550.2,368.5 
		L550.4,368.5 L550.7,368.5 L550.9,368.5 L551.2,368.5 L551.4,368.5 L551.6,368.5 L551.9,368.8 L552.1,368.8 
		L552.4,368.8 L552.6,368.8 L552.9,368.8 L553.1,368.8 L553.3,368.8 L553.6,368.9 L553.8,368.9 L554.1,368.9 
		L554.3,368.9 L554.6,368.9 L554.8,368.9 L555.0,368.9 L555.3,368.9 L555.5,368.9 L555.8,369.1 L556.0,369.1 
		L556.3,369.1 L556.5,369.2 L556.8,369.2 L557.0,369.2 L557.2,369.2 L557.5,369.2 L557.7,369.2 L558.0,369.3 
		L558.2,369.3 L558.5,369.3 L558.7,369.3 L558.9,369.3 L559.2,369.3 L559.4,369.3 L559.7,369.4 L559.9,369.4 
		L560.2,369.4 L560.4,369.4 L560.6,369.4 L560.9,369.5 L561.1,369.5 L561.4,369.5 L561.6,369.5 L561.9,369.5 
		L562.1,369.5 L562.3,369.5 L562.6,369.5 L562.8,369.6 L563.1,369.6 L563.3,369.5 L563.6,369.5 L563.8,369.5 
		L564.0,369.4 L564.3,369.4 L564.5,369.4 L564.8,369.4 L565.0,369.4 L565.3,369.4 L565.5,369.4 L565.8,369.4 
		L566.0,369.4 L566.2,369.4 L566.5,369.4 L566.7,369.4 L567.0,369.4 L567.2,369.4 L567.5,369.4 L567.7,369.4 
		L567.9,369.4 L568.2,369.4 L568.4,369.4 L568.7,369.4 L568.9,369.4 L569.2,369.8 L569.4,369.8 L569.6,369.8 
		L569.9,369.8 L570.1,369.8 L570.4,369.9 L570.6,369.9 L570.9,369.9 L571.1,369.9 L571.3,369.9 L571.6,369.9 
		L571.8,369.9 L572.1,369.9 L572.3,369.9 L572.6,369.9 L572.8,369.9 L573.0,370.2 L573.3,370.2 L573.5,370.2 
		L573.8,370.2 L574.0,370.2 L574.3,370.3 L574.5,370.3 L574.8,370.3 L575.0,370.3  h0.01'/></g>
	</g>
	<g id="gnuplot_plot_2" ><title>gnuplot_plot_2</title>
<g style="fill:none; color:green; stroke:currentColor; stroke-width:1.00; stroke-linecap:butt; stroke-linejoin:miter">
	<g transform="translate(507.9,408.9)" style="stroke:none; fill:black; font-family:Arial; font-size:12.00pt; text-anchor:end">
		<text>Radio maximum capacity</text>
	</g>
	<path  d='M516.2,404.4 L558.4,404.4 M91.4,295.2 L91.7,234.1 L91.9,239.1 L92.1,303.2 L92.4,303.2 L92.6,345.6 
		L92.9,292.2 L93.1,287.3 L93.4,287.3 L93.6,317.9 L93.9,274.3 L94.1,242.2 L94.3,246.9 L94.6,248.4 
		L94.8,236.4 L95.1,201.8 L95.3,164.4 L95.6,134.4 L95.8,123.4 L96.0,123.6 L96.3,126.0 L96.5,126.4 
		L96.8,106.4 L97.0,97.6 L97.3,101.4 L97.5,108.7 L97.7,110.1 L98.0,128.4 L98.2,129.3 L98.5,127.9 
		L98.7,127.0 L99.0,132.1 L99.2,116.9 L99.4,101.3 L99.7,100.5 L99.9,100.5 L100.2,116.7 L100.4,116.7 
		L100.7,132.2 L100.9,136.4 L101.1,132.8 L101.4,124.2 L101.6,111.9 L101.9,103.4 L102.1,95.4 L102.4,93.5 
		L102.6,95.2 L102.8,104.6 L103.1,106.3 L103.3,106.3 L103.6,106.3 L103.8,106.3 L104.1,129.6 L104.3,128.4 
		L104.5,132.2 L104.8,122.7 L105.0,110.2 L105.3,99.1 L105.5,92.8 L105.8,96.2 L106.0,96.2 L106.3,98.9 
		L106.5,96.7 L106.7,99.2 L107.0,96.7 L107.2,98.1 L107.5,98.1 L107.7,106.6 L108.0,103.1 L108.2,102.7 
		L108.4,110.0 L108.7,108.6 L108.9,109.1 L109.2,108.3 L109.4,99.7 L109.7,90.7 L109.9,84.2 L110.1,83.8 
		L110.4,84.4 L110.6,90.6 L110.9,92.3 L111.1,96.2 L111.4,93.9 L111.6,87.9 L111.8,82.2 L112.1,78.0 
		L112.3,74.4 L112.6,72.5 L112.8,71.3 L113.1,72.1 L113.3,78.1 L113.5,77.9 L113.8,77.0 L114.0,77.7 
		L114.3,80.8 L114.5,80.5 L114.8,82.3 L115.0,85.2 L115.3,87.7 L115.5,89.3 L115.7,86.3 L116.0,81.3 
		L116.2,76.9 L116.5,73.7 L116.7,71.1 L117.0,69.6 L117.2,69.4 L117.4,69.9 L117.7,74.7 L117.9,75.0 
		L118.2,77.8 L118.4,81.7 L118.7,79.7 L118.9,80.3 L119.1,81.2 L119.4,81.6 L119.6,81.6 L119.9,81.6 
		L120.1,90.1 L120.4,90.8 L120.6,89.4 L120.8,90.0 L121.1,93.1 L121.3,93.1 L121.6,93.1 L121.8,101.1 
		L122.1,102.2 L122.3,103.7 L122.6,103.3 L122.8,105.9 L123.0,106.5 L123.3,109.0 L123.5,109.1 L123.8,112.1 
		L124.0,112.5 L124.3,112.5 L124.5,112.5 L124.7,118.0 L125.0,117.3 L125.2,117.7 L125.5,117.7 L125.7,120.7 
		L126.0,120.4 L126.2,121.0 L126.4,121.4 L126.7,123.3 L126.9,123.7 L127.2,123.7 L127.4,123.7 L127.7,129.2 
		L127.9,130.2 L128.1,130.9 L128.4,130.9 L128.6,133.0 L128.9,132.3 L129.1,132.7 L129.4,132.7 L129.6,137.3 
		L129.8,137.8 L130.1,137.8 L130.3,137.3 L130.6,137.3 L130.8,137.9 L131.1,137.9 L131.3,137.9 L131.6,143.1 
		L131.8,143.2 L132.0,143.2 L132.3,143.2 L132.5,148.0 L132.8,148.3 L133.0,148.4 L133.3,148.4 L133.5,152.9 
		L133.7,151.3 L134.0,149.2 L134.2,147.2 L134.5,147.5 L134.7,147.5 L135.0,148.4 L135.2,148.4 L135.4,148.4 
		L135.7,151.0 L135.9,148.5 L136.2,145.4 L136.4,142.9 L136.7,141.5 L136.9,142.3 L137.2,140.8 L137.4,138.2 
		L137.6,135.3 L137.9,133.1 L138.1,133.1 L138.4,135.1 L138.6,136.3 L138.9,136.7 L139.1,136.7 L139.3,139.0 
		L139.6,140.4 L139.8,140.6 L140.1,139.6 L140.3,137.1 L140.6,134.4 L140.8,131.7 L141.0,130.0 L141.3,129.6 
		L141.5,130.4 L141.8,131.1 L142.0,131.7 L142.3,130.2 L142.5,129.2 L142.7,129.3 L143.0,129.3 L143.2,129.3 
		L143.5,129.3 L143.7,129.3 L144.0,135.9 L144.2,137.6 L144.4,138.6 L144.7,138.9 L144.9,140.4 L145.2,141.5 
		L145.4,140.9 L145.7,141.5 L145.9,139.8 L146.2,137.6 L146.4,137.4 L146.6,138.2 L146.9,136.8 L147.1,136.6 
		L147.4,136.8 L147.6,137.2 L147.9,137.2 L148.1,140.2 L148.3,140.7 L148.6,141.0 L148.8,140.2 L149.1,139.3 
		L149.3,139.6 L149.6,140.4 L149.8,140.1 L150.0,140.2 L150.3,140.6 L150.5,141.8 L150.8,142.2 L151.0,142.2 
		L151.3,144.8 L151.5,145.4 L151.7,145.4 L152.0,146.3 L152.2,146.5 L152.5,147.8 L152.7,146.9 L153.0,145.0 
		L153.2,143.0 L153.4,141.6 L153.7,141.5 L153.9,142.9 L154.2,142.3 L154.4,142.0 L154.7,143.6 L154.9,144.0 
		L155.2,143.9 L155.4,144.3 L155.6,144.4 L155.9,145.4 L156.1,146.2 L156.4,145.9 L156.6,145.1 L156.9,144.6 
		L157.1,144.3 L157.3,144.7 L157.6,144.6 L157.8,144.7 L158.1,146.4 L158.3,145.8 L158.6,145.9 L158.8,146.8 
		L159.0,147.5 L159.3,147.5 L159.5,148.8 L159.8,148.8 L160.0,151.0 L160.3,151.0 L160.5,151.1 L160.7,151.1 
		L161.0,151.1 L161.2,151.1 L161.5,151.1 L161.7,155.2 L162.0,155.2 L162.2,155.2 L162.4,157.4 L162.7,157.0 
		L162.9,156.7 L163.2,156.9 L163.4,156.9 L163.7,156.9 L163.9,159.7 L164.2,159.9 L164.4,159.6 L164.6,159.7 
		L164.9,160.7 L165.1,160.7 L165.4,160.7 L165.6,162.7 L165.9,162.6 L166.1,162.8 L166.3,163.0 L166.6,162.3 
		L166.8,160.5 L167.1,159.4 L167.3,159.4 L167.6,160.6 L167.8,160.4 L168.0,160.9 L168.3,160.1 L168.5,160.2 
		L168.8,160.5 L169.0,160.3 L169.3,160.3 L169.5,161.1 L169.7,160.6 L170.0,160.7 L170.2,160.7 L170.5,161.6 
		L170.7,161.7 L171.0,162.7 L171.2,162.8 L171.4,163.1 L171.7,163.1 L171.9,163.1 L172.2,165.1 L172.4,165.1 
		L172.7,165.2 L172.9,165.2 L173.2,165.2 L173.4,165.2 L173.6,168.8 L173.9,167.0 L174.1,164.2 L174.4,161.4 
		L174.6,159.8 L174.9,159.7 L175.1,160.4 L175.3,161.1 L175.6,160.6 L175.8,160.2 L176.1,160.3 L176.3,160.2 
		L176.6,159.1 L176.8,158.5 L177.0,158.5 L177.3,158.9 L177.5,158.9 L177.8,159.6 L178.0,159.3 L178.3,159.4 
		L178.5,159.6 L178.7,159.8 L179.0,159.8 L179.2,161.2 L179.5,161.8 L179.7,162.0 L180.0,162.4 L180.2,162.5 
		L180.4,163.3 L180.7,163.6 L180.9,163.7 L181.2,164.1 L181.4,163.9 L181.7,164.0 L181.9,164.6 L182.2,164.5 
		L182.4,165.0 L182.6,164.7 L182.9,164.8 L183.1,165.1 L183.4,165.0 L183.6,165.0 L183.9,165.0 L184.1,166.8 
		L184.3,166.8 L184.6,166.8 L184.8,168.3 L185.1,167.4 L185.3,166.9 L185.6,167.0 L185.8,167.5 L186.0,167.4 
		L186.3,167.2 L186.5,167.3 L186.8,167.9 L187.0,167.0 L187.3,167.3 L187.5,166.7 L187.7,165.7 L188.0,165.4 
		L188.2,165.9 L188.5,165.9 L188.7,166.5 L189.0,166.9 L189.2,166.5 L189.4,165.4 L189.7,164.7 L189.9,164.8 
		L190.2,165.1 L190.4,165.2 L190.7,165.2 L190.9,166.6 L191.2,166.6 L191.4,166.6 L191.6,167.9 L191.9,167.4 
		L192.1,166.9 L192.4,166.9 L192.6,166.9 L192.9,167.3 L193.1,166.8 L193.3,167.1 L193.6,167.0 L193.8,166.9 
		L194.1,167.4 L194.3,166.9 L194.6,166.1 L194.8,165.9 L195.0,166.5 L195.3,166.6 L195.5,166.6 L195.8,166.5 
		L196.0,166.4 L196.3,166.9 L196.5,167.3 L196.7,167.4 L197.0,167.4 L197.2,168.3 L197.5,168.1 L197.7,168.1 
		L198.0,168.3 L198.2,168.4 L198.4,168.3 L198.7,168.1 L198.9,168.4 L199.2,167.4 L199.4,166.1 L199.7,165.2 
		L199.9,164.7 L200.2,164.4 L200.4,164.0 L200.6,164.0 L200.9,164.6 L201.1,165.0 L201.4,165.4 L201.6,165.4 
		L201.9,165.4 L202.1,167.2 L202.3,167.3 L202.6,167.9 L202.8,168.4 L203.1,167.6 L203.3,167.7 L203.6,167.7 
		L203.8,167.6 L204.0,167.7 L204.3,167.7 L204.5,168.4 L204.8,167.9 L205.0,167.7 L205.3,167.7 L205.5,168.1 
		L205.7,167.6 L206.0,167.4 L206.2,167.4 L206.5,168.4 L206.7,168.0 L207.0,166.7 L207.2,165.9 L207.4,166.3 
		L207.7,166.4 L207.9,166.5 L208.2,165.4 L208.4,165.4 L208.7,166.0 L208.9,166.1 L209.2,166.7 L209.4,166.9 
		L209.6,166.9 L209.9,166.9 L210.1,168.2 L210.4,168.2 L210.6,168.2 L210.9,168.2 L211.1,168.2 L211.3,170.3 
		L211.6,170.2 L211.8,170.3 L212.1,170.4 L212.3,170.4 L212.6,170.4 L212.8,170.4 L213.0,170.4 L213.3,172.2 
		L213.5,171.8 L213.8,171.9 L214.0,171.9 L214.3,172.8 L214.5,172.8 L214.7,172.9 L215.0,172.9 L215.2,173.4 
		L215.5,173.4 L215.7,173.4 L216.0,174.0 L216.2,173.2 L216.4,172.2 L216.7,171.3 L216.9,170.7 L217.2,170.8 
		L217.4,171.5 L217.7,171.5 L217.9,171.6 L218.2,171.6 L218.4,170.8 L218.6,170.7 L218.9,170.7 L219.1,171.6 
		L219.4,171.8 L219.6,171.9 L219.9,171.9 L220.1,172.9 L220.3,172.1 L220.6,171.5 L220.8,171.3 L221.1,171.5 
		L221.3,171.7 L221.6,171.7 L221.8,172.6 L222.0,173.2 L222.3,173.4 L222.5,173.4 L222.8,173.5 L223.0,173.7 
		L223.3,173.6 L223.5,173.6 L223.7,172.6 L224.0,171.8 L224.2,171.7 L224.5,172.1 L224.7,172.1 L225.0,172.5 
		L225.2,172.3 L225.4,171.7 L225.7,170.9 L225.9,170.8 L226.2,171.2 L226.4,171.4 L226.7,171.4 L226.9,172.1 
		L227.2,172.2 L227.4,172.8 L227.6,172.9 L227.9,172.9 L228.1,173.8 L228.4,173.4 L228.6,172.4 L228.9,171.3 
		L229.1,170.7 L229.3,170.7 L229.6,170.7 L229.8,171.2 L230.1,171.2 L230.3,171.2 L230.6,171.2 L230.8,171.2 
		L231.0,173.2 L231.3,173.3 L231.5,173.4 L231.8,173.6 L232.0,173.2 L232.3,173.0 L232.5,173.4 L232.7,173.3 
		L233.0,173.3 L233.2,173.3 L233.5,173.3 L233.7,173.3 L234.0,175.1 L234.2,174.9 L234.5,174.9 L234.7,175.1 
		L234.9,175.7 L235.2,175.5 L235.4,175.4 L235.7,175.6 L235.9,175.6 L236.2,175.6 L236.4,176.8 L236.6,176.9 
		L236.9,176.9 L237.1,177.8 L237.4,177.7 L237.6,178.2 L237.9,177.7 L238.1,177.3 L238.3,177.2 L238.6,177.8 
		L238.8,177.5 L239.1,177.4 L239.3,177.4 L239.6,176.4 L239.8,175.4 L240.0,174.7 L240.3,174.4 L240.5,174.5 
		L240.8,175.0 L241.0,175.1 L241.3,175.5 L241.5,175.5 L241.7,175.5 L242.0,175.5 L242.2,177.1 L242.5,177.4 
		L242.7,177.4 L243.0,177.5 L243.2,177.5 L243.5,177.6 L243.7,176.7 L243.9,175.9 L244.2,175.2 L244.4,175.3 
		L244.7,175.1 L244.9,174.7 L245.2,174.5 L245.4,174.7 L245.6,174.7 L245.9,174.7 L246.1,175.7 L246.4,176.2 
		L246.6,176.2 L246.9,176.2 L247.1,176.7 L247.3,176.7 L247.6,176.7 L247.8,176.7 L248.1,176.7 L248.3,176.7 
		L248.6,178.5 L248.8,178.5 L249.0,178.6 L249.3,178.8 L249.5,178.7 L249.8,178.5 L250.0,178.4 L250.3,178.8 
		L250.5,178.8 L250.7,179.4 L251.0,179.7 L251.2,180.2 L251.5,179.9 L251.7,179.8 L252.0,180.1 L252.2,179.8 
		L252.5,179.7 L252.7,179.8 L252.9,180.1 L253.2,179.9 L253.4,179.9 L253.7,179.9 L253.9,179.9 L254.2,180.9 
		L254.4,180.8 L254.6,180.6 L254.9,180.6 L255.1,180.6 L255.4,181.3 L255.6,181.3 L255.9,181.8 L256.1,181.7 
		L256.3,181.7 L256.6,181.7 L256.8,182.1 L257.1,182.0 L257.3,182.0 L257.6,181.6 L257.8,181.5 L258.0,181.6 
		L258.3,181.6 L258.5,181.6 L258.8,182.5 L259.0,182.7 L259.3,182.9 L259.5,182.9 L259.7,183.1 L260.0,183.0 
		L260.2,183.3 L260.5,183.1 L260.7,183.1 L261.0,183.4 L261.2,183.8 L261.5,183.5 L261.7,182.6 L261.9,181.5 
		L262.2,180.4 L262.4,179.4 L262.7,179.2 L262.9,179.2 L263.2,178.3 L263.4,177.2 L263.6,175.9 L263.9,175.1 
		L264.1,174.7 L264.4,174.6 L264.6,174.7 L264.9,175.1 L265.1,175.5 L265.3,175.5 L265.6,175.6 L265.8,175.7 
		L266.1,175.7 L266.3,176.5 L266.6,176.6 L266.8,177.0 L267.0,176.7 L267.3,176.2 L267.5,175.7 L267.8,175.9 
		L268.0,175.8 L268.3,175.6 L268.5,175.7 L268.7,175.7 L269.0,176.0 L269.2,176.0 L269.5,176.0 L269.7,177.3 
		L270.0,177.5 L270.2,177.5 L270.5,177.5 L270.7,177.5 L270.9,177.5 L271.2,177.5 L271.4,179.3 L271.7,179.7 
		L271.9,179.3 L272.1,179.1 L272.4,179.1 L272.6,179.1 L272.9,179.5 L273.1,179.6 L273.4,179.6 L273.6,179.6 
		L273.9,179.3 L274.1,179.3 L274.3,179.6 L274.6,179.4 L274.8,179.3 L275.1,179.4 L275.3,179.8 L275.6,179.7 
		L275.8,180.1 L276.0,180.0 L276.3,180.1 L276.5,180.1 L276.8,180.7 L277.0,180.9 L277.3,180.5 L277.5,180.0 
		L277.7,179.5 L278.0,179.5 L278.2,179.7 L278.5,179.9 L278.7,180.2 L279.0,180.3 L279.2,180.4 L279.4,180.4 
		L279.7,181.0 L279.9,181.0 L280.2,181.3 L280.4,181.2 L280.7,181.2 L280.9,181.2 L281.1,181.3 L281.4,181.3 
		L281.6,181.7 L281.9,181.4 L282.1,181.3 L282.4,181.4 L282.6,181.8 L282.9,181.6 L283.1,181.6 L283.3,181.5 
		L283.6,181.3 L283.8,181.2 L284.1,181.3 L284.3,181.4 L284.6,181.8 L284.8,181.8 L285.0,181.8 L285.3,182.1 
		L285.5,181.6 L285.8,181.6 L286.0,181.0 L286.3,180.5 L286.5,180.1 L286.7,180.1 L287.0,180.3 L287.2,180.6 
		L287.5,180.2 L287.7,179.6 L288.0,179.0 L288.2,179.0 L288.4,179.3 L288.7,179.3 L288.9,179.3 L289.2,179.9 
		L289.4,179.9 L289.7,180.1 L289.9,180.2 L290.1,180.1 L290.4,179.9 L290.6,179.9 L290.9,179.8 L291.1,179.5 
		L291.4,179.1 L291.6,178.8 L291.9,178.9 L292.1,178.9 L292.3,178.9 L292.6,179.7 L292.8,179.7 L293.1,179.7 
		L293.3,180.5 L293.6,180.3 L293.8,179.8 L294.0,179.1 L294.3,178.6 L294.5,178.6 L294.8,178.6 L295.0,179.0 
		L295.3,178.6 L295.5,178.4 L295.7,178.1 L296.0,177.8 L296.2,177.5 L296.5,177.4 L296.7,177.4 L297.0,177.5 
		L297.2,177.5 L297.4,177.9 L297.7,177.9 L297.9,177.8 L298.2,177.7 L298.4,177.9 L298.7,177.9 L298.9,177.9 
		L299.1,178.0 L299.4,178.3 L299.6,178.3 L299.9,178.8 L300.1,178.8 L300.4,179.1 L300.6,179.0 L300.9,179.2 
		L301.1,179.3 L301.3,179.6 L301.6,179.6 L301.8,179.6 L302.1,180.1 L302.3,180.0 L302.6,180.1 L302.8,180.1 
		L303.0,180.6 L303.3,180.6 L303.5,180.8 L303.8,180.8 L304.0,180.8 L304.3,180.8 L304.5,181.5 L304.7,181.7 
		L305.0,181.8 L305.2,182.0 L305.5,181.6 L305.7,181.2 L306.0,181.1 L306.2,181.2 L306.4,181.2 L306.7,181.9 
		L306.9,181.9 L307.2,182.0 L307.4,181.6 L307.7,181.6 L307.9,181.6 L308.1,181.3 L308.4,181.3 L308.6,181.6 
		L308.9,181.6 L309.1,182.1 L309.4,182.0 L309.6,182.3 L309.9,182.4 L310.1,182.7 L310.3,182.9 L310.6,182.9 
		L310.8,182.9 L311.1,182.9 L311.3,184.0 L311.6,184.0 L311.8,184.0 L312.0,184.1 L312.3,184.1 L312.5,183.8 
		L312.8,183.4 L313.0,183.1 L313.3,183.1 L313.5,183.1 L313.7,183.7 L314.0,183.8 L314.2,183.8 L314.5,184.1 
		L314.7,184.2 L315.0,184.4 L315.2,184.4 L315.4,184.4 L315.7,185.0 L315.9,185.0 L316.2,185.1 L316.4,185.4 
		L316.7,185.4 L316.9,185.8 L317.2,185.6 L317.4,185.3 L317.6,184.9 L317.9,184.6 L318.1,184.6 L318.4,184.8 
		L318.6,184.9 L318.9,184.9 L319.1,184.9 L319.3,185.2 L319.6,185.5 L319.8,185.6 L320.1,185.7 L320.3,185.1 
		L320.6,184.6 L320.8,184.4 L321.0,184.4 L321.3,184.7 L321.5,184.7 L321.8,184.4 L322.0,183.8 L322.3,183.5 
		L322.5,183.0 L322.7,183.0 L323.0,183.1 L323.2,183.1 L323.5,183.5 L323.7,183.0 L324.0,182.6 L324.2,182.7 
		L324.4,182.8 L324.7,183.1 L324.9,183.0 L325.2,183.3 L325.4,183.2 L325.7,183.3 L325.9,183.4 L326.2,183.0 
		L326.4,182.7 L326.6,182.7 L326.9,182.7 L327.1,183.3 L327.4,183.2 L327.6,183.0 L327.9,183.0 L328.1,183.2 
		L328.3,183.4 L328.6,183.0 L328.8,182.5 L329.1,182.1 L329.3,181.9 L329.6,182.1 L329.8,182.2 L330.0,182.4 
		L330.3,182.2 L330.5,182.0 L330.8,182.0 L331.0,182.2 L331.3,182.2 L331.5,182.2 L331.7,182.2 L332.0,182.1 
		L332.2,181.8 L332.5,181.8 L332.7,181.8 L333.0,182.0 L333.2,181.6 L333.4,181.2 L333.7,181.0 L333.9,181.0 
		L334.2,181.0 L334.4,181.6 L334.7,181.6 L334.9,181.6 L335.2,181.6 L335.4,182.5 L335.6,182.5 L335.9,182.7 
		L336.1,182.9 L336.4,182.8 L336.6,183.0 L336.9,183.2 L337.1,183.5 L337.3,183.5 L337.6,183.5 L337.8,183.1 
		L338.1,182.6 L338.3,182.2 L338.6,182.2 L338.8,182.5 L339.0,182.6 L339.3,182.6 L339.5,182.6 L339.8,182.7 
		L340.0,183.0 L340.3,183.0 L340.5,183.0 L340.7,183.2 L341.0,182.8 L341.2,182.6 L341.5,182.7 L341.7,182.8 
		L342.0,183.0 L342.2,183.0 L342.4,183.0 L342.7,183.5 L342.9,183.3 L343.2,183.1 L343.4,183.0 L343.7,182.9 
		L343.9,182.9 L344.2,183.2 L344.4,183.2 L344.6,183.8 L344.9,183.8 L345.1,183.8 L345.4,183.8 L345.6,184.2 
		L345.9,184.2 L346.1,184.2 L346.3,184.4 L346.6,184.4 L346.8,184.4 L347.1,184.8 L347.3,184.4 L347.6,184.2 
		L347.8,184.1 L348.0,184.4 L348.3,184.2 L348.5,184.1 L348.8,184.1 L349.0,184.2 L349.3,183.8 L349.5,183.4 
		L349.7,183.1 L350.0,183.1 L350.2,183.1 L350.5,183.6 L350.7,183.7 L351.0,183.7 L351.2,184.0 L351.4,184.0 
		L351.7,184.2 L351.9,184.2 L352.2,184.2 L352.4,184.5 L352.7,184.2 L352.9,183.8 L353.2,183.4 L353.4,183.3 
		L353.6,183.4 L353.9,183.4 L354.1,183.4 L354.4,183.9 L354.6,183.9 L354.9,183.9 L355.1,183.9 L355.3,183.9 
		L355.6,183.9 L355.8,184.9 L356.1,185.0 L356.3,184.9 L356.6,185.1 L356.8,185.0 L357.0,184.9 L357.3,184.7 
		L357.5,184.4 L357.8,184.3 L358.0,184.3 L358.3,184.3 L358.5,184.3 L358.7,184.8 L359.0,184.5 L359.2,184.5 
		L359.5,184.8 L359.7,184.9 L360.0,184.9 L360.2,185.2 L360.4,185.3 L360.7,185.3 L360.9,185.9 L361.2,185.9 
		L361.4,186.1 L361.7,186.1 L361.9,186.6 L362.2,186.6 L362.4,186.9 L362.6,187.2 L362.9,187.2 L363.1,187.3 
		L363.4,187.4 L363.6,187.4 L363.9,187.8 L364.1,188.0 L364.3,187.8 L364.6,187.3 L364.8,187.3 L365.1,187.4 
		L365.3,187.0 L365.6,186.4 L365.8,185.9 L366.0,185.9 L366.3,185.9 L366.5,185.9 L366.8,186.1 L367.0,186.1 
		L367.3,186.0 L367.5,185.9 L367.7,185.9 L368.0,185.9 L368.2,186.2 L368.5,186.1 L368.7,185.9 L369.0,185.4 
		L369.2,185.0 L369.4,184.9 L369.7,185.1 L369.9,184.9 L370.2,185.0 L370.4,185.1 L370.7,185.1 L370.9,185.5 
		L371.2,185.6 L371.4,185.6 L371.6,185.8 L371.9,185.6 L372.1,185.6 L372.4,185.8 L372.6,185.8 L372.9,186.2 
		L373.1,186.4 L373.3,186.4 L373.6,186.3 L373.8,186.2 L374.1,186.2 L374.3,186.3 L374.6,186.3 L374.8,186.6 
		L375.0,186.4 L375.3,186.1 L375.5,185.7 L375.8,185.6 L376.0,185.7 L376.3,185.7 L376.5,186.0 L376.7,186.0 
		L377.0,186.0 L377.2,186.6 L377.5,186.6 L377.7,186.8 L378.0,187.0 L378.2,186.8 L378.4,186.7 L378.7,186.6 
		L378.9,186.6 L379.2,186.7 L379.4,186.7 L379.7,187.0 L379.9,187.0 L380.2,187.0 L380.4,187.5 L380.6,187.7 
		L380.9,187.6 L381.1,187.5 L381.4,187.5 L381.6,187.5 L381.9,187.9 L382.1,188.0 L382.3,187.9 L382.6,187.9 
		L382.8,187.9 L383.1,188.3 L383.3,188.3 L383.6,188.4 L383.8,188.4 L384.0,188.5 L384.3,188.5 L384.5,188.7 
		L384.8,189.0 L385.0,188.7 L385.3,188.2 L385.5,188.2 L385.7,188.2 L386.0,188.2 L386.2,188.4 L386.5,188.3 
		L386.7,188.3 L387.0,188.5 L387.2,188.4 L387.4,188.3 L387.7,188.3 L387.9,188.6 L388.2,188.6 L388.4,188.6 
		L388.7,188.4 L388.9,188.5 L389.2,188.6 L389.4,188.8 L389.6,188.9 L389.9,188.8 L390.1,188.9 L390.4,188.9 
		L390.6,188.9 L390.9,189.2 L391.1,189.2 L391.3,189.2 L391.6,189.4 L391.8,189.5 L392.1,189.5 L392.3,189.4 
		L392.6,189.2 L392.8,189.3 L393.0,189.3 L393.3,189.6 L393.5,189.6 L393.8,189.5 L394.0,189.4 L394.3,189.2 
		L394.5,189.1 L394.7,189.1 L395.0,189.1 L395.2,189.2 L395.5,189.1 L395.7,189.1 L396.0,189.1 L396.2,189.3 
		L396.4,189.4 L396.7,189.4 L396.9,189.4 L397.2,189.9 L397.4,190.0 L397.7,190.0 L397.9,190.1 L398.2,190.1 
		L398.4,190.1 L398.6,190.1 L398.9,190.1 L399.1,190.1 L399.4,190.1 L399.6,191.1 L399.9,191.1 L400.1,191.1 
		L400.3,191.0 L400.6,191.1 L400.8,191.3 L401.1,191.3 L401.3,191.3 L401.6,191.3 L401.8,191.9 L402.0,192.2 
		L402.3,192.2 L402.5,192.2 L402.8,192.6 L403.0,192.6 L403.3,192.6 L403.5,193.1 L403.7,193.2 L404.0,193.2 
		L404.2,193.1 L404.5,193.1 L404.7,193.2 L405.0,192.9 L405.2,192.8 L405.4,192.9 L405.7,193.1 L405.9,193.2 
		L406.2,193.4 L406.4,193.4 L406.7,193.4 L406.9,193.4 L407.2,194.0 L407.4,194.0 L407.6,194.2 L407.9,194.2 
		L408.1,194.2 L408.4,194.6 L408.6,194.2 L408.9,193.7 L409.1,193.4 L409.3,193.3 L409.6,193.3 L409.8,192.9 
		L410.1,192.6 L410.3,192.6 L410.6,192.5 L410.8,192.6 L411.0,192.2 L411.3,191.8 L411.5,191.6 L411.8,191.8 
		L412.0,191.6 L412.3,191.2 L412.5,190.9 L412.7,190.8 L413.0,190.8 L413.2,190.8 L413.5,191.3 L413.7,191.3 
		L414.0,191.5 L414.2,191.5 L414.5,191.7 L414.7,192.0 L414.9,192.0 L415.2,192.0 L415.4,192.2 L415.7,192.1 
		L415.9,192.0 L416.2,191.9 L416.4,191.9 L416.6,192.0 L416.9,192.1 L417.1,192.1 L417.4,192.1 L417.6,192.5 
		L417.9,192.6 L418.1,192.6 L418.3,192.7 L418.6,192.9 L418.8,193.0 L419.1,193.1 L419.3,193.1 L419.6,193.1 
		L419.8,193.1 L420.0,193.1 L420.3,193.1 L420.5,193.1 L420.8,194.0 L421.0,193.8 L421.3,193.5 L421.5,193.1 
		L421.7,192.8 L422.0,192.7 L422.2,192.5 L422.5,192.5 L422.7,192.6 L423.0,192.8 L423.2,192.8 L423.5,193.1 
		L423.7,193.1 L423.9,193.0 L424.2,193.1 L424.4,193.1 L424.7,193.2 L424.9,193.2 L425.2,193.2 L425.4,193.2 
		L425.6,193.9 L425.9,193.9 L426.1,194.1 L426.4,194.2 L426.6,194.1 L426.9,194.0 L427.1,194.0 L427.3,194.5 
		L427.6,194.5 L427.8,194.6 L428.1,194.1 L428.3,193.7 L428.6,193.4 L428.8,193.5 L429.0,193.2 L429.3,193.2 
		L429.5,193.2 L429.8,193.6 L430.0,193.6 L430.3,193.4 L430.5,193.2 L430.7,193.2 L431.0,193.3 L431.2,193.2 
		L431.5,193.1 L431.7,193.0 L432.0,193.0 L432.2,193.2 L432.5,193.2 L432.7,193.4 L432.9,193.3 L433.2,192.8 
		L433.4,192.4 L433.7,192.1 L433.9,191.8 L434.2,191.8 L434.4,191.9 L434.6,191.9 L434.9,191.9 L435.1,191.9 
		L435.4,191.9 L435.6,192.6 L435.9,192.5 L436.1,192.6 L436.3,192.8 L436.6,192.8 L436.8,192.9 L437.1,192.9 
		L437.3,193.1 L437.6,193.1 L437.8,192.8 L438.0,192.6 L438.3,192.2 L438.5,191.8 L438.8,191.4 L439.0,191.3 
		L439.3,191.3 L439.5,191.3 L439.7,191.8 L440.0,191.9 L440.2,192.1 L440.5,192.2 L440.7,192.2 L441.0,192.1 
		L441.2,191.8 L441.5,191.8 L441.7,191.9 L441.9,191.8 L442.2,191.7 L442.4,191.8 L442.7,191.8 L442.9,192.1 
		L443.2,192.3 L443.4,192.2 L443.6,192.1 L443.9,192.1 L444.1,192.2 L444.4,192.2 L444.6,192.6 L444.9,192.7 
		L445.1,192.8 L445.3,192.7 L445.6,192.6 L445.8,192.5 L446.1,192.5 L446.3,192.4 L446.6,192.4 L446.8,192.6 
		L447.0,192.7 L447.3,192.8 L447.5,192.8 L447.8,192.8 L448.0,192.8 L448.3,192.8 L448.5,193.5 L448.7,193.2 
		L449.0,193.0 L449.2,193.0 L449.5,193.0 L449.7,193.4 L450.0,193.4 L450.2,193.4 L450.5,193.4 L450.7,193.5 
		L450.9,193.6 L451.2,193.7 L451.4,193.8 L451.7,193.8 L451.9,194.0 L452.2,194.2 L452.4,194.1 L452.6,194.1 
		L452.9,194.3 L453.1,194.3 L453.4,194.4 L453.6,194.3 L453.9,194.2 L454.1,194.3 L454.3,194.3 L454.6,194.6 
		L454.8,194.6 L455.1,194.6 L455.3,194.8 L455.6,194.4 L455.8,194.0 L456.0,193.7 L456.3,193.3 L456.5,192.9 
		L456.8,192.5 L457.0,192.2 L457.3,192.1 L457.5,192.1 L457.7,192.1 L458.0,192.1 L458.2,192.7 L458.5,192.8 
		L458.7,192.8 L459.0,192.8 L459.2,192.9 L459.5,192.9 L459.7,192.9 L459.9,192.8 L460.2,192.9 L460.4,193.0 
		L460.7,193.1 L460.9,193.0 L461.2,192.8 L461.4,192.8 L461.6,192.8 L461.9,193.1 L462.1,193.1 L462.4,193.1 
		L462.6,193.1 L462.9,193.1 L463.1,193.7 L463.3,193.7 L463.6,193.9 L463.8,193.9 L464.1,194.1 L464.3,193.7 
		L464.6,193.5 L464.8,193.4 L465.0,193.5 L465.3,193.2 L465.5,192.9 L465.8,192.8 L466.0,192.8 L466.3,192.4 
		L466.5,192.0 L466.7,191.8 L467.0,191.8 L467.2,192.0 L467.5,192.1 L467.7,192.3 L468.0,192.2 L468.2,192.2 
		L468.5,192.0 L468.7,191.7 L468.9,191.8 L469.2,191.9 L469.4,191.9 L469.7,192.1 L469.9,191.8 L470.2,191.6 
		L470.4,191.7 L470.6,191.8 L470.9,191.8 L471.1,191.9 L471.4,192.0 L471.6,192.0 L471.9,192.0 L472.1,192.3 
		L472.3,192.4 L472.6,192.5 L472.8,192.5 L473.1,192.8 L473.3,192.7 L473.6,192.7 L473.8,192.7 L474.0,192.7 
		L474.3,192.7 L474.5,192.7 L474.8,193.1 L475.0,192.8 L475.3,192.5 L475.5,192.5 L475.7,192.6 L476.0,192.6 
		L476.2,192.7 L476.5,192.7 L476.7,192.7 L477.0,192.7 L477.2,192.7 L477.5,193.4 L477.7,193.4 L477.9,193.4 
		L478.2,193.4 L478.4,193.4 L478.7,193.4 L478.9,193.4 L479.2,194.1 L479.4,194.2 L479.6,194.3 L479.9,194.5 
		L480.1,194.3 L480.4,194.3 L480.6,194.4 L480.9,194.4 L481.1,194.7 L481.3,194.6 L481.6,194.4 L481.8,194.2 
		L482.1,194.0 L482.3,193.6 L482.6,193.2 L482.8,193.1 L483.0,193.1 L483.3,193.1 L483.5,193.3 L483.8,193.3 
		L484.0,193.3 L484.3,193.7 L484.5,193.7 L484.7,193.8 L485.0,193.5 L485.2,193.5 L485.5,193.5 L485.7,193.7 
		L486.0,193.6 L486.2,193.6 L486.5,193.5 L486.7,193.5 L486.9,193.5 L487.2,193.5 L487.4,193.6 L487.7,193.7 
		L487.9,193.6 L488.2,193.6 L488.4,193.6 L488.6,193.7 L488.9,193.7 L489.1,193.7 L489.4,193.7 L489.6,194.0 
		L489.9,194.1 L490.1,194.2 L490.3,194.2 L490.6,194.2 L490.8,194.2 L491.1,194.2 L491.3,194.0 L491.6,193.8 
		L491.8,193.6 L492.0,193.5 L492.3,193.5 L492.5,193.5 L492.8,193.1 L493.0,192.8 L493.3,192.7 L493.5,192.8 
		L493.7,192.9 L494.0,192.9 L494.2,192.9 L494.5,193.0 L494.7,193.0 L495.0,193.0 L495.2,193.0 L495.5,193.0 
		L495.7,193.0 L495.9,193.2 L496.2,193.2 L496.4,193.4 L496.7,193.4 L496.9,193.4 L497.2,193.8 L497.4,193.8 
		L497.6,193.8 L497.9,193.8 L498.1,193.8 L498.4,193.8 L498.6,193.8 L498.9,193.8 L499.1,193.8 L499.3,195.0 
		L499.6,195.0 L499.8,195.0 L500.1,195.0 L500.3,195.0 L500.6,194.7 L500.8,194.5 L501.0,194.4 L501.3,194.6 
		L501.5,194.6 L501.8,194.6 L502.0,194.4 L502.3,194.4 L502.5,194.5 L502.7,194.4 L503.0,194.4 L503.2,194.4 
		L503.5,194.5 L503.7,194.6 L504.0,194.4 L504.2,194.2 L504.5,194.0 L504.7,193.8 L504.9,193.5 L505.2,193.5 
		L505.4,193.6 L505.7,193.6 L505.9,193.6 L506.2,193.6 L506.4,193.6 L506.6,193.6 L506.9,193.6 L507.1,193.6 
		L507.4,194.7 L507.6,194.7 L507.9,194.9 L508.1,194.9 L508.3,194.8 L508.6,194.6 L508.8,194.3 L509.1,194.0 
		L509.3,193.8 L509.6,193.8 L509.8,193.8 L510.0,193.9 L510.3,193.9 L510.5,193.9 L510.8,193.8 L511.0,193.8 
		L511.3,193.8 L511.5,193.8 L511.8,193.9 L512.0,193.9 L512.2,194.0 L512.5,194.0 L512.7,194.1 L513.0,194.0 
		L513.2,194.0 L513.5,194.1 L513.7,194.1 L513.9,194.3 L514.2,194.4 L514.4,194.5 L514.7,194.5 L514.9,194.8 
		L515.2,194.8 L515.4,194.9 L515.6,194.9 L515.9,195.0 L516.1,195.0 L516.4,195.0 L516.6,195.0 L516.9,195.2 
		L517.1,195.1 L517.3,195.0 L517.6,195.0 L517.8,195.2 L518.1,195.0 L518.3,195.0 L518.6,195.0 L518.8,195.1 
		L519.0,195.1 L519.3,195.2 L519.5,195.2 L519.8,195.4 L520.0,195.2 L520.3,195.2 L520.5,195.2 L520.8,195.1 
		L521.0,194.9 L521.2,195.0 L521.5,195.0 L521.7,194.9 L522.0,194.9 L522.2,195.0 L522.5,194.8 L522.7,194.7 
		L522.9,194.7 L523.2,194.8 L523.4,194.7 L523.7,194.7 L523.9,194.9 L524.2,195.0 L524.4,195.0 L524.6,195.3 
		L524.9,195.1 L525.1,195.0 L525.4,195.1 L525.6,195.2 L525.9,195.1 L526.1,194.9 L526.3,194.6 L526.6,194.6 
		L526.8,194.8 L527.1,194.7 L527.3,194.6 L527.6,194.7 L527.8,194.8 L528.0,195.0 L528.3,195.0 L528.5,195.1 
		L528.8,194.9 L529.0,194.9 L529.3,194.9 L529.5,195.2 L529.8,195.2 L530.0,195.3 L530.2,195.3 L530.5,195.3 
		L530.7,195.2 L531.0,195.2 L531.2,195.3 L531.5,195.4 L531.7,195.4 L531.9,195.4 L532.2,195.4 L532.4,195.9 
		L532.7,195.9 L532.9,195.9 L533.2,195.9 L533.4,195.9 L533.6,195.9 L533.9,195.9 L534.1,195.9 L534.4,196.5 
		L534.6,196.5 L534.9,196.6 L535.1,196.6 L535.3,196.6 L535.6,197.0 L535.8,196.9 L536.1,196.6 L536.3,196.7 
		L536.6,196.8 L536.8,196.7 L537.0,196.7 L537.3,196.7 L537.5,196.8 L537.8,196.8 L538.0,196.7 L538.3,196.7 
		L538.5,196.7 L538.8,197.1 L539.0,197.1 L539.2,197.1 L539.5,197.2 L539.7,197.3 L540.0,197.3 L540.2,197.2 
		L540.5,197.1 L540.7,197.1 L540.9,197.1 L541.2,197.1 L541.4,197.1 L541.7,197.1 L541.9,197.3 L542.2,197.4 
		L542.4,197.4 L542.6,197.5 L542.9,197.4 L543.1,197.4 L543.4,197.5 L543.6,197.5 L543.9,197.5 L544.1,197.8 
		L544.3,197.8 L544.6,197.8 L544.8,198.0 L545.1,198.0 L545.3,198.2 L545.6,198.3 L545.8,198.3 L546.0,198.3 
		L546.3,198.3 L546.5,198.8 L546.8,198.7 L547.0,198.4 L547.3,198.2 L547.5,198.1 L547.8,198.1 L548.0,198.1 
		L548.2,198.2 L548.5,198.2 L548.7,198.1 L549.0,198.0 L549.2,198.1 L549.5,198.1 L549.7,198.1 L549.9,198.1 
		L550.2,198.5 L550.4,198.6 L550.7,198.6 L550.9,198.9 L551.2,198.9 L551.4,199.0 L551.6,199.0 L551.9,199.3 
		L552.1,199.2 L552.4,199.2 L552.6,199.2 L552.9,199.0 L553.1,198.7 L553.3,198.7 L553.6,198.8 L553.8,198.8 
		L554.1,198.8 L554.3,198.8 L554.6,198.8 L554.8,199.3 L555.0,199.3 L555.3,199.3 L555.5,199.6 L555.8,199.5 
		L556.0,199.5 L556.3,199.6 L556.5,199.5 L556.8,199.3 L557.0,199.3 L557.2,199.4 L557.5,199.2 L557.7,199.2 
		L558.0,199.4 L558.2,199.4 L558.5,199.4 L558.7,199.5 L558.9,199.5 L559.2,199.6 L559.4,199.6 L559.7,199.7 
		L559.9,199.5 L560.2,199.3 L560.4,199.1 L560.6,199.2 L560.9,199.2 L561.1,199.1 L561.4,199.1 L561.6,199.1 
		L561.9,199.0 L562.1,199.0 L562.3,199.0 L562.6,199.2 L562.8,199.1 L563.1,199.0 L563.3,198.9 L563.6,198.6 
		L563.8,198.5 L564.0,198.3 L564.3,198.2 L564.5,198.3 L564.8,198.4 L565.0,198.5 L565.3,198.5 L565.5,198.6 
		L565.8,198.6 L566.0,198.7 L566.2,198.7 L566.5,198.7 L566.7,198.7 L567.0,199.1 L567.2,199.1 L567.5,199.1 
		L567.7,199.3 L567.9,199.3 L568.2,199.3 L568.4,199.6 L568.7,199.7 L568.9,199.8 L569.2,199.8 L569.4,199.8 
		L569.6,199.8 L569.9,199.8 L570.1,199.8 L570.4,200.3 L570.6,200.3 L570.9,200.3 L571.1,200.6 L571.3,200.6 
		L571.6,200.6 L571.8,200.6 L572.1,200.6 L572.3,200.6 L572.6,200.6 L572.8,200.6 L573.0,201.3 L573.3,201.1 
		L573.5,201.0 L573.8,201.1 L574.0,201.2 L574.3,201.3 L574.5,201.3 L574.8,201.3 L575.0,201.1  h0.01'/></g>
	</g>
<g style="fill:none; color:black; stroke:currentColor; stroke-width:1.00; stroke-linecap:butt; stroke-linejoin:miter">
	<path  d='M88.5,54.1 L88.5,422.4 L575.0,422.4 L575.0,54.1 L88.5,54.1 Z  h0.01'/></g>
</g>
</svg>

